(footprint "AMS_TSL25911FN" (version 20221018) (generator pcbnew)
  (layer "F.Cu")
  (descr "DFN, 6 Pin (https://ams.com/documents/20143/9331680/TSL2591_DS000338_7-00.pdf), generated with kicad-footprint-generator ipc_noLead_generator.py")
  (tags "DFN NoLead")
  (attr smd)
  (fp_text reference "REF**" (at 0 -2.15) (layer "F.SilkS")
      (effects (font (size 1 1) (thickness 0.15)))
    (tstamp 82db9c1c-ea51-4839-b52f-d9490f0a5a15)
  )
  (fp_text value "AMS_TSL25911FN" (at 0 2.15) (layer "F.Fab")
      (effects (font (size 1 1) (thickness 0.15)))
    (tstamp 01db3f93-0d3e-4c9e-b4cb-825626ddec2a)
  )
  (fp_text user "${REFERENCE}" (at 0 0 90) (layer "F.Fab")
      (effects (font (size 0.6 0.6) (thickness 0.09)))
    (tstamp 351c95e7-e263-4bf5-b5a7-b0b75c92239c)
  )
  (fp_line (start -1 1.31) (end 1 1.31)
    (stroke (width 0.12) (type solid)) (layer "F.SilkS") (tstamp 5641e3ce-f0b2-46ed-bc51-9f372fdf739c))
  (fp_line (start 0 -1.31) (end 1 -1.31)
    (stroke (width 0.12) (type solid)) (layer "F.SilkS") (tstamp 0c5fdb68-e362-4405-a4fa-23908749e3f7))
  (fp_line (start -0.0889 0.1905) (end -0.0635 0.2413)
    (stroke (width 0.05) (type default)) (layer "Cmts.User") (tstamp 057fd846-fc58-4c19-ac35-ae6a5d3f6824))
  (fp_line (start -0.0762 0.3556) (end -0.0762 0.5588)
    (stroke (width 0.05) (type default)) (layer "Cmts.User") (tstamp f4373e5f-7f43-49e9-a841-d46312512c36))
  (fp_line (start -0.0762 0.4572) (end -0.1778 0.4572)
    (stroke (width 0.05) (type default)) (layer "Cmts.User") (tstamp c805d7e4-2763-4e3b-b4fd-a6922b43e2df))
  (fp_line (start -0.0762 0.4572) (end 0.0508 0.3556)
    (stroke (width 0.05) (type default)) (layer "Cmts.User") (tstamp 45dc0ff0-bf70-4b4a-85dd-9321acc08a2d))
  (fp_line (start -0.0635 0.2413) (end -0.0127 0.2159)
    (stroke (width 0.05) (type default)) (layer "Cmts.User") (tstamp 2005534c-48ac-4439-aea4-92979eface87))
  (fp_line (start -0.0127 0.1143) (end -0.0635 0.2413)
    (stroke (width 0.05) (type default)) (layer "Cmts.User") (tstamp 5462c0d4-82e9-4fea-a40a-d01be0ad551d))
  (fp_line (start -0.0127 0.2159) (end -0.0889 0.1905)
    (stroke (width 0.05) (type default)) (layer "Cmts.User") (tstamp 371c13cb-79a5-4646-9303-1dd5f481ee59))
  (fp_line (start 0.0508 0.3556) (end 0.0508 0.5588)
    (stroke (width 0.05) (type default)) (layer "Cmts.User") (tstamp 58b5d0de-48f0-4d63-947e-0746f8f91862))
  (fp_line (start 0.0508 0.4572) (end 0.1778 0.4572)
    (stroke (width 0.05) (type default)) (layer "Cmts.User") (tstamp 00c1c354-3d45-4a68-b892-8042026963c5))
  (fp_line (start 0.0508 0.5588) (end -0.0762 0.4572)
    (stroke (width 0.05) (type default)) (layer "Cmts.User") (tstamp 57f11bb1-93d4-4b91-8d9b-e0c514eeb5e9))
  (fp_line (start 0.0635 0.2159) (end 0.0889 0.2667)
    (stroke (width 0.05) (type default)) (layer "Cmts.User") (tstamp 6535b885-36cd-4c2a-9750-fffde2fbacef))
  (fp_line (start 0.0889 0.2667) (end 0.1397 0.2413)
    (stroke (width 0.05) (type default)) (layer "Cmts.User") (tstamp 8ba1d236-c28d-4213-9f14-ad1ae3405025))
  (fp_line (start 0.1397 0.1397) (end 0.0889 0.2667)
    (stroke (width 0.05) (type default)) (layer "Cmts.User") (tstamp 6f8afe9a-7800-4db1-959b-b8784cfa7e59))
  (fp_line (start 0.1397 0.2413) (end 0.0635 0.2159)
    (stroke (width 0.05) (type default)) (layer "Cmts.User") (tstamp 0b3de4b8-8037-4fd4-8827-fb1893abdc36))
  (fp_rect (start -0.401 0.012) (end 0.401 0.728)
    (stroke (width 0.1) (type default)) (fill none) (layer "Cmts.User") (tstamp 2ff6834c-cd7b-4ff0-886b-7110f483ba6f))
  (fp_line (start -1.33 -1.45) (end -1.33 1.45)
    (stroke (width 0.05) (type solid)) (layer "F.CrtYd") (tstamp 608c56ef-940f-4c59-b130-1ea77411636d))
  (fp_line (start -1.33 1.45) (end 1.33 1.45)
    (stroke (width 0.05) (type solid)) (layer "F.CrtYd") (tstamp 02a9896a-ae16-471e-b13e-1bdbeeb057e2))
  (fp_line (start 1.33 -1.45) (end -1.33 -1.45)
    (stroke (width 0.05) (type solid)) (layer "F.CrtYd") (tstamp a0c2d710-1201-4292-85ff-907f8e36ad39))
  (fp_line (start 1.33 1.45) (end 1.33 -1.45)
    (stroke (width 0.05) (type solid)) (layer "F.CrtYd") (tstamp 4024d437-8165-48cc-aa4d-8320cf9afb90))
  (fp_line (start -1 -0.7) (end -0.5 -1.2)
    (stroke (width 0.1) (type solid)) (layer "F.Fab") (tstamp 7e818d92-ad83-4110-a9f2-8ecd94cdf599))
  (fp_line (start -1 1.2) (end -1 -0.7)
    (stroke (width 0.1) (type solid)) (layer "F.Fab") (tstamp 26c55be4-961a-4a8f-9b1e-3afda5e26a1d))
  (fp_line (start -0.5 -1.2) (end 1 -1.2)
    (stroke (width 0.1) (type solid)) (layer "F.Fab") (tstamp a1f6f528-fba2-423b-95fc-dd3e99e36d5a))
  (fp_line (start 1 -1.2) (end 1 1.2)
    (stroke (width 0.1) (type solid)) (layer "F.Fab") (tstamp 2944fa3e-3999-4647-85c1-0c03713969f7))
  (fp_line (start 1 1.2) (end -1 1.2)
    (stroke (width 0.1) (type solid)) (layer "F.Fab") (tstamp ac8c9104-2db2-4e81-9ed9-b5c3dfed5f6a))
  (pad "1" smd roundrect (at -0.6375 -0.65) (size 0.875 0.4) (layers "F.Cu" "F.Paste" "F.Mask") (roundrect_rratio 0.25) (tstamp ba551a91-739d-431a-8257-70481416119a))
  (pad "2" smd roundrect (at -0.6375 0) (size 0.875 0.4) (layers "F.Cu" "F.Paste" "F.Mask") (roundrect_rratio 0.25) (tstamp e7cb256e-6175-4aa0-9815-dac4bc86c352))
  (pad "3" smd roundrect (at -0.6375 0.65) (size 0.875 0.4) (layers "F.Cu" "F.Paste" "F.Mask") (roundrect_rratio 0.25) (tstamp 43c4df8d-d2a9-410e-9b35-6b3df552a6c6))
  (pad "4" smd roundrect (at 0.6375 0.65) (size 0.875 0.4) (layers "F.Cu" "F.Paste" "F.Mask") (roundrect_rratio 0.25) (tstamp ac434085-3f76-4eeb-b2e1-1fd8a91b6b50))
  (pad "5" smd roundrect (at 0.6375 0) (size 0.875 0.4) (layers "F.Cu" "F.Paste" "F.Mask") (roundrect_rratio 0.25) (tstamp 7eb72530-09f1-4f78-a882-d54ab51fc4e8))
  (pad "6" smd roundrect (at 0.6375 -0.65) (size 0.875 0.4) (layers "F.Cu" "F.Paste" "F.Mask") (roundrect_rratio 0.25) (tstamp f92ae6cb-7538-42c4-8fff-d9917c7f4d4c))
  (model "${KICAD7_3DMODEL_DIR}/OptoDevice.3dshapes/DFN-6_2x2.4mm_P0.65mm.wrl"
    (offset (xyz 0 0 0))
    (scale (xyz 1 1 1))
    (rotate (xyz 0 0 0))
  )
)
