(footprint "SOT-665" (version 20221018) (generator pcbnew)
  (layer "F.Cu")
  (descr "SOT665")
  (tags "SOT-665")
  (attr smd)
  (fp_text reference "REF**" (at 0 -1.75) (layer "F.SilkS")
      (effects (font (size 1 1) (thickness 0.15)))
    (tstamp cde73d0b-a267-4204-9998-2808e395a106)
  )
  (fp_text value "SOT-665" (at 0 1.75 180) (layer "F.Fab")
      (effects (font (size 1 1) (thickness 0.15)))
    (tstamp b4f0d4b6-f2bd-4e71-8182-60bf04227ccd)
  )
  (fp_text user "${REFERENCE}" (at 0 0 90) (layer "F.Fab")
      (effects (font (size 0.5 0.5) (thickness 0.075)))
    (tstamp 3845e7c7-28d7-4a7f-ad83-5d9cafa6c640)
  )
  (fp_line (start -0.8 0.9) (end 0.8 0.9)
    (stroke (width 0.12) (type solid)) (layer "F.SilkS") (tstamp 373ba22f-aa68-461e-85db-eb870b8b1529))
  (fp_line (start 0.8 -0.9) (end -1.1 -0.9)
    (stroke (width 0.12) (type solid)) (layer "F.SilkS") (tstamp 9652ad42-c990-44ac-afcf-f2ac82eb97cc))
  (fp_line (start -1.5 -1.1) (end -1.5 1.1)
    (stroke (width 0.05) (type solid)) (layer "F.CrtYd") (tstamp eab2214e-010e-4a34-936c-62506eb7b3cc))
  (fp_line (start -1.5 -1.1) (end 1.4 -1.1)
    (stroke (width 0.05) (type solid)) (layer "F.CrtYd") (tstamp 4f82bf70-99bc-4525-8dea-9f6b8e6f2031))
  (fp_line (start -1.5 1.1) (end 1.4 1.1)
    (stroke (width 0.05) (type solid)) (layer "F.CrtYd") (tstamp b51199d7-c2d2-45b9-87cf-5f0ef180232c))
  (fp_line (start 1.4 1.1) (end 1.4 -1.1)
    (stroke (width 0.05) (type solid)) (layer "F.CrtYd") (tstamp 149a89d7-306e-4a4e-b670-ef9686e6b7ab))
  (fp_line (start -0.65 -0.53) (end -0.33 -0.85)
    (stroke (width 0.1) (type solid)) (layer "F.Fab") (tstamp caa6803e-93f3-4691-a0f9-888be22ca0e2))
  (fp_line (start -0.65 -0.51) (end -0.65 0.85)
    (stroke (width 0.1) (type solid)) (layer "F.Fab") (tstamp 4ea46a2a-34d3-4e9a-b053-4b94a3fb3a90))
  (fp_line (start 0.65 -0.85) (end -0.33 -0.85)
    (stroke (width 0.1) (type solid)) (layer "F.Fab") (tstamp cca175fd-0413-4d30-97bf-5fb065dda793))
  (fp_line (start 0.65 -0.85) (end 0.65 0.85)
    (stroke (width 0.1) (type solid)) (layer "F.Fab") (tstamp 1629bebf-baf5-4eb0-8100-4e8d98db841d))
  (fp_line (start 0.65 0.85) (end -0.65 0.85)
    (stroke (width 0.1) (type solid)) (layer "F.Fab") (tstamp 9816f3b3-cf11-42ab-b828-f475dfd8b1dd))
  (pad "1" smd rect (at -0.85 -0.54) (size 0.5 0.38) (layers "F.Cu" "F.Paste" "F.Mask") (tstamp bd236591-cfe4-4209-b232-c4c5cdf06447))
  (pad "2" smd rect (at -0.93 0) (size 0.65 0.3) (layers "F.Cu" "F.Paste" "F.Mask") (tstamp 0252f5f3-13d4-41be-86f6-5497196c723c))
  (pad "3" smd rect (at -0.85 0.54) (size 0.5 0.38) (layers "F.Cu" "F.Paste" "F.Mask") (tstamp 37847f03-8dec-4c13-8afe-3fcc14af6a32))
  (pad "4" smd rect (at 0.85 0.54) (size 0.5 0.38) (layers "F.Cu" "F.Paste" "F.Mask") (tstamp cd2542ac-0e08-4019-8087-a6a7a8de364d))
  (pad "5" smd rect (at 0.85 -0.54) (size 0.5 0.38) (layers "F.Cu" "F.Paste" "F.Mask") (tstamp 595c297c-f422-4084-b0a0-bce33100708d))
  (model "${KICAD6_3DMODEL_DIR}/Package_TO_SOT_SMD.3dshapes/SOT-665.wrl"
    (offset (xyz 0 0 0))
    (scale (xyz 1 1 1))
    (rotate (xyz 0 0 0))
  )
)
