(footprint "SOT-223-5" (version 20221018) (generator pcbnew)
  (layer "F.Cu")
  (descr "module CMS SOT223 5 pins, http://ww1.microchip.com/downloads/en/DeviceDoc/51751a.pdf")
  (tags "CMS SOT")
  (attr smd)
  (fp_text reference "REF**" (at 0.0625 -4.5) (layer "F.SilkS")
      (effects (font (size 1 1) (thickness 0.15)))
    (tstamp 051b6d71-1680-444b-9993-70bdfc8b7afe)
  )
  (fp_text value "SOT-223-5" (at 0.0625 4.5) (layer "F.Fab")
      (effects (font (size 1 1) (thickness 0.15)))
    (tstamp 4746762a-19a6-4712-b0cf-0484a8c66b0a)
  )
  (fp_text user "${REFERENCE}" (at 0 0 90) (layer "F.Fab")
      (effects (font (size 0.8 0.8) (thickness 0.12)))
    (tstamp fb53e34e-2172-45e7-bb4b-f5366f24f3dd)
  )
  (fp_line (start -4.0375 -3.41) (end 1.9725 -3.41)
    (stroke (width 0.12) (type solid)) (layer "F.SilkS") (tstamp dfe063bb-3740-4a23-bdb7-140435ea2c53))
  (fp_line (start -1.7875 3.41) (end 1.9725 3.41)
    (stroke (width 0.12) (type solid)) (layer "F.SilkS") (tstamp 67c83a61-ae0d-429a-8a3d-8a3c10836426))
  (fp_line (start 1.9725 -3.41) (end 1.9725 -2.15)
    (stroke (width 0.12) (type solid)) (layer "F.SilkS") (tstamp 05fdb74f-df59-4b1c-bb75-d28f3123df4f))
  (fp_line (start 1.9725 3.41) (end 1.9725 2.15)
    (stroke (width 0.12) (type solid)) (layer "F.SilkS") (tstamp 8355e531-bec1-4930-b5cb-360ea28efabf))
  (fp_line (start -4.4 -3.6) (end -4.4 3.6)
    (stroke (width 0.05) (type solid)) (layer "F.CrtYd") (tstamp 0b0b841c-3497-4824-a9b1-766ba60e3b5d))
  (fp_line (start -4.4 -3.6) (end 4.4 -3.6)
    (stroke (width 0.05) (type solid)) (layer "F.CrtYd") (tstamp 735d5e53-9618-45e0-885f-bbc170833ec5))
  (fp_line (start 4.4 3.6) (end -4.4 3.6)
    (stroke (width 0.05) (type solid)) (layer "F.CrtYd") (tstamp d68d202f-2c9e-46e1-a5bb-9b52396d132d))
  (fp_line (start 4.4 3.6) (end 4.4 -3.6)
    (stroke (width 0.05) (type solid)) (layer "F.CrtYd") (tstamp c4b58f6e-7903-4897-859b-a538722d0e33))
  (fp_line (start -1.7875 -2.3) (end -1.7875 3.35)
    (stroke (width 0.1) (type solid)) (layer "F.Fab") (tstamp cb66edd6-cbbc-4a49-85e5-588ece939fa1))
  (fp_line (start -1.7875 -2.3) (end -0.7375 -3.35)
    (stroke (width 0.1) (type solid)) (layer "F.Fab") (tstamp 0575cceb-6ca9-4a66-ba4a-292abd27137c))
  (fp_line (start -1.7875 3.35) (end 1.9125 3.35)
    (stroke (width 0.1) (type solid)) (layer "F.Fab") (tstamp 78656265-663a-4e03-836f-c3af726824ea))
  (fp_line (start -0.7375 -3.35) (end 1.9125 -3.35)
    (stroke (width 0.1) (type solid)) (layer "F.Fab") (tstamp 5d05bd82-c5ca-465b-aba5-767853531ebf))
  (fp_line (start 1.9125 -3.35) (end 1.9125 3.35)
    (stroke (width 0.1) (type solid)) (layer "F.Fab") (tstamp 3a7fcc82-3a13-4d1b-bd19-dfae87d58db5))
  (pad "1" smd rect (at -3.05 -2.25) (size 2.2 1) (layers "F.Cu" "F.Paste" "F.Mask") (tstamp 4dbfef25-e095-4c9a-8163-ceb30b1f025a))
  (pad "2" smd rect (at -3.05 -0.75) (size 2.2 1) (layers "F.Cu" "F.Paste" "F.Mask") (tstamp d1b47fde-5412-4b48-bf56-878c83390243))
  (pad "3" smd rect (at -3.05 0.75) (size 2.2 1) (layers "F.Cu" "F.Paste" "F.Mask") (tstamp b139bd37-9c28-457e-bc3a-917afad28895))
  (pad "4" smd rect (at -3.05 2.25) (size 2.2 1) (layers "F.Cu" "F.Paste" "F.Mask") (tstamp e0d93c69-5600-4d6a-abed-c9c822dde273))
  (pad "5" smd rect (at 3.25 0) (size 1.8 3.4) (layers "F.Cu" "F.Paste" "F.Mask") (tstamp 321fb324-0a80-403b-b172-80504767f6ab))
  (model "${KICAD6_3DMODEL_DIR}/Package_TO_SOT_SMD.3dshapes/SOT-223-5.wrl"
    (offset (xyz 0 0 0))
    (scale (xyz 1 1 1))
    (rotate (xyz 0 0 0))
  )
)
