(footprint "TO-263-4" (version 20221018) (generator pcbnew)
  (layer "F.Cu")
  (descr "TO-263/D2PAK/DDPAK SMD package, http://www.infineon.com/cms/en/product/packages/PG-TO263/PG-TO263-5-1/")
  (tags "D2PAK DDPAK TO-263 D2PAK-5 TO-263-5 SOT-426")
  (attr smd)
  (fp_text reference "REF**" (at 0 -6.65) (layer "F.SilkS")
      (effects (font (size 1 1) (thickness 0.15)))
    (tstamp 212702b5-6254-4c72-8495-b1fc3d64b4de)
  )
  (fp_text value "TO-263-4" (at 0 6.65) (layer "F.Fab")
      (effects (font (size 1 1) (thickness 0.15)))
    (tstamp 7580c321-86e9-452b-b777-ab2832d3e908)
  )
  (fp_text user "${REFERENCE}" (at 0 0) (layer "F.Fab")
      (effects (font (size 1 1) (thickness 0.15)))
    (tstamp a49167b4-4b0c-4939-8d3e-f748927606e5)
  )
  (fp_line (start -4.825 -5.2) (end -4.825 -4.25)
    (stroke (width 0.12) (type solid)) (layer "F.SilkS") (tstamp e06dbbaf-ca2e-4bf9-b9f9-94aabe140fbb))
  (fp_line (start -4.825 -4.25) (end -9.95 -4.25)
    (stroke (width 0.12) (type solid)) (layer "F.SilkS") (tstamp 3af064ff-a705-4254-a0cc-f2eec931e3fd))
  (fp_line (start -4.825 4.25) (end -5.925 4.25)
    (stroke (width 0.12) (type solid)) (layer "F.SilkS") (tstamp ce40f94b-20fb-49de-9c7c-3cd5b7589bca))
  (fp_line (start -4.825 5.2) (end -4.825 4.25)
    (stroke (width 0.12) (type solid)) (layer "F.SilkS") (tstamp 377141bc-53f2-493d-9557-72f1581a2c74))
  (fp_line (start -3.325 -5.2) (end -4.825 -5.2)
    (stroke (width 0.12) (type solid)) (layer "F.SilkS") (tstamp 2e0cd99e-678e-4cda-a74b-fe16e0ba70b7))
  (fp_line (start -3.325 5.2) (end -4.825 5.2)
    (stroke (width 0.12) (type solid)) (layer "F.SilkS") (tstamp aa0603f5-1af7-4843-a4e8-6b92e3fef203))
  (fp_line (start -10.2 -5.65) (end -10.2 5.65)
    (stroke (width 0.05) (type solid)) (layer "F.CrtYd") (tstamp 9f7ce2cc-3a93-4b43-a7e4-ef2d742ec7f7))
  (fp_line (start -10.2 5.65) (end 6.45 5.65)
    (stroke (width 0.05) (type solid)) (layer "F.CrtYd") (tstamp f52fbce3-85df-4de8-9117-57d25d561687))
  (fp_line (start 6.45 -5.65) (end -10.2 -5.65)
    (stroke (width 0.05) (type solid)) (layer "F.CrtYd") (tstamp 0c49be3e-6ccd-453b-b79e-50e8798f027c))
  (fp_line (start 6.45 5.65) (end 6.45 -5.65)
    (stroke (width 0.05) (type solid)) (layer "F.CrtYd") (tstamp 1c5ed38b-2beb-403c-8785-0a8ad4fea34e))
  (fp_line (start -9.325 -3.8) (end -9.325 -3)
    (stroke (width 0.1) (type solid)) (layer "F.Fab") (tstamp 51e3768d-3fbf-435c-90c3-85bed370dac4))
  (fp_line (start -9.325 -3) (end -4.625 -3)
    (stroke (width 0.1) (type solid)) (layer "F.Fab") (tstamp 03e23552-62b6-4465-9da3-a09c80196df6))
  (fp_line (start -9.325 -2.1) (end -9.325 -1.3)
    (stroke (width 0.1) (type solid)) (layer "F.Fab") (tstamp 52cf9033-944b-4be6-a6ea-3c195dd0c75f))
  (fp_line (start -9.325 -1.3) (end -4.625 -1.3)
    (stroke (width 0.1) (type solid)) (layer "F.Fab") (tstamp 39fa9c41-c28d-42a8-8840-f81e9f5c1bbe))
  (fp_line (start -9.325 1.3) (end -9.325 2.1)
    (stroke (width 0.1) (type solid)) (layer "F.Fab") (tstamp 6bfa9590-8711-4eff-96e0-0476e1d59fb6))
  (fp_line (start -9.325 2.1) (end -4.625 2.1)
    (stroke (width 0.1) (type solid)) (layer "F.Fab") (tstamp 60649936-bea4-4327-97fc-f9a5cb3dc476))
  (fp_line (start -9.325 3) (end -9.325 3.8)
    (stroke (width 0.1) (type solid)) (layer "F.Fab") (tstamp f520e1ff-bbb5-4371-b39a-162a5a290645))
  (fp_line (start -9.325 3.8) (end -4.625 3.8)
    (stroke (width 0.1) (type solid)) (layer "F.Fab") (tstamp 3ed5a33a-6e7a-46b9-9823-d1f514f27aa9))
  (fp_line (start -4.625 -4) (end -3.625 -5)
    (stroke (width 0.1) (type solid)) (layer "F.Fab") (tstamp f0b4a989-ea2a-4dda-9562-62bc74244225))
  (fp_line (start -4.625 -3.8) (end -9.325 -3.8)
    (stroke (width 0.1) (type solid)) (layer "F.Fab") (tstamp 69195051-b68e-4ae3-acd3-558d9a2a594a))
  (fp_line (start -4.625 -2.1) (end -9.325 -2.1)
    (stroke (width 0.1) (type solid)) (layer "F.Fab") (tstamp 1218f222-02ec-41d1-ab8e-2743cd3e8e25))
  (fp_line (start -4.625 1.3) (end -9.325 1.3)
    (stroke (width 0.1) (type solid)) (layer "F.Fab") (tstamp 9373c39b-83b0-4970-b3d5-325308d56f6c))
  (fp_line (start -4.625 3) (end -9.325 3)
    (stroke (width 0.1) (type solid)) (layer "F.Fab") (tstamp 6dd36d9b-5b46-490a-ba40-79e92063cf4b))
  (fp_line (start -4.625 5) (end -4.625 -4)
    (stroke (width 0.1) (type solid)) (layer "F.Fab") (tstamp 9f56f159-d57e-473a-8a09-98dbfec5a11d))
  (fp_line (start -3.625 -5) (end 4.625 -5)
    (stroke (width 0.1) (type solid)) (layer "F.Fab") (tstamp 3b37cceb-9983-422a-98cf-d6d5d4feb11a))
  (fp_line (start 4.625 -5) (end 4.625 5)
    (stroke (width 0.1) (type solid)) (layer "F.Fab") (tstamp 99a4ea62-31f7-4f95-94f2-883ce35da7d2))
  (fp_line (start 4.625 -5) (end 5.625 -5)
    (stroke (width 0.1) (type solid)) (layer "F.Fab") (tstamp 60dbb247-867a-4ac6-91ee-5e5e595b6ea9))
  (fp_line (start 4.625 5) (end -4.625 5)
    (stroke (width 0.1) (type solid)) (layer "F.Fab") (tstamp 7015fded-75ed-47a7-97c1-413535f9be84))
  (fp_line (start 5.625 -5) (end 5.625 5)
    (stroke (width 0.1) (type solid)) (layer "F.Fab") (tstamp f82d3e0e-6a74-4d19-b607-14f64f4fc14a))
  (fp_line (start 5.625 5) (end 4.625 5)
    (stroke (width 0.1) (type solid)) (layer "F.Fab") (tstamp 25b904e4-5bb4-4581-8c5c-8ee4f1712d62))
  (pad "1" smd roundrect (at -7.65 -3.4) (size 4.6 1.1) (layers "F.Cu" "F.Paste" "F.Mask") (roundrect_rratio 0.227273) (tstamp 705a2685-8466-49e6-9c35-1233cfd1c9e6))
  (pad "2" smd roundrect (at -7.65 -1.7) (size 4.6 1.1) (layers "F.Cu" "F.Paste" "F.Mask") (roundrect_rratio 0.227273) (tstamp c11d2312-f7d2-48bf-a158-b4f158772b81))
  (pad "3" smd roundrect (at -0.925 -2.775) (size 4.55 5.25) (layers "F.Cu" "F.Paste") (roundrect_rratio 0.054945) (tstamp 52f160ee-ba02-48b4-90cd-a228c3ce7b59))
  (pad "3" smd roundrect (at -0.925 2.775) (size 4.55 5.25) (layers "F.Cu" "F.Paste") (roundrect_rratio 0.054945) (tstamp 9c2bdabd-8395-40f1-9e91-c8d4f2049f69))
  (pad "3" smd roundrect (at 1.5 0) (size 9.4 10.8) (layers "F.Cu" "F.Mask") (roundrect_rratio 0.026596) (tstamp d58f6dcc-b020-4882-a541-a47223ba81a4))
  (pad "3" smd roundrect (at 3.925 -2.775) (size 4.55 5.25) (layers "F.Cu" "F.Paste") (roundrect_rratio 0.054945) (tstamp ae0b719b-4145-4e3d-8f9a-ae11a86398cf))
  (pad "3" smd roundrect (at 3.925 2.775) (size 4.55 5.25) (layers "F.Cu" "F.Paste") (roundrect_rratio 0.054945) (tstamp 2bea3ce4-d1e6-49b1-b8dd-20677242c4a2))
  (pad "4" smd roundrect (at -7.65 1.7) (size 4.6 1.1) (layers "F.Cu" "F.Paste" "F.Mask") (roundrect_rratio 0.227273) (tstamp 7b920eb0-7956-43ef-bfd5-a5d53c55ff97))
  (pad "5" smd roundrect (at -7.65 3.4) (size 4.6 1.1) (layers "F.Cu" "F.Paste" "F.Mask") (roundrect_rratio 0.227273) (tstamp 79f38e80-f211-41d0-a12d-06e283ba5470))
  (model "${KICAD6_3DMODEL_DIR}/Package_TO_SOT_SMD.3dshapes/TO-263-4.wrl"
    (offset (xyz 0 0 0))
    (scale (xyz 1 1 1))
    (rotate (xyz 0 0 0))
  )
)
