(footprint "TO-50-3_LongPad-WithHole_Housing" (version 20221018) (generator pcbnew)
  (layer "F.Cu")
  (descr "TO-50-3 Macro T Package Style M236")
  (tags "TO-50-3 Macro T Package Style M236")
  (attr smd)
  (fp_text reference "REF**" (at -0.675 -7.525) (layer "F.SilkS")
      (effects (font (size 1 1) (thickness 0.15)))
    (tstamp 5248f6d5-5277-442b-ba6c-cb887eb9421c)
  )
  (fp_text value "TO-50-3_LongPad-WithHole_Housing" (at 16.225 -0.1) (layer "F.Fab")
      (effects (font (size 1 1) (thickness 0.15)))
    (tstamp 40e47936-cde3-4200-841f-f53b26a777f9)
  )
  (fp_text user "${REFERENCE}" (at -0.7 -3.4) (layer "F.Fab")
      (effects (font (size 1 1) (thickness 0.15)))
    (tstamp 4bbd37a9-687d-44cc-af7f-bb0860dbf052)
  )
  (fp_line (start -11.3 -4.6) (end -3.9 -4.6)
    (stroke (width 0.05) (type solid)) (layer "F.CrtYd") (tstamp 7cc3edc8-c642-4b10-b98c-7cb4148f6ae1))
  (fp_line (start -11.3 -2.2) (end -11.3 -4.6)
    (stroke (width 0.05) (type solid)) (layer "F.CrtYd") (tstamp f485aef9-7d71-48f4-ae2f-bfd6093dc5d0))
  (fp_line (start -3.9 -4.6) (end -1.9 -6.6)
    (stroke (width 0.05) (type solid)) (layer "F.CrtYd") (tstamp 4612d230-2641-48e3-b22e-e0637e5eaa7b))
  (fp_line (start -3.9 -2.2) (end -11.3 -2.2)
    (stroke (width 0.05) (type solid)) (layer "F.CrtYd") (tstamp 1ec020e4-ea89-4e2d-8b7c-e43a19dc84fc))
  (fp_line (start -1.9 -6.6) (end 0.5 -6.6)
    (stroke (width 0.05) (type solid)) (layer "F.CrtYd") (tstamp 7c8ab0ce-9b31-4f38-8ac3-58ee3a6071b7))
  (fp_line (start -1.9 -0.2) (end -3.9 -2.2)
    (stroke (width 0.05) (type solid)) (layer "F.CrtYd") (tstamp e4ed9add-2ae3-464e-b76f-fd44210c997f))
  (fp_line (start -1.9 7.2) (end -1.9 -0.2)
    (stroke (width 0.05) (type solid)) (layer "F.CrtYd") (tstamp ca509164-e2a3-4d43-b521-69dd18b16de3))
  (fp_line (start 0.5 -6.6) (end 2.5 -4.6)
    (stroke (width 0.05) (type solid)) (layer "F.CrtYd") (tstamp e67b26ca-a11b-47ca-9527-79bb3210af24))
  (fp_line (start 0.5 -0.2) (end 0.5 7.2)
    (stroke (width 0.05) (type solid)) (layer "F.CrtYd") (tstamp 07b06267-4627-42e3-91a2-5ff8128af408))
  (fp_line (start 0.5 7.2) (end -1.9 7.2)
    (stroke (width 0.05) (type solid)) (layer "F.CrtYd") (tstamp 41e7dec5-db0a-48d7-8bfe-3e4d8318f6bf))
  (fp_line (start 2.5 -4.6) (end 13.1 -4.6)
    (stroke (width 0.05) (type solid)) (layer "F.CrtYd") (tstamp e0280835-cecd-47ff-bc91-d08c9a1f0013))
  (fp_line (start 2.5 -2.2) (end 0.5 -0.2)
    (stroke (width 0.05) (type solid)) (layer "F.CrtYd") (tstamp 3bfb7317-933e-4b0b-9e96-ee93d0bb5131))
  (fp_line (start 13.1 -4.6) (end 13.1 -2.2)
    (stroke (width 0.05) (type solid)) (layer "F.CrtYd") (tstamp fe9adce2-2d8e-4838-847f-92d061c79c2c))
  (fp_line (start 13.1 -2.2) (end 2.5 -2.2)
    (stroke (width 0.05) (type solid)) (layer "F.CrtYd") (tstamp ec57bce8-e917-4f7e-8249-258dfc978a30))
  (fp_circle (center -0.7 -3.4) (end -0.65 -5.95)
    (stroke (width 0.1) (type solid)) (fill none) (layer "F.Fab") (tstamp e8213d72-47bf-4f1b-acf2-663f9d33602e))
  (pad "" np_thru_hole circle (at -0.7 -3.4 270) (size 5.5 5.5) (drill 5.5) (layers "*.Cu" "*.Mask") (tstamp a991101d-8625-4713-b2be-fc8164578f67))
  (pad "1" smd rect (at -7.5 -3.4 270) (size 1.5 7) (layers "F.Cu" "F.Paste" "F.Mask") (tstamp 2684ace0-2510-4f7c-91a8-0836cdc773be))
  (pad "2" smd rect (at -0.7 3.4 270) (size 7 1.5) (layers "F.Cu" "F.Paste" "F.Mask") (tstamp f18e9169-f29c-43b8-a7d5-7805c9e093a6))
  (pad "3" smd rect (at 7.5 -3.4 270) (size 1.5 10) (layers "F.Cu" "F.Paste" "F.Mask") (tstamp a010f5b8-d07d-464c-bf34-2fb97dfed71c))
  (model "${KICAD6_3DMODEL_DIR}/Package_TO_SOT_SMD.3dshapes/TO-50-3_LongPad-WithHole_Housing.wrl"
    (offset (xyz 0 0 0))
    (scale (xyz 1 1 1))
    (rotate (xyz 0 0 0))
  )
)
