(footprint "HSOP-36-1EP_11.0x15.9mm_P0.65mm_SlugUp" (version 20221018) (generator pcbnew)
  (layer "F.Cu")
  (descr "HSOP 11.0x15.9mm Pitch 0.65mm Slug Up (PowerSO-36) [JEDEC MO-166] (http://www.st.com/resource/en/datasheet/vn808cm-32-e.pdf, http://www.st.com/resource/en/application_note/cd00003801.pdf)")
  (tags "HSOP 11.0 x 15.9mm Pitch 0.65mm")
  (attr smd)
  (fp_text reference "REF**" (at 0 -8.9) (layer "F.SilkS")
      (effects (font (size 1 1) (thickness 0.15)))
    (tstamp 8077556a-1055-43c5-a21a-5f39808df8c3)
  )
  (fp_text value "HSOP-36-1EP_11.0x15.9mm_P0.65mm_SlugUp" (at 0 8.9) (layer "F.Fab")
      (effects (font (size 1 1) (thickness 0.15)))
    (tstamp 30942833-b936-4721-bd39-8f01d2d35998)
  )
  (fp_text user "${REFERENCE}" (at 0 0) (layer "F.Fab")
      (effects (font (size 1 1) (thickness 0.15)))
    (tstamp b6597d1a-93a3-4f86-9318-8650f18471a1)
  )
  (fp_line (start -5.6 -8.05) (end -5.6 -6)
    (stroke (width 0.12) (type solid)) (layer "F.SilkS") (tstamp 4f989182-ffe8-4e69-ae49-0cf4d5fab24f))
  (fp_line (start -5.6 -6) (end -7.6 -6)
    (stroke (width 0.12) (type solid)) (layer "F.SilkS") (tstamp cafdc7f7-f970-42de-b7bd-808b3fa799c0))
  (fp_line (start -5.6 8.05) (end -5.6 6)
    (stroke (width 0.12) (type solid)) (layer "F.SilkS") (tstamp 2cc8fa34-0876-4192-8be6-3020b8678aef))
  (fp_line (start 5.6 -8.05) (end -5.6 -8.05)
    (stroke (width 0.12) (type solid)) (layer "F.SilkS") (tstamp 4d582389-a8b6-44ab-aadf-b83717a34089))
  (fp_line (start 5.6 -8.05) (end 5.6 -6)
    (stroke (width 0.12) (type solid)) (layer "F.SilkS") (tstamp 224f250d-563e-4f47-8d44-7b169a7800b2))
  (fp_line (start 5.6 8.05) (end -5.6 8.05)
    (stroke (width 0.12) (type solid)) (layer "F.SilkS") (tstamp c7647c66-809d-4818-b030-ad1b887d5656))
  (fp_line (start 5.6 8.05) (end 5.6 6)
    (stroke (width 0.12) (type solid)) (layer "F.SilkS") (tstamp 4107b6d4-87c2-4da0-9fad-acbfdce333d2))
  (fp_line (start -7.95 -8.2) (end -7.95 8.2)
    (stroke (width 0.05) (type solid)) (layer "F.CrtYd") (tstamp 9c84179b-8dc6-488d-99d2-17d87b0915f2))
  (fp_line (start -7.95 -8.2) (end 7.95 -8.2)
    (stroke (width 0.05) (type solid)) (layer "F.CrtYd") (tstamp 7bdba422-cb99-4753-a2d4-cf2197abc98f))
  (fp_line (start 7.95 8.2) (end -7.95 8.2)
    (stroke (width 0.05) (type solid)) (layer "F.CrtYd") (tstamp 2b0303d4-841c-4cea-b9b1-670408926d81))
  (fp_line (start 7.95 8.2) (end 7.95 -8.2)
    (stroke (width 0.05) (type solid)) (layer "F.CrtYd") (tstamp be8c7224-14d4-4bff-912b-be8eea23fc2f))
  (fp_line (start -5.5 -6.95) (end -5.5 7.95)
    (stroke (width 0.1) (type solid)) (layer "F.Fab") (tstamp f9e3ed3c-fc4d-475f-a15f-8462700ef763))
  (fp_line (start -5.5 7.95) (end 5.5 7.95)
    (stroke (width 0.1) (type solid)) (layer "F.Fab") (tstamp f878a527-9375-4224-a38b-de0e3bb4fa33))
  (fp_line (start -4.5 -7.95) (end -5.5 -6.95)
    (stroke (width 0.1) (type solid)) (layer "F.Fab") (tstamp 7b953778-c994-4b27-b733-21d21be6ae36))
  (fp_line (start 5.5 -7.95) (end -4.5 -7.95)
    (stroke (width 0.1) (type solid)) (layer "F.Fab") (tstamp 505f4cd9-1a6c-4101-a07e-94f27ec62ad3))
  (fp_line (start 5.5 7.95) (end 5.5 -7.95)
    (stroke (width 0.1) (type solid)) (layer "F.Fab") (tstamp 75575910-bf3f-4993-b8bd-88246d2e6fef))
  (pad "1" smd rect (at -6.85 -5.525) (size 1.7 0.38) (layers "F.Cu" "F.Paste" "F.Mask") (tstamp 50e21fc4-1736-45b5-808f-e5fe26e484d1))
  (pad "2" smd rect (at -6.85 -4.875) (size 1.7 0.38) (layers "F.Cu" "F.Paste" "F.Mask") (tstamp f26b37d4-8142-48bd-a47a-853a9c6a144f))
  (pad "3" smd rect (at -6.85 -4.225) (size 1.7 0.38) (layers "F.Cu" "F.Paste" "F.Mask") (tstamp a4e69661-95d6-4543-9246-c6fb735ae331))
  (pad "4" smd rect (at -6.85 -3.575) (size 1.7 0.38) (layers "F.Cu" "F.Paste" "F.Mask") (tstamp 2713dd3e-e3e0-4cf9-9400-1b388083463a))
  (pad "5" smd rect (at -6.85 -2.925) (size 1.7 0.38) (layers "F.Cu" "F.Paste" "F.Mask") (tstamp 17e3d47d-7567-4239-bdfe-016c3e16c067))
  (pad "6" smd rect (at -6.85 -2.275) (size 1.7 0.38) (layers "F.Cu" "F.Paste" "F.Mask") (tstamp f6bbd6f9-f6b9-4506-88eb-590f0f8d712f))
  (pad "7" smd rect (at -6.85 -1.625) (size 1.7 0.38) (layers "F.Cu" "F.Paste" "F.Mask") (tstamp 345983a5-ad5a-410b-bf10-71743e0720c0))
  (pad "8" smd rect (at -6.85 -0.975) (size 1.7 0.38) (layers "F.Cu" "F.Paste" "F.Mask") (tstamp 4558d9d3-2168-405b-8330-8973cd68ceaa))
  (pad "9" smd rect (at -6.85 -0.325) (size 1.7 0.38) (layers "F.Cu" "F.Paste" "F.Mask") (tstamp bf2713d7-d30b-43f7-a273-5b6d62afa570))
  (pad "10" smd rect (at -6.85 0.325) (size 1.7 0.38) (layers "F.Cu" "F.Paste" "F.Mask") (tstamp 1cb28940-015e-4011-b59f-1e3640c01fcb))
  (pad "11" smd rect (at -6.85 0.975) (size 1.7 0.38) (layers "F.Cu" "F.Paste" "F.Mask") (tstamp d0ab0948-81ee-4423-b47a-8942f68c8b61))
  (pad "12" smd rect (at -6.85 1.625) (size 1.7 0.38) (layers "F.Cu" "F.Paste" "F.Mask") (tstamp ab03f0a6-0074-4f25-81e6-b66f02284335))
  (pad "13" smd rect (at -6.85 2.275) (size 1.7 0.38) (layers "F.Cu" "F.Paste" "F.Mask") (tstamp e078757c-03c4-409d-840c-52f74f17bac0))
  (pad "14" smd rect (at -6.85 2.925) (size 1.7 0.38) (layers "F.Cu" "F.Paste" "F.Mask") (tstamp 62e17257-399e-41dc-815b-8f51f32d5185))
  (pad "15" smd rect (at -6.85 3.575) (size 1.7 0.38) (layers "F.Cu" "F.Paste" "F.Mask") (tstamp beb5fe71-0036-427b-84ae-3d139e6f155c))
  (pad "16" smd rect (at -6.85 4.225) (size 1.7 0.38) (layers "F.Cu" "F.Paste" "F.Mask") (tstamp 0664e6ab-8dea-4d60-9edb-7bf6659ef7e0))
  (pad "17" smd rect (at -6.85 4.875) (size 1.7 0.38) (layers "F.Cu" "F.Paste" "F.Mask") (tstamp 064eb9fd-36f6-47fd-80f4-3c988e3b2119))
  (pad "18" smd rect (at -6.85 5.525) (size 1.7 0.38) (layers "F.Cu" "F.Paste" "F.Mask") (tstamp 250340c6-1479-47f2-9201-ff353fe453ef))
  (pad "19" smd rect (at 6.85 5.525) (size 1.7 0.38) (layers "F.Cu" "F.Paste" "F.Mask") (tstamp cc7ebf9f-a563-4645-9a0c-560b5d8a9b79))
  (pad "20" smd rect (at 6.85 4.875) (size 1.7 0.38) (layers "F.Cu" "F.Paste" "F.Mask") (tstamp 083062a1-1cf1-4de5-ae47-be62c8b6fe09))
  (pad "21" smd rect (at 6.85 4.225) (size 1.7 0.38) (layers "F.Cu" "F.Paste" "F.Mask") (tstamp d6ad68c2-5cd5-4d09-9cbe-bbd48cdcd0ab))
  (pad "22" smd rect (at 6.85 3.575) (size 1.7 0.38) (layers "F.Cu" "F.Paste" "F.Mask") (tstamp 92f07986-f3c5-4a9c-a9a2-1a975fab7d72))
  (pad "23" smd rect (at 6.85 2.925) (size 1.7 0.38) (layers "F.Cu" "F.Paste" "F.Mask") (tstamp d0dd4075-032d-4ea2-bfea-43627c2ad12a))
  (pad "24" smd rect (at 6.85 2.275) (size 1.7 0.38) (layers "F.Cu" "F.Paste" "F.Mask") (tstamp 1f16ef97-4a0b-4f4f-bf0e-1af93bedf96c))
  (pad "25" smd rect (at 6.85 1.625) (size 1.7 0.38) (layers "F.Cu" "F.Paste" "F.Mask") (tstamp 1d175af3-be90-4e4e-80a1-f7ded90e5ff2))
  (pad "26" smd rect (at 6.85 0.975) (size 1.7 0.38) (layers "F.Cu" "F.Paste" "F.Mask") (tstamp 47606a38-b144-4aa7-be2a-0feec8975bba))
  (pad "27" smd rect (at 6.85 0.325) (size 1.7 0.38) (layers "F.Cu" "F.Paste" "F.Mask") (tstamp 19669040-6c19-4d2d-b6b3-d2fb00126c0f))
  (pad "28" smd rect (at 6.85 -0.325) (size 1.7 0.38) (layers "F.Cu" "F.Paste" "F.Mask") (tstamp 65c06750-6021-48a8-90ad-3613f921b934))
  (pad "29" smd rect (at 6.85 -0.975) (size 1.7 0.38) (layers "F.Cu" "F.Paste" "F.Mask") (tstamp b872a70d-a621-47f6-a0d8-46cdc326bc44))
  (pad "30" smd rect (at 6.85 -1.625) (size 1.7 0.38) (layers "F.Cu" "F.Paste" "F.Mask") (tstamp b23f22ce-cbcb-4acc-8041-f65cc24f342e))
  (pad "31" smd rect (at 6.85 -2.275) (size 1.7 0.38) (layers "F.Cu" "F.Paste" "F.Mask") (tstamp d46cb66d-17a2-492d-8422-efd55726e946))
  (pad "32" smd rect (at 6.85 -2.925) (size 1.7 0.38) (layers "F.Cu" "F.Paste" "F.Mask") (tstamp 05649488-457d-41f0-b967-d54b354120fd))
  (pad "33" smd rect (at 6.85 -3.575) (size 1.7 0.38) (layers "F.Cu" "F.Paste" "F.Mask") (tstamp 0c18bf26-5313-4c92-a7ba-60ccca1b2c6e))
  (pad "34" smd rect (at 6.85 -4.225) (size 1.7 0.38) (layers "F.Cu" "F.Paste" "F.Mask") (tstamp 992931b6-9a9c-40eb-9229-fa58f8d2e7aa))
  (pad "35" smd rect (at 6.85 -4.875) (size 1.7 0.38) (layers "F.Cu" "F.Paste" "F.Mask") (tstamp 94e248eb-1aaa-4904-b639-6ccde3533203))
  (pad "36" smd rect (at 6.85 -5.525) (size 1.7 0.38) (layers "F.Cu" "F.Paste" "F.Mask") (tstamp 8dac4286-e78e-4391-b27d-a605609d70ed))
  (model "${KICAD6_3DMODEL_DIR}/Package_SO.3dshapes/HSOP-36-1EP_11.0x15.9mm_P0.65mm_SlugUp.wrl"
    (offset (xyz 0 0 0))
    (scale (xyz 1 1 1))
    (rotate (xyz 0 0 0))
  )
)
