(footprint "Infineon_PG-DSO-20-32" (version 20221018) (generator pcbnew)
  (layer "F.Cu")
  (descr "Infineon SO package 20pin without exposed pad (https://www.infineon.com/cms/en/product/packages/PG-DSO/PG-DSO-20-32/)")
  (tags "DSO-20")
  (attr smd)
  (fp_text reference "REF**" (at -5.48 -7.3) (layer "F.SilkS")
      (effects (font (size 1 1) (thickness 0.15)))
    (tstamp da74f2d9-9234-41d8-a261-9d9fda144232)
  )
  (fp_text value "Infineon_PG-DSO-20-32" (at -1.5 8.03) (layer "F.Fab")
      (effects (font (size 1 1) (thickness 0.15)))
    (tstamp 8dd4fbb9-bba0-42ae-ac7f-64ba6c316f4b)
  )
  (fp_text user "${REFERENCE}" (at 0 0 90) (layer "F.Fab")
      (effects (font (size 1 1) (thickness 0.15)))
    (tstamp 0e8842ba-72fb-4cfc-8c20-5ea1d9db5954)
  )
  (fp_line (start -5.7 -6.2) (end -3.9 -6.2)
    (stroke (width 0.12) (type solid)) (layer "F.SilkS") (tstamp e3bd27d4-5a3b-412a-a272-3dac9e1831e7))
  (fp_line (start -3.9 -6.5) (end 3.9 -6.5)
    (stroke (width 0.12) (type solid)) (layer "F.SilkS") (tstamp 9ffa673e-74b1-4731-88e4-cd0e374f4c5c))
  (fp_line (start -3.9 -6.2) (end -3.9 -6.5)
    (stroke (width 0.12) (type solid)) (layer "F.SilkS") (tstamp 470ed68c-db39-4d67-87f0-00a418c29ba5))
  (fp_line (start -3.9 6.2) (end -3.9 6.5)
    (stroke (width 0.12) (type solid)) (layer "F.SilkS") (tstamp ce70fcc7-afff-4bd6-bc05-1a4fe2bbc067))
  (fp_line (start 3.9 -6.2) (end 3.9 -6.5)
    (stroke (width 0.12) (type solid)) (layer "F.SilkS") (tstamp fb54b5ed-996f-4e59-91f3-4a9b97f9a998))
  (fp_line (start 3.9 6.2) (end 3.9 6.5)
    (stroke (width 0.12) (type solid)) (layer "F.SilkS") (tstamp a1a4fae9-1c81-4488-8a61-53d587328959))
  (fp_line (start 3.9 6.5) (end -3.9 6.5)
    (stroke (width 0.12) (type solid)) (layer "F.SilkS") (tstamp 2cee3324-a0c0-4c93-aa0d-f35fee748a22))
  (fp_line (start -5.98 -6.65) (end 5.98 -6.65)
    (stroke (width 0.05) (type solid)) (layer "F.CrtYd") (tstamp 68005ccf-ca27-45c4-87ea-bd18795d37ae))
  (fp_line (start -5.98 6.65) (end -5.98 -6.65)
    (stroke (width 0.05) (type solid)) (layer "F.CrtYd") (tstamp 43ac97f9-8d2d-4f7e-ab79-db4cd7c0684f))
  (fp_line (start -5.98 6.65) (end 5.98 6.65)
    (stroke (width 0.05) (type solid)) (layer "F.CrtYd") (tstamp 984224ba-532b-4987-9825-1c8e2811b29d))
  (fp_line (start 5.98 6.65) (end 5.98 -6.65)
    (stroke (width 0.05) (type solid)) (layer "F.CrtYd") (tstamp 978f037f-d2fa-4959-b2fb-d86f30f9e76c))
  (fp_line (start -3.8 -5.4) (end -2.8 -6.4)
    (stroke (width 0.1) (type solid)) (layer "F.Fab") (tstamp bdcef0c1-7987-4b69-9807-52fd7914dfef))
  (fp_line (start -3.8 6.4) (end -3.8 -5.4)
    (stroke (width 0.1) (type solid)) (layer "F.Fab") (tstamp c059fd64-43cd-44a9-806a-240eb29152de))
  (fp_line (start -2.8 -6.4) (end 3.8 -6.4)
    (stroke (width 0.1) (type solid)) (layer "F.Fab") (tstamp 9e34a492-2915-4084-9557-14cfa62c38ba))
  (fp_line (start 3.8 -6.4) (end 3.8 6.4)
    (stroke (width 0.1) (type solid)) (layer "F.Fab") (tstamp 26b01792-e48b-4349-ade8-d350bd6a6a59))
  (fp_line (start 3.8 6.4) (end -3.8 6.4)
    (stroke (width 0.1) (type solid)) (layer "F.Fab") (tstamp 99fa0daf-830f-4665-9df2-0c71883aca39))
  (pad "1" smd rect (at -4.75 -5.715 90) (size 0.55 1.95) (layers "F.Cu" "F.Paste" "F.Mask") (tstamp 5e2d55d0-2d19-47c8-bfaa-f77670f25c23))
  (pad "2" smd rect (at -4.75 -4.445 90) (size 0.55 1.95) (layers "F.Cu" "F.Paste" "F.Mask") (tstamp f2d8d022-acc4-40a3-99aa-ad175cd89f05))
  (pad "3" smd rect (at -4.75 -3.175 90) (size 0.55 1.95) (layers "F.Cu" "F.Paste" "F.Mask") (tstamp f64086ef-8e11-42d3-8032-c94dbd86ec12))
  (pad "4" smd rect (at -4.75 -1.905 90) (size 0.55 1.95) (layers "F.Cu" "F.Paste" "F.Mask") (tstamp 7f11b0af-0598-4fa7-bdd9-8c547c1fd9b1))
  (pad "5" smd rect (at -4.75 -0.635 90) (size 0.55 1.95) (layers "F.Cu" "F.Paste" "F.Mask") (tstamp eaa7cb09-625f-4fc5-b267-902cb9ba99fc))
  (pad "6" smd rect (at -4.75 0.635 90) (size 0.55 1.95) (layers "F.Cu" "F.Paste" "F.Mask") (tstamp 44d452ac-39ef-4c0e-a47e-404d1ff53e20))
  (pad "7" smd rect (at -4.75 1.905 90) (size 0.55 1.95) (layers "F.Cu" "F.Paste" "F.Mask") (tstamp d814eecb-1e42-4b55-92fa-3fa58e80fb33))
  (pad "8" smd rect (at -4.75 3.175 90) (size 0.55 1.95) (layers "F.Cu" "F.Paste" "F.Mask") (tstamp 9582e1cd-e6c5-4abb-856c-477e63f98108))
  (pad "9" smd rect (at -4.75 4.445 90) (size 0.55 1.95) (layers "F.Cu" "F.Paste" "F.Mask") (tstamp 6f6cb311-bbdb-4ed2-af80-90279cc3cbf8))
  (pad "10" smd rect (at -4.75 5.715 90) (size 0.55 1.95) (layers "F.Cu" "F.Paste" "F.Mask") (tstamp f59828de-9ed5-4fa2-bb63-4487a6b2e3e7))
  (pad "11" smd rect (at 4.75 5.715 90) (size 0.55 1.95) (layers "F.Cu" "F.Paste" "F.Mask") (tstamp 425a5fe9-e1f1-451d-a0bf-62869f500f47))
  (pad "12" smd rect (at 4.75 4.445 90) (size 0.55 1.95) (layers "F.Cu" "F.Paste" "F.Mask") (tstamp a5ec8f19-2673-4603-91bc-1787a545cf9e))
  (pad "13" smd rect (at 4.75 3.175 90) (size 0.55 1.95) (layers "F.Cu" "F.Paste" "F.Mask") (tstamp 8a98e2e3-c88b-45e9-b641-9f44234cfc69))
  (pad "14" smd rect (at 4.75 1.905 90) (size 0.55 1.95) (layers "F.Cu" "F.Paste" "F.Mask") (tstamp eb708f78-db02-4f17-b4d2-a48e66e7422a))
  (pad "15" smd rect (at 4.75 0.635 90) (size 0.55 1.95) (layers "F.Cu" "F.Paste" "F.Mask") (tstamp cec7e785-1da7-4834-aa91-28f4b3b06930))
  (pad "16" smd rect (at 4.75 -0.635 90) (size 0.55 1.95) (layers "F.Cu" "F.Paste" "F.Mask") (tstamp 6ebc0e3e-eed0-4466-b777-979b626d176a))
  (pad "17" smd rect (at 4.75 -1.905 90) (size 0.55 1.95) (layers "F.Cu" "F.Paste" "F.Mask") (tstamp 75510c3f-0f0a-4ecb-8140-ad48492da747))
  (pad "18" smd rect (at 4.75 -3.175 90) (size 0.55 1.95) (layers "F.Cu" "F.Paste" "F.Mask") (tstamp a9d758e2-d7c7-4c01-ad37-6bf2f0994e60))
  (pad "19" smd rect (at 4.75 -4.445 90) (size 0.55 1.95) (layers "F.Cu" "F.Paste" "F.Mask") (tstamp bf63e5dc-dd31-4237-8e0d-3707b7d86b27))
  (pad "20" smd rect (at 4.75 -5.715 90) (size 0.55 1.95) (layers "F.Cu" "F.Paste" "F.Mask") (tstamp db797fe2-f2a3-4206-863e-1df3abb7863c))
  (model "${KICAD6_3DMODEL_DIR}/Package_SO.3dshapes/Infineon_PG-DSO-20-32.wrl"
    (offset (xyz 0 0 0))
    (scale (xyz 1 1 1))
    (rotate (xyz 0 0 0))
  )
)
