(footprint "Infineon_PG-DSO-20-87" (version 20221018) (generator pcbnew)
  (layer "F.Cu")
  (descr "Infineon SO package 20pin without exposed pad (https://www.infineon.com/cms/en/product/packages/PG-DSO/PG-DSO-20-87/)")
  (tags "DSO-20")
  (attr smd)
  (fp_text reference "REF**" (at 0 -9) (layer "F.SilkS")
      (effects (font (size 1 1) (thickness 0.15)))
    (tstamp 54243ca2-12b9-4ce9-9763-3303772d2322)
  )
  (fp_text value "Infineon_PG-DSO-20-87" (at 0 9) (layer "F.Fab")
      (effects (font (size 1 1) (thickness 0.15)))
    (tstamp 0c7e8834-cfbe-4aca-a3e5-11759ecf8509)
  )
  (fp_text user "${REFERENCE}" (at 0 0) (layer "F.Fab")
      (effects (font (size 1 1) (thickness 0.15)))
    (tstamp 298ac529-d26f-4280-88ae-83ac5288de36)
  )
  (fp_line (start -7.4 -6.235) (end -5.61 -6.235)
    (stroke (width 0.12) (type solid)) (layer "F.SilkS") (tstamp 5eed3437-a02e-4562-bec9-2481ec2e1592))
  (fp_line (start -5.61 -8.06) (end 5.61 -8.06)
    (stroke (width 0.12) (type solid)) (layer "F.SilkS") (tstamp ce03fa4d-a94e-438c-ae40-f30754ca5aca))
  (fp_line (start -5.61 -6.235) (end -5.61 -8.06)
    (stroke (width 0.12) (type solid)) (layer "F.SilkS") (tstamp 79d70d5b-43b6-4deb-bc29-362f16ef27d7))
  (fp_line (start -5.61 6.235) (end -5.61 8.06)
    (stroke (width 0.12) (type solid)) (layer "F.SilkS") (tstamp d1089292-0909-439f-a854-eb0c39892eaf))
  (fp_line (start 5.61 -6.235) (end 5.61 -8.06)
    (stroke (width 0.12) (type solid)) (layer "F.SilkS") (tstamp d268b9f9-7f85-4bcb-8a7e-3751a74ef182))
  (fp_line (start 5.61 6.235) (end 5.61 8.06)
    (stroke (width 0.12) (type solid)) (layer "F.SilkS") (tstamp d25fdb6c-6afa-48d6-b321-f7d3e0f09e66))
  (fp_line (start 5.61 8.06) (end -5.61 8.06)
    (stroke (width 0.12) (type solid)) (layer "F.SilkS") (tstamp d0524be7-1ea0-4be0-87c5-ee235502588a))
  (fp_line (start -8.03 -8.2) (end 8.03 -8.2)
    (stroke (width 0.05) (type solid)) (layer "F.CrtYd") (tstamp a77e4acf-8fae-427c-9144-12bbb3dd90bf))
  (fp_line (start -8.03 8.2) (end -8.03 -8.2)
    (stroke (width 0.05) (type solid)) (layer "F.CrtYd") (tstamp f06759a2-6e61-4410-ac47-0b738761c267))
  (fp_line (start -8.03 8.2) (end 8.03 8.2)
    (stroke (width 0.05) (type solid)) (layer "F.CrtYd") (tstamp 02294573-bb1c-49eb-b44e-083175201f87))
  (fp_line (start 8.03 8.2) (end 8.03 -8.2)
    (stroke (width 0.05) (type solid)) (layer "F.CrtYd") (tstamp 2a15a7bf-fbe4-4a41-8b57-83d1b7e1d8cb))
  (fp_line (start -5.5 -6.95) (end -4.5 -7.95)
    (stroke (width 0.1) (type solid)) (layer "F.Fab") (tstamp d43fe74a-563b-4fc9-90c7-2e26315a8164))
  (fp_line (start -5.5 7.95) (end -5.5 -6.95)
    (stroke (width 0.1) (type solid)) (layer "F.Fab") (tstamp f8d247d0-2130-4c77-bd23-2df1e724afb2))
  (fp_line (start -4.5 -7.95) (end 5.5 -7.95)
    (stroke (width 0.1) (type solid)) (layer "F.Fab") (tstamp bb9a1958-c1aa-4d74-b885-9d37b242b3fb))
  (fp_line (start 5.5 -7.95) (end 5.5 7.95)
    (stroke (width 0.1) (type solid)) (layer "F.Fab") (tstamp 14d528b2-6dbf-4955-a821-1898aaf956f0))
  (fp_line (start 5.5 7.95) (end -5.5 7.95)
    (stroke (width 0.1) (type solid)) (layer "F.Fab") (tstamp e961f7a3-0d22-4180-92a1-875c416d6ebc))
  (pad "1" smd rect (at -6.865 -5.715) (size 1.83 0.68) (layers "F.Cu" "F.Paste" "F.Mask") (tstamp 779a08ef-86a0-43e1-932f-e4c11e5ea24e))
  (pad "2" smd rect (at -6.865 -4.445) (size 1.83 0.68) (layers "F.Cu" "F.Paste" "F.Mask") (tstamp 38a956a7-3909-46d0-ad36-a905825842c4))
  (pad "3" smd rect (at -6.865 -3.175) (size 1.83 0.68) (layers "F.Cu" "F.Paste" "F.Mask") (tstamp 264134ad-c371-4fc5-b216-96e999d83d6d))
  (pad "4" smd rect (at -6.865 -1.905) (size 1.83 0.68) (layers "F.Cu" "F.Paste" "F.Mask") (tstamp ee07081f-1fcd-43ed-824f-df68cfcc34fc))
  (pad "5" smd rect (at -6.865 -0.635) (size 1.83 0.68) (layers "F.Cu" "F.Paste" "F.Mask") (tstamp 50cc443a-1230-4b5c-b645-632b14a457ea))
  (pad "6" smd rect (at -6.865 0.635) (size 1.83 0.68) (layers "F.Cu" "F.Paste" "F.Mask") (tstamp 36eefcf8-ceb3-4dd2-96c3-2a74a02eba33))
  (pad "7" smd rect (at -6.865 1.905) (size 1.83 0.68) (layers "F.Cu" "F.Paste" "F.Mask") (tstamp 30d05853-74d7-4266-9333-94ad8ebb38c2))
  (pad "8" smd rect (at -6.865 3.175) (size 1.83 0.68) (layers "F.Cu" "F.Paste" "F.Mask") (tstamp 0ddeacec-d873-417d-ac63-dadb952c4c0e))
  (pad "9" smd rect (at -6.865 4.445) (size 1.83 0.68) (layers "F.Cu" "F.Paste" "F.Mask") (tstamp 63abfdd7-d42b-4ed7-bb9e-54fb0f3275f4))
  (pad "10" smd rect (at -6.865 5.715) (size 1.83 0.68) (layers "F.Cu" "F.Paste" "F.Mask") (tstamp 4e30b165-c41e-49e3-bce9-b898dd42bb80))
  (pad "11" smd rect (at 6.865 5.715) (size 1.83 0.68) (layers "F.Cu" "F.Paste" "F.Mask") (tstamp ec717588-4031-49a9-886a-e2a335d34fce))
  (pad "12" smd rect (at 6.865 4.445) (size 1.83 0.68) (layers "F.Cu" "F.Paste" "F.Mask") (tstamp b515590a-39ae-4662-9911-210c6f95b12f))
  (pad "13" smd rect (at 6.865 3.175) (size 1.83 0.68) (layers "F.Cu" "F.Paste" "F.Mask") (tstamp b73577fd-9e8d-4a27-8eb5-df02873ef220))
  (pad "14" smd rect (at 6.865 1.905) (size 1.83 0.68) (layers "F.Cu" "F.Paste" "F.Mask") (tstamp 7232a646-ff50-42b5-bb8d-a1a4efb0f694))
  (pad "15" smd rect (at 6.865 0.635) (size 1.83 0.68) (layers "F.Cu" "F.Paste" "F.Mask") (tstamp 8327b60f-c7f1-463d-adc2-ea48e1564015))
  (pad "16" smd rect (at 6.865 -0.635) (size 1.83 0.68) (layers "F.Cu" "F.Paste" "F.Mask") (tstamp 0a5de22d-5124-49f3-a989-a9b23ca0950a))
  (pad "17" smd rect (at 6.865 -1.905) (size 1.83 0.68) (layers "F.Cu" "F.Paste" "F.Mask") (tstamp 6a2f174d-b9b3-462a-b40d-5e09647fde5f))
  (pad "18" smd rect (at 6.865 -3.175) (size 1.83 0.68) (layers "F.Cu" "F.Paste" "F.Mask") (tstamp f2154e7c-07c1-43a8-86f5-354a85399b4d))
  (pad "19" smd rect (at 6.865 -4.445) (size 1.83 0.68) (layers "F.Cu" "F.Paste" "F.Mask") (tstamp f9194f12-88ec-4b52-9c9f-1ba00958f797))
  (pad "20" smd rect (at 6.865 -5.715) (size 1.83 0.68) (layers "F.Cu" "F.Paste" "F.Mask") (tstamp 0cc7afec-7201-4b5d-ad56-9ecd203fb8bd))
  (model "${KICAD6_3DMODEL_DIR}/Package_SO.3dshapes/Infineon_PG-DSO-20-87.wrl"
    (offset (xyz 0 0 0))
    (scale (xyz 1 1 1))
    (rotate (xyz 0 0 0))
  )
)
