(footprint "MSOP-12-16-1EP_3x4mm_P0.5mm_EP1.65x2.85mm" (version 20221018) (generator pcbnew)
  (layer "F.Cu")
  (descr "10-Lead Plastic Micro Small Outline Package (MS) [MSOP] (see Microchip Packaging Specification 00000049BS.pdf)")
  (tags "SSOP 0.5")
  (attr smd)
  (fp_text reference "REF**" (at 0 -3.35) (layer "F.SilkS")
      (effects (font (size 1 1) (thickness 0.15)))
    (tstamp 070bbad2-9f23-4b3c-8f69-720ac5a6acc3)
  )
  (fp_text value "MSOP-12-16-1EP_3x4mm_P0.5mm_EP1.65x2.85mm" (at 0 3.5) (layer "F.Fab")
      (effects (font (size 1 1) (thickness 0.15)))
    (tstamp d8e80dd7-18ac-4807-99a0-9848f415fc1b)
  )
  (fp_text user "${REFERENCE}" (at 0 0) (layer "F.Fab")
      (effects (font (size 0.6 0.6) (thickness 0.09)))
    (tstamp 94078cd1-02f1-4c27-baa6-1a72dfb4f050)
  )
  (fp_line (start -1.675 -2.425) (end -1.675 -2.2)
    (stroke (width 0.15) (type solid)) (layer "F.SilkS") (tstamp 3e2a141d-c5f2-4160-9636-a33f72bb3d20))
  (fp_line (start -1.675 -2.425) (end 1.675 -2.425)
    (stroke (width 0.15) (type solid)) (layer "F.SilkS") (tstamp 5f62fdf3-8b2a-486e-aa72-22d605cab517))
  (fp_line (start -1.675 -2.2) (end -2.9 -2.2)
    (stroke (width 0.15) (type solid)) (layer "F.SilkS") (tstamp 6d42b706-555b-4077-b31c-cfcb4d396162))
  (fp_line (start -1.675 2.425) (end -1.675 2.125)
    (stroke (width 0.15) (type solid)) (layer "F.SilkS") (tstamp a0d673e5-2781-4a69-8215-04c4ca1de9a0))
  (fp_line (start -1.675 2.425) (end 1.675 2.425)
    (stroke (width 0.15) (type solid)) (layer "F.SilkS") (tstamp b9168680-5321-4759-bdf8-25e70deab5fb))
  (fp_line (start 1.675 -2.425) (end 1.675 -2.125)
    (stroke (width 0.15) (type solid)) (layer "F.SilkS") (tstamp 0ecdc45e-76a2-41d5-aeaa-e69cc6969a65))
  (fp_line (start 1.675 2.425) (end 1.675 2.125)
    (stroke (width 0.15) (type solid)) (layer "F.SilkS") (tstamp b2543012-1020-4162-b861-6ac48ad1c085))
  (fp_line (start -3.15 -2.6) (end -3.15 2.6)
    (stroke (width 0.05) (type solid)) (layer "F.CrtYd") (tstamp 5f5b68a0-be30-4156-8933-189e7989bbb7))
  (fp_line (start -3.15 -2.6) (end 3.15 -2.6)
    (stroke (width 0.05) (type solid)) (layer "F.CrtYd") (tstamp efb31b22-e14e-42f5-af5d-e9dbb41c36cf))
  (fp_line (start -3.15 2.6) (end 3.15 2.6)
    (stroke (width 0.05) (type solid)) (layer "F.CrtYd") (tstamp ec714119-36db-4079-9c87-766c519b37af))
  (fp_line (start 3.15 -2.6) (end 3.15 2.6)
    (stroke (width 0.05) (type solid)) (layer "F.CrtYd") (tstamp 2872553a-11bf-48d4-8e47-6ffdb4563d6c))
  (fp_line (start -1.5 -1) (end -0.5 -2)
    (stroke (width 0.15) (type solid)) (layer "F.Fab") (tstamp 7542172e-25ca-417f-ad48-26bcadd0c858))
  (fp_line (start -1.5 2) (end -1.5 -1)
    (stroke (width 0.15) (type solid)) (layer "F.Fab") (tstamp c0351b50-7fed-4476-ae4a-36f6467c95df))
  (fp_line (start -0.5 -2) (end 1.5 -2)
    (stroke (width 0.15) (type solid)) (layer "F.Fab") (tstamp 0155fac2-01b1-49ac-8fd9-38aca5fb1b3e))
  (fp_line (start 1.5 -2) (end 1.5 2)
    (stroke (width 0.15) (type solid)) (layer "F.Fab") (tstamp b84d3bea-5ce8-4620-8df0-321868850757))
  (fp_line (start 1.5 2) (end -1.5 2)
    (stroke (width 0.15) (type solid)) (layer "F.Fab") (tstamp ccbd4fc1-194d-4cb1-8f92-78d86c178e2e))
  (pad "" smd rect (at -0.4125 -0.95) (size 0.66 0.75) (layers "F.Paste") (tstamp 10f44cc1-af8c-43a9-ab6c-80051e0bc9b0))
  (pad "" smd rect (at -0.4125 0) (size 0.66 0.75) (layers "F.Paste") (tstamp 867e21af-2490-4955-9eb5-1d8408ee48d7))
  (pad "" smd rect (at -0.4125 0.95) (size 0.66 0.75) (layers "F.Paste") (tstamp 1de0fc4c-7cd0-4abf-9103-20e8647ac4ae))
  (pad "" smd rect (at 0.4125 -0.95) (size 0.66 0.75) (layers "F.Paste") (tstamp 5112127e-65a3-4c91-b694-029313af7ff9))
  (pad "" smd rect (at 0.4125 0) (size 0.66 0.75) (layers "F.Paste") (tstamp 2aebade9-5c51-4997-8740-96bd9286d572))
  (pad "" smd rect (at 0.4125 0.95) (size 0.66 0.75) (layers "F.Paste") (tstamp 274f484b-dee8-4946-a678-b657ece43234))
  (pad "1" smd rect (at -2.2 -1.75) (size 1.4 0.3) (layers "F.Cu" "F.Paste" "F.Mask") (tstamp ee2c7c43-1548-44d4-a97c-f39871164c61))
  (pad "3" smd rect (at -2.2 -0.75) (size 1.4 0.3) (layers "F.Cu" "F.Paste" "F.Mask") (tstamp 4b6ba285-eeda-4ce5-9271-637c13ac778e))
  (pad "5" smd rect (at -2.2 0.25) (size 1.4 0.3) (layers "F.Cu" "F.Paste" "F.Mask") (tstamp 7ad5b34a-a1f8-499d-877c-5e0b1d7bcf3d))
  (pad "6" smd rect (at -2.2 0.75) (size 1.4 0.3) (layers "F.Cu" "F.Paste" "F.Mask") (tstamp 92d44b93-4f9a-4b51-a465-723673819840))
  (pad "7" smd rect (at -2.2 1.25) (size 1.4 0.3) (layers "F.Cu" "F.Paste" "F.Mask") (tstamp fc0f6e39-de3a-4de9-9025-19cd81a82d55))
  (pad "8" smd rect (at -2.2 1.75) (size 1.4 0.3) (layers "F.Cu" "F.Paste" "F.Mask") (tstamp dfd78455-6976-4b3f-a6e1-c8700eb35eaa))
  (pad "9" smd rect (at 2.2 1.75) (size 1.4 0.3) (layers "F.Cu" "F.Paste" "F.Mask") (tstamp 71627cff-a78e-4dd8-b139-4c73ca6e2578))
  (pad "10" smd rect (at 2.2 1.25) (size 1.4 0.3) (layers "F.Cu" "F.Paste" "F.Mask") (tstamp a4f86ced-e749-449e-b0d0-7dddda7f317e))
  (pad "11" smd rect (at 2.2 0.75) (size 1.4 0.3) (layers "F.Cu" "F.Paste" "F.Mask") (tstamp df39cabf-e088-4210-ad54-528fda5855ca))
  (pad "12" smd rect (at 2.2 0.25) (size 1.4 0.3) (layers "F.Cu" "F.Paste" "F.Mask") (tstamp b25a5a88-24b5-4a61-b621-fc78aee156bc))
  (pad "14" smd rect (at 2.2 -0.75) (size 1.4 0.3) (layers "F.Cu" "F.Paste" "F.Mask") (tstamp fb1281cf-ee89-4f7d-ac02-464d9be58c75))
  (pad "16" smd rect (at 2.2 -1.75) (size 1.4 0.3) (layers "F.Cu" "F.Paste" "F.Mask") (tstamp d65dcfd0-d891-4ae9-8235-22cb8404e647))
  (pad "17" smd rect (at 0 0) (size 1.65 2.85) (layers "F.Cu" "F.Mask") (tstamp 95214c3d-5d59-4598-9075-770329b192f7))
  (model "${KICAD6_3DMODEL_DIR}/Package_SO.3dshapes/MSOP-12-16-1EP_3x4mm_P0.5mm_EP1.65x2.85mm.wrl"
    (offset (xyz 0 0 0))
    (scale (xyz 1 1 1))
    (rotate (xyz 0 0 0))
  )
)
