(footprint "ONSemi_SO-8FL_488AA" (version 20221018) (generator pcbnew)
  (layer "F.Cu")
  (descr "ON Semi DFN5 5x6mm 1.27P SO-8FL CASE 488A https://www.onsemi.com/pub/Collateral/488AA.PDF")
  (tags "ON Semi DFN5 5x6mm 1.27P SO-8FL CASE 488A ")
  (attr smd)
  (fp_text reference "REF**" (at 0 -4) (layer "F.SilkS")
      (effects (font (size 1 1) (thickness 0.15)))
    (tstamp 2321f10d-97be-46f1-ac63-bb9e053e69e0)
  )
  (fp_text value "ONSemi_SO-8FL_488AA" (at 0 4) (layer "F.Fab")
      (effects (font (size 1 1) (thickness 0.15)))
    (tstamp e6af6157-3c4c-4584-a05e-7c62caa5fb15)
  )
  (fp_text user "${REFERENCE}" (at 0.04775 0) (layer "F.Fab")
      (effects (font (size 1 1) (thickness 0.15)))
    (tstamp 9dca5a52-ed69-4430-ba1b-5ab296b242d3)
  )
  (fp_line (start -1.11825 -2.56) (end -3.15225 -2.56)
    (stroke (width 0.12) (type solid)) (layer "F.SilkS") (tstamp a9279b32-06d0-4cfc-b164-7e9555c063ce))
  (fp_line (start -1.11825 2.56) (end -2.10325 2.56)
    (stroke (width 0.12) (type solid)) (layer "F.SilkS") (tstamp 447d3827-f7d4-468a-b6b8-66b6ff83c4ad))
  (fp_line (start 3.07775 -2.56) (end 0.30775 -2.56)
    (stroke (width 0.12) (type solid)) (layer "F.SilkS") (tstamp b705e39b-49bf-40ff-b3b7-dfa6d49ccc55))
  (fp_line (start 3.07775 2.56) (end 0.30775 2.56)
    (stroke (width 0.12) (type solid)) (layer "F.SilkS") (tstamp 50f5c309-f75d-4df8-9747-b58b7002671f))
  (fp_line (start 3.10775 -1.27) (end 3.10775 1.27)
    (stroke (width 0.12) (type solid)) (layer "F.SilkS") (tstamp a6f06bbe-218b-48a5-a2fb-f9a1cf7c0131))
  (fp_line (start -3.5 2.45) (end -3.5 -2.45)
    (stroke (width 0.05) (type solid)) (layer "F.CrtYd") (tstamp 86afd12b-582e-4d10-b0b4-d17ab0610c8b))
  (fp_line (start -3.25 -2.7) (end -1.11 -2.7)
    (stroke (width 0.05) (type solid)) (layer "F.CrtYd") (tstamp 71319718-60fd-4ade-aa18-17659db9b029))
  (fp_line (start -3.25 2.7) (end -1.11 2.7)
    (stroke (width 0.05) (type solid)) (layer "F.CrtYd") (tstamp 2780db24-47e6-4ea6-97f7-a086d18e8815))
  (fp_line (start -1.11 -2.78) (end -1.11 -2.7)
    (stroke (width 0.05) (type solid)) (layer "F.CrtYd") (tstamp 8b152ab4-a984-42ee-947e-57033c48400e))
  (fp_line (start -1.11 2.7) (end -1.11 2.78)
    (stroke (width 0.05) (type solid)) (layer "F.CrtYd") (tstamp b5c69ea7-28e1-496b-9c43-b87fc718ac4f))
  (fp_line (start -0.86 -3.03) (end 0.05 -3.03)
    (stroke (width 0.05) (type solid)) (layer "F.CrtYd") (tstamp f593ca1f-b95d-47f3-979c-d9cf1d60c71c))
  (fp_line (start -0.86 3.03) (end 0.05 3.03)
    (stroke (width 0.05) (type solid)) (layer "F.CrtYd") (tstamp a747d090-ebf9-42a6-ac44-09e4ae638ac7))
  (fp_line (start 0.3 -2.7) (end 0.3 -2.78)
    (stroke (width 0.05) (type solid)) (layer "F.CrtYd") (tstamp 65f48e02-b53e-44ea-b206-66634dc88ed0))
  (fp_line (start 0.3 -2.7) (end 3.25 -2.7)
    (stroke (width 0.05) (type solid)) (layer "F.CrtYd") (tstamp 36ab70b2-83ee-4ccb-9a8d-695416054687))
  (fp_line (start 0.3 2.7) (end 3.25 2.7)
    (stroke (width 0.05) (type solid)) (layer "F.CrtYd") (tstamp e2caa301-f19e-42bd-ba3b-f03119c88171))
  (fp_line (start 0.3 2.78) (end 0.3 2.7)
    (stroke (width 0.05) (type solid)) (layer "F.CrtYd") (tstamp 94ab8903-4e5b-476c-bba3-eee1b73d21b6))
  (fp_line (start 3.25 1.28) (end 3.25 -1.28)
    (stroke (width 0.05) (type solid)) (layer "F.CrtYd") (tstamp a2c01392-da1b-4586-afa3-1c9412813736))
  (fp_line (start 3.5 -1.53) (end 3.5 -2.45)
    (stroke (width 0.05) (type solid)) (layer "F.CrtYd") (tstamp 345ebd6b-e9cb-4df5-a7b4-ec1cf50598e9))
  (fp_line (start 3.5 2.45) (end 3.5 1.53)
    (stroke (width 0.05) (type solid)) (layer "F.CrtYd") (tstamp 2789b766-b2c1-49d2-b114-80453c029b6f))
  (fp_arc (start -3.5 -2.45) (mid -3.426777 -2.626777) (end -3.25 -2.7)
    (stroke (width 0.05) (type solid)) (layer "F.CrtYd") (tstamp f0fbd7f6-761f-4f6d-b0fe-16a222b8ad19))
  (fp_arc (start -3.25 2.7) (mid -3.426777 2.626777) (end -3.5 2.45)
    (stroke (width 0.05) (type solid)) (layer "F.CrtYd") (tstamp ae938590-49a7-4c2e-89d4-71509fbc52c3))
  (fp_arc (start -1.11 -2.78) (mid -1.036777 -2.956777) (end -0.86 -3.03)
    (stroke (width 0.05) (type solid)) (layer "F.CrtYd") (tstamp 644026de-6201-4761-b55b-12758ff61a07))
  (fp_arc (start -0.86 3.03) (mid -1.036777 2.956777) (end -1.11 2.78)
    (stroke (width 0.05) (type solid)) (layer "F.CrtYd") (tstamp 41e1dff0-df53-4708-ad41-2f417d66f220))
  (fp_arc (start 0.05 -3.03) (mid 0.226777 -2.956777) (end 0.3 -2.78)
    (stroke (width 0.05) (type solid)) (layer "F.CrtYd") (tstamp d137de81-032c-4b18-b86f-8107392b737b))
  (fp_arc (start 0.3 2.78) (mid 0.226777 2.956777) (end 0.05 3.03)
    (stroke (width 0.05) (type solid)) (layer "F.CrtYd") (tstamp 6000bf51-df71-4fb0-8b6d-1cb8d50dcb7b))
  (fp_arc (start 3.25 -2.7) (mid 3.426777 -2.626777) (end 3.5 -2.45)
    (stroke (width 0.05) (type solid)) (layer "F.CrtYd") (tstamp 234c789e-d327-4ec5-8bed-f830a04dfdf5))
  (fp_arc (start 3.25 1.28) (mid 3.426777 1.353223) (end 3.5 1.53)
    (stroke (width 0.05) (type solid)) (layer "F.CrtYd") (tstamp 80eb74d2-3c61-40f8-bfac-b00fc8103212))
  (fp_arc (start 3.5 -1.53) (mid 3.426777 -1.353223) (end 3.25 -1.28)
    (stroke (width 0.05) (type solid)) (layer "F.CrtYd") (tstamp 4a640345-739b-4164-8179-a20b4310fd0b))
  (fp_arc (start 3.5 2.45) (mid 3.426777 2.626777) (end 3.25 2.7)
    (stroke (width 0.05) (type solid)) (layer "F.CrtYd") (tstamp 65c67ea7-e28c-4d9d-9a0d-083c5f4b187a))
  (fp_line (start -2.90225 -1.275) (end -2.90225 2.45)
    (stroke (width 0.1) (type solid)) (layer "F.Fab") (tstamp f2dce9d4-4da1-4275-91a9-23baea69b427))
  (fp_line (start -1.72725 -2.45) (end -2.90225 -1.275)
    (stroke (width 0.1) (type solid)) (layer "F.Fab") (tstamp 1753e75c-1941-4c3f-8419-186a75daa7ac))
  (fp_line (start 2.99775 -2.45) (end -1.72725 -2.45)
    (stroke (width 0.1) (type solid)) (layer "F.Fab") (tstamp 3362585f-1881-4a17-a3f3-9ce0e2eb5139))
  (fp_line (start 2.99775 -2.45) (end 2.99775 2.45)
    (stroke (width 0.1) (type solid)) (layer "F.Fab") (tstamp 8053d64e-6039-4c0d-8733-bbb9631c6d52))
  (fp_line (start 2.99775 2.45) (end -2.90225 2.45)
    (stroke (width 0.1) (type solid)) (layer "F.Fab") (tstamp 39700ea4-eec1-4187-98cf-671eb9d423c3))
  (pad "1" smd roundrect (at -2.74725 -1.905) (size 1 0.75) (layers "F.Cu" "F.Paste" "F.Mask") (roundrect_rratio 0.25) (tstamp b43cd5bf-564d-494d-b015-48757449b02d))
  (pad "2" smd roundrect (at -2.74725 -0.635) (size 1 0.75) (layers "F.Cu" "F.Paste" "F.Mask") (roundrect_rratio 0.25) (tstamp eee6daa9-61fc-42ea-aa38-880dfaf45eec))
  (pad "3" smd roundrect (at -2.74725 0.635) (size 1 0.75) (layers "F.Cu" "F.Paste" "F.Mask") (roundrect_rratio 0.25) (tstamp 37fdb04e-63dc-4718-8e44-4c1ea6232d03))
  (pad "4" smd roundrect (at -2.74725 1.905) (size 1 0.75) (layers "F.Cu" "F.Paste" "F.Mask") (roundrect_rratio 0.25) (tstamp 48d86299-c984-41b4-a163-04bf0d421339))
  (pad "5" smd custom (at 0.745 0) (size 4.055 4.56) (layers "F.Cu" "F.Paste" "F.Mask")
    (zone_connect 0) (thermal_bridge_angle 45)
    (options (clearance outline) (anchor rect))
    (primitives
      (gr_poly
        (pts
          (xy -0.6975 -2.28)
          (xy 2.5025 -2.28)
          (xy 2.5025 -1.53)
          (xy 1.905 -1.53)
          (xy 1.905 1.53)
          (xy 2.5025 1.53)
          (xy 2.5025 2.28)
          (xy -0.6975 2.28)
          (xy -0.6975 2.775)
          (xy -1.6025 2.775)
          (xy -1.6025 -2.775)
          (xy -0.6975 -2.775)
        )
        (width 0) (fill yes))
    ) (tstamp 47375c0d-cc42-4643-9528-6a37153c10bc))
  (model "${KICAD6_3DMODEL_DIR}/Package_SO.3dshapes/ONSemi_SO-8FL_488AA.wrl"
    (offset (xyz 0 0 0))
    (scale (xyz 1 1 1))
    (rotate (xyz 0 0 0))
  )
)
