(footprint "SO-6_4.4x3.6mm_P1.27mm" (version 20221018) (generator pcbnew)
  (layer "F.Cu")
  (descr "6-Lead Plastic Small Outline (SO), see https://docs.broadcom.com/cs/Satellite?blobcol=urldata&blobheader=application%2Fpdf&blobheadername1=Content-Disposition&blobheadername2=Content-Type&blobheadername3=MDT-Type&blobheadervalue1=attachment%3Bfilename%3DIPD-Selection-Guide_AV00-0254EN_030617.pdf&blobheadervalue2=application%2Fx-download&blobheadervalue3=abinary%253B%2Bcharset%253DUTF-8&blobkey=id&blobnocache=true&blobtable=MungoBlobs&blobwhere=1430884105675&ssbinary=true")
  (tags "SO SOIC 1.27")
  (attr smd)
  (fp_text reference "REF**" (at 0.1 -3.265) (layer "F.SilkS")
      (effects (font (size 1 1) (thickness 0.15)))
    (tstamp 6fe1f9b9-c257-41e5-bd20-25a1e34c70b2)
  )
  (fp_text value "SO-6_4.4x3.6mm_P1.27mm" (at 0.05 3.385) (layer "F.Fab")
      (effects (font (size 1 1) (thickness 0.15)))
    (tstamp c9a4cf3f-7c61-4833-a60a-b3d03d0568a6)
  )
  (fp_text user "${REFERENCE}" (at 0 -0.065) (layer "F.Fab")
      (effects (font (size 1 1) (thickness 0.15)))
    (tstamp b6cd21e6-8311-48e2-962d-cad1a19eea94)
  )
  (fp_line (start -2.4 -2) (end 2.4 -2)
    (stroke (width 0.12) (type solid)) (layer "F.SilkS") (tstamp e0f22985-e1a5-407a-9869-acb3085b7c87))
  (fp_line (start -2.4 -1.7) (end -4.1 -1.7)
    (stroke (width 0.12) (type solid)) (layer "F.SilkS") (tstamp abffba7e-6dca-4319-be32-f33d2326b8ee))
  (fp_line (start -2.4 -1.7) (end -2.4 -2)
    (stroke (width 0.12) (type solid)) (layer "F.SilkS") (tstamp e4f7a112-ca57-42be-bb1d-be7b797829e8))
  (fp_line (start -2.4 2) (end -2.4 1.7)
    (stroke (width 0.12) (type solid)) (layer "F.SilkS") (tstamp 958f0eac-62b8-4cdb-9a73-9a88dd5b1124))
  (fp_line (start 2.4 -2) (end 2.4 -1.7)
    (stroke (width 0.12) (type solid)) (layer "F.SilkS") (tstamp efedc59a-240d-45ee-ad50-d436d67d63b0))
  (fp_line (start 2.4 1.7) (end 2.4 2)
    (stroke (width 0.12) (type solid)) (layer "F.SilkS") (tstamp b52ca710-7b79-49b8-aedc-54d8ad696328))
  (fp_line (start 2.4 2) (end -2.4 2)
    (stroke (width 0.12) (type solid)) (layer "F.SilkS") (tstamp 2d96dde0-9731-4da8-adce-632548190d0f))
  (fp_line (start -4.4 -2.05) (end -4.4 2.05)
    (stroke (width 0.05) (type solid)) (layer "F.CrtYd") (tstamp b3d870d0-318b-49d5-9099-a6de15aa1e66))
  (fp_line (start -4.4 -2.05) (end 4.4 -2.05)
    (stroke (width 0.05) (type solid)) (layer "F.CrtYd") (tstamp 6ee23196-a40b-4c60-b33b-99dd29a35a07))
  (fp_line (start 4.4 2.05) (end -4.4 2.05)
    (stroke (width 0.05) (type solid)) (layer "F.CrtYd") (tstamp df7c234d-9719-44a8-bd7e-6a75ba30a95b))
  (fp_line (start 4.4 2.05) (end 4.4 -2.05)
    (stroke (width 0.05) (type solid)) (layer "F.CrtYd") (tstamp a2b2b5d8-6bc5-4032-a7cf-04b04c92140b))
  (fp_line (start -2.2 -1) (end -1.4 -1.8)
    (stroke (width 0.12) (type solid)) (layer "F.Fab") (tstamp 1163a572-ab0c-4f19-b242-1db5164bd499))
  (fp_line (start -2.2 1.8) (end -2.2 -1)
    (stroke (width 0.12) (type solid)) (layer "F.Fab") (tstamp 172219ab-5458-4e6b-a111-7a3465de90c2))
  (fp_line (start -1.4 -1.8) (end 2.2 -1.8)
    (stroke (width 0.12) (type solid)) (layer "F.Fab") (tstamp 969203de-635a-43fa-ab49-bfba572b7f0e))
  (fp_line (start 2.2 -1.8) (end 2.2 1.8)
    (stroke (width 0.12) (type solid)) (layer "F.Fab") (tstamp c2013f00-9031-4f70-84b4-8735a605a467))
  (fp_line (start 2.2 1.8) (end -2.2 1.8)
    (stroke (width 0.12) (type solid)) (layer "F.Fab") (tstamp 8680a4a1-7492-49e7-9784-62831dc3edb7))
  (pad "1" smd rect (at -3.15 -1.27) (size 2 0.64) (layers "F.Cu" "F.Paste" "F.Mask") (tstamp fac1214a-e7ce-4800-a8a5-86f746f07f7a))
  (pad "2" smd rect (at -3.15 0) (size 2 0.64) (layers "F.Cu" "F.Paste" "F.Mask") (tstamp 3bfcbc48-c752-4240-910d-7d2b6d75de81))
  (pad "3" smd rect (at -3.15 1.27) (size 2 0.64) (layers "F.Cu" "F.Paste" "F.Mask") (tstamp 099db7d6-9e34-41e3-8935-99e904ccf6d6))
  (pad "4" smd rect (at 3.15 1.27) (size 2 0.64) (layers "F.Cu" "F.Paste" "F.Mask") (tstamp 0e84ac77-e7fe-430a-9f30-cd202442cb88))
  (pad "5" smd rect (at 3.15 0) (size 2 0.64) (layers "F.Cu" "F.Paste" "F.Mask") (tstamp bc4cbbfe-4152-4578-a6df-8bb1486bd3be))
  (pad "6" smd rect (at 3.15 -1.27) (size 2 0.64) (layers "F.Cu" "F.Paste" "F.Mask") (tstamp c8c9b971-0bc9-464a-9411-5cd67c54849e))
  (model "${KICAD6_3DMODEL_DIR}/Package_SO.3dshapes/SO-6_4.4x3.6mm_P1.27mm.wrl"
    (offset (xyz 0 0 0))
    (scale (xyz 1 1 1))
    (rotate (xyz 0 0 0))
  )
)
