(footprint "SO-6L_10x3.84mm_P1.27mm" (version 20221018) (generator pcbnew)
  (layer "F.Cu")
  (descr "6-pin plasic small outline 7,5mm long https://toshiba.semicon-storage.com/info/docget.jsp?did=53548&prodName=TLP2770")
  (tags "SO-6L")
  (attr smd)
  (fp_text reference "REF**" (at -3.7 -2.9) (layer "F.SilkS")
      (effects (font (size 1 1) (thickness 0.15)))
    (tstamp 7bb2bf84-5272-4671-bf67-10a65c5643a6)
  )
  (fp_text value "SO-6L_10x3.84mm_P1.27mm" (at 0.1 3.2) (layer "F.Fab")
      (effects (font (size 1 1) (thickness 0.15)))
    (tstamp e4ab6add-0b50-4af9-b890-cab0c8ebee0c)
  )
  (fp_text user "${REFERENCE}" (at 0.3 0 180) (layer "F.Fab")
      (effects (font (size 0.5 0.5) (thickness 0.05)))
    (tstamp baf87166-9efa-4d92-bb57-5e1e5195f78e)
  )
  (fp_line (start -5.5 -2.05) (end 3.7 -2.05)
    (stroke (width 0.12) (type solid)) (layer "F.SilkS") (tstamp 59f8efc3-4016-4ac5-9d44-3d69c65e671b))
  (fp_line (start -3.7 2.05) (end 3.7 2.05)
    (stroke (width 0.12) (type solid)) (layer "F.SilkS") (tstamp e7614bba-1513-4ed1-a155-4eca3c328fbd))
  (fp_line (start -5.65 -2.17) (end -5.65 2.17)
    (stroke (width 0.05) (type solid)) (layer "F.CrtYd") (tstamp 55834195-1a72-4365-a6d1-049509b79ce9))
  (fp_line (start -5.65 2.17) (end 5.65 2.17)
    (stroke (width 0.05) (type solid)) (layer "F.CrtYd") (tstamp ed6dabf7-e6be-40ac-8f16-4e7bae67474d))
  (fp_line (start 5.65 -2.17) (end -5.65 -2.17)
    (stroke (width 0.05) (type solid)) (layer "F.CrtYd") (tstamp 56ed3a3d-28a7-4b78-9733-9fcf2adcd536))
  (fp_line (start 5.65 2.17) (end 5.65 -2.17)
    (stroke (width 0.05) (type solid)) (layer "F.CrtYd") (tstamp b4a05703-beb3-40fa-a870-ec6fca4307c0))
  (fp_line (start -3.75 -0.9) (end -3 -1.92)
    (stroke (width 0.1) (type solid)) (layer "F.Fab") (tstamp b71c494b-8927-4db9-a6ac-deb52ccc2145))
  (fp_line (start -3.75 1.92) (end -3.75 -0.9)
    (stroke (width 0.1) (type solid)) (layer "F.Fab") (tstamp 02484cf0-b9cb-4f53-a7e1-88e5d0cd2eb3))
  (fp_line (start -3.75 1.92) (end 3.75 1.92)
    (stroke (width 0.1) (type solid)) (layer "F.Fab") (tstamp 0439ebd8-ccba-41dd-8c36-67cb827825b5))
  (fp_line (start -3 -1.92) (end 3.75 -1.92)
    (stroke (width 0.1) (type solid)) (layer "F.Fab") (tstamp 225ef79f-d8cf-4f2a-bfb0-bef06ce9292e))
  (fp_line (start 3.75 1.92) (end 3.75 -1.92)
    (stroke (width 0.1) (type solid)) (layer "F.Fab") (tstamp 196bbe9a-a6d1-432c-bfd5-a62df04e6362))
  (pad "1" smd rect (at -4.75 -1.27 90) (size 0.8 1.3) (layers "F.Cu" "F.Paste" "F.Mask") (tstamp 09356d0b-0d47-437e-a867-568d0c25bd40))
  (pad "2" smd rect (at -4.75 0 90) (size 0.8 1.3) (layers "F.Cu" "F.Paste" "F.Mask") (tstamp d98a4797-7ec7-4b71-91a4-b83d9aff85ea))
  (pad "3" smd rect (at -4.75 1.27 90) (size 0.8 1.3) (layers "F.Cu" "F.Paste" "F.Mask") (tstamp 3ca1dcd1-b361-4c8e-b79e-e2cb6fabd719))
  (pad "4" smd rect (at 4.75 1.27 90) (size 0.8 1.3) (layers "F.Cu" "F.Paste" "F.Mask") (tstamp 3cbecd89-efc5-4eab-b6bf-7037f77c5836))
  (pad "5" smd rect (at 4.75 0 90) (size 0.8 1.3) (layers "F.Cu" "F.Paste" "F.Mask") (tstamp d58c7cee-a0ca-47df-8f40-0c50f2679a58))
  (pad "6" smd rect (at 4.75 -1.27 90) (size 0.8 1.3) (layers "F.Cu" "F.Paste" "F.Mask") (tstamp fc84be8d-2735-4d2c-8ee1-2ec74f11ecbf))
  (model "${KICAD6_3DMODEL_DIR}/Package_SO.3dshapes/SO-6L_10x3.84mm_P1.27mm.wrl"
    (offset (xyz 0 0 0))
    (scale (xyz 1 1 1))
    (rotate (xyz 0 0 0))
  )
)
