(footprint "SSO-8_13.6x6.3mm_P1.27mm_Clearance14.2mm" (version 20221018) (generator pcbnew)
  (layer "F.Cu")
  (descr "8-Lead Plastic Stretched Small Outline (SSO/Stretched SO), see https://docs.broadcom.com/cs/Satellite?blobcol=urldata&blobheader=application%2Fpdf&blobheadername1=Content-Disposition&blobheadername2=Content-Type&blobheadername3=MDT-Type&blobheadervalue1=attachment%3Bfilename%3DIPD-Selection-Guide_AV00-0254EN_030617.pdf&blobheadervalue2=application%2Fx-download&blobheadervalue3=abinary%253B%2Bcharset%253DUTF-8&blobkey=id&blobnocache=true&blobtable=MungoBlobs&blobwhere=1430884105675&ssbinary=true")
  (tags "SSO Stretched SO SOIC Pitch 1.27")
  (attr smd)
  (fp_text reference "REF**" (at 0 -4.2) (layer "F.SilkS")
      (effects (font (size 1 1) (thickness 0.15)))
    (tstamp 02f8fe61-6cdb-44cf-8f91-cf114a90639e)
  )
  (fp_text value "SSO-8_13.6x6.3mm_P1.27mm_Clearance14.2mm" (at 0 4.4) (layer "F.Fab")
      (effects (font (size 1 1) (thickness 0.15)))
    (tstamp ecb713b9-983f-431d-9fdb-6c878d7da3bb)
  )
  (fp_text user "${REFERENCE}" (at 0 0) (layer "F.Fab")
      (effects (font (size 1 1) (thickness 0.15)))
    (tstamp 12848b55-91d9-465b-b717-adf2356e9000)
  )
  (fp_line (start -8.8 -2.4) (end -7 -2.4)
    (stroke (width 0.12) (type solid)) (layer "F.SilkS") (tstamp d77c3668-5487-499c-99c7-a38dfc2aa28a))
  (fp_line (start -7 -3.3) (end 7 -3.3)
    (stroke (width 0.12) (type solid)) (layer "F.SilkS") (tstamp 9770279c-afa3-44d9-9063-35712188f9d5))
  (fp_line (start -7 -2.4) (end -7 -3.3)
    (stroke (width 0.12) (type solid)) (layer "F.SilkS") (tstamp a2958493-ffdb-4983-bb27-49dae1211904))
  (fp_line (start -7 3.3) (end -7 2.4)
    (stroke (width 0.12) (type solid)) (layer "F.SilkS") (tstamp 19d83a90-761f-437e-8d92-ec5d77b0319b))
  (fp_line (start 7 -3.3) (end 7 -2.4)
    (stroke (width 0.12) (type solid)) (layer "F.SilkS") (tstamp fbf57baa-a8ca-4b9e-8cf2-c4edfad0e2c9))
  (fp_line (start 7 2.4) (end 7 3.3)
    (stroke (width 0.12) (type solid)) (layer "F.SilkS") (tstamp b190e94b-98af-49e6-86f5-3cb74734841f))
  (fp_line (start 7 3.3) (end -7 3.3)
    (stroke (width 0.12) (type solid)) (layer "F.SilkS") (tstamp c867b453-bdc7-45d7-98a1-aae3efdcc426))
  (fp_line (start -9.18 -3.35) (end -9.18 3.35)
    (stroke (width 0.05) (type solid)) (layer "F.CrtYd") (tstamp b89df2f0-ceb5-4df4-9a89-b04411411326))
  (fp_line (start -9.18 -3.35) (end 9.19 -3.35)
    (stroke (width 0.05) (type solid)) (layer "F.CrtYd") (tstamp 0e865d64-7271-4cf3-827d-5b4862efef96))
  (fp_line (start 9.19 3.35) (end -9.18 3.35)
    (stroke (width 0.05) (type solid)) (layer "F.CrtYd") (tstamp c59a9b9a-e210-406c-8986-4a98cf89224c))
  (fp_line (start 9.19 3.35) (end 9.19 -3.35)
    (stroke (width 0.05) (type solid)) (layer "F.CrtYd") (tstamp a35a3215-70a0-4833-b49e-f93b9676103f))
  (fp_line (start -6.8 -2.3) (end -6.8 3.1)
    (stroke (width 0.12) (type solid)) (layer "F.Fab") (tstamp 1b9c8687-34e5-45fb-abdd-1d034a1b02b8))
  (fp_line (start -6.8 3.1) (end 6.8 3.1)
    (stroke (width 0.12) (type solid)) (layer "F.Fab") (tstamp 21f357f9-d7be-4a45-9cc2-d815e78e8f47))
  (fp_line (start -6 -3.1) (end -6.8 -2.3)
    (stroke (width 0.12) (type solid)) (layer "F.Fab") (tstamp 3340d2cf-b188-49b8-8ddb-ae3caf798d88))
  (fp_line (start 6.8 -3.1) (end -6 -3.1)
    (stroke (width 0.12) (type solid)) (layer "F.Fab") (tstamp d7da7093-102e-4edf-ad72-8893c6e4a8d3))
  (fp_line (start 6.8 3.1) (end 6.8 -3.1)
    (stroke (width 0.12) (type solid)) (layer "F.Fab") (tstamp 9ba6ebdb-dc6f-4662-a596-46d25509e4ef))
  (pad "1" smd rect (at -7.98 -1.905) (size 1.905 0.64) (layers "F.Cu" "F.Paste" "F.Mask") (tstamp 44d7a80e-1a6c-434d-a712-487af6bf604f))
  (pad "2" smd rect (at -7.98 -0.635) (size 1.905 0.64) (layers "F.Cu" "F.Paste" "F.Mask") (tstamp 51432eb4-1031-4790-8842-244dce06e860))
  (pad "3" smd rect (at -7.98 0.635) (size 1.905 0.64) (layers "F.Cu" "F.Paste" "F.Mask") (tstamp 818fe723-44bf-41e6-83f8-019fa2790cc4))
  (pad "4" smd rect (at -7.98 1.905) (size 1.905 0.64) (layers "F.Cu" "F.Paste" "F.Mask") (tstamp 45b186e1-9a54-41d6-913e-351505ae1cf1))
  (pad "5" smd rect (at 7.98 1.905) (size 1.905 0.64) (layers "F.Cu" "F.Paste" "F.Mask") (tstamp ec4b2439-af3e-4044-853b-6277dc99520c))
  (pad "6" smd rect (at 7.98 0.635) (size 1.905 0.64) (layers "F.Cu" "F.Paste" "F.Mask") (tstamp 892a32a6-0a50-420a-9db2-fe926a4099bb))
  (pad "7" smd rect (at 7.98 -0.635) (size 1.905 0.64) (layers "F.Cu" "F.Paste" "F.Mask") (tstamp d7d9c313-489f-4fd6-b4be-55338446e151))
  (pad "8" smd rect (at 7.98 -1.905) (size 1.905 0.64) (layers "F.Cu" "F.Paste" "F.Mask") (tstamp d29824ac-b21d-43c4-872c-eea9167939ca))
  (model "${KICAD6_3DMODEL_DIR}/Package_SO.3dshapes/SSO-8_13.6x6.3mm_P1.27mm_Clearance14.2mm.wrl"
    (offset (xyz 0 0 0))
    (scale (xyz 1 1 1))
    (rotate (xyz 0 0 0))
  )
)
