(footprint "PQFP-132_24x24mm_P0.635mm_i386" (version 20221018) (generator pcbnew)
  (layer "F.Cu")
  (descr "PQFP, 132 pins, 24mm sq body, 0.635mm pitch, Intel 386EX (https://www.intel.com/content/dam/www/public/us/en/documents/packaging-databooks/packaging-chapter-02-databook.pdf, http://www.nxp.com/docs/en/application-note/AN4388.pdf)")
  (tags "PQFP 132 Intel 386EX")
  (attr smd)
  (fp_text reference "REF**" (at 0 -15.2) (layer "F.SilkS")
      (effects (font (size 1 1) (thickness 0.15)))
    (tstamp 0fffa07a-2872-4c6c-89de-f43b6b814451)
  )
  (fp_text value "PQFP-132_24x24mm_P0.635mm_i386" (at 0 1.5) (layer "F.Fab")
      (effects (font (size 1 1) (thickness 0.15)))
    (tstamp 93572720-231c-424c-a57b-b47f7960b78c)
  )
  (fp_text user "${REFERENCE}" (at 0 0) (layer "F.Fab")
      (effects (font (size 1 1) (thickness 0.15)))
    (tstamp 87d11c0a-c84e-463e-baa7-63c456b573e6)
  )
  (fp_line (start -14.12 -12.96) (end -12.96 -14.12)
    (stroke (width 0.12) (type solid)) (layer "F.SilkS") (tstamp 87c51d79-1a5c-4f20-8e33-fc0d668eb1de))
  (fp_line (start -14.12 -11.94) (end -14.12 -12.96)
    (stroke (width 0.12) (type solid)) (layer "F.SilkS") (tstamp 9834aa11-6168-4c19-a45a-1ee6a73a30b5))
  (fp_line (start -14.12 -11.94) (end -12.12 -10.67)
    (stroke (width 0.12) (type solid)) (layer "F.SilkS") (tstamp aaa491b6-9ca1-4b4b-84c6-b94540d12d4e))
  (fp_line (start -14.12 11.94) (end -14.12 12.96)
    (stroke (width 0.12) (type solid)) (layer "F.SilkS") (tstamp 73b634b9-0714-4eaa-99e0-50b05f747c5e))
  (fp_line (start -14.12 11.94) (end -12.12 10.67)
    (stroke (width 0.12) (type solid)) (layer "F.SilkS") (tstamp 1adc831f-cce6-4021-a32d-546d4a405c02))
  (fp_line (start -14.12 12.96) (end -12.96 14.12)
    (stroke (width 0.12) (type solid)) (layer "F.SilkS") (tstamp 55cae2a6-d2d5-4968-b9b1-4c0a018017b4))
  (fp_line (start -14.1 -10.6) (end -12.12 -10.6)
    (stroke (width 0.12) (type solid)) (layer "F.SilkS") (tstamp 7386f1de-d0be-4862-bba6-09e9e675cc93))
  (fp_line (start -12.12 -10.67) (end -12.12 -10.6)
    (stroke (width 0.12) (type solid)) (layer "F.SilkS") (tstamp 264ab779-dc8d-4e5a-ba1e-2beeea756bc0))
  (fp_line (start -12.12 10.67) (end -12.12 10.6)
    (stroke (width 0.12) (type solid)) (layer "F.SilkS") (tstamp b30c097e-8127-4408-ad39-d7648c355fea))
  (fp_line (start -11.94 -14.12) (end -12.96 -14.12)
    (stroke (width 0.12) (type solid)) (layer "F.SilkS") (tstamp d78085ac-48ec-4c50-9617-332362f10627))
  (fp_line (start -11.94 14.12) (end -12.96 14.12)
    (stroke (width 0.12) (type solid)) (layer "F.SilkS") (tstamp 612e76ba-d012-417d-aae3-adc62535dd15))
  (fp_line (start -10.67 -12.12) (end -11.94 -14.12)
    (stroke (width 0.12) (type solid)) (layer "F.SilkS") (tstamp 85393133-8f34-465f-80ae-6e77281598dd))
  (fp_line (start -10.67 12.12) (end -11.94 14.12)
    (stroke (width 0.12) (type solid)) (layer "F.SilkS") (tstamp 6f242f38-4c0f-4f0f-8172-1527e4d205eb))
  (fp_line (start -10.6 -12.12) (end -10.67 -12.12)
    (stroke (width 0.12) (type solid)) (layer "F.SilkS") (tstamp 11194977-08fb-4eeb-959f-c55ed434cfc3))
  (fp_line (start -10.6 12.12) (end -10.67 12.12)
    (stroke (width 0.12) (type solid)) (layer "F.SilkS") (tstamp 205a3e46-86b9-40cb-96de-39137b30f95a))
  (fp_line (start 10.6 -12.12) (end 10.67 -12.12)
    (stroke (width 0.12) (type solid)) (layer "F.SilkS") (tstamp 9977d0eb-fb62-4db9-a0ac-f4456bc4a3a0))
  (fp_line (start 10.6 12.12) (end 10.67 12.12)
    (stroke (width 0.12) (type solid)) (layer "F.SilkS") (tstamp c483fc70-6eed-45b0-b492-a0faebc0d240))
  (fp_line (start 10.67 -12.12) (end 11.94 -14.12)
    (stroke (width 0.12) (type solid)) (layer "F.SilkS") (tstamp ccea4c2c-6bd7-46f6-a721-af3a20fe2541))
  (fp_line (start 10.67 12.12) (end 11.94 14.12)
    (stroke (width 0.12) (type solid)) (layer "F.SilkS") (tstamp ae25953f-c8f9-420d-97f2-28aa2fdf36dd))
  (fp_line (start 11.94 -14.12) (end 12.96 -14.12)
    (stroke (width 0.12) (type solid)) (layer "F.SilkS") (tstamp 7be668bb-c7f1-4c29-b97e-2dc68aa8fe8d))
  (fp_line (start 11.94 14.12) (end 12.96 14.12)
    (stroke (width 0.12) (type solid)) (layer "F.SilkS") (tstamp 0bf5c11c-3065-4311-a183-7b55236286be))
  (fp_line (start 12.12 -10.67) (end 12.12 -10.6)
    (stroke (width 0.12) (type solid)) (layer "F.SilkS") (tstamp 52c1c254-1ff9-4263-987f-1d2064e23e69))
  (fp_line (start 12.12 10.67) (end 12.12 10.6)
    (stroke (width 0.12) (type solid)) (layer "F.SilkS") (tstamp e9f9b689-3d85-4dfc-a063-4bdb6b8c4579))
  (fp_line (start 14.12 -12.96) (end 12.96 -14.12)
    (stroke (width 0.12) (type solid)) (layer "F.SilkS") (tstamp c9d5f428-6122-4991-802d-3238b2be4087))
  (fp_line (start 14.12 -11.94) (end 12.12 -10.67)
    (stroke (width 0.12) (type solid)) (layer "F.SilkS") (tstamp 0fb3d236-00c9-4734-9f1f-3ab7892f4094))
  (fp_line (start 14.12 -11.94) (end 14.12 -12.96)
    (stroke (width 0.12) (type solid)) (layer "F.SilkS") (tstamp d5d2d828-9f6e-441e-8384-b054e9776f7f))
  (fp_line (start 14.12 11.94) (end 12.12 10.67)
    (stroke (width 0.12) (type solid)) (layer "F.SilkS") (tstamp bf162671-6404-4e10-b7b7-cc527fd79b3a))
  (fp_line (start 14.12 11.94) (end 14.12 12.96)
    (stroke (width 0.12) (type solid)) (layer "F.SilkS") (tstamp 7c76ebc8-fa2d-421c-a045-03ae0e63b031))
  (fp_line (start 14.12 12.96) (end 12.96 14.12)
    (stroke (width 0.12) (type solid)) (layer "F.SilkS") (tstamp a621f936-8fc4-42fe-be04-66c2986ee5b5))
  (fp_line (start -14.47 -14.47) (end -14.47 14.47)
    (stroke (width 0.05) (type solid)) (layer "F.CrtYd") (tstamp b5a00b49-bcc3-4c12-8a95-2c526e60c77e))
  (fp_line (start 14.47 -14.47) (end -14.47 -14.47)
    (stroke (width 0.05) (type solid)) (layer "F.CrtYd") (tstamp 8c62af89-f377-40e1-b89a-af363b8e8cc9))
  (fp_line (start 14.47 -14.47) (end 14.47 14.47)
    (stroke (width 0.05) (type solid)) (layer "F.CrtYd") (tstamp ab3c7fb0-d489-42a0-8976-a11df4d9e0e4))
  (fp_line (start 14.47 14.47) (end -14.47 14.47)
    (stroke (width 0.05) (type solid)) (layer "F.CrtYd") (tstamp 071a93f7-4d20-43f8-baed-7eea37adfc1c))
  (fp_line (start -14 -12.9) (end -12.9 -14)
    (stroke (width 0.1) (type solid)) (layer "F.Fab") (tstamp 4735cd41-8f90-4ce1-b31b-8b909bec43d6))
  (fp_line (start -14 -12) (end -14 -12.9)
    (stroke (width 0.1) (type solid)) (layer "F.Fab") (tstamp 8de9890a-bb55-42f6-a403-884bd1e048ec))
  (fp_line (start -14 -12) (end -12 -10.73)
    (stroke (width 0.1) (type solid)) (layer "F.Fab") (tstamp 76b24aa4-4b4c-4127-8918-9129a098c6ac))
  (fp_line (start -14 12) (end -14 12.9)
    (stroke (width 0.1) (type solid)) (layer "F.Fab") (tstamp 8fe33abe-8226-4702-a398-e27e44ed4668))
  (fp_line (start -14 12) (end -12 10.73)
    (stroke (width 0.1) (type solid)) (layer "F.Fab") (tstamp df97667e-24e8-46e1-818f-16d3f6becbcb))
  (fp_line (start -14 12.9) (end -12.9 14)
    (stroke (width 0.1) (type solid)) (layer "F.Fab") (tstamp bed44e07-24d8-4854-9114-078a47632df2))
  (fp_line (start -12.9 -14) (end -12 -14)
    (stroke (width 0.1) (type solid)) (layer "F.Fab") (tstamp 22da440f-13f0-46d7-be64-d7c0230127c0))
  (fp_line (start -12.9 14) (end -12 14)
    (stroke (width 0.1) (type solid)) (layer "F.Fab") (tstamp bac4aa64-c569-44e4-a9b0-44ed1ce55466))
  (fp_line (start -12 -14) (end -10.73 -12)
    (stroke (width 0.1) (type solid)) (layer "F.Fab") (tstamp 273f8db1-a5ac-48e0-bb1c-2807b39aa770))
  (fp_line (start -12 10.73) (end -12 -10.73)
    (stroke (width 0.1) (type solid)) (layer "F.Fab") (tstamp 406e9e0d-130c-4c93-a3c7-ddd8399eaaeb))
  (fp_line (start -12 14) (end -10.73 12)
    (stroke (width 0.1) (type solid)) (layer "F.Fab") (tstamp f9f11943-31fa-47c4-bc59-9e89d6ecba01))
  (fp_line (start -10.73 -12) (end 10.73 -12)
    (stroke (width 0.1) (type solid)) (layer "F.Fab") (tstamp d4205ccd-c43c-4673-96b8-fec75713ab50))
  (fp_line (start 10.73 12) (end -10.73 12)
    (stroke (width 0.1) (type solid)) (layer "F.Fab") (tstamp 3054f5f1-ec64-4b97-92db-0f97bd5c4fd5))
  (fp_line (start 12 -14) (end 10.73 -12)
    (stroke (width 0.1) (type solid)) (layer "F.Fab") (tstamp 9972dfed-9f0b-427c-a413-d74ca48817ce))
  (fp_line (start 12 -10.73) (end 12 10.73)
    (stroke (width 0.1) (type solid)) (layer "F.Fab") (tstamp 0eb31d0f-b891-4694-ab8e-68e825107826))
  (fp_line (start 12 14) (end 10.73 12)
    (stroke (width 0.1) (type solid)) (layer "F.Fab") (tstamp bb83ae30-187f-447a-bff7-144a968ab710))
  (fp_line (start 12.9 -14) (end 12 -14)
    (stroke (width 0.1) (type solid)) (layer "F.Fab") (tstamp 83b8ccfb-568b-42c4-82b0-742a0ab91eea))
  (fp_line (start 12.9 14) (end 12 14)
    (stroke (width 0.1) (type solid)) (layer "F.Fab") (tstamp ba55009f-17bf-4c25-950f-af3d593ca987))
  (fp_line (start 14 -12.9) (end 12.9 -14)
    (stroke (width 0.1) (type solid)) (layer "F.Fab") (tstamp 1fbab38a-2106-4dc4-8c02-86f79af02895))
  (fp_line (start 14 -12) (end 12 -10.73)
    (stroke (width 0.1) (type solid)) (layer "F.Fab") (tstamp 40f02582-5c53-41fd-b996-66f191e357ff))
  (fp_line (start 14 -12) (end 14 -12.9)
    (stroke (width 0.1) (type solid)) (layer "F.Fab") (tstamp 84090ef1-2388-4910-96a5-08d0415e248b))
  (fp_line (start 14 12) (end 12 10.73)
    (stroke (width 0.1) (type solid)) (layer "F.Fab") (tstamp 22400fdf-10b6-4b1c-9bc4-f0daa6e32023))
  (fp_line (start 14 12) (end 14 12.9)
    (stroke (width 0.1) (type solid)) (layer "F.Fab") (tstamp d2b40fc0-8165-4313-a133-5729b87ab223))
  (fp_line (start 14 12.9) (end 12.9 14)
    (stroke (width 0.1) (type solid)) (layer "F.Fab") (tstamp 66c5f61f-b4b5-4171-9298-07f03226a4eb))
  (pad "1" smd rect (at -13.4 -10.16) (size 1.635 0.38) (layers "F.Cu" "F.Paste" "F.Mask") (tstamp cd0fe4a8-a53c-41d7-9347-2625be31fcd9))
  (pad "2" smd rect (at -13.4 -9.525) (size 1.635 0.38) (layers "F.Cu" "F.Paste" "F.Mask") (tstamp a9297cb8-b9c4-4111-b8f4-b2768cbb1875))
  (pad "3" smd rect (at -13.4 -8.89) (size 1.635 0.38) (layers "F.Cu" "F.Paste" "F.Mask") (tstamp cee2b422-2cbd-4b90-ba57-22e35222cc1e))
  (pad "4" smd rect (at -13.4 -8.255) (size 1.635 0.38) (layers "F.Cu" "F.Paste" "F.Mask") (tstamp 2204f9eb-6dd0-4dd7-9748-4d00c9f5c1e3))
  (pad "5" smd rect (at -13.4 -7.62) (size 1.635 0.38) (layers "F.Cu" "F.Paste" "F.Mask") (tstamp 65133f72-da3b-44c2-abfd-6b30bbc75c3a))
  (pad "6" smd rect (at -13.4 -6.985) (size 1.635 0.38) (layers "F.Cu" "F.Paste" "F.Mask") (tstamp 00118866-531b-4956-9918-6a76457ef1ce))
  (pad "7" smd rect (at -13.4 -6.35) (size 1.635 0.38) (layers "F.Cu" "F.Paste" "F.Mask") (tstamp 0ab509e3-4d98-4f51-8609-d9923a1a9fe8))
  (pad "8" smd rect (at -13.4 -5.715) (size 1.635 0.38) (layers "F.Cu" "F.Paste" "F.Mask") (tstamp 2a515ebd-8f89-48b4-a37a-cd039fb3d70c))
  (pad "9" smd rect (at -13.4 -5.08) (size 1.635 0.38) (layers "F.Cu" "F.Paste" "F.Mask") (tstamp 1a751424-62d6-4c29-8950-09595219efd0))
  (pad "10" smd rect (at -13.4 -4.445) (size 1.635 0.38) (layers "F.Cu" "F.Paste" "F.Mask") (tstamp 85faae17-7ad9-42bd-9294-029a775ed1b6))
  (pad "11" smd rect (at -13.4 -3.81) (size 1.635 0.38) (layers "F.Cu" "F.Paste" "F.Mask") (tstamp 70a8d399-9dbb-49b7-82b5-38627a22838e))
  (pad "12" smd rect (at -13.4 -3.175) (size 1.635 0.38) (layers "F.Cu" "F.Paste" "F.Mask") (tstamp 6f9276bd-b519-452d-999e-1a2c3ef445ec))
  (pad "13" smd rect (at -13.4 -2.54) (size 1.635 0.38) (layers "F.Cu" "F.Paste" "F.Mask") (tstamp 942f490a-dffd-4ceb-b558-652d0623639d))
  (pad "14" smd rect (at -13.4 -1.905) (size 1.635 0.38) (layers "F.Cu" "F.Paste" "F.Mask") (tstamp 2e911c82-87cd-47cc-bb77-d8c7ca768b8f))
  (pad "15" smd rect (at -13.4 -1.27) (size 1.635 0.38) (layers "F.Cu" "F.Paste" "F.Mask") (tstamp 2c6cf470-4c01-4a35-87d8-15259d75b941))
  (pad "16" smd rect (at -13.4 -0.635) (size 1.635 0.38) (layers "F.Cu" "F.Paste" "F.Mask") (tstamp 76f782aa-1b41-4e49-a9c0-984f05a3d6a0))
  (pad "17" smd rect (at -13.4 0) (size 1.635 0.38) (layers "F.Cu" "F.Paste" "F.Mask") (tstamp 4484ac2f-dfa0-4454-8fe9-f6212731de52))
  (pad "18" smd rect (at -13.4 0.635) (size 1.635 0.38) (layers "F.Cu" "F.Paste" "F.Mask") (tstamp f13af709-9368-4cc5-b681-bbb376b2b9d2))
  (pad "19" smd rect (at -13.4 1.27) (size 1.635 0.38) (layers "F.Cu" "F.Paste" "F.Mask") (tstamp d9f20055-f7a8-4eb2-825c-f36ccbbe1897))
  (pad "20" smd rect (at -13.4 1.905) (size 1.635 0.38) (layers "F.Cu" "F.Paste" "F.Mask") (tstamp 185982b3-f27d-406f-91ad-68f5facf3e50))
  (pad "21" smd rect (at -13.4 2.54) (size 1.635 0.38) (layers "F.Cu" "F.Paste" "F.Mask") (tstamp 9e107204-8e08-449d-b10a-433ee3b05e38))
  (pad "22" smd rect (at -13.4 3.175) (size 1.635 0.38) (layers "F.Cu" "F.Paste" "F.Mask") (tstamp b64ea163-3cd3-473b-b8ae-866179fc245a))
  (pad "23" smd rect (at -13.4 3.81) (size 1.635 0.38) (layers "F.Cu" "F.Paste" "F.Mask") (tstamp a370fedb-6bf1-4bda-b6bb-9c3ca6c73eac))
  (pad "24" smd rect (at -13.4 4.445) (size 1.635 0.38) (layers "F.Cu" "F.Paste" "F.Mask") (tstamp 60442ae3-c06e-47be-b61f-4f288e4360d7))
  (pad "25" smd rect (at -13.4 5.08) (size 1.635 0.38) (layers "F.Cu" "F.Paste" "F.Mask") (tstamp e78430a6-0803-4e45-b49c-e655e8a7718b))
  (pad "26" smd rect (at -13.4 5.715) (size 1.635 0.38) (layers "F.Cu" "F.Paste" "F.Mask") (tstamp 6e04a1a7-d173-40d1-ac5a-633fc0ef7b06))
  (pad "27" smd rect (at -13.4 6.35) (size 1.635 0.38) (layers "F.Cu" "F.Paste" "F.Mask") (tstamp 966373c8-0169-49cd-93b0-c8d7c6bd7107))
  (pad "28" smd rect (at -13.4 6.985) (size 1.635 0.38) (layers "F.Cu" "F.Paste" "F.Mask") (tstamp e9fae0df-fddf-46f7-ab29-c1a57bb8c87a))
  (pad "29" smd rect (at -13.4 7.62) (size 1.635 0.38) (layers "F.Cu" "F.Paste" "F.Mask") (tstamp 07fab96f-92c2-4c41-8f48-c17ad07e5d3f))
  (pad "30" smd rect (at -13.4 8.255) (size 1.635 0.38) (layers "F.Cu" "F.Paste" "F.Mask") (tstamp 547d6d81-f57f-4d3b-8998-a7c7ec5cd711))
  (pad "31" smd rect (at -13.4 8.89) (size 1.635 0.38) (layers "F.Cu" "F.Paste" "F.Mask") (tstamp f25ec718-9e05-4bc7-9131-ad77e281853f))
  (pad "32" smd rect (at -13.4 9.525) (size 1.635 0.38) (layers "F.Cu" "F.Paste" "F.Mask") (tstamp f0a7ff13-9b15-4014-a484-cc33cc7e49bc))
  (pad "33" smd rect (at -13.4 10.16) (size 1.635 0.38) (layers "F.Cu" "F.Paste" "F.Mask") (tstamp f8beb157-0175-4313-8cc3-daadf614eb6e))
  (pad "34" smd rect (at -10.16 13.4) (size 0.38 1.635) (layers "F.Cu" "F.Paste" "F.Mask") (tstamp 80ba3263-8787-4a68-b926-51a09f40a616))
  (pad "35" smd rect (at -9.525 13.4) (size 0.38 1.635) (layers "F.Cu" "F.Paste" "F.Mask") (tstamp 5ab4d477-6d81-4eba-bfc0-a8241998368d))
  (pad "36" smd rect (at -8.89 13.4) (size 0.38 1.635) (layers "F.Cu" "F.Paste" "F.Mask") (tstamp 62d4e6b2-069e-4f1c-a549-eb8730fc97a4))
  (pad "37" smd rect (at -8.255 13.4) (size 0.38 1.635) (layers "F.Cu" "F.Paste" "F.Mask") (tstamp 6d4f5d0d-0d8e-43a0-ab7e-7f8ec7782483))
  (pad "38" smd rect (at -7.62 13.4) (size 0.38 1.635) (layers "F.Cu" "F.Paste" "F.Mask") (tstamp a17c7060-a905-4ebf-9858-e39577e89c08))
  (pad "39" smd rect (at -6.985 13.4) (size 0.38 1.635) (layers "F.Cu" "F.Paste" "F.Mask") (tstamp 63e89f86-cd93-44fe-9049-aecdf9855782))
  (pad "40" smd rect (at -6.35 13.4) (size 0.38 1.635) (layers "F.Cu" "F.Paste" "F.Mask") (tstamp 6699cb2a-8cc1-4ef4-aa7a-5b2479becef1))
  (pad "41" smd rect (at -5.715 13.4) (size 0.38 1.635) (layers "F.Cu" "F.Paste" "F.Mask") (tstamp 474428fb-3338-48fb-be37-0bb0408757fc))
  (pad "42" smd rect (at -5.08 13.4) (size 0.38 1.635) (layers "F.Cu" "F.Paste" "F.Mask") (tstamp e39e6567-bd6d-48e9-9f79-5d7bba8fe17e))
  (pad "43" smd rect (at -4.445 13.4) (size 0.38 1.635) (layers "F.Cu" "F.Paste" "F.Mask") (tstamp 4f469025-8c37-4470-868d-a98310a8a1f2))
  (pad "44" smd rect (at -3.81 13.4) (size 0.38 1.635) (layers "F.Cu" "F.Paste" "F.Mask") (tstamp 36af9141-d8b1-47f5-a90b-41c54d14a9eb))
  (pad "45" smd rect (at -3.175 13.4) (size 0.38 1.635) (layers "F.Cu" "F.Paste" "F.Mask") (tstamp 2b2af41b-4c11-4c72-8395-1e3a75801420))
  (pad "46" smd rect (at -2.54 13.4) (size 0.38 1.635) (layers "F.Cu" "F.Paste" "F.Mask") (tstamp 53dcd2cc-acbb-4b74-abf9-90ebcf5f8227))
  (pad "47" smd rect (at -1.905 13.4) (size 0.38 1.635) (layers "F.Cu" "F.Paste" "F.Mask") (tstamp 40869eda-cd1a-4a0d-bd7b-f3fd199c2fc0))
  (pad "48" smd rect (at -1.27 13.4) (size 0.38 1.635) (layers "F.Cu" "F.Paste" "F.Mask") (tstamp 31ab61e4-07e6-4c9a-940a-8d4eb9c81c2b))
  (pad "49" smd rect (at -0.635 13.4) (size 0.38 1.635) (layers "F.Cu" "F.Paste" "F.Mask") (tstamp c6742153-b150-43dd-9002-87a27f0fea77))
  (pad "50" smd rect (at 0 13.4) (size 0.38 1.635) (layers "F.Cu" "F.Paste" "F.Mask") (tstamp 5d530740-eccc-499c-8a08-fd2c0b4f7ff3))
  (pad "51" smd rect (at 0.635 13.4) (size 0.38 1.635) (layers "F.Cu" "F.Paste" "F.Mask") (tstamp 6b21bef5-279a-407b-b074-c8ee4c52410a))
  (pad "52" smd rect (at 1.27 13.4) (size 0.38 1.635) (layers "F.Cu" "F.Paste" "F.Mask") (tstamp 533c90e1-b66d-4aa8-8a00-e5f1b89ba110))
  (pad "53" smd rect (at 1.905 13.4) (size 0.38 1.635) (layers "F.Cu" "F.Paste" "F.Mask") (tstamp 1489bed0-879a-42ef-a30d-184a662b8113))
  (pad "54" smd rect (at 2.54 13.4) (size 0.38 1.635) (layers "F.Cu" "F.Paste" "F.Mask") (tstamp c6058761-df70-462f-a4e4-3596cf27ca07))
  (pad "55" smd rect (at 3.175 13.4) (size 0.38 1.635) (layers "F.Cu" "F.Paste" "F.Mask") (tstamp 2deb20af-e363-4512-bdbb-86e6880e2d6d))
  (pad "56" smd rect (at 3.81 13.4) (size 0.38 1.635) (layers "F.Cu" "F.Paste" "F.Mask") (tstamp 74a36bec-ed88-4fa8-ba23-3672d792059c))
  (pad "57" smd rect (at 4.445 13.4) (size 0.38 1.635) (layers "F.Cu" "F.Paste" "F.Mask") (tstamp 27eae94c-fa4c-465e-ad0e-4a1c6436daab))
  (pad "58" smd rect (at 5.08 13.4) (size 0.38 1.635) (layers "F.Cu" "F.Paste" "F.Mask") (tstamp 2f1e5ede-696a-4918-b45a-66a9d8aa7a21))
  (pad "59" smd rect (at 5.715 13.4) (size 0.38 1.635) (layers "F.Cu" "F.Paste" "F.Mask") (tstamp 294030b5-9de4-4239-9d5e-057ae0a3d0cc))
  (pad "60" smd rect (at 6.35 13.4) (size 0.38 1.635) (layers "F.Cu" "F.Paste" "F.Mask") (tstamp 8824ed59-b699-49c2-8824-0b23bece5598))
  (pad "61" smd rect (at 6.985 13.4) (size 0.38 1.635) (layers "F.Cu" "F.Paste" "F.Mask") (tstamp cbe4ee13-d9d2-4b93-8550-c94bbde1d333))
  (pad "62" smd rect (at 7.62 13.4) (size 0.38 1.635) (layers "F.Cu" "F.Paste" "F.Mask") (tstamp 368b387f-02e8-40a4-a653-d9f160b2da99))
  (pad "63" smd rect (at 8.255 13.4) (size 0.38 1.635) (layers "F.Cu" "F.Paste" "F.Mask") (tstamp 4e2ca5a6-f0b3-4888-bb05-8e9671ef284d))
  (pad "64" smd rect (at 8.89 13.4) (size 0.38 1.635) (layers "F.Cu" "F.Paste" "F.Mask") (tstamp d6fe6110-919b-446e-8241-4beb759432a4))
  (pad "65" smd rect (at 9.525 13.4) (size 0.38 1.635) (layers "F.Cu" "F.Paste" "F.Mask") (tstamp d99370e2-66f5-4de9-b270-9f777a5b38de))
  (pad "66" smd rect (at 10.16 13.4) (size 0.38 1.635) (layers "F.Cu" "F.Paste" "F.Mask") (tstamp 04fd2c13-b773-4697-bf87-a59e410df546))
  (pad "67" smd rect (at 13.4 10.16) (size 1.635 0.38) (layers "F.Cu" "F.Paste" "F.Mask") (tstamp 08d4225a-c355-4867-b454-9ce905f6f835))
  (pad "68" smd rect (at 13.4 9.525) (size 1.635 0.38) (layers "F.Cu" "F.Paste" "F.Mask") (tstamp 957f73b2-eed0-4b60-b430-486a4e710736))
  (pad "69" smd rect (at 13.4 8.89) (size 1.635 0.38) (layers "F.Cu" "F.Paste" "F.Mask") (tstamp b2651eef-e343-4770-abbd-d6afe63a3bbd))
  (pad "70" smd rect (at 13.4 8.255) (size 1.635 0.38) (layers "F.Cu" "F.Paste" "F.Mask") (tstamp c6c62954-92f6-4fcd-88fd-f0031991812d))
  (pad "71" smd rect (at 13.4 7.62) (size 1.635 0.38) (layers "F.Cu" "F.Paste" "F.Mask") (tstamp aa42e38f-a0f7-4fb1-9cff-2f83fdbc20bb))
  (pad "72" smd rect (at 13.4 6.985) (size 1.635 0.38) (layers "F.Cu" "F.Paste" "F.Mask") (tstamp e79bddcd-2a0f-4f77-8775-7c9a26ef1d77))
  (pad "73" smd rect (at 13.4 6.35) (size 1.635 0.38) (layers "F.Cu" "F.Paste" "F.Mask") (tstamp a0c2211e-3d7b-4737-b611-64c6808b128f))
  (pad "74" smd rect (at 13.4 5.715) (size 1.635 0.38) (layers "F.Cu" "F.Paste" "F.Mask") (tstamp 4553c795-d127-49ce-b2cc-3f86eb8b514a))
  (pad "75" smd rect (at 13.4 5.08) (size 1.635 0.38) (layers "F.Cu" "F.Paste" "F.Mask") (tstamp 9c803251-6c5e-4762-8115-bf391964b5ef))
  (pad "76" smd rect (at 13.4 4.445) (size 1.635 0.38) (layers "F.Cu" "F.Paste" "F.Mask") (tstamp 19386eb3-dcbf-4b73-bcd9-cff905659958))
  (pad "77" smd rect (at 13.4 3.81) (size 1.635 0.38) (layers "F.Cu" "F.Paste" "F.Mask") (tstamp 5d5d1f28-d6c2-48ee-9869-559f22aabfd6))
  (pad "78" smd rect (at 13.4 3.175) (size 1.635 0.38) (layers "F.Cu" "F.Paste" "F.Mask") (tstamp cbb6d728-1477-4e2d-a97b-3719c94e9cf3))
  (pad "79" smd rect (at 13.4 2.54) (size 1.635 0.38) (layers "F.Cu" "F.Paste" "F.Mask") (tstamp 0502650b-3d75-4b34-bca4-fd09e42fc443))
  (pad "80" smd rect (at 13.4 1.905) (size 1.635 0.38) (layers "F.Cu" "F.Paste" "F.Mask") (tstamp 809a58ec-ba57-4cf8-8cdd-074145e6e4fc))
  (pad "81" smd rect (at 13.4 1.27) (size 1.635 0.38) (layers "F.Cu" "F.Paste" "F.Mask") (tstamp 70a4cf22-e63d-4ee7-a166-d29419016465))
  (pad "82" smd rect (at 13.4 0.635) (size 1.635 0.38) (layers "F.Cu" "F.Paste" "F.Mask") (tstamp e319cc52-0ced-4208-96ad-76d9a95e8df0))
  (pad "83" smd rect (at 13.4 0) (size 1.635 0.38) (layers "F.Cu" "F.Paste" "F.Mask") (tstamp 99dc1f3b-0821-4d8e-bd68-bbcd1e92f35d))
  (pad "84" smd rect (at 13.4 -0.635) (size 1.635 0.38) (layers "F.Cu" "F.Paste" "F.Mask") (tstamp c828e5e0-e3bf-44cf-9cdc-7e62957f7d3a))
  (pad "85" smd rect (at 13.4 -1.27) (size 1.635 0.38) (layers "F.Cu" "F.Paste" "F.Mask") (tstamp fd259dff-8553-4b99-9a8e-eadfab1eb63a))
  (pad "86" smd rect (at 13.4 -1.905) (size 1.635 0.38) (layers "F.Cu" "F.Paste" "F.Mask") (tstamp e0db963e-ccb1-4e77-acd0-d37c0e1f6b31))
  (pad "87" smd rect (at 13.4 -2.54) (size 1.635 0.38) (layers "F.Cu" "F.Paste" "F.Mask") (tstamp b7273a6a-9d5f-4fb4-8a8e-85fc67accc1c))
  (pad "88" smd rect (at 13.4 -3.175) (size 1.635 0.38) (layers "F.Cu" "F.Paste" "F.Mask") (tstamp 2130f474-d923-451b-9075-334c8b05cf01))
  (pad "89" smd rect (at 13.4 -3.81) (size 1.635 0.38) (layers "F.Cu" "F.Paste" "F.Mask") (tstamp 83f78980-2221-4c6d-b4c4-662d88b30d62))
  (pad "90" smd rect (at 13.4 -4.445) (size 1.635 0.38) (layers "F.Cu" "F.Paste" "F.Mask") (tstamp fa68bbdd-8e2a-4f35-b5a4-c0c349cc27d1))
  (pad "91" smd rect (at 13.4 -5.08) (size 1.635 0.38) (layers "F.Cu" "F.Paste" "F.Mask") (tstamp 28c6adc1-2f6b-452a-a999-b89e5ad9d17f))
  (pad "92" smd rect (at 13.4 -5.715) (size 1.635 0.38) (layers "F.Cu" "F.Paste" "F.Mask") (tstamp eaaff0a8-fb16-4cde-a008-2481a7c0cc0b))
  (pad "93" smd rect (at 13.4 -6.35) (size 1.635 0.38) (layers "F.Cu" "F.Paste" "F.Mask") (tstamp 9a73b13c-1903-4d43-990d-b2bab32682e6))
  (pad "94" smd rect (at 13.4 -6.985) (size 1.635 0.38) (layers "F.Cu" "F.Paste" "F.Mask") (tstamp 89aa5e6b-99b3-4b3c-9c33-4d7156291f6c))
  (pad "95" smd rect (at 13.4 -7.62) (size 1.635 0.38) (layers "F.Cu" "F.Paste" "F.Mask") (tstamp 6c71f4e4-79ad-4dd1-b56f-f490c2e36dc4))
  (pad "96" smd rect (at 13.4 -8.255) (size 1.635 0.38) (layers "F.Cu" "F.Paste" "F.Mask") (tstamp 1bd2c6a8-8348-404b-862c-7621b314284e))
  (pad "97" smd rect (at 13.4 -8.89) (size 1.635 0.38) (layers "F.Cu" "F.Paste" "F.Mask") (tstamp c2f95fa5-ae54-41d4-a2cd-69aafab1cbc3))
  (pad "98" smd rect (at 13.4 -9.525) (size 1.635 0.38) (layers "F.Cu" "F.Paste" "F.Mask") (tstamp 5da4701d-22e4-47ab-8e6c-5398a76d2e36))
  (pad "99" smd rect (at 13.4 -10.16) (size 1.635 0.38) (layers "F.Cu" "F.Paste" "F.Mask") (tstamp dc6226e8-d97c-49a3-b979-919ccb1abc2d))
  (pad "100" smd rect (at 10.16 -13.4) (size 0.38 1.635) (layers "F.Cu" "F.Paste" "F.Mask") (tstamp 6883c79f-cb9c-47ea-b9c2-28133be142f0))
  (pad "101" smd rect (at 9.525 -13.4) (size 0.38 1.635) (layers "F.Cu" "F.Paste" "F.Mask") (tstamp 2879a976-aa24-408b-878b-31511b89d780))
  (pad "102" smd rect (at 8.89 -13.4) (size 0.38 1.635) (layers "F.Cu" "F.Paste" "F.Mask") (tstamp 794d32c9-cbc7-40e5-ab83-93e97d6b0b82))
  (pad "103" smd rect (at 8.255 -13.4) (size 0.38 1.635) (layers "F.Cu" "F.Paste" "F.Mask") (tstamp a080847f-7e8b-4c83-8e32-7c4d7b0a5630))
  (pad "104" smd rect (at 7.62 -13.4) (size 0.38 1.635) (layers "F.Cu" "F.Paste" "F.Mask") (tstamp c24f302d-7f3f-4473-8f89-99139236bb43))
  (pad "105" smd rect (at 6.985 -13.4) (size 0.38 1.635) (layers "F.Cu" "F.Paste" "F.Mask") (tstamp 52915e7c-50b2-483d-94d6-d7204ad18462))
  (pad "106" smd rect (at 6.35 -13.4) (size 0.38 1.635) (layers "F.Cu" "F.Paste" "F.Mask") (tstamp c8d4ade6-138b-4043-a1a7-11be61763176))
  (pad "107" smd rect (at 5.715 -13.4) (size 0.38 1.635) (layers "F.Cu" "F.Paste" "F.Mask") (tstamp af5f9ecc-5200-47c7-a60a-8440452dd350))
  (pad "108" smd rect (at 5.08 -13.4) (size 0.38 1.635) (layers "F.Cu" "F.Paste" "F.Mask") (tstamp 8b151050-37eb-40a6-a45c-093be397c446))
  (pad "109" smd rect (at 4.445 -13.4) (size 0.38 1.635) (layers "F.Cu" "F.Paste" "F.Mask") (tstamp 827754f8-135e-483b-8b2a-e947252610e9))
  (pad "110" smd rect (at 3.81 -13.4) (size 0.38 1.635) (layers "F.Cu" "F.Paste" "F.Mask") (tstamp 71cb10e1-f69c-4b94-8763-39c241765c6d))
  (pad "111" smd rect (at 3.175 -13.4) (size 0.38 1.635) (layers "F.Cu" "F.Paste" "F.Mask") (tstamp 5fa892cb-0abc-43cf-af8c-17fdf351f08e))
  (pad "112" smd rect (at 2.54 -13.4) (size 0.38 1.635) (layers "F.Cu" "F.Paste" "F.Mask") (tstamp df144442-4211-473d-a47a-d6e4b9540b99))
  (pad "113" smd rect (at 1.905 -13.4) (size 0.38 1.635) (layers "F.Cu" "F.Paste" "F.Mask") (tstamp 41eeefb2-dc3d-460b-b0da-74c181919214))
  (pad "114" smd rect (at 1.27 -13.4) (size 0.38 1.635) (layers "F.Cu" "F.Paste" "F.Mask") (tstamp e15abe68-a2a1-469d-9a9d-7bc0efa60b33))
  (pad "115" smd rect (at 0.635 -13.4) (size 0.38 1.635) (layers "F.Cu" "F.Paste" "F.Mask") (tstamp 1e19ccd8-fb54-4262-a88e-3215d1f05e64))
  (pad "116" smd rect (at 0 -13.4) (size 0.38 1.635) (layers "F.Cu" "F.Paste" "F.Mask") (tstamp 35ce6a8b-e5c2-4484-83c2-b463e6148773))
  (pad "117" smd rect (at -0.635 -13.4) (size 0.38 1.635) (layers "F.Cu" "F.Paste" "F.Mask") (tstamp af948f8c-6829-4b6d-b092-ebd70249bcfb))
  (pad "118" smd rect (at -1.27 -13.4) (size 0.38 1.635) (layers "F.Cu" "F.Paste" "F.Mask") (tstamp 93e1298a-5eb0-4aea-9721-dd129a165b35))
  (pad "119" smd rect (at -1.905 -13.4) (size 0.38 1.635) (layers "F.Cu" "F.Paste" "F.Mask") (tstamp d0744a8e-7172-4591-8fe0-6bcc443522f4))
  (pad "120" smd rect (at -2.54 -13.4) (size 0.38 1.635) (layers "F.Cu" "F.Paste" "F.Mask") (tstamp 063a88b2-7bc3-4a47-abe7-98bd68f64065))
  (pad "121" smd rect (at -3.175 -13.4) (size 0.38 1.635) (layers "F.Cu" "F.Paste" "F.Mask") (tstamp 36ddc8b7-9f3f-4d41-be8b-462a7ed4c49c))
  (pad "122" smd rect (at -3.81 -13.4) (size 0.38 1.635) (layers "F.Cu" "F.Paste" "F.Mask") (tstamp 3aaa1cc6-3036-48eb-91b6-609f20f23b0a))
  (pad "123" smd rect (at -4.445 -13.4) (size 0.38 1.635) (layers "F.Cu" "F.Paste" "F.Mask") (tstamp e5179418-4da9-4631-a083-72cc4133b633))
  (pad "124" smd rect (at -5.08 -13.4) (size 0.38 1.635) (layers "F.Cu" "F.Paste" "F.Mask") (tstamp a808657d-bbdb-4c51-b8ca-ac8f455d6a15))
  (pad "125" smd rect (at -5.715 -13.4) (size 0.38 1.635) (layers "F.Cu" "F.Paste" "F.Mask") (tstamp 8a93e63f-71ad-4736-92f2-ce6a11f2de67))
  (pad "126" smd rect (at -6.35 -13.4) (size 0.38 1.635) (layers "F.Cu" "F.Paste" "F.Mask") (tstamp c5cdeb43-3a02-4c64-9c65-bc63e027d991))
  (pad "127" smd rect (at -6.985 -13.4) (size 0.38 1.635) (layers "F.Cu" "F.Paste" "F.Mask") (tstamp b14d410e-5797-4e53-9ba1-b59de0fee0fe))
  (pad "128" smd rect (at -7.62 -13.4) (size 0.38 1.635) (layers "F.Cu" "F.Paste" "F.Mask") (tstamp af6b3572-7813-48de-b041-624a5d9dc44d))
  (pad "129" smd rect (at -8.255 -13.4) (size 0.38 1.635) (layers "F.Cu" "F.Paste" "F.Mask") (tstamp ffacabe2-1057-4016-a532-69f2fa4dcf2f))
  (pad "130" smd rect (at -8.89 -13.4) (size 0.38 1.635) (layers "F.Cu" "F.Paste" "F.Mask") (tstamp 31139b0c-676f-447d-92c6-670a95c752bc))
  (pad "131" smd rect (at -9.525 -13.4) (size 0.38 1.635) (layers "F.Cu" "F.Paste" "F.Mask") (tstamp cc1daa3d-75c4-4e66-ae9c-0a2305fc5677))
  (pad "132" smd rect (at -10.16 -13.4) (size 0.38 1.635) (layers "F.Cu" "F.Paste" "F.Mask") (tstamp 90a8d51b-e71d-4901-8721-f42fad77f401))
  (model "${KICAD6_3DMODEL_DIR}/Package_QFP.3dshapes/PQFP-132_24x24mm_P0.635mm_i386.wrl"
    (offset (xyz 0 0 0))
    (scale (xyz 1 1 1))
    (rotate (xyz 0 0 0))
  )
)
