(footprint "NXP_XSON-16" (version 20221018) (generator pcbnew)
  (layer "F.Cu")
  (descr "http://www.nxp.com/documents/outline_drawing/SOT1341-1.pdf")
  (tags "NXP XSON SOT-1341")
  (attr smd)
  (fp_text reference "REF**" (at 0 -3) (layer "F.SilkS")
      (effects (font (size 1 1) (thickness 0.15)))
    (tstamp da4752ce-0c17-4e51-bed3-147a8cb45ebc)
  )
  (fp_text value "NXP_XSON-16" (at 0 3) (layer "F.Fab")
      (effects (font (size 1 1) (thickness 0.15)))
    (tstamp d1d53906-9ea0-4eab-8d1b-c22f3214a533)
  )
  (fp_text user "${REFERENCE}" (at 0 0) (layer "F.Fab")
      (effects (font (size 0.6 0.6) (thickness 0.1)))
    (tstamp 6e0b03b2-aa36-4b16-9cc9-dafc2a5328bf)
  )
  (fp_line (start -1.35 -1.7) (end -1.35 -1.6)
    (stroke (width 0.12) (type solid)) (layer "F.SilkS") (tstamp fdaf6fa4-f498-40d6-b9a0-e8d77d431c62))
  (fp_line (start -1.35 -1.7) (end -0.35 -1.7)
    (stroke (width 0.12) (type solid)) (layer "F.SilkS") (tstamp 026ab7b2-2082-4f14-9ad7-d90a9d63359a))
  (fp_line (start -1.35 1.6) (end -1.35 1.7)
    (stroke (width 0.12) (type solid)) (layer "F.SilkS") (tstamp e03efb6a-f9d9-4aeb-ba3a-980af0bec3cc))
  (fp_line (start -1.35 1.7) (end -1.05 1.7)
    (stroke (width 0.12) (type solid)) (layer "F.SilkS") (tstamp e1df616c-6922-49f4-aebe-7439bc717e2a))
  (fp_line (start 1.35 -1.7) (end 1.05 -1.7)
    (stroke (width 0.12) (type solid)) (layer "F.SilkS") (tstamp 2d7a7681-bcde-497e-adcc-203b2f4eff29))
  (fp_line (start 1.35 -1.7) (end 1.35 -1.6)
    (stroke (width 0.12) (type solid)) (layer "F.SilkS") (tstamp 82dbab84-9d82-491e-9058-8394fcffa466))
  (fp_line (start 1.35 1.6) (end 1.35 1.7)
    (stroke (width 0.12) (type solid)) (layer "F.SilkS") (tstamp 3c5364e6-e0a7-4853-9522-8167bfe71feb))
  (fp_line (start 1.35 1.7) (end 1.05 1.7)
    (stroke (width 0.12) (type solid)) (layer "F.SilkS") (tstamp 0fc6c072-be8a-465c-966a-b749cb7632c0))
  (fp_line (start -1.67 -1.85) (end -1.67 1.85)
    (stroke (width 0.05) (type solid)) (layer "F.CrtYd") (tstamp 4ac3aab6-f74c-4088-b5d4-7176de555ff5))
  (fp_line (start -1.67 -1.85) (end 1.67 -1.85)
    (stroke (width 0.05) (type solid)) (layer "F.CrtYd") (tstamp b53d447f-fa5c-4269-8050-88f362862f80))
  (fp_line (start 1.67 1.85) (end -1.67 1.85)
    (stroke (width 0.05) (type solid)) (layer "F.CrtYd") (tstamp 846397de-ded6-4f64-87f5-0b70956b5ed5))
  (fp_line (start 1.67 1.85) (end 1.67 -1.85)
    (stroke (width 0.05) (type solid)) (layer "F.CrtYd") (tstamp 3499b44f-3f4f-430e-a9e4-ade48512374e))
  (fp_line (start -1.25 -0.975) (end -1.25 1.6)
    (stroke (width 0.1) (type solid)) (layer "F.Fab") (tstamp 336fc587-27a7-45aa-9386-0cff032387c5))
  (fp_line (start -1.25 1.6) (end 1.25 1.6)
    (stroke (width 0.1) (type solid)) (layer "F.Fab") (tstamp e2151f2b-1a3b-4be4-8c50-8f001bb0c49f))
  (fp_line (start -0.65 -1.6) (end -1.25 -1)
    (stroke (width 0.1) (type solid)) (layer "F.Fab") (tstamp 931b35cb-63f7-418f-9bba-45724bad13ec))
  (fp_line (start -0.625 -1.6) (end 1.25 -1.6)
    (stroke (width 0.1) (type solid)) (layer "F.Fab") (tstamp 32d53566-bc4f-4b25-8ca3-adb6c40a3c69))
  (fp_line (start 1.25 -1.6) (end 1.25 1.6)
    (stroke (width 0.1) (type solid)) (layer "F.Fab") (tstamp e6d3f9b4-fdb4-4a05-b1f6-7b0813117653))
  (pad "1" smd rect (at -0.885 -1.4) (size 1.07 0.22) (layers "F.Cu" "F.Paste" "F.Mask") (tstamp f814c65f-4b58-4033-90a4-a3eca09a06b9))
  (pad "2" smd rect (at -0.885 -1) (size 1.07 0.22) (layers "F.Cu" "F.Paste" "F.Mask") (tstamp 098557f1-a49e-4652-b03b-8a7dee25c937))
  (pad "3" smd rect (at -0.885 -0.6) (size 1.07 0.22) (layers "F.Cu" "F.Paste" "F.Mask") (tstamp ed72b2ab-f739-4744-ac7c-3cec71d0df5c))
  (pad "4" smd rect (at -0.885 -0.2) (size 1.07 0.22) (layers "F.Cu" "F.Paste" "F.Mask") (tstamp d16e7af6-7b74-4642-814b-edc44b3b9f03))
  (pad "5" smd rect (at -0.885 0.2) (size 1.07 0.22) (layers "F.Cu" "F.Paste" "F.Mask") (tstamp c2e418ce-7f36-4917-9021-6e7e58559f7d))
  (pad "6" smd rect (at -0.885 0.6) (size 1.07 0.22) (layers "F.Cu" "F.Paste" "F.Mask") (tstamp 2f533169-de47-4ef7-8b77-469e8822922c))
  (pad "7" smd rect (at -0.885 1) (size 1.07 0.22) (layers "F.Cu" "F.Paste" "F.Mask") (tstamp 5eb55e46-228b-412c-8937-8dfa248a63ac))
  (pad "8" smd rect (at -0.885 1.4) (size 1.07 0.22) (layers "F.Cu" "F.Paste" "F.Mask") (tstamp 148d2da6-0d46-48ea-9d65-cbd2f2e1106e))
  (pad "9" smd rect (at 0.885 1.4) (size 1.07 0.22) (layers "F.Cu" "F.Paste" "F.Mask") (tstamp 77952bf5-cf4b-48f3-aac3-a7ea282f5230))
  (pad "10" smd rect (at 0.885 1) (size 1.07 0.22) (layers "F.Cu" "F.Paste" "F.Mask") (tstamp d887b054-a481-4333-9727-4184380a78b9))
  (pad "11" smd rect (at 0.885 0.6) (size 1.07 0.22) (layers "F.Cu" "F.Paste" "F.Mask") (tstamp c5ccd34a-7d9a-48c5-98a7-ccd41914dff9))
  (pad "12" smd rect (at 0.885 0.2) (size 1.07 0.22) (layers "F.Cu" "F.Paste" "F.Mask") (tstamp 7917f119-819e-4b67-a300-57eed1d0c45a))
  (pad "13" smd rect (at 0.885 -0.2) (size 1.07 0.22) (layers "F.Cu" "F.Paste" "F.Mask") (tstamp 1d9ea748-a1cb-4a87-98d3-d42956fe74a7))
  (pad "14" smd rect (at 0.885 -0.6) (size 1.07 0.22) (layers "F.Cu" "F.Paste" "F.Mask") (tstamp 727c517f-0378-4d52-90c2-96a28356530f))
  (pad "15" smd rect (at 0.885 -1) (size 1.07 0.22) (layers "F.Cu" "F.Paste" "F.Mask") (tstamp 54449b85-1d52-43f8-ace7-117c660a1fdb))
  (pad "16" smd rect (at 0.885 -1.4) (size 1.07 0.22) (layers "F.Cu" "F.Paste" "F.Mask") (tstamp e67e2ce2-0faa-4480-ae6a-4a82111084d9))
  (model "${KICAD6_3DMODEL_DIR}/Package_SON.3dshapes/NXP_XSON-16.wrl"
    (offset (xyz 0 0 0))
    (scale (xyz 1 1 1))
    (rotate (xyz 0 0 0))
  )
)
