(footprint "VSON-10-1EP_3x3mm_P0.5mm_EP1.65x2.4mm" (version 20221018) (generator pcbnew)
  (layer "F.Cu")
  (descr "VSON 10 Thermal on 11 3x3mm Pitch 0.5mm http://chip.tomsk.ru/chip/chipdoc.nsf/Package/D8A64DD165C2AAD9472579400024FC41!OpenDocument")
  (tags "VSON 10 Thermal on 11 3x3mm Pitch 0.5mm")
  (attr smd)
  (fp_text reference "REF**" (at 0 -2.9) (layer "F.SilkS")
      (effects (font (size 1 1) (thickness 0.15)))
    (tstamp 69b4ab1e-2a00-45a6-b9d4-43f351604769)
  )
  (fp_text value "VSON-10-1EP_3x3mm_P0.5mm_EP1.65x2.4mm" (at 0 3) (layer "F.Fab")
      (effects (font (size 1 1) (thickness 0.15)))
    (tstamp 4eb82f24-ee65-46df-bd3b-1d52a3194119)
  )
  (fp_text user "${REFERENCE}" (at 0 0) (layer "F.Fab")
      (effects (font (size 0.8 0.8) (thickness 0.1)))
    (tstamp 03281512-f65d-4865-8c16-1ea610a7c9ce)
  )
  (fp_line (start -1.6 -1.6) (end -1.6 -1.5)
    (stroke (width 0.12) (type solid)) (layer "F.SilkS") (tstamp 87b79936-7325-4356-95d4-b48d649bfce2))
  (fp_line (start -1.6 -1.5) (end -2 -1.5)
    (stroke (width 0.12) (type solid)) (layer "F.SilkS") (tstamp ff175642-22c6-4ce4-bc95-26dbb5e494bd))
  (fp_line (start -1.6 1.5) (end -1.6 1.6)
    (stroke (width 0.12) (type solid)) (layer "F.SilkS") (tstamp f112b686-6d87-4bc7-8616-4bf2b9bc2d02))
  (fp_line (start -1.6 1.6) (end -0.8 1.6)
    (stroke (width 0.12) (type solid)) (layer "F.SilkS") (tstamp d8419edd-1407-4198-ac38-9fb159526a5e))
  (fp_line (start -0.8 -1.6) (end -1.6 -1.6)
    (stroke (width 0.12) (type solid)) (layer "F.SilkS") (tstamp d982f6a5-3794-4bda-88c3-c2a5e28d6d69))
  (fp_line (start 0.8 -1.6) (end 1.6 -1.6)
    (stroke (width 0.12) (type solid)) (layer "F.SilkS") (tstamp fe52d51d-64e3-4a9b-9fee-9b75b3373652))
  (fp_line (start 0.8 1.6) (end 1.6 1.6)
    (stroke (width 0.12) (type solid)) (layer "F.SilkS") (tstamp e7f2f063-730a-4368-944f-ac4b3b693492))
  (fp_line (start 1.6 -1.6) (end 1.6 -1.5)
    (stroke (width 0.12) (type solid)) (layer "F.SilkS") (tstamp 7862d4b6-d20f-4d7e-bf78-20647053839e))
  (fp_line (start 1.6 1.6) (end 1.6 1.5)
    (stroke (width 0.12) (type solid)) (layer "F.SilkS") (tstamp 4f061f62-540b-4ecc-b85b-a8530ab0b064))
  (fp_line (start -2.15 -2.15) (end 2.15 -2.15)
    (stroke (width 0.05) (type solid)) (layer "F.CrtYd") (tstamp cb9fec5d-c8f7-4691-8bcb-08d8f8440080))
  (fp_line (start -2.15 2.15) (end -2.15 -2.15)
    (stroke (width 0.05) (type solid)) (layer "F.CrtYd") (tstamp efc41f78-f0f6-4b16-b551-88daf9baf57c))
  (fp_line (start 2.15 -2.15) (end 2.15 2.15)
    (stroke (width 0.05) (type solid)) (layer "F.CrtYd") (tstamp 0ea6997c-f220-48e5-8bad-82a14e057771))
  (fp_line (start 2.15 2.15) (end -2.15 2.15)
    (stroke (width 0.05) (type solid)) (layer "F.CrtYd") (tstamp c46e0b44-6be5-4bda-8d6a-b3cd6a9cf532))
  (fp_line (start -1.5 -0.5) (end -1.5 1.5)
    (stroke (width 0.1) (type solid)) (layer "F.Fab") (tstamp 366b7aa0-1c31-441e-9292-f51dd3258ef6))
  (fp_line (start -1.5 -0.5) (end -0.5 -1.5)
    (stroke (width 0.1) (type solid)) (layer "F.Fab") (tstamp 0e9c45f7-8fe7-4944-b0f9-7c09cd00e7fb))
  (fp_line (start -1.5 1.5) (end 1.5 1.5)
    (stroke (width 0.1) (type solid)) (layer "F.Fab") (tstamp b16f25fe-e6fd-45a5-a1fd-a8006310c43a))
  (fp_line (start -0.5 -1.5) (end 1.5 -1.5)
    (stroke (width 0.1) (type solid)) (layer "F.Fab") (tstamp 3da8d4f2-3d8f-433a-b086-6aa03cd1155b))
  (fp_line (start 1.5 -1.5) (end 1.5 1.5)
    (stroke (width 0.1) (type solid)) (layer "F.Fab") (tstamp 13ce9ea0-46f0-4510-b05b-ea0b775d9dd5))
  (pad "" smd rect (at -0.4125 -0.8) (size 0.64 0.64) (layers "F.Paste") (tstamp 6fd7f877-34f6-47c5-941b-c1701a7ab63e))
  (pad "" smd rect (at -0.4125 0) (size 0.64 0.64) (layers "F.Paste") (tstamp c784c17e-a9ed-4b52-9406-4e719ca1e493))
  (pad "" smd rect (at -0.4125 0.8) (size 0.64 0.64) (layers "F.Paste") (tstamp a29c555b-3ff5-480a-81ae-2cd46ef097b9))
  (pad "" smd rect (at 0.4125 -0.8) (size 0.64 0.64) (layers "F.Paste") (tstamp 1f43ddd8-bf82-4b79-9f83-509ced69e8b9))
  (pad "" smd rect (at 0.4125 0) (size 0.64 0.64) (layers "F.Paste") (tstamp 9c35f8e6-ec9a-4028-8133-6443199c767f))
  (pad "" smd rect (at 0.4125 0.8) (size 0.64 0.64) (layers "F.Paste") (tstamp f996b6cf-2fbe-4e6e-bbf5-b9f6375c60d2))
  (pad "1" smd rect (at -1.475 -1) (size 0.85 0.28) (layers "F.Cu" "F.Paste" "F.Mask") (tstamp 18cc6f42-6871-42ef-900e-29fe87b20612))
  (pad "2" smd rect (at -1.475 -0.5) (size 0.85 0.28) (layers "F.Cu" "F.Paste" "F.Mask") (tstamp a0b2d2c4-083a-4e62-9883-ba417d3269e7))
  (pad "3" smd rect (at -1.475 0) (size 0.85 0.28) (layers "F.Cu" "F.Paste" "F.Mask") (tstamp d6c996b1-503f-4f04-9818-17df8ebc7f98))
  (pad "4" smd rect (at -1.475 0.5) (size 0.85 0.28) (layers "F.Cu" "F.Paste" "F.Mask") (tstamp 69d93236-e963-43d5-a207-4080e8196173))
  (pad "5" smd rect (at -1.475 1) (size 0.85 0.28) (layers "F.Cu" "F.Paste" "F.Mask") (tstamp fbf1ee35-5164-4b8b-95d4-b8ec75b84008))
  (pad "6" smd rect (at 1.475 1) (size 0.85 0.28) (layers "F.Cu" "F.Paste" "F.Mask") (tstamp 036405a1-098b-4d54-87c2-15fa81eb5dd9))
  (pad "7" smd rect (at 1.475 0.5) (size 0.85 0.28) (layers "F.Cu" "F.Paste" "F.Mask") (tstamp 6fdf8978-1b70-4e0a-b7b2-b1d4ac2f3973))
  (pad "8" smd rect (at 1.475 0) (size 0.85 0.28) (layers "F.Cu" "F.Paste" "F.Mask") (tstamp 99003f9f-39ef-49e5-8a8e-f644435d64a9))
  (pad "9" smd rect (at 1.475 -0.5) (size 0.85 0.28) (layers "F.Cu" "F.Paste" "F.Mask") (tstamp a8b0c3e5-c007-4243-a4d4-821c2861610f))
  (pad "10" smd rect (at 1.475 -1) (size 0.85 0.28) (layers "F.Cu" "F.Paste" "F.Mask") (tstamp 28e89f8a-00db-4636-b218-58f1ba81713e))
  (pad "11" smd rect (at -0.25 -1.55) (size 0.28 0.7) (layers "F.Cu" "F.Paste" "F.Mask") (tstamp 86d3d6a0-360e-4039-b1b8-88327c493554))
  (pad "11" smd rect (at -0.25 1.55) (size 0.28 0.7) (layers "F.Cu" "F.Paste" "F.Mask") (tstamp 69cc3614-446c-4ffb-ae61-0fa7bbced11b))
  (pad "11" smd rect (at 0 0) (size 1.65 2.4) (layers "F.Cu" "F.Mask") (tstamp 4f8c51c1-384e-4e38-9de5-1f21a2b6c0b7))
  (pad "11" smd rect (at 0.25 -1.55) (size 0.28 0.7) (layers "F.Cu" "F.Paste" "F.Mask") (tstamp e7f43b0a-2060-426a-a34b-81659b531dbf))
  (pad "11" smd rect (at 0.25 1.55) (size 0.28 0.7) (layers "F.Cu" "F.Paste" "F.Mask") (tstamp c9057838-1bce-4494-9ad2-72d86467ccd4))
  (model "${KICAD6_3DMODEL_DIR}/Package_SON.3dshapes/VSON-10-1EP_3x3mm_P0.5mm_EP1.65x2.4mm.wrl"
    (offset (xyz 0 0 0))
    (scale (xyz 1 1 1))
    (rotate (xyz 0 0 0))
  )
)
