(footprint "WSON-16_3.3x1.35_P0.4mm" (version 20221018) (generator pcbnew)
  (layer "F.Cu")
  (descr "WSON-16 3.3 x 1.35mm  Pitch 0.4mm http://www.chip.tomsk.ru/chip/chipdoc.nsf/Package/C67E729A4D6C883A4725793E004C8739!OpenDocument")
  (tags "WSON-16 3.3 x 1.35mm  Pitch 0.4mm")
  (attr smd)
  (fp_text reference "REF**" (at -0.004943 -3) (layer "F.SilkS")
      (effects (font (size 1 1) (thickness 0.15)))
    (tstamp e3adadfd-b9d0-495d-944e-75742f18c7f8)
  )
  (fp_text value "WSON-16_3.3x1.35_P0.4mm" (at -0.004943 3) (layer "F.Fab")
      (effects (font (size 1 1) (thickness 0.15)))
    (tstamp 75321e9f-bd13-4664-930e-b07a388d9481)
  )
  (fp_text user "${REFERENCE}" (at -0.004943 0 90) (layer "F.Fab")
      (effects (font (size 0.75 0.75) (thickness 0.1)))
    (tstamp 73b20ff7-e3f6-44db-a2c2-81caf35f7fc7)
  )
  (fp_line (start 0.7 -1.75) (end -1.05 -1.75)
    (stroke (width 0.12) (type solid)) (layer "F.SilkS") (tstamp 34124a63-e965-4be6-b447-0155dd8da516))
  (fp_line (start 0.7 1.75) (end -0.7 1.75)
    (stroke (width 0.12) (type solid)) (layer "F.SilkS") (tstamp 13869dd9-dac0-4370-9703-1a39eb655721))
  (fp_line (start -1.12 -1.9) (end 1.12 -1.9)
    (stroke (width 0.05) (type solid)) (layer "F.CrtYd") (tstamp 9a4cc137-f97a-4f36-9a59-c16400fdeded))
  (fp_line (start -1.12 1.9) (end -1.12 -1.9)
    (stroke (width 0.05) (type solid)) (layer "F.CrtYd") (tstamp 9e17a4d2-aa9d-4b49-97c5-03b32147806f))
  (fp_line (start 1.12 -1.9) (end 1.12 1.9)
    (stroke (width 0.05) (type solid)) (layer "F.CrtYd") (tstamp 676bc61c-dafb-4e97-a6ac-71bd17e2cfe4))
  (fp_line (start 1.12 1.9) (end -1.12 1.9)
    (stroke (width 0.05) (type solid)) (layer "F.CrtYd") (tstamp f411fde7-dcbc-423b-8f8c-9948a3a64377))
  (fp_line (start -0.675 1.65) (end -0.675 -1.4)
    (stroke (width 0.1) (type solid)) (layer "F.Fab") (tstamp d59d0eb9-7107-49a1-ba32-25ef2227019c))
  (fp_line (start -0.425 -1.65) (end -0.675 -1.4)
    (stroke (width 0.1) (type solid)) (layer "F.Fab") (tstamp b76eef35-edb3-48c4-a9a6-5e20f5571413))
  (fp_line (start -0.425 -1.65) (end 0.675 -1.65)
    (stroke (width 0.1) (type solid)) (layer "F.Fab") (tstamp d0d2e403-1131-4d53-aa76-ff275ad0640b))
  (fp_line (start 0.675 -1.65) (end 0.675 1.65)
    (stroke (width 0.1) (type solid)) (layer "F.Fab") (tstamp 1d4daacc-d9a1-4bce-a8a3-3bb1f19c3d72))
  (fp_line (start 0.675 1.65) (end -0.675 1.65)
    (stroke (width 0.1) (type solid)) (layer "F.Fab") (tstamp e71d3f3b-2786-4936-9218-71f71f35ee13))
  (pad "1" smd rect (at -0.625 -1.4 270) (size 0.2 0.5) (layers "F.Cu" "F.Paste" "F.Mask") (tstamp 581314a2-08de-435a-b8c9-bed0cf26afa8))
  (pad "2" smd rect (at -0.625 -1 270) (size 0.2 0.5) (layers "F.Cu" "F.Paste" "F.Mask") (tstamp 845826a7-bd66-4d1b-84fd-265b8d9927b0))
  (pad "3" smd rect (at -0.625 -0.6 270) (size 0.2 0.5) (layers "F.Cu" "F.Paste" "F.Mask") (tstamp 1c8e7d6a-9b5a-4f37-89a1-fb760bdf44d7))
  (pad "4" smd rect (at -0.625 -0.2 270) (size 0.2 0.5) (layers "F.Cu" "F.Paste" "F.Mask") (tstamp 1363cd35-f68b-4427-a35d-acac11f9ce53))
  (pad "5" smd rect (at -0.625 0.2 270) (size 0.2 0.5) (layers "F.Cu" "F.Paste" "F.Mask") (tstamp 9eed670d-41ef-431a-8bc8-a82a0c67edcc))
  (pad "6" smd rect (at -0.625 0.6 270) (size 0.2 0.5) (layers "F.Cu" "F.Paste" "F.Mask") (tstamp 94476b32-228a-4754-9f89-3a1c77512795))
  (pad "7" smd rect (at -0.625 1 270) (size 0.2 0.5) (layers "F.Cu" "F.Paste" "F.Mask") (tstamp c6a80b37-bac0-45f2-95be-166b8a5f2e13))
  (pad "8" smd rect (at -0.625 1.4 270) (size 0.2 0.5) (layers "F.Cu" "F.Paste" "F.Mask") (tstamp 733c0884-6650-4ed0-b820-3f56c071dff0))
  (pad "9" smd rect (at 0.625 1.4 270) (size 0.2 0.5) (layers "F.Cu" "F.Paste" "F.Mask") (tstamp 06a38c3d-d66d-4b4c-b55d-e1635ced4f19))
  (pad "10" smd rect (at 0.625 1 270) (size 0.2 0.5) (layers "F.Cu" "F.Paste" "F.Mask") (tstamp 632456ba-dd92-4d9f-b02e-0e2cece1eecd))
  (pad "11" smd rect (at 0.625 0.6 270) (size 0.2 0.5) (layers "F.Cu" "F.Paste" "F.Mask") (tstamp cc9d0449-75f5-4a63-8d82-409e5f67d0e4))
  (pad "12" smd rect (at 0.625 0.2 270) (size 0.2 0.5) (layers "F.Cu" "F.Paste" "F.Mask") (tstamp d1f7e4da-c363-43bd-acdb-1da1cc230c3d))
  (pad "13" smd rect (at 0.625 -0.2 270) (size 0.2 0.5) (layers "F.Cu" "F.Paste" "F.Mask") (tstamp 5e388426-47c8-4c55-bf62-b673b3902637))
  (pad "14" smd rect (at 0.625 -0.6 270) (size 0.2 0.5) (layers "F.Cu" "F.Paste" "F.Mask") (tstamp bbc0fa70-7029-41a2-96f0-830153c8a19e))
  (pad "15" smd rect (at 0.625 -1 270) (size 0.2 0.5) (layers "F.Cu" "F.Paste" "F.Mask") (tstamp 4da5816b-b5e6-4ae3-89f2-9d0a97b94c12))
  (pad "16" smd rect (at 0.625 -1.4 270) (size 0.2 0.5) (layers "F.Cu" "F.Paste" "F.Mask") (tstamp 49aed64f-ee15-4937-bd9f-fa3564f3ae85))
  (pad "17" smd rect (at 0 -1.05 270) (size 0.7 0.4) (layers "F.Cu" "F.Paste" "F.Mask") (tstamp a34ada52-3ffc-4f13-aa9a-3b7e18b1b9bc))
  (pad "17" smd rect (at 0 -0.35 270) (size 0.7 0.4) (layers "F.Cu" "F.Paste" "F.Mask") (tstamp 146d367b-b67b-4233-9139-c6379237c0fa))
  (pad "17" smd rect (at 0 0.35 270) (size 0.7 0.4) (layers "F.Cu" "F.Paste" "F.Mask") (tstamp f067cdc4-cc1d-4c5f-bb6d-297fd1e6cf78))
  (pad "17" smd rect (at 0 1.05 270) (size 0.7 0.4) (layers "F.Cu" "F.Paste" "F.Mask") (tstamp 128480a4-f260-49f8-af96-bf10b2428de1))
  (model "${KICAD6_3DMODEL_DIR}/Package_SON.3dshapes/WSON-16_3.3x1.35_P0.4mm.wrl"
    (offset (xyz 0 0 0))
    (scale (xyz 1 1 1))
    (rotate (xyz 0 0 0))
  )
)
