(footprint "BGA-324_19.0x19.0mm_Layout18x18_P1.0mm_Ball0.5mm_Pad0.4mm_NSMD" (version 20221018) (generator pcbnew)
  (layer "F.Cu")
  (descr "BGA-324, https://www.altera.com/content/dam/altera-www/global/en_US/pdfs/literature/packaging/04r00233-03.pdf")
  (tags "BGA-324")
  (attr smd)
  (fp_text reference "REF**" (at 0 -10.7) (layer "F.SilkS")
      (effects (font (size 1 1) (thickness 0.15)))
    (tstamp b6a58db4-4867-4e6e-a2e3-da0f94b220f0)
  )
  (fp_text value "BGA-324_19.0x19.0mm_Layout18x18_P1.0mm_Ball0.5mm_Pad0.4mm_NSMD" (at 0 10.7) (layer "F.Fab")
      (effects (font (size 1 1) (thickness 0.15)))
    (tstamp fa3deafd-2b11-42bd-a5ca-aa286b26b0bb)
  )
  (fp_text user "${REFERENCE}" (at 0 0) (layer "F.Fab")
      (effects (font (size 1 1) (thickness 0.15)))
    (tstamp ba6ccbc9-6ed9-4503-a1d3-78b4840af474)
  )
  (fp_line (start -9.6 -8.6) (end -9.6 9.6)
    (stroke (width 0.12) (type solid)) (layer "F.SilkS") (tstamp 4c6f4903-ae94-4bcc-89e9-21699a253a0f))
  (fp_line (start -9.6 9.6) (end 9.6 9.6)
    (stroke (width 0.12) (type solid)) (layer "F.SilkS") (tstamp 777e862a-7a0b-4f09-9027-9592c746f846))
  (fp_line (start -8.6 -9.6) (end -9.6 -8.6)
    (stroke (width 0.12) (type solid)) (layer "F.SilkS") (tstamp e571a325-0efe-412c-9a6c-5103565feb94))
  (fp_line (start 9.6 -9.6) (end -8.6 -9.6)
    (stroke (width 0.12) (type solid)) (layer "F.SilkS") (tstamp 24851662-ca04-4072-b565-21f6e6a639c9))
  (fp_line (start 9.6 9.6) (end 9.6 -9.6)
    (stroke (width 0.12) (type solid)) (layer "F.SilkS") (tstamp 36422250-3731-48af-a4da-9ad08b1f76f0))
  (fp_rect (start 10.5 10.5) (end -10.5 -10.5)
    (stroke (width 0.05) (type solid)) (fill none) (layer "F.CrtYd") (tstamp 8918a522-6fb1-4209-b5b9-d264f363579b))
  (fp_line (start -9.5 -8.5) (end -9.5 9.5)
    (stroke (width 0.1) (type solid)) (layer "F.Fab") (tstamp 17fa8880-96d7-46e6-8ee3-cb359cc1f99b))
  (fp_line (start -9.5 9.5) (end 9.5 9.5)
    (stroke (width 0.1) (type solid)) (layer "F.Fab") (tstamp 567220ad-957a-4d66-8840-ccb11bf4984d))
  (fp_line (start -8.5 -9.5) (end -9.5 -8.5)
    (stroke (width 0.1) (type solid)) (layer "F.Fab") (tstamp 410065c8-94fe-4b37-b839-06b1a3a18194))
  (fp_line (start 9.5 -9.5) (end -8.5 -9.5)
    (stroke (width 0.1) (type solid)) (layer "F.Fab") (tstamp 7dbb5fdb-79ef-4b52-b65a-f9e4f1c427a9))
  (fp_line (start 9.5 9.5) (end 9.5 -9.5)
    (stroke (width 0.1) (type solid)) (layer "F.Fab") (tstamp cd157892-5c8f-4e82-ad0f-11780bfd7d17))
  (pad "A1" smd circle (at -8.5 -8.5) (size 0.4 0.4) (layers "F.Cu" "F.Paste" "F.Mask") (tstamp a229d68c-706d-4440-9205-884d61ab0e55))
  (pad "A2" smd circle (at -7.5 -8.5) (size 0.4 0.4) (layers "F.Cu" "F.Paste" "F.Mask") (tstamp 0bff8c67-daf2-4492-8313-3d7e0b403edf))
  (pad "A3" smd circle (at -6.5 -8.5) (size 0.4 0.4) (layers "F.Cu" "F.Paste" "F.Mask") (tstamp 5e4231a4-3e11-4536-80c8-375a5346a425))
  (pad "A4" smd circle (at -5.5 -8.5) (size 0.4 0.4) (layers "F.Cu" "F.Paste" "F.Mask") (tstamp c21ae1f5-7aa9-4237-86c0-cbdfd737053d))
  (pad "A5" smd circle (at -4.5 -8.5) (size 0.4 0.4) (layers "F.Cu" "F.Paste" "F.Mask") (tstamp e104661b-7be1-49a4-909f-d3ee44ae5d85))
  (pad "A6" smd circle (at -3.5 -8.5) (size 0.4 0.4) (layers "F.Cu" "F.Paste" "F.Mask") (tstamp c5e9d8d7-e1a6-42f2-85ce-a27f0d14bd40))
  (pad "A7" smd circle (at -2.5 -8.5) (size 0.4 0.4) (layers "F.Cu" "F.Paste" "F.Mask") (tstamp 6cee2892-8b8e-4e41-8393-a77aa5f4358b))
  (pad "A8" smd circle (at -1.5 -8.5) (size 0.4 0.4) (layers "F.Cu" "F.Paste" "F.Mask") (tstamp c91c0370-9dd1-410b-9cac-bc63f696652d))
  (pad "A9" smd circle (at -0.5 -8.5) (size 0.4 0.4) (layers "F.Cu" "F.Paste" "F.Mask") (tstamp 26fa96df-6775-4672-9b75-ac47f9af8630))
  (pad "A10" smd circle (at 0.5 -8.5) (size 0.4 0.4) (layers "F.Cu" "F.Paste" "F.Mask") (tstamp 12805e57-f0f5-4a49-adeb-a2d67c9c9329))
  (pad "A11" smd circle (at 1.5 -8.5) (size 0.4 0.4) (layers "F.Cu" "F.Paste" "F.Mask") (tstamp e2bd855a-8d03-4223-9674-516058b422b8))
  (pad "A12" smd circle (at 2.5 -8.5) (size 0.4 0.4) (layers "F.Cu" "F.Paste" "F.Mask") (tstamp ea4a967a-2fc6-4bb5-9256-0ffc3eeb9c10))
  (pad "A13" smd circle (at 3.5 -8.5) (size 0.4 0.4) (layers "F.Cu" "F.Paste" "F.Mask") (tstamp e330bf59-2397-41a2-895e-ff8f58a21d82))
  (pad "A14" smd circle (at 4.5 -8.5) (size 0.4 0.4) (layers "F.Cu" "F.Paste" "F.Mask") (tstamp fad473ce-e1f2-44c0-b92a-e27ff830aade))
  (pad "A15" smd circle (at 5.5 -8.5) (size 0.4 0.4) (layers "F.Cu" "F.Paste" "F.Mask") (tstamp bb6dbeb4-3bef-46a2-9eb1-ae0da7eb5a4f))
  (pad "A16" smd circle (at 6.5 -8.5) (size 0.4 0.4) (layers "F.Cu" "F.Paste" "F.Mask") (tstamp 27b99391-d3ec-44c4-a15d-ddb5497c373d))
  (pad "A17" smd circle (at 7.5 -8.5) (size 0.4 0.4) (layers "F.Cu" "F.Paste" "F.Mask") (tstamp 4e73378c-6f53-49b1-a24d-3dc943b55fa9))
  (pad "A18" smd circle (at 8.5 -8.5) (size 0.4 0.4) (layers "F.Cu" "F.Paste" "F.Mask") (tstamp 6da71b4e-f026-4a99-95cd-53b42357277c))
  (pad "B1" smd circle (at -8.5 -7.5) (size 0.4 0.4) (layers "F.Cu" "F.Paste" "F.Mask") (tstamp 1cb67050-0778-4299-bf14-58de317b94d0))
  (pad "B2" smd circle (at -7.5 -7.5) (size 0.4 0.4) (layers "F.Cu" "F.Paste" "F.Mask") (tstamp 71e8a2ab-8e1c-4901-867f-f516ca726cbf))
  (pad "B3" smd circle (at -6.5 -7.5) (size 0.4 0.4) (layers "F.Cu" "F.Paste" "F.Mask") (tstamp f74d1c8c-143d-41f5-ace6-111af41122d6))
  (pad "B4" smd circle (at -5.5 -7.5) (size 0.4 0.4) (layers "F.Cu" "F.Paste" "F.Mask") (tstamp 2d3639cf-f240-4c29-a009-4088ab23b02a))
  (pad "B5" smd circle (at -4.5 -7.5) (size 0.4 0.4) (layers "F.Cu" "F.Paste" "F.Mask") (tstamp 3f90f2c1-b3d6-441d-b966-20d02e4694a1))
  (pad "B6" smd circle (at -3.5 -7.5) (size 0.4 0.4) (layers "F.Cu" "F.Paste" "F.Mask") (tstamp e000a046-29f8-4595-bc9f-16b2f90ea614))
  (pad "B7" smd circle (at -2.5 -7.5) (size 0.4 0.4) (layers "F.Cu" "F.Paste" "F.Mask") (tstamp 2d01dbde-ceff-4240-884d-a22ee6deba3e))
  (pad "B8" smd circle (at -1.5 -7.5) (size 0.4 0.4) (layers "F.Cu" "F.Paste" "F.Mask") (tstamp 7968cd24-9703-4ead-a4f5-541a21ffe905))
  (pad "B9" smd circle (at -0.5 -7.5) (size 0.4 0.4) (layers "F.Cu" "F.Paste" "F.Mask") (tstamp 263fa9e2-e9f7-443c-8c2a-9d9ae3dc16da))
  (pad "B10" smd circle (at 0.5 -7.5) (size 0.4 0.4) (layers "F.Cu" "F.Paste" "F.Mask") (tstamp 237e9544-fa62-4d8d-a21e-d58bdfbc177d))
  (pad "B11" smd circle (at 1.5 -7.5) (size 0.4 0.4) (layers "F.Cu" "F.Paste" "F.Mask") (tstamp 742d1f1e-ac28-47c0-ac1a-e64e153e3390))
  (pad "B12" smd circle (at 2.5 -7.5) (size 0.4 0.4) (layers "F.Cu" "F.Paste" "F.Mask") (tstamp 8a91b866-9cb1-4f13-8e55-0b42a9cbc35c))
  (pad "B13" smd circle (at 3.5 -7.5) (size 0.4 0.4) (layers "F.Cu" "F.Paste" "F.Mask") (tstamp 35363f40-fa19-4792-8f36-13d654dd2958))
  (pad "B14" smd circle (at 4.5 -7.5) (size 0.4 0.4) (layers "F.Cu" "F.Paste" "F.Mask") (tstamp c4136892-bb17-44ce-b8f3-69d5f935a798))
  (pad "B15" smd circle (at 5.5 -7.5) (size 0.4 0.4) (layers "F.Cu" "F.Paste" "F.Mask") (tstamp e814e673-2ebe-41f8-b6c6-aa82887e787c))
  (pad "B16" smd circle (at 6.5 -7.5) (size 0.4 0.4) (layers "F.Cu" "F.Paste" "F.Mask") (tstamp c9816d63-467a-4e12-8082-0ccf430a67ae))
  (pad "B17" smd circle (at 7.5 -7.5) (size 0.4 0.4) (layers "F.Cu" "F.Paste" "F.Mask") (tstamp 5ce25141-440e-4bad-b089-1feaa48928db))
  (pad "B18" smd circle (at 8.5 -7.5) (size 0.4 0.4) (layers "F.Cu" "F.Paste" "F.Mask") (tstamp 53fe752c-3723-460a-8adc-e1576752a04b))
  (pad "C1" smd circle (at -8.5 -6.5) (size 0.4 0.4) (layers "F.Cu" "F.Paste" "F.Mask") (tstamp 8b087e84-3c70-447e-b943-3c69a77ac3b3))
  (pad "C2" smd circle (at -7.5 -6.5) (size 0.4 0.4) (layers "F.Cu" "F.Paste" "F.Mask") (tstamp 1ded8acd-08ab-4ace-b9c4-b7bd8cdce5be))
  (pad "C3" smd circle (at -6.5 -6.5) (size 0.4 0.4) (layers "F.Cu" "F.Paste" "F.Mask") (tstamp aa93ee88-e516-4230-b82d-d612152727ee))
  (pad "C4" smd circle (at -5.5 -6.5) (size 0.4 0.4) (layers "F.Cu" "F.Paste" "F.Mask") (tstamp fbe59d4f-a3c1-4e16-9186-6a3373bda7be))
  (pad "C5" smd circle (at -4.5 -6.5) (size 0.4 0.4) (layers "F.Cu" "F.Paste" "F.Mask") (tstamp 6934a18e-46b8-4bdd-8999-181af674feac))
  (pad "C6" smd circle (at -3.5 -6.5) (size 0.4 0.4) (layers "F.Cu" "F.Paste" "F.Mask") (tstamp c7e0d035-f86d-4afe-9c10-01e77eeea146))
  (pad "C7" smd circle (at -2.5 -6.5) (size 0.4 0.4) (layers "F.Cu" "F.Paste" "F.Mask") (tstamp e83918da-b3f2-4422-9d3c-89ecab75484e))
  (pad "C8" smd circle (at -1.5 -6.5) (size 0.4 0.4) (layers "F.Cu" "F.Paste" "F.Mask") (tstamp 4c7dacfe-8cb9-44a9-9242-e9dd2b2d9ff3))
  (pad "C9" smd circle (at -0.5 -6.5) (size 0.4 0.4) (layers "F.Cu" "F.Paste" "F.Mask") (tstamp 80447442-e57a-47a9-a8fe-a1a80a83711d))
  (pad "C10" smd circle (at 0.5 -6.5) (size 0.4 0.4) (layers "F.Cu" "F.Paste" "F.Mask") (tstamp fb9ba294-f952-412d-9956-cc944b9203e2))
  (pad "C11" smd circle (at 1.5 -6.5) (size 0.4 0.4) (layers "F.Cu" "F.Paste" "F.Mask") (tstamp 43ddc96b-76e7-4bec-bf45-d49b4fb4b071))
  (pad "C12" smd circle (at 2.5 -6.5) (size 0.4 0.4) (layers "F.Cu" "F.Paste" "F.Mask") (tstamp 712c13d4-936b-4640-b6fc-4377b8608284))
  (pad "C13" smd circle (at 3.5 -6.5) (size 0.4 0.4) (layers "F.Cu" "F.Paste" "F.Mask") (tstamp 373c6d30-9753-47bf-add2-80f82ef3956e))
  (pad "C14" smd circle (at 4.5 -6.5) (size 0.4 0.4) (layers "F.Cu" "F.Paste" "F.Mask") (tstamp c41c68bd-75e4-47b5-93cd-ced566bfe7e2))
  (pad "C15" smd circle (at 5.5 -6.5) (size 0.4 0.4) (layers "F.Cu" "F.Paste" "F.Mask") (tstamp 7b111b6a-94a2-4429-9835-5ef90bf293a0))
  (pad "C16" smd circle (at 6.5 -6.5) (size 0.4 0.4) (layers "F.Cu" "F.Paste" "F.Mask") (tstamp f4328487-d4d2-43b6-a9cd-ef8c87f394d9))
  (pad "C17" smd circle (at 7.5 -6.5) (size 0.4 0.4) (layers "F.Cu" "F.Paste" "F.Mask") (tstamp 9c017fee-5993-42c8-a2ea-5b18bc0789cc))
  (pad "C18" smd circle (at 8.5 -6.5) (size 0.4 0.4) (layers "F.Cu" "F.Paste" "F.Mask") (tstamp e63f9bb3-2e5c-4d67-bd55-c384ab0af60a))
  (pad "D1" smd circle (at -8.5 -5.5) (size 0.4 0.4) (layers "F.Cu" "F.Paste" "F.Mask") (tstamp 1b497a92-653d-4227-82b8-d58b77255c79))
  (pad "D2" smd circle (at -7.5 -5.5) (size 0.4 0.4) (layers "F.Cu" "F.Paste" "F.Mask") (tstamp 3a10a941-2700-4266-9ae5-05edc06ad4a2))
  (pad "D3" smd circle (at -6.5 -5.5) (size 0.4 0.4) (layers "F.Cu" "F.Paste" "F.Mask") (tstamp c49b7103-e721-4014-989e-10b8e7e19659))
  (pad "D4" smd circle (at -5.5 -5.5) (size 0.4 0.4) (layers "F.Cu" "F.Paste" "F.Mask") (tstamp e970a34b-704b-41ee-9d75-4924580bcd33))
  (pad "D5" smd circle (at -4.5 -5.5) (size 0.4 0.4) (layers "F.Cu" "F.Paste" "F.Mask") (tstamp a2faf886-5741-4c4b-a2ba-ba25edbd65fe))
  (pad "D6" smd circle (at -3.5 -5.5) (size 0.4 0.4) (layers "F.Cu" "F.Paste" "F.Mask") (tstamp beddddae-4ca0-4972-bdfb-789da9a89147))
  (pad "D7" smd circle (at -2.5 -5.5) (size 0.4 0.4) (layers "F.Cu" "F.Paste" "F.Mask") (tstamp ae75e969-2e9c-48f3-94ca-3650882d2e0e))
  (pad "D8" smd circle (at -1.5 -5.5) (size 0.4 0.4) (layers "F.Cu" "F.Paste" "F.Mask") (tstamp 447e6c91-f1e0-4d7f-9845-1bb133046890))
  (pad "D9" smd circle (at -0.5 -5.5) (size 0.4 0.4) (layers "F.Cu" "F.Paste" "F.Mask") (tstamp 9600bbdf-f24c-4abb-8ef1-b5dee064cbd7))
  (pad "D10" smd circle (at 0.5 -5.5) (size 0.4 0.4) (layers "F.Cu" "F.Paste" "F.Mask") (tstamp 797e9a47-c7a3-4e57-9569-99df9ce98526))
  (pad "D11" smd circle (at 1.5 -5.5) (size 0.4 0.4) (layers "F.Cu" "F.Paste" "F.Mask") (tstamp e04dd3d5-30fe-441f-a8fc-e0d958023026))
  (pad "D12" smd circle (at 2.5 -5.5) (size 0.4 0.4) (layers "F.Cu" "F.Paste" "F.Mask") (tstamp b0e1dddf-355e-4a2a-9995-3e16525da5e2))
  (pad "D13" smd circle (at 3.5 -5.5) (size 0.4 0.4) (layers "F.Cu" "F.Paste" "F.Mask") (tstamp 8bec9ac6-9659-4fe2-bc29-7c3b550e3c6d))
  (pad "D14" smd circle (at 4.5 -5.5) (size 0.4 0.4) (layers "F.Cu" "F.Paste" "F.Mask") (tstamp 49a5d5e5-5efe-4e38-9764-4b6a27f46209))
  (pad "D15" smd circle (at 5.5 -5.5) (size 0.4 0.4) (layers "F.Cu" "F.Paste" "F.Mask") (tstamp 234a79e6-a931-49ce-b313-434e8207b56f))
  (pad "D16" smd circle (at 6.5 -5.5) (size 0.4 0.4) (layers "F.Cu" "F.Paste" "F.Mask") (tstamp fd2ac9a1-1daf-4bf8-8cd6-234f3a83df08))
  (pad "D17" smd circle (at 7.5 -5.5) (size 0.4 0.4) (layers "F.Cu" "F.Paste" "F.Mask") (tstamp 49479e75-0826-40da-850c-3f375d014560))
  (pad "D18" smd circle (at 8.5 -5.5) (size 0.4 0.4) (layers "F.Cu" "F.Paste" "F.Mask") (tstamp 001260b3-9a23-495e-a9d3-5942bc151959))
  (pad "E1" smd circle (at -8.5 -4.5) (size 0.4 0.4) (layers "F.Cu" "F.Paste" "F.Mask") (tstamp bb4e068e-eba2-411b-bef9-0e6d9747f3ff))
  (pad "E2" smd circle (at -7.5 -4.5) (size 0.4 0.4) (layers "F.Cu" "F.Paste" "F.Mask") (tstamp 5c0a053a-e86b-4074-9a1d-eebf032e98e3))
  (pad "E3" smd circle (at -6.5 -4.5) (size 0.4 0.4) (layers "F.Cu" "F.Paste" "F.Mask") (tstamp 9837268d-d662-4461-9752-1f3585bc41d6))
  (pad "E4" smd circle (at -5.5 -4.5) (size 0.4 0.4) (layers "F.Cu" "F.Paste" "F.Mask") (tstamp 43b85afc-9141-4dc5-9321-db3fbd20d685))
  (pad "E5" smd circle (at -4.5 -4.5) (size 0.4 0.4) (layers "F.Cu" "F.Paste" "F.Mask") (tstamp 1294895b-6fea-4155-82fb-5eb628a3acf9))
  (pad "E6" smd circle (at -3.5 -4.5) (size 0.4 0.4) (layers "F.Cu" "F.Paste" "F.Mask") (tstamp 019017a2-f2cf-45b9-ade6-dac765263bc1))
  (pad "E7" smd circle (at -2.5 -4.5) (size 0.4 0.4) (layers "F.Cu" "F.Paste" "F.Mask") (tstamp a9e5036d-b698-4d97-9369-c35953e33845))
  (pad "E8" smd circle (at -1.5 -4.5) (size 0.4 0.4) (layers "F.Cu" "F.Paste" "F.Mask") (tstamp 9c93dd17-9077-45dc-b200-c167ad2f063c))
  (pad "E9" smd circle (at -0.5 -4.5) (size 0.4 0.4) (layers "F.Cu" "F.Paste" "F.Mask") (tstamp 7472c396-1452-4c2e-8744-bdc7974b8869))
  (pad "E10" smd circle (at 0.5 -4.5) (size 0.4 0.4) (layers "F.Cu" "F.Paste" "F.Mask") (tstamp 2cf1c9fa-a1ba-4467-8ae4-641b7f6ebd42))
  (pad "E11" smd circle (at 1.5 -4.5) (size 0.4 0.4) (layers "F.Cu" "F.Paste" "F.Mask") (tstamp 5108a4d6-f94f-4cdb-bd4f-38926a61eb6b))
  (pad "E12" smd circle (at 2.5 -4.5) (size 0.4 0.4) (layers "F.Cu" "F.Paste" "F.Mask") (tstamp 18474120-9e49-4c10-b7b7-53e0b42c17fa))
  (pad "E13" smd circle (at 3.5 -4.5) (size 0.4 0.4) (layers "F.Cu" "F.Paste" "F.Mask") (tstamp 89bbf28a-a9e0-4f8d-8a6b-8599c91e74cd))
  (pad "E14" smd circle (at 4.5 -4.5) (size 0.4 0.4) (layers "F.Cu" "F.Paste" "F.Mask") (tstamp 8d779d72-1815-4b7d-97a4-a7791160edcd))
  (pad "E15" smd circle (at 5.5 -4.5) (size 0.4 0.4) (layers "F.Cu" "F.Paste" "F.Mask") (tstamp 7aecef78-ba28-4574-a12a-12f0ff3bc833))
  (pad "E16" smd circle (at 6.5 -4.5) (size 0.4 0.4) (layers "F.Cu" "F.Paste" "F.Mask") (tstamp 62fdb6f9-8c9d-4286-9939-78e26584cd8b))
  (pad "E17" smd circle (at 7.5 -4.5) (size 0.4 0.4) (layers "F.Cu" "F.Paste" "F.Mask") (tstamp 38ddabbd-9647-4811-a11c-c27ac2104b12))
  (pad "E18" smd circle (at 8.5 -4.5) (size 0.4 0.4) (layers "F.Cu" "F.Paste" "F.Mask") (tstamp 668f7566-3705-4964-956c-c97a59c45869))
  (pad "F1" smd circle (at -8.5 -3.5) (size 0.4 0.4) (layers "F.Cu" "F.Paste" "F.Mask") (tstamp 7c383eb8-4b7a-46b5-84b6-88b00fdc6d1b))
  (pad "F2" smd circle (at -7.5 -3.5) (size 0.4 0.4) (layers "F.Cu" "F.Paste" "F.Mask") (tstamp aa169eae-daa1-4bf5-8bef-b2f87b9ee289))
  (pad "F3" smd circle (at -6.5 -3.5) (size 0.4 0.4) (layers "F.Cu" "F.Paste" "F.Mask") (tstamp cd41548a-7c15-4b26-a13d-1383864127bd))
  (pad "F4" smd circle (at -5.5 -3.5) (size 0.4 0.4) (layers "F.Cu" "F.Paste" "F.Mask") (tstamp 8533311b-743c-47bd-ac7c-6185bc569bee))
  (pad "F5" smd circle (at -4.5 -3.5) (size 0.4 0.4) (layers "F.Cu" "F.Paste" "F.Mask") (tstamp 8019c0f1-340a-4797-ae60-40c6076f9aea))
  (pad "F6" smd circle (at -3.5 -3.5) (size 0.4 0.4) (layers "F.Cu" "F.Paste" "F.Mask") (tstamp 289d189f-1d8f-4248-a632-1c0d1a6e032d))
  (pad "F7" smd circle (at -2.5 -3.5) (size 0.4 0.4) (layers "F.Cu" "F.Paste" "F.Mask") (tstamp a1f951f3-e7a4-46c1-b5a8-3eda4f3a7edc))
  (pad "F8" smd circle (at -1.5 -3.5) (size 0.4 0.4) (layers "F.Cu" "F.Paste" "F.Mask") (tstamp 1d38914b-99b6-4728-92fc-db7659d2c17a))
  (pad "F9" smd circle (at -0.5 -3.5) (size 0.4 0.4) (layers "F.Cu" "F.Paste" "F.Mask") (tstamp 67bb3070-c719-4968-960f-dfad0f8fbd55))
  (pad "F10" smd circle (at 0.5 -3.5) (size 0.4 0.4) (layers "F.Cu" "F.Paste" "F.Mask") (tstamp 8b94ce37-8134-4824-a081-2c5b37b93490))
  (pad "F11" smd circle (at 1.5 -3.5) (size 0.4 0.4) (layers "F.Cu" "F.Paste" "F.Mask") (tstamp 8cd14078-eec6-47f7-a4db-4b78352ac470))
  (pad "F12" smd circle (at 2.5 -3.5) (size 0.4 0.4) (layers "F.Cu" "F.Paste" "F.Mask") (tstamp f9f7ab0d-a227-4f25-ac7a-2bfefdd67870))
  (pad "F13" smd circle (at 3.5 -3.5) (size 0.4 0.4) (layers "F.Cu" "F.Paste" "F.Mask") (tstamp 86b59a5c-f6d9-48e9-aab6-2ffd3d1fdefc))
  (pad "F14" smd circle (at 4.5 -3.5) (size 0.4 0.4) (layers "F.Cu" "F.Paste" "F.Mask") (tstamp f58684e9-85b2-4ecc-aeed-dc06afd4d188))
  (pad "F15" smd circle (at 5.5 -3.5) (size 0.4 0.4) (layers "F.Cu" "F.Paste" "F.Mask") (tstamp a045427a-5c9c-4303-a49d-8a9f7a68d00b))
  (pad "F16" smd circle (at 6.5 -3.5) (size 0.4 0.4) (layers "F.Cu" "F.Paste" "F.Mask") (tstamp edaedf07-b5ad-47a9-91c1-5deb99344e5e))
  (pad "F17" smd circle (at 7.5 -3.5) (size 0.4 0.4) (layers "F.Cu" "F.Paste" "F.Mask") (tstamp e5b7e0c0-032b-4758-b2ff-b05e1c3539a1))
  (pad "F18" smd circle (at 8.5 -3.5) (size 0.4 0.4) (layers "F.Cu" "F.Paste" "F.Mask") (tstamp d67650b6-132a-4771-a557-bc0e47cd81bc))
  (pad "G1" smd circle (at -8.5 -2.5) (size 0.4 0.4) (layers "F.Cu" "F.Paste" "F.Mask") (tstamp 9e62a970-0e81-4360-8f71-872de176fa35))
  (pad "G2" smd circle (at -7.5 -2.5) (size 0.4 0.4) (layers "F.Cu" "F.Paste" "F.Mask") (tstamp a405b9d9-500b-4a14-bf28-c4fdb0b5357d))
  (pad "G3" smd circle (at -6.5 -2.5) (size 0.4 0.4) (layers "F.Cu" "F.Paste" "F.Mask") (tstamp 900036f9-6c1c-4857-a191-a634e86fce21))
  (pad "G4" smd circle (at -5.5 -2.5) (size 0.4 0.4) (layers "F.Cu" "F.Paste" "F.Mask") (tstamp ef1cfd2c-55a5-4b51-a405-d1f7ef5be1ee))
  (pad "G5" smd circle (at -4.5 -2.5) (size 0.4 0.4) (layers "F.Cu" "F.Paste" "F.Mask") (tstamp 1f207d21-21fc-455d-b0c0-222cfbedcbbf))
  (pad "G6" smd circle (at -3.5 -2.5) (size 0.4 0.4) (layers "F.Cu" "F.Paste" "F.Mask") (tstamp 2276c0a5-7135-4f4c-a364-36a6227dda7d))
  (pad "G7" smd circle (at -2.5 -2.5) (size 0.4 0.4) (layers "F.Cu" "F.Paste" "F.Mask") (tstamp 2fb71bef-03a6-4345-bee5-147d6e2a2913))
  (pad "G8" smd circle (at -1.5 -2.5) (size 0.4 0.4) (layers "F.Cu" "F.Paste" "F.Mask") (tstamp d4e81ae8-15d2-4430-9acd-c307fc61929e))
  (pad "G9" smd circle (at -0.5 -2.5) (size 0.4 0.4) (layers "F.Cu" "F.Paste" "F.Mask") (tstamp bd75df7c-c3f7-477a-838d-b7a0a5f7f5d0))
  (pad "G10" smd circle (at 0.5 -2.5) (size 0.4 0.4) (layers "F.Cu" "F.Paste" "F.Mask") (tstamp 61201a28-c827-4fe0-a029-08f0dcc5abbb))
  (pad "G11" smd circle (at 1.5 -2.5) (size 0.4 0.4) (layers "F.Cu" "F.Paste" "F.Mask") (tstamp 787e2de9-9765-4f2b-a2bf-fd8db7de8513))
  (pad "G12" smd circle (at 2.5 -2.5) (size 0.4 0.4) (layers "F.Cu" "F.Paste" "F.Mask") (tstamp 0ddc2bd8-3d15-4d90-b7bd-1659a982ccd4))
  (pad "G13" smd circle (at 3.5 -2.5) (size 0.4 0.4) (layers "F.Cu" "F.Paste" "F.Mask") (tstamp 8df56af4-fd6b-423f-947f-01a71380362b))
  (pad "G14" smd circle (at 4.5 -2.5) (size 0.4 0.4) (layers "F.Cu" "F.Paste" "F.Mask") (tstamp 9e0e42f3-0bc3-4cd3-9c9b-8591a5064338))
  (pad "G15" smd circle (at 5.5 -2.5) (size 0.4 0.4) (layers "F.Cu" "F.Paste" "F.Mask") (tstamp cb933102-6b47-478c-8c5a-92d7033a3d7a))
  (pad "G16" smd circle (at 6.5 -2.5) (size 0.4 0.4) (layers "F.Cu" "F.Paste" "F.Mask") (tstamp 0c149b37-3718-4406-a41b-07c072036d59))
  (pad "G17" smd circle (at 7.5 -2.5) (size 0.4 0.4) (layers "F.Cu" "F.Paste" "F.Mask") (tstamp 5495d2f8-e536-47af-b91e-ac3ba907713e))
  (pad "G18" smd circle (at 8.5 -2.5) (size 0.4 0.4) (layers "F.Cu" "F.Paste" "F.Mask") (tstamp 6afbf800-6b96-4930-beaa-dc172f624203))
  (pad "H1" smd circle (at -8.5 -1.5) (size 0.4 0.4) (layers "F.Cu" "F.Paste" "F.Mask") (tstamp 45a4c811-de3b-4dc9-b9ee-efb28583e9a0))
  (pad "H2" smd circle (at -7.5 -1.5) (size 0.4 0.4) (layers "F.Cu" "F.Paste" "F.Mask") (tstamp 3bf4b353-98df-425c-96ee-95fc6a7a8e19))
  (pad "H3" smd circle (at -6.5 -1.5) (size 0.4 0.4) (layers "F.Cu" "F.Paste" "F.Mask") (tstamp 8ee94bdf-2dde-4a1b-8424-b5e6b399cad3))
  (pad "H4" smd circle (at -5.5 -1.5) (size 0.4 0.4) (layers "F.Cu" "F.Paste" "F.Mask") (tstamp b164d54f-7bc2-458d-96aa-053583cfe55e))
  (pad "H5" smd circle (at -4.5 -1.5) (size 0.4 0.4) (layers "F.Cu" "F.Paste" "F.Mask") (tstamp 6598c643-73e6-4e4c-b24b-5b3a64103ecb))
  (pad "H6" smd circle (at -3.5 -1.5) (size 0.4 0.4) (layers "F.Cu" "F.Paste" "F.Mask") (tstamp 70f0b0d8-eed3-40e8-a8e0-6942bd1a3b63))
  (pad "H7" smd circle (at -2.5 -1.5) (size 0.4 0.4) (layers "F.Cu" "F.Paste" "F.Mask") (tstamp 186cc953-7d25-4795-aa27-2332df926c40))
  (pad "H8" smd circle (at -1.5 -1.5) (size 0.4 0.4) (layers "F.Cu" "F.Paste" "F.Mask") (tstamp 5563f53e-bb3f-4991-b77f-4e70ad0a78ca))
  (pad "H9" smd circle (at -0.5 -1.5) (size 0.4 0.4) (layers "F.Cu" "F.Paste" "F.Mask") (tstamp 1796c10f-1c27-4ec6-befb-26d8e6b1d7d5))
  (pad "H10" smd circle (at 0.5 -1.5) (size 0.4 0.4) (layers "F.Cu" "F.Paste" "F.Mask") (tstamp 712de7c4-54af-4306-bc2b-252b2e0feaec))
  (pad "H11" smd circle (at 1.5 -1.5) (size 0.4 0.4) (layers "F.Cu" "F.Paste" "F.Mask") (tstamp a44df1c9-2adc-4420-8c6d-d3ee86c970c4))
  (pad "H12" smd circle (at 2.5 -1.5) (size 0.4 0.4) (layers "F.Cu" "F.Paste" "F.Mask") (tstamp 44cf91c9-e657-4f5a-99fc-25e8fe646a1e))
  (pad "H13" smd circle (at 3.5 -1.5) (size 0.4 0.4) (layers "F.Cu" "F.Paste" "F.Mask") (tstamp e73e7939-4747-4811-ac1d-d5039f9a8b07))
  (pad "H14" smd circle (at 4.5 -1.5) (size 0.4 0.4) (layers "F.Cu" "F.Paste" "F.Mask") (tstamp 65456299-492b-4dd2-a836-8dabdeafe855))
  (pad "H15" smd circle (at 5.5 -1.5) (size 0.4 0.4) (layers "F.Cu" "F.Paste" "F.Mask") (tstamp 0172fd1c-de44-4f5f-8918-27133dd050a3))
  (pad "H16" smd circle (at 6.5 -1.5) (size 0.4 0.4) (layers "F.Cu" "F.Paste" "F.Mask") (tstamp 89d06984-b390-4bdd-bab1-3c4b8a13ece1))
  (pad "H17" smd circle (at 7.5 -1.5) (size 0.4 0.4) (layers "F.Cu" "F.Paste" "F.Mask") (tstamp 1e929dd0-c4a7-4975-84e4-70dae1dc6369))
  (pad "H18" smd circle (at 8.5 -1.5) (size 0.4 0.4) (layers "F.Cu" "F.Paste" "F.Mask") (tstamp e9163e6b-cc2f-45b4-80fa-d0c7a3dbf0ef))
  (pad "J1" smd circle (at -8.5 -0.5) (size 0.4 0.4) (layers "F.Cu" "F.Paste" "F.Mask") (tstamp 8b65fb07-d305-4a7d-9e9c-90410c3653de))
  (pad "J2" smd circle (at -7.5 -0.5) (size 0.4 0.4) (layers "F.Cu" "F.Paste" "F.Mask") (tstamp 64caf2ef-b013-4616-857a-1edf2d1b4b94))
  (pad "J3" smd circle (at -6.5 -0.5) (size 0.4 0.4) (layers "F.Cu" "F.Paste" "F.Mask") (tstamp 3e9e1975-0924-42ae-8f2d-f1497ed114a7))
  (pad "J4" smd circle (at -5.5 -0.5) (size 0.4 0.4) (layers "F.Cu" "F.Paste" "F.Mask") (tstamp 87e78e57-66a4-42c4-9cd9-876b1d05d020))
  (pad "J5" smd circle (at -4.5 -0.5) (size 0.4 0.4) (layers "F.Cu" "F.Paste" "F.Mask") (tstamp 6b8869f7-4431-4aa3-ad38-27c6cb3b5d0e))
  (pad "J6" smd circle (at -3.5 -0.5) (size 0.4 0.4) (layers "F.Cu" "F.Paste" "F.Mask") (tstamp 410b5917-443d-4115-b727-900e1e329b53))
  (pad "J7" smd circle (at -2.5 -0.5) (size 0.4 0.4) (layers "F.Cu" "F.Paste" "F.Mask") (tstamp 6f21ce0c-1907-4037-8650-56b574e4aff7))
  (pad "J8" smd circle (at -1.5 -0.5) (size 0.4 0.4) (layers "F.Cu" "F.Paste" "F.Mask") (tstamp d0056898-e976-4d17-a86a-2e34adbf1cfa))
  (pad "J9" smd circle (at -0.5 -0.5) (size 0.4 0.4) (layers "F.Cu" "F.Paste" "F.Mask") (tstamp 215565bb-54c2-4954-b13f-f5d1d7d20719))
  (pad "J10" smd circle (at 0.5 -0.5) (size 0.4 0.4) (layers "F.Cu" "F.Paste" "F.Mask") (tstamp 028dc217-5994-42be-bf25-cb570893acde))
  (pad "J11" smd circle (at 1.5 -0.5) (size 0.4 0.4) (layers "F.Cu" "F.Paste" "F.Mask") (tstamp 394d8f3d-f5c9-47bd-854c-ca19d4af774c))
  (pad "J12" smd circle (at 2.5 -0.5) (size 0.4 0.4) (layers "F.Cu" "F.Paste" "F.Mask") (tstamp c6cf2b05-69f6-4865-95c4-5994cd1952a7))
  (pad "J13" smd circle (at 3.5 -0.5) (size 0.4 0.4) (layers "F.Cu" "F.Paste" "F.Mask") (tstamp 93e399d3-b447-494f-9cbe-e2c6dbda8350))
  (pad "J14" smd circle (at 4.5 -0.5) (size 0.4 0.4) (layers "F.Cu" "F.Paste" "F.Mask") (tstamp 7c4d2a55-cd53-4709-8eca-70e01386a3a5))
  (pad "J15" smd circle (at 5.5 -0.5) (size 0.4 0.4) (layers "F.Cu" "F.Paste" "F.Mask") (tstamp 12aa3323-ff03-4e05-925f-118e343fff08))
  (pad "J16" smd circle (at 6.5 -0.5) (size 0.4 0.4) (layers "F.Cu" "F.Paste" "F.Mask") (tstamp ae2289b1-f775-47fc-8582-c9c4d08f5aa5))
  (pad "J17" smd circle (at 7.5 -0.5) (size 0.4 0.4) (layers "F.Cu" "F.Paste" "F.Mask") (tstamp 567e0b8e-123a-457e-80b2-2f4cbdfbf4ee))
  (pad "J18" smd circle (at 8.5 -0.5) (size 0.4 0.4) (layers "F.Cu" "F.Paste" "F.Mask") (tstamp 05307b16-95f0-45cf-b67c-e593f9cb034d))
  (pad "K1" smd circle (at -8.5 0.5) (size 0.4 0.4) (layers "F.Cu" "F.Paste" "F.Mask") (tstamp 9e005d2b-a546-40f1-9307-3c6d12db9740))
  (pad "K2" smd circle (at -7.5 0.5) (size 0.4 0.4) (layers "F.Cu" "F.Paste" "F.Mask") (tstamp a9e9bec7-6853-4299-b725-213c1b83905f))
  (pad "K3" smd circle (at -6.5 0.5) (size 0.4 0.4) (layers "F.Cu" "F.Paste" "F.Mask") (tstamp 759f44fd-6d04-4467-b41b-cee40ee24e3e))
  (pad "K4" smd circle (at -5.5 0.5) (size 0.4 0.4) (layers "F.Cu" "F.Paste" "F.Mask") (tstamp e6a1ec47-8b76-4281-b860-a3582fed61d3))
  (pad "K5" smd circle (at -4.5 0.5) (size 0.4 0.4) (layers "F.Cu" "F.Paste" "F.Mask") (tstamp ad871b96-6bf9-47fa-b71a-85a2cc98d08d))
  (pad "K6" smd circle (at -3.5 0.5) (size 0.4 0.4) (layers "F.Cu" "F.Paste" "F.Mask") (tstamp b818a81f-a784-42d9-ad5c-e2062f3322d5))
  (pad "K7" smd circle (at -2.5 0.5) (size 0.4 0.4) (layers "F.Cu" "F.Paste" "F.Mask") (tstamp e9cd9e0a-0c2f-4e39-9758-31245fb3a69d))
  (pad "K8" smd circle (at -1.5 0.5) (size 0.4 0.4) (layers "F.Cu" "F.Paste" "F.Mask") (tstamp 1e48b95f-11e4-471e-b17b-874ba9d2621e))
  (pad "K9" smd circle (at -0.5 0.5) (size 0.4 0.4) (layers "F.Cu" "F.Paste" "F.Mask") (tstamp da7e353b-82df-4410-abe7-67c92d5e8f04))
  (pad "K10" smd circle (at 0.5 0.5) (size 0.4 0.4) (layers "F.Cu" "F.Paste" "F.Mask") (tstamp 18c2b9d3-5e47-41f6-84a4-743d252b57fa))
  (pad "K11" smd circle (at 1.5 0.5) (size 0.4 0.4) (layers "F.Cu" "F.Paste" "F.Mask") (tstamp bf658f53-4987-4e95-985f-4329834785c1))
  (pad "K12" smd circle (at 2.5 0.5) (size 0.4 0.4) (layers "F.Cu" "F.Paste" "F.Mask") (tstamp 3da2fe4a-c389-420d-b35c-601fcf775d29))
  (pad "K13" smd circle (at 3.5 0.5) (size 0.4 0.4) (layers "F.Cu" "F.Paste" "F.Mask") (tstamp 9151fe86-d2a8-4d56-a219-827c769a3013))
  (pad "K14" smd circle (at 4.5 0.5) (size 0.4 0.4) (layers "F.Cu" "F.Paste" "F.Mask") (tstamp 0025f593-73a5-4392-8495-52dd1168a992))
  (pad "K15" smd circle (at 5.5 0.5) (size 0.4 0.4) (layers "F.Cu" "F.Paste" "F.Mask") (tstamp 16326cf3-a2c3-4a91-a1c4-f8829e0f590b))
  (pad "K16" smd circle (at 6.5 0.5) (size 0.4 0.4) (layers "F.Cu" "F.Paste" "F.Mask") (tstamp 7b76f1b5-df07-4aff-a29f-bdd5af958b4d))
  (pad "K17" smd circle (at 7.5 0.5) (size 0.4 0.4) (layers "F.Cu" "F.Paste" "F.Mask") (tstamp ab8db7b9-4423-4e87-966b-021815e6ebdc))
  (pad "K18" smd circle (at 8.5 0.5) (size 0.4 0.4) (layers "F.Cu" "F.Paste" "F.Mask") (tstamp 710bdcc0-68e8-4858-9260-c3b7dee1ea1d))
  (pad "L1" smd circle (at -8.5 1.5) (size 0.4 0.4) (layers "F.Cu" "F.Paste" "F.Mask") (tstamp b326fba5-a07c-4d5c-9bf5-e9bd8968b5de))
  (pad "L2" smd circle (at -7.5 1.5) (size 0.4 0.4) (layers "F.Cu" "F.Paste" "F.Mask") (tstamp 731f73cd-9903-4065-8d96-cf6551bf4c7c))
  (pad "L3" smd circle (at -6.5 1.5) (size 0.4 0.4) (layers "F.Cu" "F.Paste" "F.Mask") (tstamp 1006fac7-ac8c-436d-a334-dc75506f6e93))
  (pad "L4" smd circle (at -5.5 1.5) (size 0.4 0.4) (layers "F.Cu" "F.Paste" "F.Mask") (tstamp a6f57e64-a306-4fde-bfe0-713ab8f426ed))
  (pad "L5" smd circle (at -4.5 1.5) (size 0.4 0.4) (layers "F.Cu" "F.Paste" "F.Mask") (tstamp 4b45045f-97b8-4d5d-b7c4-8f8942547c56))
  (pad "L6" smd circle (at -3.5 1.5) (size 0.4 0.4) (layers "F.Cu" "F.Paste" "F.Mask") (tstamp a7f2c146-a7d2-41f6-952f-6eb14608ff96))
  (pad "L7" smd circle (at -2.5 1.5) (size 0.4 0.4) (layers "F.Cu" "F.Paste" "F.Mask") (tstamp 72c377fa-52cd-4049-91cb-3254c60a9893))
  (pad "L8" smd circle (at -1.5 1.5) (size 0.4 0.4) (layers "F.Cu" "F.Paste" "F.Mask") (tstamp 8116dbee-c6c2-4b78-a041-be08d0cd4ab9))
  (pad "L9" smd circle (at -0.5 1.5) (size 0.4 0.4) (layers "F.Cu" "F.Paste" "F.Mask") (tstamp a02897dd-9f27-4b21-ac49-7b935f71f29c))
  (pad "L10" smd circle (at 0.5 1.5) (size 0.4 0.4) (layers "F.Cu" "F.Paste" "F.Mask") (tstamp d5970789-2c5c-41d5-a0d3-4a656c6c671a))
  (pad "L11" smd circle (at 1.5 1.5) (size 0.4 0.4) (layers "F.Cu" "F.Paste" "F.Mask") (tstamp b2c59e4d-4d1e-4dc7-afdb-8f21ea21fa6b))
  (pad "L12" smd circle (at 2.5 1.5) (size 0.4 0.4) (layers "F.Cu" "F.Paste" "F.Mask") (tstamp 64c93d1a-04d2-4e1c-b488-3781befdca60))
  (pad "L13" smd circle (at 3.5 1.5) (size 0.4 0.4) (layers "F.Cu" "F.Paste" "F.Mask") (tstamp f419c1a2-a613-489d-b227-e561ff6aed1b))
  (pad "L14" smd circle (at 4.5 1.5) (size 0.4 0.4) (layers "F.Cu" "F.Paste" "F.Mask") (tstamp c17d4a67-2a00-4fe2-ba55-4327f3dcff6b))
  (pad "L15" smd circle (at 5.5 1.5) (size 0.4 0.4) (layers "F.Cu" "F.Paste" "F.Mask") (tstamp 219df392-38a2-40e1-a3d7-aa8cf89d35a1))
  (pad "L16" smd circle (at 6.5 1.5) (size 0.4 0.4) (layers "F.Cu" "F.Paste" "F.Mask") (tstamp 495d07ca-8680-4ba2-abac-5d36751e8c29))
  (pad "L17" smd circle (at 7.5 1.5) (size 0.4 0.4) (layers "F.Cu" "F.Paste" "F.Mask") (tstamp 1a46fbb5-79e3-4e48-9b5c-3412a3941e15))
  (pad "L18" smd circle (at 8.5 1.5) (size 0.4 0.4) (layers "F.Cu" "F.Paste" "F.Mask") (tstamp f50d768f-bbba-47e0-8890-0de5c73ebf42))
  (pad "M1" smd circle (at -8.5 2.5) (size 0.4 0.4) (layers "F.Cu" "F.Paste" "F.Mask") (tstamp 1b03d3e5-3ebe-4a8a-a555-b28761675cd5))
  (pad "M2" smd circle (at -7.5 2.5) (size 0.4 0.4) (layers "F.Cu" "F.Paste" "F.Mask") (tstamp 4ed6cbd0-9e0c-4bdb-9eba-2737cdf0e38a))
  (pad "M3" smd circle (at -6.5 2.5) (size 0.4 0.4) (layers "F.Cu" "F.Paste" "F.Mask") (tstamp 85db3973-6981-4406-a9dc-ad21e282424e))
  (pad "M4" smd circle (at -5.5 2.5) (size 0.4 0.4) (layers "F.Cu" "F.Paste" "F.Mask") (tstamp 90dc7fe6-bf1b-4c1c-a7a1-80a49c9326fb))
  (pad "M5" smd circle (at -4.5 2.5) (size 0.4 0.4) (layers "F.Cu" "F.Paste" "F.Mask") (tstamp f9057453-5f00-4e47-bb34-89e7af702581))
  (pad "M6" smd circle (at -3.5 2.5) (size 0.4 0.4) (layers "F.Cu" "F.Paste" "F.Mask") (tstamp 79576942-918c-4d31-8f87-6a5dcc7488eb))
  (pad "M7" smd circle (at -2.5 2.5) (size 0.4 0.4) (layers "F.Cu" "F.Paste" "F.Mask") (tstamp 48fdbc24-cdb7-4ae9-b0a7-6529dddb1cd1))
  (pad "M8" smd circle (at -1.5 2.5) (size 0.4 0.4) (layers "F.Cu" "F.Paste" "F.Mask") (tstamp 03807c16-fdb5-4149-88c5-3e9840a80adb))
  (pad "M9" smd circle (at -0.5 2.5) (size 0.4 0.4) (layers "F.Cu" "F.Paste" "F.Mask") (tstamp fb273676-e9fe-4ba8-84a1-716412082c5f))
  (pad "M10" smd circle (at 0.5 2.5) (size 0.4 0.4) (layers "F.Cu" "F.Paste" "F.Mask") (tstamp 6f653353-1329-4c5a-8fc8-cd1f8261c7c3))
  (pad "M11" smd circle (at 1.5 2.5) (size 0.4 0.4) (layers "F.Cu" "F.Paste" "F.Mask") (tstamp 3645c829-dff6-4b67-bfb6-c34c885a60c4))
  (pad "M12" smd circle (at 2.5 2.5) (size 0.4 0.4) (layers "F.Cu" "F.Paste" "F.Mask") (tstamp c581ca8c-fea5-4958-ac8e-c62864b4b9ec))
  (pad "M13" smd circle (at 3.5 2.5) (size 0.4 0.4) (layers "F.Cu" "F.Paste" "F.Mask") (tstamp 1cfeab3e-a820-416a-9c4f-7e6fa5331974))
  (pad "M14" smd circle (at 4.5 2.5) (size 0.4 0.4) (layers "F.Cu" "F.Paste" "F.Mask") (tstamp 86f30379-696b-47c3-8840-98b52ad79ac7))
  (pad "M15" smd circle (at 5.5 2.5) (size 0.4 0.4) (layers "F.Cu" "F.Paste" "F.Mask") (tstamp f4bfbc77-ce87-45e4-80a1-2bcfd9fea14a))
  (pad "M16" smd circle (at 6.5 2.5) (size 0.4 0.4) (layers "F.Cu" "F.Paste" "F.Mask") (tstamp c3c088ab-c7ef-4f34-a1ae-f50addf95f67))
  (pad "M17" smd circle (at 7.5 2.5) (size 0.4 0.4) (layers "F.Cu" "F.Paste" "F.Mask") (tstamp f3ca15ce-9328-4854-bc86-7b1f0bc87baa))
  (pad "M18" smd circle (at 8.5 2.5) (size 0.4 0.4) (layers "F.Cu" "F.Paste" "F.Mask") (tstamp 09ed583a-3fbd-4566-99c2-e983d3d3d54f))
  (pad "N1" smd circle (at -8.5 3.5) (size 0.4 0.4) (layers "F.Cu" "F.Paste" "F.Mask") (tstamp 864722af-ea10-4719-b8f0-f1c046445bc4))
  (pad "N2" smd circle (at -7.5 3.5) (size 0.4 0.4) (layers "F.Cu" "F.Paste" "F.Mask") (tstamp 1940ba0e-2ef1-41d9-b621-e511c192e8e2))
  (pad "N3" smd circle (at -6.5 3.5) (size 0.4 0.4) (layers "F.Cu" "F.Paste" "F.Mask") (tstamp fcd22dc9-f7c0-4a22-a1ae-c28f5d943c8e))
  (pad "N4" smd circle (at -5.5 3.5) (size 0.4 0.4) (layers "F.Cu" "F.Paste" "F.Mask") (tstamp 39b94cdc-c292-497d-b622-a35e9460561d))
  (pad "N5" smd circle (at -4.5 3.5) (size 0.4 0.4) (layers "F.Cu" "F.Paste" "F.Mask") (tstamp 7ca08fdf-14e3-44f1-8892-e044dcee7430))
  (pad "N6" smd circle (at -3.5 3.5) (size 0.4 0.4) (layers "F.Cu" "F.Paste" "F.Mask") (tstamp ee3cf331-a859-4399-87b0-f02d09adbca8))
  (pad "N7" smd circle (at -2.5 3.5) (size 0.4 0.4) (layers "F.Cu" "F.Paste" "F.Mask") (tstamp e22ef848-66ff-4d3a-bc67-b8cfd9ce9c26))
  (pad "N8" smd circle (at -1.5 3.5) (size 0.4 0.4) (layers "F.Cu" "F.Paste" "F.Mask") (tstamp c728208c-a62b-44d1-9aad-040c3d4cd22b))
  (pad "N9" smd circle (at -0.5 3.5) (size 0.4 0.4) (layers "F.Cu" "F.Paste" "F.Mask") (tstamp 1ecaafcc-8762-4ae0-8b86-d00b4f5546c8))
  (pad "N10" smd circle (at 0.5 3.5) (size 0.4 0.4) (layers "F.Cu" "F.Paste" "F.Mask") (tstamp d6b70e54-d8d5-448c-9e11-0f69edb23aa8))
  (pad "N11" smd circle (at 1.5 3.5) (size 0.4 0.4) (layers "F.Cu" "F.Paste" "F.Mask") (tstamp d44cee83-39b8-4f3d-b97a-7147f13dfb6e))
  (pad "N12" smd circle (at 2.5 3.5) (size 0.4 0.4) (layers "F.Cu" "F.Paste" "F.Mask") (tstamp c9890d82-4bab-4874-9bd7-7ac66ef46bc6))
  (pad "N13" smd circle (at 3.5 3.5) (size 0.4 0.4) (layers "F.Cu" "F.Paste" "F.Mask") (tstamp 857e9815-ca8f-43aa-b65e-18f636da0e3d))
  (pad "N14" smd circle (at 4.5 3.5) (size 0.4 0.4) (layers "F.Cu" "F.Paste" "F.Mask") (tstamp fa1d564f-de48-43f3-95e4-9b6400aec681))
  (pad "N15" smd circle (at 5.5 3.5) (size 0.4 0.4) (layers "F.Cu" "F.Paste" "F.Mask") (tstamp 22e1f773-c40d-4e77-9192-f77025852b00))
  (pad "N16" smd circle (at 6.5 3.5) (size 0.4 0.4) (layers "F.Cu" "F.Paste" "F.Mask") (tstamp b9c10fd5-7d8b-4fba-9d11-c120321f686c))
  (pad "N17" smd circle (at 7.5 3.5) (size 0.4 0.4) (layers "F.Cu" "F.Paste" "F.Mask") (tstamp 78d7f34f-ccb7-40ed-a49c-e9827245b85b))
  (pad "N18" smd circle (at 8.5 3.5) (size 0.4 0.4) (layers "F.Cu" "F.Paste" "F.Mask") (tstamp 28c7c7ce-dd95-42fe-89d5-345e48967d32))
  (pad "P1" smd circle (at -8.5 4.5) (size 0.4 0.4) (layers "F.Cu" "F.Paste" "F.Mask") (tstamp 897fda3e-9f9b-4e4d-b8f9-1f05186727a1))
  (pad "P2" smd circle (at -7.5 4.5) (size 0.4 0.4) (layers "F.Cu" "F.Paste" "F.Mask") (tstamp 4e719fcc-45a9-4c5b-b9b2-c40f1e6bde5a))
  (pad "P3" smd circle (at -6.5 4.5) (size 0.4 0.4) (layers "F.Cu" "F.Paste" "F.Mask") (tstamp 0ef18622-9c70-4d69-a832-4c0bc7607836))
  (pad "P4" smd circle (at -5.5 4.5) (size 0.4 0.4) (layers "F.Cu" "F.Paste" "F.Mask") (tstamp 2bc9aa0c-ff46-47a1-bcbc-8c79897d6cca))
  (pad "P5" smd circle (at -4.5 4.5) (size 0.4 0.4) (layers "F.Cu" "F.Paste" "F.Mask") (tstamp 87817688-cd90-4edf-bd6f-7577d5f4c10d))
  (pad "P6" smd circle (at -3.5 4.5) (size 0.4 0.4) (layers "F.Cu" "F.Paste" "F.Mask") (tstamp 2b6888fe-0041-4c2f-82db-9f47f53813dc))
  (pad "P7" smd circle (at -2.5 4.5) (size 0.4 0.4) (layers "F.Cu" "F.Paste" "F.Mask") (tstamp 0b4a80a4-fc8e-4cef-9434-a8c3c3ef0548))
  (pad "P8" smd circle (at -1.5 4.5) (size 0.4 0.4) (layers "F.Cu" "F.Paste" "F.Mask") (tstamp a36876d6-67b7-4712-8d2c-7b3caa1a39ab))
  (pad "P9" smd circle (at -0.5 4.5) (size 0.4 0.4) (layers "F.Cu" "F.Paste" "F.Mask") (tstamp 16d0e2a3-cc72-4a23-b587-3d76ffd67ed6))
  (pad "P10" smd circle (at 0.5 4.5) (size 0.4 0.4) (layers "F.Cu" "F.Paste" "F.Mask") (tstamp 5b65af14-8f82-4922-8ea5-bf503d80969a))
  (pad "P11" smd circle (at 1.5 4.5) (size 0.4 0.4) (layers "F.Cu" "F.Paste" "F.Mask") (tstamp e081bd65-fa8c-46de-89d9-d6d79b4c1803))
  (pad "P12" smd circle (at 2.5 4.5) (size 0.4 0.4) (layers "F.Cu" "F.Paste" "F.Mask") (tstamp c7d1350d-bdd3-4a08-9e0a-f9a48bf7cdcf))
  (pad "P13" smd circle (at 3.5 4.5) (size 0.4 0.4) (layers "F.Cu" "F.Paste" "F.Mask") (tstamp a7708222-d1ef-4e43-ab4a-ef9f93b1436e))
  (pad "P14" smd circle (at 4.5 4.5) (size 0.4 0.4) (layers "F.Cu" "F.Paste" "F.Mask") (tstamp 14bde0a4-50c6-4002-b96d-179fc057768a))
  (pad "P15" smd circle (at 5.5 4.5) (size 0.4 0.4) (layers "F.Cu" "F.Paste" "F.Mask") (tstamp 7e1f0f75-f680-4e4c-a3cd-2f424d0512b3))
  (pad "P16" smd circle (at 6.5 4.5) (size 0.4 0.4) (layers "F.Cu" "F.Paste" "F.Mask") (tstamp 6fe8dab6-eb0a-4383-986b-e06526da8c4c))
  (pad "P17" smd circle (at 7.5 4.5) (size 0.4 0.4) (layers "F.Cu" "F.Paste" "F.Mask") (tstamp b1a8a414-a8e9-4f6f-9074-982e85d534dc))
  (pad "P18" smd circle (at 8.5 4.5) (size 0.4 0.4) (layers "F.Cu" "F.Paste" "F.Mask") (tstamp c846e2c0-4bb2-40e3-8cf3-f59b5419bc96))
  (pad "R1" smd circle (at -8.5 5.5) (size 0.4 0.4) (layers "F.Cu" "F.Paste" "F.Mask") (tstamp c85160c6-cd6d-4037-b4c0-ce241ef8926c))
  (pad "R2" smd circle (at -7.5 5.5) (size 0.4 0.4) (layers "F.Cu" "F.Paste" "F.Mask") (tstamp 977441cf-8c00-47fe-a1c2-4b780564aa44))
  (pad "R3" smd circle (at -6.5 5.5) (size 0.4 0.4) (layers "F.Cu" "F.Paste" "F.Mask") (tstamp 51243f9d-1a15-4a15-b8c8-3113e2f1dd18))
  (pad "R4" smd circle (at -5.5 5.5) (size 0.4 0.4) (layers "F.Cu" "F.Paste" "F.Mask") (tstamp f7c5bd8d-055e-4a8a-8eb7-f724bac85552))
  (pad "R5" smd circle (at -4.5 5.5) (size 0.4 0.4) (layers "F.Cu" "F.Paste" "F.Mask") (tstamp 04a99f61-4dd7-4b82-930f-ffd423423f66))
  (pad "R6" smd circle (at -3.5 5.5) (size 0.4 0.4) (layers "F.Cu" "F.Paste" "F.Mask") (tstamp 34354bd1-28f3-44cd-8870-dbbb36fc7787))
  (pad "R7" smd circle (at -2.5 5.5) (size 0.4 0.4) (layers "F.Cu" "F.Paste" "F.Mask") (tstamp 0384ca92-ebb5-4b1e-a4bf-642302bce38d))
  (pad "R8" smd circle (at -1.5 5.5) (size 0.4 0.4) (layers "F.Cu" "F.Paste" "F.Mask") (tstamp fc28d55a-1d8c-4a16-ac9d-0177e5da5f1d))
  (pad "R9" smd circle (at -0.5 5.5) (size 0.4 0.4) (layers "F.Cu" "F.Paste" "F.Mask") (tstamp 43c33cf4-4af0-43c5-aefe-acbacf467d07))
  (pad "R10" smd circle (at 0.5 5.5) (size 0.4 0.4) (layers "F.Cu" "F.Paste" "F.Mask") (tstamp 12243670-0fe4-46b3-9053-43a1fea02820))
  (pad "R11" smd circle (at 1.5 5.5) (size 0.4 0.4) (layers "F.Cu" "F.Paste" "F.Mask") (tstamp e6888ed9-9eaa-4e30-a71a-aebd2e9cb679))
  (pad "R12" smd circle (at 2.5 5.5) (size 0.4 0.4) (layers "F.Cu" "F.Paste" "F.Mask") (tstamp fb5147d9-9cf2-463f-b01f-34a2e4ae614f))
  (pad "R13" smd circle (at 3.5 5.5) (size 0.4 0.4) (layers "F.Cu" "F.Paste" "F.Mask") (tstamp 3667c52d-57cd-42b2-9714-02e80a874535))
  (pad "R14" smd circle (at 4.5 5.5) (size 0.4 0.4) (layers "F.Cu" "F.Paste" "F.Mask") (tstamp fb31f9e8-5c98-43a7-a6e1-77024190a89c))
  (pad "R15" smd circle (at 5.5 5.5) (size 0.4 0.4) (layers "F.Cu" "F.Paste" "F.Mask") (tstamp 3bc7b001-3b50-4769-b0a0-99c0bba1497d))
  (pad "R16" smd circle (at 6.5 5.5) (size 0.4 0.4) (layers "F.Cu" "F.Paste" "F.Mask") (tstamp 43c108ee-df77-4510-b000-f00b58aff624))
  (pad "R17" smd circle (at 7.5 5.5) (size 0.4 0.4) (layers "F.Cu" "F.Paste" "F.Mask") (tstamp b0cea045-b089-487b-98fe-d869d2f807c5))
  (pad "R18" smd circle (at 8.5 5.5) (size 0.4 0.4) (layers "F.Cu" "F.Paste" "F.Mask") (tstamp fe4a5e46-5430-4a59-a2c9-fdd50d7b5286))
  (pad "T1" smd circle (at -8.5 6.5) (size 0.4 0.4) (layers "F.Cu" "F.Paste" "F.Mask") (tstamp 6a6bb74b-838b-4426-8ba6-ecd1b624335b))
  (pad "T2" smd circle (at -7.5 6.5) (size 0.4 0.4) (layers "F.Cu" "F.Paste" "F.Mask") (tstamp 0506878a-b567-48c9-bbd5-cea699d8e2be))
  (pad "T3" smd circle (at -6.5 6.5) (size 0.4 0.4) (layers "F.Cu" "F.Paste" "F.Mask") (tstamp 41879887-be6c-4e9f-a828-aedba6284e25))
  (pad "T4" smd circle (at -5.5 6.5) (size 0.4 0.4) (layers "F.Cu" "F.Paste" "F.Mask") (tstamp ba750b92-70df-4148-8f59-e5cc20aa2701))
  (pad "T5" smd circle (at -4.5 6.5) (size 0.4 0.4) (layers "F.Cu" "F.Paste" "F.Mask") (tstamp 5cb031bb-11c1-4cd5-a46b-46acfb20dc4d))
  (pad "T6" smd circle (at -3.5 6.5) (size 0.4 0.4) (layers "F.Cu" "F.Paste" "F.Mask") (tstamp cfe01695-ec00-4850-ad67-c252a08aa8b2))
  (pad "T7" smd circle (at -2.5 6.5) (size 0.4 0.4) (layers "F.Cu" "F.Paste" "F.Mask") (tstamp 9754d466-1564-4022-aca3-5e9de16c5375))
  (pad "T8" smd circle (at -1.5 6.5) (size 0.4 0.4) (layers "F.Cu" "F.Paste" "F.Mask") (tstamp 998513ae-edf2-4b4e-bb74-bd1275d1836a))
  (pad "T9" smd circle (at -0.5 6.5) (size 0.4 0.4) (layers "F.Cu" "F.Paste" "F.Mask") (tstamp 32793a53-f5bd-428c-b2e9-10ee6dd6c2ba))
  (pad "T10" smd circle (at 0.5 6.5) (size 0.4 0.4) (layers "F.Cu" "F.Paste" "F.Mask") (tstamp 635189c7-8a84-446c-bad4-fb3eeefdaf27))
  (pad "T11" smd circle (at 1.5 6.5) (size 0.4 0.4) (layers "F.Cu" "F.Paste" "F.Mask") (tstamp 4d17ac08-9d09-467f-92bd-4ed646614189))
  (pad "T12" smd circle (at 2.5 6.5) (size 0.4 0.4) (layers "F.Cu" "F.Paste" "F.Mask") (tstamp 183081ee-5b2b-4f41-956a-5f4f58d67261))
  (pad "T13" smd circle (at 3.5 6.5) (size 0.4 0.4) (layers "F.Cu" "F.Paste" "F.Mask") (tstamp 544221b0-25c9-4cbc-be9c-ba34394fe01d))
  (pad "T14" smd circle (at 4.5 6.5) (size 0.4 0.4) (layers "F.Cu" "F.Paste" "F.Mask") (tstamp 0b752896-7328-4fd6-a981-002b445f25ea))
  (pad "T15" smd circle (at 5.5 6.5) (size 0.4 0.4) (layers "F.Cu" "F.Paste" "F.Mask") (tstamp b422baa3-da4d-4855-9ce0-a64b99c0b981))
  (pad "T16" smd circle (at 6.5 6.5) (size 0.4 0.4) (layers "F.Cu" "F.Paste" "F.Mask") (tstamp 2e24b7f9-c14d-4d28-a9f7-226835861c37))
  (pad "T17" smd circle (at 7.5 6.5) (size 0.4 0.4) (layers "F.Cu" "F.Paste" "F.Mask") (tstamp 426402b5-c414-4908-abab-6872847a28d1))
  (pad "T18" smd circle (at 8.5 6.5) (size 0.4 0.4) (layers "F.Cu" "F.Paste" "F.Mask") (tstamp 4d5f6055-ea0f-4d0a-8ca1-d3b19544bb46))
  (pad "U1" smd circle (at -8.5 7.5) (size 0.4 0.4) (layers "F.Cu" "F.Paste" "F.Mask") (tstamp 9afdf17a-d8f9-45c8-b755-21850422e989))
  (pad "U2" smd circle (at -7.5 7.5) (size 0.4 0.4) (layers "F.Cu" "F.Paste" "F.Mask") (tstamp 514d5949-edd5-4cb1-9e30-07a03e200137))
  (pad "U3" smd circle (at -6.5 7.5) (size 0.4 0.4) (layers "F.Cu" "F.Paste" "F.Mask") (tstamp 64692084-b1e1-470c-8836-2b366f13ea84))
  (pad "U4" smd circle (at -5.5 7.5) (size 0.4 0.4) (layers "F.Cu" "F.Paste" "F.Mask") (tstamp a08c5a63-69c1-4a94-9085-4eb99f42803a))
  (pad "U5" smd circle (at -4.5 7.5) (size 0.4 0.4) (layers "F.Cu" "F.Paste" "F.Mask") (tstamp 97b642cf-f735-46b9-8ba9-eb1b344b53cd))
  (pad "U6" smd circle (at -3.5 7.5) (size 0.4 0.4) (layers "F.Cu" "F.Paste" "F.Mask") (tstamp 01c40abf-2b40-42eb-94a0-928333b9ee75))
  (pad "U7" smd circle (at -2.5 7.5) (size 0.4 0.4) (layers "F.Cu" "F.Paste" "F.Mask") (tstamp 326b2653-d96e-4135-9254-0e77fb01ab5b))
  (pad "U8" smd circle (at -1.5 7.5) (size 0.4 0.4) (layers "F.Cu" "F.Paste" "F.Mask") (tstamp 56198631-c626-4118-9853-2f01d7becb22))
  (pad "U9" smd circle (at -0.5 7.5) (size 0.4 0.4) (layers "F.Cu" "F.Paste" "F.Mask") (tstamp 288271fc-3876-4ad5-a048-b75951ed1f3a))
  (pad "U10" smd circle (at 0.5 7.5) (size 0.4 0.4) (layers "F.Cu" "F.Paste" "F.Mask") (tstamp 838349c3-ffcb-402d-8ad6-e8e772f516a8))
  (pad "U11" smd circle (at 1.5 7.5) (size 0.4 0.4) (layers "F.Cu" "F.Paste" "F.Mask") (tstamp 50913f7c-cf25-45a2-8b46-b109739f7c47))
  (pad "U12" smd circle (at 2.5 7.5) (size 0.4 0.4) (layers "F.Cu" "F.Paste" "F.Mask") (tstamp b32d2e3c-141e-4328-8d9c-253ce9c92320))
  (pad "U13" smd circle (at 3.5 7.5) (size 0.4 0.4) (layers "F.Cu" "F.Paste" "F.Mask") (tstamp cfd3985f-e4fc-4d0c-b59b-320edd6deaec))
  (pad "U14" smd circle (at 4.5 7.5) (size 0.4 0.4) (layers "F.Cu" "F.Paste" "F.Mask") (tstamp 14041129-26e4-4f5f-b31d-ca9e66fb5184))
  (pad "U15" smd circle (at 5.5 7.5) (size 0.4 0.4) (layers "F.Cu" "F.Paste" "F.Mask") (tstamp c4a1f00b-e927-451b-876e-e38c60eac248))
  (pad "U16" smd circle (at 6.5 7.5) (size 0.4 0.4) (layers "F.Cu" "F.Paste" "F.Mask") (tstamp d641406b-426a-4ab9-8762-6e909d39bc26))
  (pad "U17" smd circle (at 7.5 7.5) (size 0.4 0.4) (layers "F.Cu" "F.Paste" "F.Mask") (tstamp 86b25565-7c56-466c-8415-8f56b8d6068d))
  (pad "U18" smd circle (at 8.5 7.5) (size 0.4 0.4) (layers "F.Cu" "F.Paste" "F.Mask") (tstamp 0146e734-7d77-462a-b996-62d017def127))
  (pad "V1" smd circle (at -8.5 8.5) (size 0.4 0.4) (layers "F.Cu" "F.Paste" "F.Mask") (tstamp 5af169aa-7499-4474-a7a2-2d7dadcce581))
  (pad "V2" smd circle (at -7.5 8.5) (size 0.4 0.4) (layers "F.Cu" "F.Paste" "F.Mask") (tstamp 36c72ab2-2429-40ef-8299-b2c7c88b0a88))
  (pad "V3" smd circle (at -6.5 8.5) (size 0.4 0.4) (layers "F.Cu" "F.Paste" "F.Mask") (tstamp 6a650ba6-5df0-4e09-8452-55aa51d61cf3))
  (pad "V4" smd circle (at -5.5 8.5) (size 0.4 0.4) (layers "F.Cu" "F.Paste" "F.Mask") (tstamp 5c458e76-394e-4c46-a3ab-0f979f24321b))
  (pad "V5" smd circle (at -4.5 8.5) (size 0.4 0.4) (layers "F.Cu" "F.Paste" "F.Mask") (tstamp ff1000a5-b66c-4aa0-bce1-68c033dabae5))
  (pad "V6" smd circle (at -3.5 8.5) (size 0.4 0.4) (layers "F.Cu" "F.Paste" "F.Mask") (tstamp f9226738-ba91-4cad-a1da-6073b2b15198))
  (pad "V7" smd circle (at -2.5 8.5) (size 0.4 0.4) (layers "F.Cu" "F.Paste" "F.Mask") (tstamp 46204e9a-7dc1-42b6-ae83-be653238b9f3))
  (pad "V8" smd circle (at -1.5 8.5) (size 0.4 0.4) (layers "F.Cu" "F.Paste" "F.Mask") (tstamp 7f536b49-31b1-47ca-8f54-272570500851))
  (pad "V9" smd circle (at -0.5 8.5) (size 0.4 0.4) (layers "F.Cu" "F.Paste" "F.Mask") (tstamp 7b835fa0-3c24-4438-9eca-596ac96e65e4))
  (pad "V10" smd circle (at 0.5 8.5) (size 0.4 0.4) (layers "F.Cu" "F.Paste" "F.Mask") (tstamp 615d8035-778b-4437-ad3f-7f2c7551ef81))
  (pad "V11" smd circle (at 1.5 8.5) (size 0.4 0.4) (layers "F.Cu" "F.Paste" "F.Mask") (tstamp b1ceb3b6-98bd-4cbd-b6b0-a878144fb8f9))
  (pad "V12" smd circle (at 2.5 8.5) (size 0.4 0.4) (layers "F.Cu" "F.Paste" "F.Mask") (tstamp 39e01242-1dd8-4c39-886c-71328aa878ea))
  (pad "V13" smd circle (at 3.5 8.5) (size 0.4 0.4) (layers "F.Cu" "F.Paste" "F.Mask") (tstamp 10f26cb0-fccc-491f-91e6-d5b3eec53d85))
  (pad "V14" smd circle (at 4.5 8.5) (size 0.4 0.4) (layers "F.Cu" "F.Paste" "F.Mask") (tstamp d043ab5f-7c57-4088-9473-eb5c89521af3))
  (pad "V15" smd circle (at 5.5 8.5) (size 0.4 0.4) (layers "F.Cu" "F.Paste" "F.Mask") (tstamp b756d375-3d41-4516-a0e8-d01d033e19fb))
  (pad "V16" smd circle (at 6.5 8.5) (size 0.4 0.4) (layers "F.Cu" "F.Paste" "F.Mask") (tstamp 7e3527bb-5e73-49c5-a271-3716e3ca7fb0))
  (pad "V17" smd circle (at 7.5 8.5) (size 0.4 0.4) (layers "F.Cu" "F.Paste" "F.Mask") (tstamp f542b7ab-cb5b-4041-a0b7-cb0243233acd))
  (pad "V18" smd circle (at 8.5 8.5) (size 0.4 0.4) (layers "F.Cu" "F.Paste" "F.Mask") (tstamp a02dfdd7-f0b7-4fd3-9763-aa28321a6cf2))
  (model "${KICAD6_3DMODEL_DIR}/Package_BGA.3dshapes/BGA-324_19.0x19.0mm_Layout18x18_P1.0mm_Ball0.5mm_Pad0.4mm_NSMD.wrl"
    (offset (xyz 0 0 0))
    (scale (xyz 1 1 1))
    (rotate (xyz 0 0 0))
  )
)
