(footprint "BGA-48_8.0x9.0mm_Layout6x8_P0.8mm" (version 20221018) (generator pcbnew)
  (layer "F.Cu")
  (descr "BGA-48 - pitch 0.8 mm")
  (tags "BGA-48")
  (attr smd)
  (fp_text reference "REF**" (at 0 -5.4) (layer "F.SilkS")
      (effects (font (size 1 1) (thickness 0.15)))
    (tstamp da2e42b8-d505-4fcc-a928-65f89093c4f8)
  )
  (fp_text value "BGA-48_8.0x9.0mm_Layout6x8_P0.8mm" (at 0 5.5) (layer "F.Fab")
      (effects (font (size 1 1) (thickness 0.15)))
    (tstamp eecc369e-aa63-4aa2-bf11-032ff854d244)
  )
  (fp_text user "${REFERENCE}" (at 0 0) (layer "F.Fab")
      (effects (font (size 1 1) (thickness 0.15)))
    (tstamp 204ef063-0b6b-448e-bd91-b83685898416)
  )
  (fp_line (start -4.3 -4.8) (end -3.6 -4.8)
    (stroke (width 0.12) (type solid)) (layer "F.SilkS") (tstamp 3dd52069-24de-422e-a2de-76909eaf239d))
  (fp_line (start -4.3 -4.1) (end -4.3 -4.8)
    (stroke (width 0.12) (type solid)) (layer "F.SilkS") (tstamp f1728415-d7e3-4502-9662-fad20ab74e2d))
  (fp_line (start -4.1 -4.6) (end 4.1 -4.6)
    (stroke (width 0.12) (type solid)) (layer "F.SilkS") (tstamp becacc22-02c0-4f9b-b165-036af9a98213))
  (fp_line (start -4.1 4.6) (end -4.1 -4.6)
    (stroke (width 0.12) (type solid)) (layer "F.SilkS") (tstamp 05b7c14f-9e5d-473c-87e1-e9587626a712))
  (fp_line (start 4.1 -4.6) (end 4.1 4.6)
    (stroke (width 0.12) (type solid)) (layer "F.SilkS") (tstamp 5a5c8061-e1d1-4473-b9af-e698541ade66))
  (fp_line (start 4.1 4.6) (end -4.1 4.6)
    (stroke (width 0.12) (type solid)) (layer "F.SilkS") (tstamp eedd2942-f62b-4263-a2b0-05523b106a14))
  (fp_line (start -5 -5.5) (end -5 5.5)
    (stroke (width 0.05) (type solid)) (layer "F.CrtYd") (tstamp e24376ac-434d-4778-8818-ab95561ca639))
  (fp_line (start -5 -5.5) (end 5 -5.5)
    (stroke (width 0.05) (type solid)) (layer "F.CrtYd") (tstamp 3ce30811-ca71-40d1-9ff5-82d1066ba8b1))
  (fp_line (start 5 5.5) (end -5 5.5)
    (stroke (width 0.05) (type solid)) (layer "F.CrtYd") (tstamp 6ab6d9a8-10c8-4b88-bc2b-c6ce947a078b))
  (fp_line (start 5 5.5) (end 5 -5.5)
    (stroke (width 0.05) (type solid)) (layer "F.CrtYd") (tstamp 5858c52a-8430-40c3-8217-fe5ae5b2bde6))
  (fp_line (start -4 -4) (end -3.5 -4.5)
    (stroke (width 0.1) (type solid)) (layer "F.Fab") (tstamp 1e89399e-6a8c-487c-a41c-6b11deedc42f))
  (fp_line (start -4 4.5) (end -4 -4)
    (stroke (width 0.1) (type solid)) (layer "F.Fab") (tstamp e7c417e5-f6b0-49e1-85d6-d15b00d54d00))
  (fp_line (start -3.5 -4.5) (end 4 -4.5)
    (stroke (width 0.1) (type solid)) (layer "F.Fab") (tstamp 193268d0-73ca-4702-9316-6f1034205e6a))
  (fp_line (start 4 -4.5) (end 4 4.5)
    (stroke (width 0.1) (type solid)) (layer "F.Fab") (tstamp 8c988396-e8ea-4d68-a3bd-3307abde82b3))
  (fp_line (start 4 4.5) (end -4 4.5)
    (stroke (width 0.1) (type solid)) (layer "F.Fab") (tstamp e3d97b89-e3b6-4f46-9f32-2e24db50cdb3))
  (pad "A1" smd circle (at -2 -2.8) (size 0.4 0.4) (layers "F.Cu" "F.Paste" "F.Mask") (tstamp af2c814a-8815-4fe4-bc35-cc220964e4b4))
  (pad "A2" smd circle (at -1.2 -2.8) (size 0.4 0.4) (layers "F.Cu" "F.Paste" "F.Mask") (tstamp 49ec8cfb-939b-4654-8429-f2bb838c5ac5))
  (pad "A3" smd circle (at -0.4 -2.8) (size 0.4 0.4) (layers "F.Cu" "F.Paste" "F.Mask") (tstamp f037eae3-cc69-4950-8c97-749fc17e41a0))
  (pad "A4" smd circle (at 0.4 -2.8) (size 0.4 0.4) (layers "F.Cu" "F.Paste" "F.Mask") (tstamp 6a9431d1-5679-46ea-9cc4-8e9743b5db5b))
  (pad "A5" smd circle (at 1.2 -2.8) (size 0.4 0.4) (layers "F.Cu" "F.Paste" "F.Mask") (tstamp 54d39b44-72ca-417f-ace7-56b011eacecb))
  (pad "A6" smd circle (at 2 -2.8) (size 0.4 0.4) (layers "F.Cu" "F.Paste" "F.Mask") (tstamp b80fb818-78be-467f-8e65-2a9c87622394))
  (pad "B1" smd circle (at -2 -2) (size 0.4 0.4) (layers "F.Cu" "F.Paste" "F.Mask") (tstamp 246b8667-7b90-4787-b4c2-c41de8d52475))
  (pad "B2" smd circle (at -1.2 -2) (size 0.4 0.4) (layers "F.Cu" "F.Paste" "F.Mask") (tstamp 372f401c-4665-4a14-b8de-5958acaf6eae))
  (pad "B3" smd circle (at -0.4 -2) (size 0.4 0.4) (layers "F.Cu" "F.Paste" "F.Mask") (tstamp b99c8bad-4abf-422c-a38d-c1c1da1a85f7))
  (pad "B4" smd circle (at 0.4 -2) (size 0.4 0.4) (layers "F.Cu" "F.Paste" "F.Mask") (tstamp 2ecd2a67-9fc6-4cb5-bde8-19d3fd07d0c3))
  (pad "B5" smd circle (at 1.2 -2) (size 0.4 0.4) (layers "F.Cu" "F.Paste" "F.Mask") (tstamp 5ab7bbff-52f1-44cd-bfdd-695b914335f2))
  (pad "B6" smd circle (at 2 -2) (size 0.4 0.4) (layers "F.Cu" "F.Paste" "F.Mask") (tstamp cfa76c2f-a5c0-414a-9d34-99e10cb6778c))
  (pad "C1" smd circle (at -2 -1.2) (size 0.4 0.4) (layers "F.Cu" "F.Paste" "F.Mask") (tstamp 0bec50ce-29fa-405f-bb5d-f806d0e00245))
  (pad "C2" smd circle (at -1.2 -1.2) (size 0.4 0.4) (layers "F.Cu" "F.Paste" "F.Mask") (tstamp 5d0b3e1b-87b6-4cd7-be6e-8cc55dd405d3))
  (pad "C3" smd circle (at -0.4 -1.2) (size 0.4 0.4) (layers "F.Cu" "F.Paste" "F.Mask") (tstamp cac9ec81-58fd-47b5-89ee-48b9834e2a06))
  (pad "C4" smd circle (at 0.4 -1.2) (size 0.4 0.4) (layers "F.Cu" "F.Paste" "F.Mask") (tstamp dc78d19e-3620-4f73-a26c-58e7031b58e4))
  (pad "C5" smd circle (at 1.2 -1.2) (size 0.4 0.4) (layers "F.Cu" "F.Paste" "F.Mask") (tstamp c40b8c3c-3b35-4dea-8016-6dc3322038e4))
  (pad "C6" smd circle (at 2 -1.2) (size 0.4 0.4) (layers "F.Cu" "F.Paste" "F.Mask") (tstamp b78d18dc-d8ac-4f6e-add5-d423bc6ca815))
  (pad "D1" smd circle (at -2 -0.4) (size 0.4 0.4) (layers "F.Cu" "F.Paste" "F.Mask") (tstamp 6935f35f-d274-4e15-a9bc-ceaa1fc5ed63))
  (pad "D2" smd circle (at -1.2 -0.4) (size 0.4 0.4) (layers "F.Cu" "F.Paste" "F.Mask") (tstamp 833eed07-1b7c-43ba-a412-0caf429eb183))
  (pad "D3" smd circle (at -0.4 -0.4) (size 0.4 0.4) (layers "F.Cu" "F.Paste" "F.Mask") (tstamp 9873babf-a806-4290-b34b-153da607b202))
  (pad "D4" smd circle (at 0.4 -0.4) (size 0.4 0.4) (layers "F.Cu" "F.Paste" "F.Mask") (tstamp 203f93ab-1fce-4167-9435-936f1deb8161))
  (pad "D5" smd circle (at 1.2 -0.4) (size 0.4 0.4) (layers "F.Cu" "F.Paste" "F.Mask") (tstamp fef97fc5-2e44-463a-9f9b-ae27104bb13f))
  (pad "D6" smd circle (at 2 -0.4) (size 0.4 0.4) (layers "F.Cu" "F.Paste" "F.Mask") (tstamp 531e08c9-b32f-4880-a94d-e28b4b49d358))
  (pad "E1" smd circle (at -2 0.4) (size 0.4 0.4) (layers "F.Cu" "F.Paste" "F.Mask") (tstamp c5bf4d3a-c0ed-49ad-9bc1-8096cd474403))
  (pad "E2" smd circle (at -1.2 0.4) (size 0.4 0.4) (layers "F.Cu" "F.Paste" "F.Mask") (tstamp 868f77bd-29cb-458e-9d22-6fcceac37cd7))
  (pad "E3" smd circle (at -0.4 0.4) (size 0.4 0.4) (layers "F.Cu" "F.Paste" "F.Mask") (tstamp 41c6325f-8db6-4817-8e1c-71dac8560428))
  (pad "E4" smd circle (at 0.4 0.4) (size 0.4 0.4) (layers "F.Cu" "F.Paste" "F.Mask") (tstamp b2da788e-2564-4f69-8e47-3bb872d48e3b))
  (pad "E5" smd circle (at 1.2 0.4) (size 0.4 0.4) (layers "F.Cu" "F.Paste" "F.Mask") (tstamp 9d7ae306-fade-4f64-a12a-f024e8fc90d7))
  (pad "E6" smd circle (at 2 0.4) (size 0.4 0.4) (layers "F.Cu" "F.Paste" "F.Mask") (tstamp c5e266ac-8b8e-4201-858c-49ce4f4e601f))
  (pad "F1" smd circle (at -2 1.2) (size 0.4 0.4) (layers "F.Cu" "F.Paste" "F.Mask") (tstamp 500121e0-8635-48e8-8f1f-a7acdef7bb17))
  (pad "F2" smd circle (at -1.2 1.2) (size 0.4 0.4) (layers "F.Cu" "F.Paste" "F.Mask") (tstamp 89576bf7-3667-43ea-9ef4-785f86ab860d))
  (pad "F3" smd circle (at -0.4 1.2) (size 0.4 0.4) (layers "F.Cu" "F.Paste" "F.Mask") (tstamp 09289495-8414-4237-9cc6-39a0e74ac549))
  (pad "F4" smd circle (at 0.4 1.2) (size 0.4 0.4) (layers "F.Cu" "F.Paste" "F.Mask") (tstamp dad97b35-76d3-4834-bd3d-7f4630065c90))
  (pad "F5" smd circle (at 1.2 1.2) (size 0.4 0.4) (layers "F.Cu" "F.Paste" "F.Mask") (tstamp 611d778f-7449-403e-8b08-a7f49bf3900c))
  (pad "F6" smd circle (at 2 1.2) (size 0.4 0.4) (layers "F.Cu" "F.Paste" "F.Mask") (tstamp b9285cdb-6cb4-4d86-900a-52e04c82c8ea))
  (pad "G1" smd circle (at -2 2) (size 0.4 0.4) (layers "F.Cu" "F.Paste" "F.Mask") (tstamp 40db5e0e-661a-4c21-90b2-44d23e190893))
  (pad "G2" smd circle (at -1.2 2) (size 0.4 0.4) (layers "F.Cu" "F.Paste" "F.Mask") (tstamp 1df81849-4dc7-478e-b224-1d843f32139b))
  (pad "G3" smd circle (at -0.4 2) (size 0.4 0.4) (layers "F.Cu" "F.Paste" "F.Mask") (tstamp 8b63496c-59d1-4563-89ce-cdbcb1066db3))
  (pad "G4" smd circle (at 0.4 2) (size 0.4 0.4) (layers "F.Cu" "F.Paste" "F.Mask") (tstamp b41355f1-f9bf-4731-ae9b-0662834186c8))
  (pad "G5" smd circle (at 1.2 2) (size 0.4 0.4) (layers "F.Cu" "F.Paste" "F.Mask") (tstamp ee0596dd-6a44-4c2c-858e-db16c1bb82bc))
  (pad "G6" smd circle (at 2 2) (size 0.4 0.4) (layers "F.Cu" "F.Paste" "F.Mask") (tstamp d919e16c-1faf-44f5-89bd-c166a40ac6de))
  (pad "H1" smd circle (at -2 2.8) (size 0.4 0.4) (layers "F.Cu" "F.Paste" "F.Mask") (tstamp f3a5e7d9-3782-42ca-9ba9-9113a978376c))
  (pad "H2" smd circle (at -1.2 2.8) (size 0.4 0.4) (layers "F.Cu" "F.Paste" "F.Mask") (tstamp eff8eb55-4417-4b0a-93a4-2e5daf4bb7f4))
  (pad "H3" smd circle (at -0.4 2.8) (size 0.4 0.4) (layers "F.Cu" "F.Paste" "F.Mask") (tstamp 48961017-8b53-4214-b14c-155bbd902afc))
  (pad "H4" smd circle (at 0.4 2.8) (size 0.4 0.4) (layers "F.Cu" "F.Paste" "F.Mask") (tstamp 78a6ac0d-ee51-4928-aa84-ee199e28c9dc))
  (pad "H5" smd circle (at 1.2 2.8) (size 0.4 0.4) (layers "F.Cu" "F.Paste" "F.Mask") (tstamp 0e5c9661-4893-43f7-9898-7f358082177f))
  (pad "H6" smd circle (at 2 2.8) (size 0.4 0.4) (layers "F.Cu" "F.Paste" "F.Mask") (tstamp 7f95a5f1-9da6-48c6-9d9e-cf23abd66065))
  (model "${KICAD6_3DMODEL_DIR}/Package_BGA.3dshapes/BGA-48_8.0x9.0mm_Layout6x8_P0.8mm.wrl"
    (offset (xyz 0 0 0))
    (scale (xyz 1 1 1))
    (rotate (xyz 0 0 0))
  )
)
