(footprint "BGA-672_27.0x27.0mm_Layout26x26_P1.0mm_Ball0.6mm_Pad0.5mm_NSMD" (version 20221018) (generator pcbnew)
  (layer "F.Cu")
  (descr "Altera BGA-672, https://www.altera.com/content/dam/altera-www/global/en_US/pdfs/literature/packaging/04r00472-00.pdf")
  (tags "Altera BGA-672 F672 FBGA")
  (attr smd)
  (fp_text reference "REF**" (at 0 -14.5) (layer "F.SilkS")
      (effects (font (size 1 1) (thickness 0.15)))
    (tstamp 638b0332-dc69-4556-a649-4f9f65fa75b4)
  )
  (fp_text value "BGA-672_27.0x27.0mm_Layout26x26_P1.0mm_Ball0.6mm_Pad0.5mm_NSMD" (at 0 14.5) (layer "F.Fab")
      (effects (font (size 1 1) (thickness 0.15)))
    (tstamp eb22e2a6-99f5-4fe8-9f3d-886e02b3f8f7)
  )
  (fp_text user "${REFERENCE}" (at 0 0) (layer "F.Fab")
      (effects (font (size 1 1) (thickness 0.15)))
    (tstamp ffb32f1b-7556-4352-b51e-f1bf3afa225e)
  )
  (fp_line (start -13.65 -12.5) (end -13.65 -6.9)
    (stroke (width 0.15) (type solid)) (layer "F.SilkS") (tstamp 1d7fa92b-16ab-44a7-962e-66aa5efe90fc))
  (fp_line (start -13.65 13.65) (end -13.65 6.9)
    (stroke (width 0.15) (type solid)) (layer "F.SilkS") (tstamp 96c7d580-bb72-4ea6-b907-5756a97b672d))
  (fp_line (start -12.5 -13.65) (end -13.65 -12.5)
    (stroke (width 0.15) (type solid)) (layer "F.SilkS") (tstamp 868cc730-8b40-44e1-882d-3e3e3a11d4e5))
  (fp_line (start -6.9 -13.65) (end -12.5 -13.65)
    (stroke (width 0.15) (type solid)) (layer "F.SilkS") (tstamp 37b6a8d7-1025-4d3a-8f83-40014c676c1b))
  (fp_line (start -6.9 13.65) (end -13.65 13.65)
    (stroke (width 0.15) (type solid)) (layer "F.SilkS") (tstamp 62110d15-f896-416b-935f-23e4ba6cfc2a))
  (fp_line (start 6.9 -13.65) (end 13.65 -13.65)
    (stroke (width 0.15) (type solid)) (layer "F.SilkS") (tstamp 0442de63-8a65-4574-b98e-c6d42737cbae))
  (fp_line (start 6.9 -13.65) (end 13.65 -13.65)
    (stroke (width 0.15) (type solid)) (layer "F.SilkS") (tstamp 4adcff34-af76-4c5b-8cd4-7967fab15993))
  (fp_line (start 6.9 -13.65) (end 13.65 -13.65)
    (stroke (width 0.15) (type solid)) (layer "F.SilkS") (tstamp 7d0de7fb-5d3b-45dc-bbe2-93f544e3f015))
  (fp_line (start 6.9 13.65) (end 13.65 13.65)
    (stroke (width 0.15) (type solid)) (layer "F.SilkS") (tstamp c32e640d-2e82-4f23-820a-5dc48b6b3b9c))
  (fp_line (start 13.65 -13.65) (end 13.65 -6.9)
    (stroke (width 0.15) (type solid)) (layer "F.SilkS") (tstamp 4b252d36-24a4-4c48-9d99-faf2f40241fa))
  (fp_line (start 13.65 -13.65) (end 13.65 -6.9)
    (stroke (width 0.15) (type solid)) (layer "F.SilkS") (tstamp 97d02e18-eca8-48b2-9f84-96daee54d3ba))
  (fp_line (start 13.65 -13.65) (end 13.65 -6.9)
    (stroke (width 0.15) (type solid)) (layer "F.SilkS") (tstamp d032ec00-39f6-471b-a8e1-e9a8a667f3b4))
  (fp_line (start 13.65 13.65) (end 13.65 6.9)
    (stroke (width 0.15) (type solid)) (layer "F.SilkS") (tstamp 640fdfae-85a3-42cb-a99e-3c6bd576eb52))
  (fp_line (start -14.5 -14.5) (end 14.5 -14.5)
    (stroke (width 0.05) (type solid)) (layer "F.CrtYd") (tstamp e1c22e6c-d5ea-4be4-bea5-0449db0c04fe))
  (fp_line (start -14.5 14.5) (end -14.5 -14.5)
    (stroke (width 0.05) (type solid)) (layer "F.CrtYd") (tstamp 4f841895-0ec0-48ac-81e8-4aee9d263e18))
  (fp_line (start 14.5 -14.5) (end 14.5 14.5)
    (stroke (width 0.05) (type solid)) (layer "F.CrtYd") (tstamp 10dc75d4-c318-4708-8615-4774239632ea))
  (fp_line (start 14.5 14.5) (end -14.5 14.5)
    (stroke (width 0.05) (type solid)) (layer "F.CrtYd") (tstamp 54dc8dde-5de9-485e-9976-750bcf98a27a))
  (fp_line (start -13.5 -12.5) (end -13.5 13.5)
    (stroke (width 0.1) (type solid)) (layer "F.Fab") (tstamp bcf1040c-0a2e-4770-8d3e-02453a017eb7))
  (fp_line (start -13.5 13.5) (end 13.5 13.5)
    (stroke (width 0.1) (type solid)) (layer "F.Fab") (tstamp 2aa9b241-ea95-4342-92e6-6edd83163663))
  (fp_line (start -12.5 -13.5) (end -13.5 -12.5)
    (stroke (width 0.1) (type solid)) (layer "F.Fab") (tstamp b35b1437-9574-4da5-a001-20467fa44044))
  (fp_line (start 13.5 -13.5) (end -12.5 -13.5)
    (stroke (width 0.1) (type solid)) (layer "F.Fab") (tstamp 1b13f0a1-33f9-4062-b163-b9685ac81ec2))
  (fp_line (start 13.5 13.5) (end 13.5 -13.5)
    (stroke (width 0.1) (type solid)) (layer "F.Fab") (tstamp ca5dcbe3-229b-4c42-98aa-70e8be54368d))
  (pad "A2" smd circle (at -11.5 -12.5) (size 0.5 0.5) (layers "F.Cu" "F.Paste" "F.Mask") (tstamp b2b7a8f0-f409-47f1-bc54-697f8cb1b2d9))
  (pad "A3" smd circle (at -10.5 -12.5) (size 0.5 0.5) (layers "F.Cu" "F.Paste" "F.Mask") (tstamp 32196c5f-92d7-4ca7-93eb-94971f0a11c5))
  (pad "A4" smd circle (at -9.5 -12.5) (size 0.5 0.5) (layers "F.Cu" "F.Paste" "F.Mask") (tstamp 10eebdfa-1e40-414e-822f-dab9cc13ad1e))
  (pad "A5" smd circle (at -8.5 -12.5) (size 0.5 0.5) (layers "F.Cu" "F.Paste" "F.Mask") (tstamp c3c54a43-083a-43e9-bf91-cec821c6019f))
  (pad "A6" smd circle (at -7.5 -12.5) (size 0.5 0.5) (layers "F.Cu" "F.Paste" "F.Mask") (tstamp 61d1b476-452a-473f-b073-448a3a58d8c1))
  (pad "A7" smd circle (at -6.5 -12.5) (size 0.5 0.5) (layers "F.Cu" "F.Paste" "F.Mask") (tstamp 0f05a976-8577-4a88-a9cb-2cc91b4658a6))
  (pad "A8" smd circle (at -5.5 -12.5) (size 0.5 0.5) (layers "F.Cu" "F.Paste" "F.Mask") (tstamp 7381a0c8-8402-47f2-b09c-999f7e1829dc))
  (pad "A9" smd circle (at -4.5 -12.5) (size 0.5 0.5) (layers "F.Cu" "F.Paste" "F.Mask") (tstamp e7d0539d-d163-4de7-a697-210ed75bf5f6))
  (pad "A10" smd circle (at -3.5 -12.5) (size 0.5 0.5) (layers "F.Cu" "F.Paste" "F.Mask") (tstamp 15c4a7c0-3db1-4dbe-87ca-c935fbbab518))
  (pad "A11" smd circle (at -2.5 -12.5) (size 0.5 0.5) (layers "F.Cu" "F.Paste" "F.Mask") (tstamp 227080f0-dcdb-40a7-a984-82186dc20253))
  (pad "A12" smd circle (at -1.5 -12.5) (size 0.5 0.5) (layers "F.Cu" "F.Paste" "F.Mask") (tstamp 47a2c08c-7c7c-4bba-87a9-dfe4c132fa05))
  (pad "A13" smd circle (at -0.5 -12.5) (size 0.5 0.5) (layers "F.Cu" "F.Paste" "F.Mask") (tstamp 5b39c7e9-842e-4b69-86dd-318e67cae483))
  (pad "A14" smd circle (at 0.5 -12.5) (size 0.5 0.5) (layers "F.Cu" "F.Paste" "F.Mask") (tstamp ea41cd41-a901-4a06-af73-e50a53b5d4a2))
  (pad "A15" smd circle (at 1.5 -12.5) (size 0.5 0.5) (layers "F.Cu" "F.Paste" "F.Mask") (tstamp f98c3b15-bdd0-45ae-85f5-745bec8346ff))
  (pad "A16" smd circle (at 2.5 -12.5) (size 0.5 0.5) (layers "F.Cu" "F.Paste" "F.Mask") (tstamp a4139159-2b48-45c6-aae3-5529e7fbf8b7))
  (pad "A17" smd circle (at 3.5 -12.5) (size 0.5 0.5) (layers "F.Cu" "F.Paste" "F.Mask") (tstamp eabaf71e-95f2-4595-a25c-b8a39a4e45f4))
  (pad "A18" smd circle (at 4.5 -12.5) (size 0.5 0.5) (layers "F.Cu" "F.Paste" "F.Mask") (tstamp 7b150a9d-1bd3-4734-97cb-8ad70c9d5d02))
  (pad "A19" smd circle (at 5.5 -12.5) (size 0.5 0.5) (layers "F.Cu" "F.Paste" "F.Mask") (tstamp 078d78f7-3b51-4b90-893e-7bf18a80c4ee))
  (pad "A20" smd circle (at 6.5 -12.5) (size 0.5 0.5) (layers "F.Cu" "F.Paste" "F.Mask") (tstamp 4b861a50-ce39-4086-b3df-2028d83e2a1d))
  (pad "A21" smd circle (at 7.5 -12.5) (size 0.5 0.5) (layers "F.Cu" "F.Paste" "F.Mask") (tstamp 72058e93-a533-41dd-bfd5-1cfd3358151d))
  (pad "A22" smd circle (at 8.5 -12.5) (size 0.5 0.5) (layers "F.Cu" "F.Paste" "F.Mask") (tstamp b5030181-536f-4538-a8d0-a522625f6b8e))
  (pad "A23" smd circle (at 9.5 -12.5) (size 0.5 0.5) (layers "F.Cu" "F.Paste" "F.Mask") (tstamp a265d4d4-4c81-4b20-b4c2-f9335982c941))
  (pad "A24" smd circle (at 10.5 -12.5) (size 0.5 0.5) (layers "F.Cu" "F.Paste" "F.Mask") (tstamp 809d8e18-47ac-4c00-8713-6e626d4ce8c1))
  (pad "A25" smd circle (at 11.5 -12.5) (size 0.5 0.5) (layers "F.Cu" "F.Paste" "F.Mask") (tstamp 798a5b89-db9a-4fdf-a403-7e84c1628494))
  (pad "AA1" smd circle (at -12.5 7.5) (size 0.5 0.5) (layers "F.Cu" "F.Paste" "F.Mask") (tstamp a2a2d515-c042-4d16-8992-4079b009aa81))
  (pad "AA2" smd circle (at -11.5 7.5) (size 0.5 0.5) (layers "F.Cu" "F.Paste" "F.Mask") (tstamp deebb36f-cac8-4937-866d-71b81916cf02))
  (pad "AA3" smd circle (at -10.5 7.5) (size 0.5 0.5) (layers "F.Cu" "F.Paste" "F.Mask") (tstamp e00353f1-1778-4c19-bc50-53c943da603e))
  (pad "AA4" smd circle (at -9.5 7.5) (size 0.5 0.5) (layers "F.Cu" "F.Paste" "F.Mask") (tstamp 7b81ef23-6173-42b8-a4bb-19fab9aa7530))
  (pad "AA5" smd circle (at -8.5 7.5) (size 0.5 0.5) (layers "F.Cu" "F.Paste" "F.Mask") (tstamp 13cb20c3-38e0-4075-90b2-9736c392365d))
  (pad "AA6" smd circle (at -7.5 7.5) (size 0.5 0.5) (layers "F.Cu" "F.Paste" "F.Mask") (tstamp ba1d4c78-5527-4e03-a30d-34d83cf72310))
  (pad "AA7" smd circle (at -6.5 7.5) (size 0.5 0.5) (layers "F.Cu" "F.Paste" "F.Mask") (tstamp 4678ae33-b880-4773-ae91-dbe8719c3b35))
  (pad "AA8" smd circle (at -5.5 7.5) (size 0.5 0.5) (layers "F.Cu" "F.Paste" "F.Mask") (tstamp 0e8ddc7d-082b-426b-8a5a-57293882469f))
  (pad "AA9" smd circle (at -4.5 7.5) (size 0.5 0.5) (layers "F.Cu" "F.Paste" "F.Mask") (tstamp 9eb1aa05-31a7-42b3-9578-4bcff05d1962))
  (pad "AA10" smd circle (at -3.5 7.5) (size 0.5 0.5) (layers "F.Cu" "F.Paste" "F.Mask") (tstamp d703c2ad-634f-4cd1-ac84-15eda520e0fa))
  (pad "AA11" smd circle (at -2.5 7.5) (size 0.5 0.5) (layers "F.Cu" "F.Paste" "F.Mask") (tstamp 1a2f1586-0496-4fb0-9ed4-ef9c205a8179))
  (pad "AA12" smd circle (at -1.5 7.5) (size 0.5 0.5) (layers "F.Cu" "F.Paste" "F.Mask") (tstamp c84526b0-5fde-47ea-b24f-4b465d108dc6))
  (pad "AA13" smd circle (at -0.5 7.5) (size 0.5 0.5) (layers "F.Cu" "F.Paste" "F.Mask") (tstamp 6a957e0a-0661-4656-86cf-fe2f58d7125d))
  (pad "AA14" smd circle (at 0.5 7.5) (size 0.5 0.5) (layers "F.Cu" "F.Paste" "F.Mask") (tstamp b0040871-1516-4d04-92ca-0ec8d76a5617))
  (pad "AA15" smd circle (at 1.5 7.5) (size 0.5 0.5) (layers "F.Cu" "F.Paste" "F.Mask") (tstamp a2ee7725-c2f0-42be-93c3-84db5e80116d))
  (pad "AA16" smd circle (at 2.5 7.5) (size 0.5 0.5) (layers "F.Cu" "F.Paste" "F.Mask") (tstamp 0b843113-4e4d-4b1c-afcf-43eeeea789d3))
  (pad "AA17" smd circle (at 3.5 7.5) (size 0.5 0.5) (layers "F.Cu" "F.Paste" "F.Mask") (tstamp 21d2f589-ff4d-4a15-bfbc-c92715483a7d))
  (pad "AA18" smd circle (at 4.5 7.5) (size 0.5 0.5) (layers "F.Cu" "F.Paste" "F.Mask") (tstamp 76ef8058-8111-496e-bf24-03e6ce0bc887))
  (pad "AA19" smd circle (at 5.5 7.5) (size 0.5 0.5) (layers "F.Cu" "F.Paste" "F.Mask") (tstamp b56ef9c8-1efe-46bb-adc1-1a2f88e4f879))
  (pad "AA20" smd circle (at 6.5 7.5) (size 0.5 0.5) (layers "F.Cu" "F.Paste" "F.Mask") (tstamp 3ad9e0f1-bba3-43e8-97db-00de68da66eb))
  (pad "AA21" smd circle (at 7.5 7.5) (size 0.5 0.5) (layers "F.Cu" "F.Paste" "F.Mask") (tstamp 14787910-22c4-47e6-92ee-7a6acaf387b8))
  (pad "AA22" smd circle (at 8.5 7.5) (size 0.5 0.5) (layers "F.Cu" "F.Paste" "F.Mask") (tstamp 35ef6b03-c0f0-43eb-9164-e995a3a31d98))
  (pad "AA23" smd circle (at 9.5 7.5) (size 0.5 0.5) (layers "F.Cu" "F.Paste" "F.Mask") (tstamp 46a7eb8d-9873-4027-a314-b11c672917ac))
  (pad "AA24" smd circle (at 10.5 7.5) (size 0.5 0.5) (layers "F.Cu" "F.Paste" "F.Mask") (tstamp 0decae8e-ca18-4f34-b008-de36030b0eb1))
  (pad "AA25" smd circle (at 11.5 7.5) (size 0.5 0.5) (layers "F.Cu" "F.Paste" "F.Mask") (tstamp 3fdcecc1-895f-4299-9086-3bf7d347eedf))
  (pad "AA26" smd circle (at 12.5 7.5) (size 0.5 0.5) (layers "F.Cu" "F.Paste" "F.Mask") (tstamp 214bd920-86b7-4b4b-8f67-a50a541395bb))
  (pad "AB1" smd circle (at -12.5 8.5) (size 0.5 0.5) (layers "F.Cu" "F.Paste" "F.Mask") (tstamp b40c4de7-1ebd-4a96-879b-2d2eec73d244))
  (pad "AB2" smd circle (at -11.5 8.5) (size 0.5 0.5) (layers "F.Cu" "F.Paste" "F.Mask") (tstamp 0833b41a-9d5b-437a-b3c2-045f540519cf))
  (pad "AB3" smd circle (at -10.5 8.5) (size 0.5 0.5) (layers "F.Cu" "F.Paste" "F.Mask") (tstamp 882b2612-237c-4271-acff-4e83239dbf50))
  (pad "AB4" smd circle (at -9.5 8.5) (size 0.5 0.5) (layers "F.Cu" "F.Paste" "F.Mask") (tstamp f37f280c-1aae-4525-a1da-4152de471b44))
  (pad "AB5" smd circle (at -8.5 8.5) (size 0.5 0.5) (layers "F.Cu" "F.Paste" "F.Mask") (tstamp e53fcbc9-0d8c-45e6-ac35-0f0a7e494773))
  (pad "AB6" smd circle (at -7.5 8.5) (size 0.5 0.5) (layers "F.Cu" "F.Paste" "F.Mask") (tstamp 10de5b70-e5ba-421c-8918-e060be6ef74c))
  (pad "AB7" smd circle (at -6.5 8.5) (size 0.5 0.5) (layers "F.Cu" "F.Paste" "F.Mask") (tstamp 6f301ef4-6dc3-44bd-b1d2-6584d9a3590b))
  (pad "AB8" smd circle (at -5.5 8.5) (size 0.5 0.5) (layers "F.Cu" "F.Paste" "F.Mask") (tstamp e50bde77-06df-410c-8526-6947bd1712f5))
  (pad "AB9" smd circle (at -4.5 8.5) (size 0.5 0.5) (layers "F.Cu" "F.Paste" "F.Mask") (tstamp 0f74b52b-ca79-4739-a404-595adcb42806))
  (pad "AB10" smd circle (at -3.5 8.5) (size 0.5 0.5) (layers "F.Cu" "F.Paste" "F.Mask") (tstamp 6abac702-88b9-4927-a2e4-d08547802e23))
  (pad "AB11" smd circle (at -2.5 8.5) (size 0.5 0.5) (layers "F.Cu" "F.Paste" "F.Mask") (tstamp 6aa86a38-2108-4eda-a67a-cedc7d5061f9))
  (pad "AB12" smd circle (at -1.5 8.5) (size 0.5 0.5) (layers "F.Cu" "F.Paste" "F.Mask") (tstamp 37bed97c-c70c-47a3-b6ff-c38a96aac9dc))
  (pad "AB13" smd circle (at -0.5 8.5) (size 0.5 0.5) (layers "F.Cu" "F.Paste" "F.Mask") (tstamp 00966052-ade3-4116-a306-0b10401f5075))
  (pad "AB14" smd circle (at 0.5 8.5) (size 0.5 0.5) (layers "F.Cu" "F.Paste" "F.Mask") (tstamp ffa193bd-0bf5-43d5-a359-8baaf035a88f))
  (pad "AB15" smd circle (at 1.5 8.5) (size 0.5 0.5) (layers "F.Cu" "F.Paste" "F.Mask") (tstamp 876fdda1-7d94-47de-bfd7-1321626f0542))
  (pad "AB16" smd circle (at 2.5 8.5) (size 0.5 0.5) (layers "F.Cu" "F.Paste" "F.Mask") (tstamp 723eec11-d5ed-4bae-8852-563747935951))
  (pad "AB17" smd circle (at 3.5 8.5) (size 0.5 0.5) (layers "F.Cu" "F.Paste" "F.Mask") (tstamp 74facb05-6a87-42c3-a2e9-fff2622d8e6b))
  (pad "AB18" smd circle (at 4.5 8.5) (size 0.5 0.5) (layers "F.Cu" "F.Paste" "F.Mask") (tstamp 5380fdfb-0d65-4581-86ce-18e8ca449723))
  (pad "AB19" smd circle (at 5.5 8.5) (size 0.5 0.5) (layers "F.Cu" "F.Paste" "F.Mask") (tstamp e2ad92d6-570e-4aa2-93ff-18dd52897d7a))
  (pad "AB20" smd circle (at 6.5 8.5) (size 0.5 0.5) (layers "F.Cu" "F.Paste" "F.Mask") (tstamp 721231cc-e8fa-47e2-bb88-6ee80bd134cd))
  (pad "AB21" smd circle (at 7.5 8.5) (size 0.5 0.5) (layers "F.Cu" "F.Paste" "F.Mask") (tstamp 615f8a47-7365-4745-a72d-b19850910640))
  (pad "AB22" smd circle (at 8.5 8.5) (size 0.5 0.5) (layers "F.Cu" "F.Paste" "F.Mask") (tstamp 5b77b5b6-e9a3-4d01-a8fb-981dd2faf5f2))
  (pad "AB23" smd circle (at 9.5 8.5) (size 0.5 0.5) (layers "F.Cu" "F.Paste" "F.Mask") (tstamp 05d4e391-a8d0-4972-a357-6fe67a643368))
  (pad "AB24" smd circle (at 10.5 8.5) (size 0.5 0.5) (layers "F.Cu" "F.Paste" "F.Mask") (tstamp d6e189b6-4b79-4857-b05a-2ef57dd27009))
  (pad "AB25" smd circle (at 11.5 8.5) (size 0.5 0.5) (layers "F.Cu" "F.Paste" "F.Mask") (tstamp 09f6fa00-df2b-4f0c-8391-f444542486f6))
  (pad "AB26" smd circle (at 12.5 8.5) (size 0.5 0.5) (layers "F.Cu" "F.Paste" "F.Mask") (tstamp ce4a5d29-b6b9-4f22-af52-63a51021cd7a))
  (pad "AC1" smd circle (at -12.5 9.5) (size 0.5 0.5) (layers "F.Cu" "F.Paste" "F.Mask") (tstamp ec3fc496-aee6-47ee-926b-1953f901c705))
  (pad "AC2" smd circle (at -11.5 9.5) (size 0.5 0.5) (layers "F.Cu" "F.Paste" "F.Mask") (tstamp 94aac282-d339-4eac-a224-d27392fc384b))
  (pad "AC3" smd circle (at -10.5 9.5) (size 0.5 0.5) (layers "F.Cu" "F.Paste" "F.Mask") (tstamp dc04dfc1-f415-4d58-9970-53ae62ebe79d))
  (pad "AC4" smd circle (at -9.5 9.5) (size 0.5 0.5) (layers "F.Cu" "F.Paste" "F.Mask") (tstamp 5c85733d-56a5-4b97-9bcb-b5632149e048))
  (pad "AC5" smd circle (at -8.5 9.5) (size 0.5 0.5) (layers "F.Cu" "F.Paste" "F.Mask") (tstamp 319ce093-575d-45d5-81ca-757d536f144a))
  (pad "AC6" smd circle (at -7.5 9.5) (size 0.5 0.5) (layers "F.Cu" "F.Paste" "F.Mask") (tstamp 2d9b0288-3ff8-4dab-9fda-b42a001a6b0e))
  (pad "AC7" smd circle (at -6.5 9.5) (size 0.5 0.5) (layers "F.Cu" "F.Paste" "F.Mask") (tstamp 621b84f7-d812-4163-a9f5-29f4bc0d6cd7))
  (pad "AC8" smd circle (at -5.5 9.5) (size 0.5 0.5) (layers "F.Cu" "F.Paste" "F.Mask") (tstamp 24d8f192-cfba-4208-bea8-d9888120bb51))
  (pad "AC9" smd circle (at -4.5 9.5) (size 0.5 0.5) (layers "F.Cu" "F.Paste" "F.Mask") (tstamp 60d8d039-aec1-4b48-8479-0d97cb93c18c))
  (pad "AC10" smd circle (at -3.5 9.5) (size 0.5 0.5) (layers "F.Cu" "F.Paste" "F.Mask") (tstamp 82e0eb68-6f5d-4029-a143-ab165821f493))
  (pad "AC11" smd circle (at -2.5 9.5) (size 0.5 0.5) (layers "F.Cu" "F.Paste" "F.Mask") (tstamp d8d66dae-5e88-4954-bdec-6a6385263001))
  (pad "AC12" smd circle (at -1.5 9.5) (size 0.5 0.5) (layers "F.Cu" "F.Paste" "F.Mask") (tstamp e9427843-a682-4cf7-8189-4d8507f655be))
  (pad "AC13" smd circle (at -0.5 9.5) (size 0.5 0.5) (layers "F.Cu" "F.Paste" "F.Mask") (tstamp 35a5a4a4-7116-4184-9d6d-dacb336195e7))
  (pad "AC14" smd circle (at 0.5 9.5) (size 0.5 0.5) (layers "F.Cu" "F.Paste" "F.Mask") (tstamp cb76725f-a84c-46d4-83aa-2741d12c62ba))
  (pad "AC15" smd circle (at 1.5 9.5) (size 0.5 0.5) (layers "F.Cu" "F.Paste" "F.Mask") (tstamp 218cd993-ad29-47bf-bdb8-bba5bd8eb8a0))
  (pad "AC16" smd circle (at 2.5 9.5) (size 0.5 0.5) (layers "F.Cu" "F.Paste" "F.Mask") (tstamp bbef6c56-fe7e-44f5-a450-9426bd60bb5c))
  (pad "AC17" smd circle (at 3.5 9.5) (size 0.5 0.5) (layers "F.Cu" "F.Paste" "F.Mask") (tstamp 2e9346d5-8a33-4f41-be24-e9db4b8b77ff))
  (pad "AC18" smd circle (at 4.5 9.5) (size 0.5 0.5) (layers "F.Cu" "F.Paste" "F.Mask") (tstamp e4592239-a5fb-46e3-996f-5e042424382b))
  (pad "AC19" smd circle (at 5.5 9.5) (size 0.5 0.5) (layers "F.Cu" "F.Paste" "F.Mask") (tstamp b09ac420-a92f-4b86-b9b3-4a1bf5a66350))
  (pad "AC20" smd circle (at 6.5 9.5) (size 0.5 0.5) (layers "F.Cu" "F.Paste" "F.Mask") (tstamp e47f6f73-0a7f-4ff4-a48a-864454ba6e63))
  (pad "AC21" smd circle (at 7.5 9.5) (size 0.5 0.5) (layers "F.Cu" "F.Paste" "F.Mask") (tstamp 47d2eb50-5390-4800-8fe5-6fad28782a95))
  (pad "AC22" smd circle (at 8.5 9.5) (size 0.5 0.5) (layers "F.Cu" "F.Paste" "F.Mask") (tstamp 19eafaf3-3fe5-4a17-b7bd-40ff212acac0))
  (pad "AC23" smd circle (at 9.5 9.5) (size 0.5 0.5) (layers "F.Cu" "F.Paste" "F.Mask") (tstamp 8d9c6abb-f5f8-4517-a890-616b0294c889))
  (pad "AC24" smd circle (at 10.5 9.5) (size 0.5 0.5) (layers "F.Cu" "F.Paste" "F.Mask") (tstamp 8f494b97-31b2-40ae-b9d0-7f2394b3d47e))
  (pad "AC25" smd circle (at 11.5 9.5) (size 0.5 0.5) (layers "F.Cu" "F.Paste" "F.Mask") (tstamp 713668b3-be79-4137-9363-8465c6ef70b1))
  (pad "AC26" smd circle (at 12.5 9.5) (size 0.5 0.5) (layers "F.Cu" "F.Paste" "F.Mask") (tstamp a777ab40-56af-4f83-854c-4a90b583cef3))
  (pad "AD1" smd circle (at -12.5 10.5) (size 0.5 0.5) (layers "F.Cu" "F.Paste" "F.Mask") (tstamp 47ddc46e-abd5-425e-9ea0-959f49b2bb10))
  (pad "AD2" smd circle (at -11.5 10.5) (size 0.5 0.5) (layers "F.Cu" "F.Paste" "F.Mask") (tstamp db7bea4f-1c8c-43e1-ab13-4c8afc63508b))
  (pad "AD3" smd circle (at -10.5 10.5) (size 0.5 0.5) (layers "F.Cu" "F.Paste" "F.Mask") (tstamp 3b08592c-cd91-484a-807a-3181c010974f))
  (pad "AD4" smd circle (at -9.5 10.5) (size 0.5 0.5) (layers "F.Cu" "F.Paste" "F.Mask") (tstamp 55259e8d-6ac9-497d-9b24-2140c6dcaac0))
  (pad "AD5" smd circle (at -8.5 10.5) (size 0.5 0.5) (layers "F.Cu" "F.Paste" "F.Mask") (tstamp 43475496-593b-45da-ae8b-93d12dbabb69))
  (pad "AD6" smd circle (at -7.5 10.5) (size 0.5 0.5) (layers "F.Cu" "F.Paste" "F.Mask") (tstamp 8a64f02f-8e12-4441-bebd-9f68d2c54112))
  (pad "AD7" smd circle (at -6.5 10.5) (size 0.5 0.5) (layers "F.Cu" "F.Paste" "F.Mask") (tstamp 97dc0133-b81d-4652-ab29-9af628e8259d))
  (pad "AD8" smd circle (at -5.5 10.5) (size 0.5 0.5) (layers "F.Cu" "F.Paste" "F.Mask") (tstamp 2148aefc-33f5-49ef-b917-3b855d34eb29))
  (pad "AD9" smd circle (at -4.5 10.5) (size 0.5 0.5) (layers "F.Cu" "F.Paste" "F.Mask") (tstamp 0d9a3e2a-3fd1-41a5-aba7-dd820fc5f101))
  (pad "AD10" smd circle (at -3.5 10.5) (size 0.5 0.5) (layers "F.Cu" "F.Paste" "F.Mask") (tstamp 5d025ccb-0e0b-4921-9280-9cc38b9b4b09))
  (pad "AD11" smd circle (at -2.5 10.5) (size 0.5 0.5) (layers "F.Cu" "F.Paste" "F.Mask") (tstamp 83ff449f-07e6-4c3d-9164-5585c6b3b81d))
  (pad "AD12" smd circle (at -1.5 10.5) (size 0.5 0.5) (layers "F.Cu" "F.Paste" "F.Mask") (tstamp f8fb9fbb-563b-429f-bc14-6365527a8480))
  (pad "AD13" smd circle (at -0.5 10.5) (size 0.5 0.5) (layers "F.Cu" "F.Paste" "F.Mask") (tstamp df99699a-5209-4b83-8a2a-3a8b0979cbaa))
  (pad "AD14" smd circle (at 0.5 10.5) (size 0.5 0.5) (layers "F.Cu" "F.Paste" "F.Mask") (tstamp f24b5441-f2bc-45f5-a9f1-9ffa97a82a27))
  (pad "AD15" smd circle (at 1.5 10.5) (size 0.5 0.5) (layers "F.Cu" "F.Paste" "F.Mask") (tstamp af528484-f365-434a-9c3e-478c9e9a8572))
  (pad "AD16" smd circle (at 2.5 10.5) (size 0.5 0.5) (layers "F.Cu" "F.Paste" "F.Mask") (tstamp 045b9100-e116-467b-9aa9-37346914bc76))
  (pad "AD17" smd circle (at 3.5 10.5) (size 0.5 0.5) (layers "F.Cu" "F.Paste" "F.Mask") (tstamp 649c024a-124f-49f9-9874-cc2da1b68b42))
  (pad "AD18" smd circle (at 4.5 10.5) (size 0.5 0.5) (layers "F.Cu" "F.Paste" "F.Mask") (tstamp 05b5f7a8-ad4c-4586-8ab9-0e6b3921d09c))
  (pad "AD19" smd circle (at 5.5 10.5) (size 0.5 0.5) (layers "F.Cu" "F.Paste" "F.Mask") (tstamp 6571efce-c688-4c7b-9bc8-f69ba9dc053e))
  (pad "AD20" smd circle (at 6.5 10.5) (size 0.5 0.5) (layers "F.Cu" "F.Paste" "F.Mask") (tstamp ab14741c-ee98-4434-9ed0-70f06d1ddbfc))
  (pad "AD21" smd circle (at 7.5 10.5) (size 0.5 0.5) (layers "F.Cu" "F.Paste" "F.Mask") (tstamp f5af7a10-cd75-4353-a494-17636e54849f))
  (pad "AD22" smd circle (at 8.5 10.5) (size 0.5 0.5) (layers "F.Cu" "F.Paste" "F.Mask") (tstamp 2ff6fa40-a1c4-46c4-9a3c-72fd4d5c8a25))
  (pad "AD23" smd circle (at 9.5 10.5) (size 0.5 0.5) (layers "F.Cu" "F.Paste" "F.Mask") (tstamp b3fef9eb-e484-47a2-bfe7-fd0b402e050d))
  (pad "AD24" smd circle (at 10.5 10.5) (size 0.5 0.5) (layers "F.Cu" "F.Paste" "F.Mask") (tstamp 9673c42a-b8e6-4b08-867e-d8a293d48f2d))
  (pad "AD25" smd circle (at 11.5 10.5) (size 0.5 0.5) (layers "F.Cu" "F.Paste" "F.Mask") (tstamp d4148bad-81d0-472d-89c9-2ec71927c0fc))
  (pad "AD26" smd circle (at 12.5 10.5) (size 0.5 0.5) (layers "F.Cu" "F.Paste" "F.Mask") (tstamp 67326930-454e-416a-94ab-afbad6fa96de))
  (pad "AE1" smd circle (at -12.5 11.5) (size 0.5 0.5) (layers "F.Cu" "F.Paste" "F.Mask") (tstamp 04317202-2b22-42ac-8451-0ca7093b848c))
  (pad "AE2" smd circle (at -11.5 11.5) (size 0.5 0.5) (layers "F.Cu" "F.Paste" "F.Mask") (tstamp 05acb5ff-4271-402e-96de-754e1ec86974))
  (pad "AE3" smd circle (at -10.5 11.5) (size 0.5 0.5) (layers "F.Cu" "F.Paste" "F.Mask") (tstamp f4cd38a7-cd3f-4143-b19f-e3b32e565b18))
  (pad "AE4" smd circle (at -9.5 11.5) (size 0.5 0.5) (layers "F.Cu" "F.Paste" "F.Mask") (tstamp 45ebfbb7-cfed-4615-b3ad-d116adae3fba))
  (pad "AE5" smd circle (at -8.5 11.5) (size 0.5 0.5) (layers "F.Cu" "F.Paste" "F.Mask") (tstamp 6fb170f9-eb27-4611-84c8-19531898d302))
  (pad "AE6" smd circle (at -7.5 11.5) (size 0.5 0.5) (layers "F.Cu" "F.Paste" "F.Mask") (tstamp a84e78ac-025a-45bc-b32a-85d497cf611a))
  (pad "AE7" smd circle (at -6.5 11.5) (size 0.5 0.5) (layers "F.Cu" "F.Paste" "F.Mask") (tstamp 4a06d726-000a-4825-8807-2b86fcbcadef))
  (pad "AE8" smd circle (at -5.5 11.5) (size 0.5 0.5) (layers "F.Cu" "F.Paste" "F.Mask") (tstamp edfca066-2763-4751-830d-f4f8edd42b37))
  (pad "AE9" smd circle (at -4.5 11.5) (size 0.5 0.5) (layers "F.Cu" "F.Paste" "F.Mask") (tstamp 596f13c2-5e74-4d27-a8fc-03e9d9c8af67))
  (pad "AE10" smd circle (at -3.5 11.5) (size 0.5 0.5) (layers "F.Cu" "F.Paste" "F.Mask") (tstamp f0fcaeaf-7593-44f0-a703-2873e9f5e839))
  (pad "AE11" smd circle (at -2.5 11.5) (size 0.5 0.5) (layers "F.Cu" "F.Paste" "F.Mask") (tstamp 20affa35-6b02-4e04-a1d2-5e685729009b))
  (pad "AE12" smd circle (at -1.5 11.5) (size 0.5 0.5) (layers "F.Cu" "F.Paste" "F.Mask") (tstamp 897976cf-af99-4a6a-ac11-c1b8c526f719))
  (pad "AE13" smd circle (at -0.5 11.5) (size 0.5 0.5) (layers "F.Cu" "F.Paste" "F.Mask") (tstamp e1f6e81d-7a5a-404d-85df-0f013982c1b5))
  (pad "AE14" smd circle (at 0.5 11.5) (size 0.5 0.5) (layers "F.Cu" "F.Paste" "F.Mask") (tstamp bd3078ba-da73-4e42-9c4f-14c6aa2aa999))
  (pad "AE15" smd circle (at 1.5 11.5) (size 0.5 0.5) (layers "F.Cu" "F.Paste" "F.Mask") (tstamp 4a81dfd6-104e-4f4f-aecf-8ceb87267417))
  (pad "AE16" smd circle (at 2.5 11.5) (size 0.5 0.5) (layers "F.Cu" "F.Paste" "F.Mask") (tstamp de8dfec3-771c-47e7-a297-5692f1cd1024))
  (pad "AE17" smd circle (at 3.5 11.5) (size 0.5 0.5) (layers "F.Cu" "F.Paste" "F.Mask") (tstamp 259736fd-df61-47df-b95b-31db921087f8))
  (pad "AE18" smd circle (at 4.5 11.5) (size 0.5 0.5) (layers "F.Cu" "F.Paste" "F.Mask") (tstamp d7cc15ed-2508-4a1a-b3b6-ed321d63c2ac))
  (pad "AE19" smd circle (at 5.5 11.5) (size 0.5 0.5) (layers "F.Cu" "F.Paste" "F.Mask") (tstamp 650214b9-fcbd-4666-9216-864315f0a329))
  (pad "AE20" smd circle (at 6.5 11.5) (size 0.5 0.5) (layers "F.Cu" "F.Paste" "F.Mask") (tstamp 7cfcd87a-6663-4b0b-9386-473c8cf1a80a))
  (pad "AE21" smd circle (at 7.5 11.5) (size 0.5 0.5) (layers "F.Cu" "F.Paste" "F.Mask") (tstamp 8da55209-1259-4bb0-b03f-5835bc14d56c))
  (pad "AE22" smd circle (at 8.5 11.5) (size 0.5 0.5) (layers "F.Cu" "F.Paste" "F.Mask") (tstamp ec92fafb-bd1c-4ac7-9a6a-d0cc5e1141f0))
  (pad "AE23" smd circle (at 9.5 11.5) (size 0.5 0.5) (layers "F.Cu" "F.Paste" "F.Mask") (tstamp 011631f4-b6e1-4a19-bd18-bb621237f03b))
  (pad "AE24" smd circle (at 10.5 11.5) (size 0.5 0.5) (layers "F.Cu" "F.Paste" "F.Mask") (tstamp 7c1b2f0d-44bc-4955-822b-95a94e139225))
  (pad "AE25" smd circle (at 11.5 11.5) (size 0.5 0.5) (layers "F.Cu" "F.Paste" "F.Mask") (tstamp 96dede58-aa59-4f65-8c4e-ed3b498db758))
  (pad "AE26" smd circle (at 12.5 11.5) (size 0.5 0.5) (layers "F.Cu" "F.Paste" "F.Mask") (tstamp 4d9af384-a2d4-4ea4-8363-d9ec6c15c033))
  (pad "AF2" smd circle (at -11.5 12.5) (size 0.5 0.5) (layers "F.Cu" "F.Paste" "F.Mask") (tstamp 16456664-0762-47f7-8627-e8d24769c579))
  (pad "AF3" smd circle (at -10.5 12.5) (size 0.5 0.5) (layers "F.Cu" "F.Paste" "F.Mask") (tstamp 9450a902-8e3e-407d-98a7-cd61335f8e13))
  (pad "AF4" smd circle (at -9.5 12.5) (size 0.5 0.5) (layers "F.Cu" "F.Paste" "F.Mask") (tstamp 950106e1-d3d0-447d-9d65-556e213bd2e4))
  (pad "AF5" smd circle (at -8.5 12.5) (size 0.5 0.5) (layers "F.Cu" "F.Paste" "F.Mask") (tstamp 51e41468-a25d-4942-92cc-24cb2c5c6974))
  (pad "AF6" smd circle (at -7.5 12.5) (size 0.5 0.5) (layers "F.Cu" "F.Paste" "F.Mask") (tstamp bce04320-fefa-4a2c-b605-30a5603eaeff))
  (pad "AF7" smd circle (at -6.5 12.5) (size 0.5 0.5) (layers "F.Cu" "F.Paste" "F.Mask") (tstamp 1bb1db80-82be-4231-ab6c-e1e03b0d8185))
  (pad "AF8" smd circle (at -5.5 12.5) (size 0.5 0.5) (layers "F.Cu" "F.Paste" "F.Mask") (tstamp 03074dbe-2f6b-4dd0-a6ee-03f981c9cf52))
  (pad "AF9" smd circle (at -4.5 12.5) (size 0.5 0.5) (layers "F.Cu" "F.Paste" "F.Mask") (tstamp 0f010881-d0fd-4091-81dd-5a56b2db15cd))
  (pad "AF10" smd circle (at -3.5 12.5) (size 0.5 0.5) (layers "F.Cu" "F.Paste" "F.Mask") (tstamp f226f775-2025-48ff-8dae-babfed25dff4))
  (pad "AF11" smd circle (at -2.5 12.5) (size 0.5 0.5) (layers "F.Cu" "F.Paste" "F.Mask") (tstamp c89e0a9f-05e3-4819-9d7c-e704fd0ee49d))
  (pad "AF12" smd circle (at -1.5 12.5) (size 0.5 0.5) (layers "F.Cu" "F.Paste" "F.Mask") (tstamp be77a931-ca50-4cc1-af62-dff38bdf2fd4))
  (pad "AF13" smd circle (at -0.5 12.5) (size 0.5 0.5) (layers "F.Cu" "F.Paste" "F.Mask") (tstamp f2fc8ba8-1aba-4c8a-a8c9-17bda27fd987))
  (pad "AF14" smd circle (at 0.5 12.5) (size 0.5 0.5) (layers "F.Cu" "F.Paste" "F.Mask") (tstamp cf0ff722-1db6-4b66-a290-144fddfe33f6))
  (pad "AF15" smd circle (at 1.5 12.5) (size 0.5 0.5) (layers "F.Cu" "F.Paste" "F.Mask") (tstamp 42b11a55-d183-4cd9-baec-5041a55e8eac))
  (pad "AF16" smd circle (at 2.5 12.5) (size 0.5 0.5) (layers "F.Cu" "F.Paste" "F.Mask") (tstamp 34f8f80e-c4d8-43a3-b014-5858d65716aa))
  (pad "AF17" smd circle (at 3.5 12.5) (size 0.5 0.5) (layers "F.Cu" "F.Paste" "F.Mask") (tstamp f627b1be-7b1f-4c75-8226-4f757b6dc05f))
  (pad "AF18" smd circle (at 4.5 12.5) (size 0.5 0.5) (layers "F.Cu" "F.Paste" "F.Mask") (tstamp 8abd075e-7d4a-4a54-8b5b-1c77012c5029))
  (pad "AF19" smd circle (at 5.5 12.5) (size 0.5 0.5) (layers "F.Cu" "F.Paste" "F.Mask") (tstamp b2014710-ed72-4bf7-83c1-c9b1a2f986ed))
  (pad "AF20" smd circle (at 6.5 12.5) (size 0.5 0.5) (layers "F.Cu" "F.Paste" "F.Mask") (tstamp d04a6d1a-7e2a-48be-a775-ea7cf2fc3078))
  (pad "AF21" smd circle (at 7.5 12.5) (size 0.5 0.5) (layers "F.Cu" "F.Paste" "F.Mask") (tstamp 4f1e2396-ce61-4ee5-8e7b-c93cd291f5b8))
  (pad "AF22" smd circle (at 8.5 12.5) (size 0.5 0.5) (layers "F.Cu" "F.Paste" "F.Mask") (tstamp 7558aae7-53d9-4d76-b0b9-a34e164d2a49))
  (pad "AF23" smd circle (at 9.5 12.5) (size 0.5 0.5) (layers "F.Cu" "F.Paste" "F.Mask") (tstamp 332cb637-d803-43ba-a9e3-1d0d17a0043a))
  (pad "AF24" smd circle (at 10.5 12.5) (size 0.5 0.5) (layers "F.Cu" "F.Paste" "F.Mask") (tstamp 4db740b8-527f-4e30-a494-a8deb5ee9ab4))
  (pad "AF25" smd circle (at 11.5 12.5) (size 0.5 0.5) (layers "F.Cu" "F.Paste" "F.Mask") (tstamp f16d8406-455b-4c5d-8066-0c57e24fc04a))
  (pad "B1" smd circle (at -12.5 -11.5) (size 0.5 0.5) (layers "F.Cu" "F.Paste" "F.Mask") (tstamp 12b7742a-2812-48bd-84c1-beb89ab08d7e))
  (pad "B2" smd circle (at -11.5 -11.5) (size 0.5 0.5) (layers "F.Cu" "F.Paste" "F.Mask") (tstamp 7c371b84-bd47-43ff-b24c-392c1bbba820))
  (pad "B3" smd circle (at -10.5 -11.5) (size 0.5 0.5) (layers "F.Cu" "F.Paste" "F.Mask") (tstamp c4742925-b4e9-47f9-aafd-6126e997b2fe))
  (pad "B4" smd circle (at -9.5 -11.5) (size 0.5 0.5) (layers "F.Cu" "F.Paste" "F.Mask") (tstamp 688c442b-4460-434a-b82a-5af8ed727052))
  (pad "B5" smd circle (at -8.5 -11.5) (size 0.5 0.5) (layers "F.Cu" "F.Paste" "F.Mask") (tstamp ebdc06e6-0a6f-4abe-a742-cc6f05506a39))
  (pad "B6" smd circle (at -7.5 -11.5) (size 0.5 0.5) (layers "F.Cu" "F.Paste" "F.Mask") (tstamp 07b508d9-f7f0-4c91-8d0e-22debff66837))
  (pad "B7" smd circle (at -6.5 -11.5) (size 0.5 0.5) (layers "F.Cu" "F.Paste" "F.Mask") (tstamp 7151bbc0-821d-43d8-bca2-9463ce05ef73))
  (pad "B8" smd circle (at -5.5 -11.5) (size 0.5 0.5) (layers "F.Cu" "F.Paste" "F.Mask") (tstamp eace82ba-bf2f-4410-bdaf-ebc8eeb55f28))
  (pad "B9" smd circle (at -4.5 -11.5) (size 0.5 0.5) (layers "F.Cu" "F.Paste" "F.Mask") (tstamp 6f81a0d1-1bc2-4785-9a40-89f0c0fbc8a6))
  (pad "B10" smd circle (at -3.5 -11.5) (size 0.5 0.5) (layers "F.Cu" "F.Paste" "F.Mask") (tstamp be699ffe-a926-42e1-8919-58badf601a19))
  (pad "B11" smd circle (at -2.5 -11.5) (size 0.5 0.5) (layers "F.Cu" "F.Paste" "F.Mask") (tstamp 619d6283-6a1b-4737-9ef5-5e3976ed07aa))
  (pad "B12" smd circle (at -1.5 -11.5) (size 0.5 0.5) (layers "F.Cu" "F.Paste" "F.Mask") (tstamp 7a6ec7bf-04fb-40bd-b262-c90e82ba94fc))
  (pad "B13" smd circle (at -0.5 -11.5) (size 0.5 0.5) (layers "F.Cu" "F.Paste" "F.Mask") (tstamp bf5e6992-f2cb-4004-b619-03a097bbeaa7))
  (pad "B14" smd circle (at 0.5 -11.5) (size 0.5 0.5) (layers "F.Cu" "F.Paste" "F.Mask") (tstamp 7117e688-519f-4304-93b8-9974a743ea9d))
  (pad "B15" smd circle (at 1.5 -11.5) (size 0.5 0.5) (layers "F.Cu" "F.Paste" "F.Mask") (tstamp b9e130aa-e525-4f3d-964e-d2df583e496d))
  (pad "B16" smd circle (at 2.5 -11.5) (size 0.5 0.5) (layers "F.Cu" "F.Paste" "F.Mask") (tstamp ce2af73e-0e2a-4b2d-b347-a4a21065a898))
  (pad "B17" smd circle (at 3.5 -11.5) (size 0.5 0.5) (layers "F.Cu" "F.Paste" "F.Mask") (tstamp 67e43d59-4863-4d06-9f9c-b4824aa91160))
  (pad "B18" smd circle (at 4.5 -11.5) (size 0.5 0.5) (layers "F.Cu" "F.Paste" "F.Mask") (tstamp e1529ebe-ee9b-40fe-ae96-bbeda53f032f))
  (pad "B19" smd circle (at 5.5 -11.5) (size 0.5 0.5) (layers "F.Cu" "F.Paste" "F.Mask") (tstamp 7be69891-4c9a-4858-9832-f7d438554a6f))
  (pad "B20" smd circle (at 6.5 -11.5) (size 0.5 0.5) (layers "F.Cu" "F.Paste" "F.Mask") (tstamp 22119267-b476-4f79-9b61-a89ec615ce8f))
  (pad "B21" smd circle (at 7.5 -11.5) (size 0.5 0.5) (layers "F.Cu" "F.Paste" "F.Mask") (tstamp a947cae0-6419-4d4e-b43e-4b5c98e7f718))
  (pad "B22" smd circle (at 8.5 -11.5) (size 0.5 0.5) (layers "F.Cu" "F.Paste" "F.Mask") (tstamp 8cfae7f4-1bfc-4629-a8c5-636b7621ee45))
  (pad "B23" smd circle (at 9.5 -11.5) (size 0.5 0.5) (layers "F.Cu" "F.Paste" "F.Mask") (tstamp 30d668f2-3c33-45fd-a916-07f4d2d1b7da))
  (pad "B24" smd circle (at 10.5 -11.5) (size 0.5 0.5) (layers "F.Cu" "F.Paste" "F.Mask") (tstamp 932eeb94-1c51-40a4-b025-a5385bcc4cae))
  (pad "B25" smd circle (at 11.5 -11.5) (size 0.5 0.5) (layers "F.Cu" "F.Paste" "F.Mask") (tstamp 809a00a3-1dbd-45c0-a9e5-1ad52ece2982))
  (pad "B26" smd circle (at 12.5 -11.5) (size 0.5 0.5) (layers "F.Cu" "F.Paste" "F.Mask") (tstamp 1cd7462a-ef5d-4b55-a931-58dde2825815))
  (pad "C1" smd circle (at -12.5 -10.5) (size 0.5 0.5) (layers "F.Cu" "F.Paste" "F.Mask") (tstamp 90cf5510-4909-4f27-bb7a-e33ac16b20a3))
  (pad "C2" smd circle (at -11.5 -10.5) (size 0.5 0.5) (layers "F.Cu" "F.Paste" "F.Mask") (tstamp 793b9da8-2225-42e3-8c7a-17c359a6aac1))
  (pad "C3" smd circle (at -10.5 -10.5) (size 0.5 0.5) (layers "F.Cu" "F.Paste" "F.Mask") (tstamp a338e286-4682-456b-bb20-8979d4b58dc7))
  (pad "C4" smd circle (at -9.5 -10.5) (size 0.5 0.5) (layers "F.Cu" "F.Paste" "F.Mask") (tstamp 0a8c5dac-a613-4b9a-8296-4c61e98be020))
  (pad "C5" smd circle (at -8.5 -10.5) (size 0.5 0.5) (layers "F.Cu" "F.Paste" "F.Mask") (tstamp 551dbf16-e335-4ebe-b1f3-dbde6d591b89))
  (pad "C6" smd circle (at -7.5 -10.5) (size 0.5 0.5) (layers "F.Cu" "F.Paste" "F.Mask") (tstamp 01f56777-b079-4eb1-8027-26df376ef144))
  (pad "C7" smd circle (at -6.5 -10.5) (size 0.5 0.5) (layers "F.Cu" "F.Paste" "F.Mask") (tstamp c25a787e-4120-4c6d-8662-dad4cb70ca4b))
  (pad "C8" smd circle (at -5.5 -10.5) (size 0.5 0.5) (layers "F.Cu" "F.Paste" "F.Mask") (tstamp b657a794-4a01-42ad-922f-05f7009d1afd))
  (pad "C9" smd circle (at -4.5 -10.5) (size 0.5 0.5) (layers "F.Cu" "F.Paste" "F.Mask") (tstamp d324aadb-6439-45d6-8be8-6d4c176022a2))
  (pad "C10" smd circle (at -3.5 -10.5) (size 0.5 0.5) (layers "F.Cu" "F.Paste" "F.Mask") (tstamp 243569db-8b46-4a46-b318-ce5dbf436cd5))
  (pad "C11" smd circle (at -2.5 -10.5) (size 0.5 0.5) (layers "F.Cu" "F.Paste" "F.Mask") (tstamp a1e580e9-9bde-4fac-9bde-a4d7bb267f64))
  (pad "C12" smd circle (at -1.5 -10.5) (size 0.5 0.5) (layers "F.Cu" "F.Paste" "F.Mask") (tstamp 98937353-416f-4155-a8d3-5c739ae9b703))
  (pad "C13" smd circle (at -0.5 -10.5) (size 0.5 0.5) (layers "F.Cu" "F.Paste" "F.Mask") (tstamp d0835b07-581e-4273-8d9c-226376c7887d))
  (pad "C14" smd circle (at 0.5 -10.5) (size 0.5 0.5) (layers "F.Cu" "F.Paste" "F.Mask") (tstamp 7c06799b-43d0-4b23-befd-d425ebdff4f8))
  (pad "C15" smd circle (at 1.5 -10.5) (size 0.5 0.5) (layers "F.Cu" "F.Paste" "F.Mask") (tstamp af981f7c-b473-448b-8a94-fde979f1d46f))
  (pad "C16" smd circle (at 2.5 -10.5) (size 0.5 0.5) (layers "F.Cu" "F.Paste" "F.Mask") (tstamp 9bbdf02e-33b4-4839-9e65-5cd3aa6fb276))
  (pad "C17" smd circle (at 3.5 -10.5) (size 0.5 0.5) (layers "F.Cu" "F.Paste" "F.Mask") (tstamp 32eec8b4-5514-4c9f-8a92-3141fa804166))
  (pad "C18" smd circle (at 4.5 -10.5) (size 0.5 0.5) (layers "F.Cu" "F.Paste" "F.Mask") (tstamp bc1eea97-7dfb-49a4-aa3f-b9c3449b8655))
  (pad "C19" smd circle (at 5.5 -10.5) (size 0.5 0.5) (layers "F.Cu" "F.Paste" "F.Mask") (tstamp 63002680-dee3-4f11-b1ad-d0610531b40c))
  (pad "C20" smd circle (at 6.5 -10.5) (size 0.5 0.5) (layers "F.Cu" "F.Paste" "F.Mask") (tstamp 3964a894-3f09-46b1-8581-b4898df66acf))
  (pad "C21" smd circle (at 7.5 -10.5) (size 0.5 0.5) (layers "F.Cu" "F.Paste" "F.Mask") (tstamp f70e46e8-6c6d-4f51-ab84-a60c2bb6ee28))
  (pad "C22" smd circle (at 8.5 -10.5) (size 0.5 0.5) (layers "F.Cu" "F.Paste" "F.Mask") (tstamp 7f2c040d-366f-47b0-88cd-8d9b94c93b85))
  (pad "C23" smd circle (at 9.5 -10.5) (size 0.5 0.5) (layers "F.Cu" "F.Paste" "F.Mask") (tstamp b70a18f9-e3f4-4ef6-8abb-91370bbdb308))
  (pad "C24" smd circle (at 10.5 -10.5) (size 0.5 0.5) (layers "F.Cu" "F.Paste" "F.Mask") (tstamp 06493ca2-5d8a-4f17-a200-fc7732da1e04))
  (pad "C25" smd circle (at 11.5 -10.5) (size 0.5 0.5) (layers "F.Cu" "F.Paste" "F.Mask") (tstamp 6b4b5421-ceda-4c5d-8f4e-d02bc0ad7495))
  (pad "C26" smd circle (at 12.5 -10.5) (size 0.5 0.5) (layers "F.Cu" "F.Paste" "F.Mask") (tstamp 3eb472d7-88af-416a-84a5-ba97924e7e6f))
  (pad "D1" smd circle (at -12.5 -9.5) (size 0.5 0.5) (layers "F.Cu" "F.Paste" "F.Mask") (tstamp ebb5cb8d-d10b-406d-8b4a-c409130f36a4))
  (pad "D2" smd circle (at -11.5 -9.5) (size 0.5 0.5) (layers "F.Cu" "F.Paste" "F.Mask") (tstamp 67b8304c-00b0-41c3-9799-5a9c1d2c89c0))
  (pad "D3" smd circle (at -10.5 -9.5) (size 0.5 0.5) (layers "F.Cu" "F.Paste" "F.Mask") (tstamp eaa6abd8-b9d9-43ed-84f1-36903ce42aa1))
  (pad "D4" smd circle (at -9.5 -9.5) (size 0.5 0.5) (layers "F.Cu" "F.Paste" "F.Mask") (tstamp 4447c8b9-214e-4a71-8d05-d813a86eaf86))
  (pad "D5" smd circle (at -8.5 -9.5) (size 0.5 0.5) (layers "F.Cu" "F.Paste" "F.Mask") (tstamp 62b0c81c-51c7-49ad-9989-cfa262cec3ae))
  (pad "D6" smd circle (at -7.5 -9.5) (size 0.5 0.5) (layers "F.Cu" "F.Paste" "F.Mask") (tstamp 629b94fc-6d31-4be2-bf37-ca1638d19994))
  (pad "D7" smd circle (at -6.5 -9.5) (size 0.5 0.5) (layers "F.Cu" "F.Paste" "F.Mask") (tstamp 7bae96ed-fe01-408d-a32c-30e02d25f01a))
  (pad "D8" smd circle (at -5.5 -9.5) (size 0.5 0.5) (layers "F.Cu" "F.Paste" "F.Mask") (tstamp 813a40d4-2f97-4650-8332-c0263f9e18a4))
  (pad "D9" smd circle (at -4.5 -9.5) (size 0.5 0.5) (layers "F.Cu" "F.Paste" "F.Mask") (tstamp fbbb298b-d5d6-4918-987d-946b5b3ab1f1))
  (pad "D10" smd circle (at -3.5 -9.5) (size 0.5 0.5) (layers "F.Cu" "F.Paste" "F.Mask") (tstamp 212b69d6-1b9a-4496-9a56-305a5d6ee068))
  (pad "D11" smd circle (at -2.5 -9.5) (size 0.5 0.5) (layers "F.Cu" "F.Paste" "F.Mask") (tstamp 56b25c5b-3b77-4467-af7b-86925e2948dd))
  (pad "D12" smd circle (at -1.5 -9.5) (size 0.5 0.5) (layers "F.Cu" "F.Paste" "F.Mask") (tstamp 53b38e7b-d12c-48dd-9a33-9e76893c6344))
  (pad "D13" smd circle (at -0.5 -9.5) (size 0.5 0.5) (layers "F.Cu" "F.Paste" "F.Mask") (tstamp 94891d78-6e09-4156-9a62-2364d7429bb7))
  (pad "D14" smd circle (at 0.5 -9.5) (size 0.5 0.5) (layers "F.Cu" "F.Paste" "F.Mask") (tstamp 0421a58d-3971-4f36-a9ca-af9e65a88a32))
  (pad "D15" smd circle (at 1.5 -9.5) (size 0.5 0.5) (layers "F.Cu" "F.Paste" "F.Mask") (tstamp 524d13ef-ad5a-4e2d-916d-eddbbf4b00ef))
  (pad "D16" smd circle (at 2.5 -9.5) (size 0.5 0.5) (layers "F.Cu" "F.Paste" "F.Mask") (tstamp e05c55be-3df7-4276-959d-b8c5ba433381))
  (pad "D17" smd circle (at 3.5 -9.5) (size 0.5 0.5) (layers "F.Cu" "F.Paste" "F.Mask") (tstamp 3387e9db-f3d7-430a-852b-0ea72b88be55))
  (pad "D18" smd circle (at 4.5 -9.5) (size 0.5 0.5) (layers "F.Cu" "F.Paste" "F.Mask") (tstamp e021e0c0-6637-4335-aaf7-e31aae258096))
  (pad "D19" smd circle (at 5.5 -9.5) (size 0.5 0.5) (layers "F.Cu" "F.Paste" "F.Mask") (tstamp 335cb678-94b4-4eef-b93f-5380fb90eacb))
  (pad "D20" smd circle (at 6.5 -9.5) (size 0.5 0.5) (layers "F.Cu" "F.Paste" "F.Mask") (tstamp 15143422-bf2a-4b90-9040-03b71942fc83))
  (pad "D21" smd circle (at 7.5 -9.5) (size 0.5 0.5) (layers "F.Cu" "F.Paste" "F.Mask") (tstamp e79c425d-4f61-49f8-bf85-907647cbdc12))
  (pad "D22" smd circle (at 8.5 -9.5) (size 0.5 0.5) (layers "F.Cu" "F.Paste" "F.Mask") (tstamp 86e914c7-e556-4cab-9fcf-40b35cfac5f0))
  (pad "D23" smd circle (at 9.5 -9.5) (size 0.5 0.5) (layers "F.Cu" "F.Paste" "F.Mask") (tstamp 0a1050ce-816e-460a-9d34-4336cce89932))
  (pad "D24" smd circle (at 10.5 -9.5) (size 0.5 0.5) (layers "F.Cu" "F.Paste" "F.Mask") (tstamp 10e10436-76ac-4548-bb17-d466b84fe739))
  (pad "D25" smd circle (at 11.5 -9.5) (size 0.5 0.5) (layers "F.Cu" "F.Paste" "F.Mask") (tstamp 0a39ca98-0e4b-4d86-8f7e-048bb16d8cc1))
  (pad "D26" smd circle (at 12.5 -9.5) (size 0.5 0.5) (layers "F.Cu" "F.Paste" "F.Mask") (tstamp a71f12b6-75e7-472d-bd2b-5d46463c1df4))
  (pad "E1" smd circle (at -12.5 -8.5) (size 0.5 0.5) (layers "F.Cu" "F.Paste" "F.Mask") (tstamp 7c457cd1-14a2-4ce9-b691-1bdddacf9943))
  (pad "E2" smd circle (at -11.5 -8.5) (size 0.5 0.5) (layers "F.Cu" "F.Paste" "F.Mask") (tstamp fe4794f2-61c3-4341-a88e-486ca3787a51))
  (pad "E3" smd circle (at -10.5 -8.5) (size 0.5 0.5) (layers "F.Cu" "F.Paste" "F.Mask") (tstamp 31e71f84-040d-404b-8860-8fcd7321eb54))
  (pad "E4" smd circle (at -9.5 -8.5) (size 0.5 0.5) (layers "F.Cu" "F.Paste" "F.Mask") (tstamp f9d7e8d9-922a-4298-99a2-a1e099c3db25))
  (pad "E5" smd circle (at -8.5 -8.5) (size 0.5 0.5) (layers "F.Cu" "F.Paste" "F.Mask") (tstamp f1f12211-d4d2-44e3-aeb0-9226dc011038))
  (pad "E6" smd circle (at -7.5 -8.5) (size 0.5 0.5) (layers "F.Cu" "F.Paste" "F.Mask") (tstamp f1b9696d-3c81-44c1-9be2-f2588461879a))
  (pad "E7" smd circle (at -6.5 -8.5) (size 0.5 0.5) (layers "F.Cu" "F.Paste" "F.Mask") (tstamp 1d0f8273-6f90-4e8d-991a-0c386f94bc44))
  (pad "E8" smd circle (at -5.5 -8.5) (size 0.5 0.5) (layers "F.Cu" "F.Paste" "F.Mask") (tstamp 560a7f6f-f3dc-4450-9059-63ce571982c3))
  (pad "E9" smd circle (at -4.5 -8.5) (size 0.5 0.5) (layers "F.Cu" "F.Paste" "F.Mask") (tstamp 9f796b9b-ac09-4887-bd9b-4bc0981dfbfa))
  (pad "E10" smd circle (at -3.5 -8.5) (size 0.5 0.5) (layers "F.Cu" "F.Paste" "F.Mask") (tstamp 59585740-ea5c-4031-83f2-bf8bf5cd2225))
  (pad "E11" smd circle (at -2.5 -8.5) (size 0.5 0.5) (layers "F.Cu" "F.Paste" "F.Mask") (tstamp 4c188178-07c8-4090-a283-f1b422d9ff77))
  (pad "E12" smd circle (at -1.5 -8.5) (size 0.5 0.5) (layers "F.Cu" "F.Paste" "F.Mask") (tstamp ad0aa8ae-346b-4554-bee4-484d411401c8))
  (pad "E13" smd circle (at -0.5 -8.5) (size 0.5 0.5) (layers "F.Cu" "F.Paste" "F.Mask") (tstamp d2d45d3f-f258-478b-9215-a17d43f85e05))
  (pad "E14" smd circle (at 0.5 -8.5) (size 0.5 0.5) (layers "F.Cu" "F.Paste" "F.Mask") (tstamp 8069e611-f1c3-442f-819a-5dff37dded39))
  (pad "E15" smd circle (at 1.5 -8.5) (size 0.5 0.5) (layers "F.Cu" "F.Paste" "F.Mask") (tstamp a0be5c3b-e3ef-41f7-99cd-0cab36654528))
  (pad "E16" smd circle (at 2.5 -8.5) (size 0.5 0.5) (layers "F.Cu" "F.Paste" "F.Mask") (tstamp 1b471b28-a5d0-4ec8-bd25-dd502c07fd9e))
  (pad "E17" smd circle (at 3.5 -8.5) (size 0.5 0.5) (layers "F.Cu" "F.Paste" "F.Mask") (tstamp 04dd19b1-2a9f-4cad-85fb-ce6bba63eefa))
  (pad "E18" smd circle (at 4.5 -8.5) (size 0.5 0.5) (layers "F.Cu" "F.Paste" "F.Mask") (tstamp a7e7aa44-8734-4afe-af3e-01f601b5984c))
  (pad "E19" smd circle (at 5.5 -8.5) (size 0.5 0.5) (layers "F.Cu" "F.Paste" "F.Mask") (tstamp a394e494-467a-41d0-9874-06c2ad80c6ed))
  (pad "E20" smd circle (at 6.5 -8.5) (size 0.5 0.5) (layers "F.Cu" "F.Paste" "F.Mask") (tstamp 0d56f4e0-17a7-44ef-8002-905596e2b943))
  (pad "E21" smd circle (at 7.5 -8.5) (size 0.5 0.5) (layers "F.Cu" "F.Paste" "F.Mask") (tstamp fa7a5cc0-78ab-41fc-a416-aeedf7a7f58e))
  (pad "E22" smd circle (at 8.5 -8.5) (size 0.5 0.5) (layers "F.Cu" "F.Paste" "F.Mask") (tstamp 4c18780a-c3e5-4857-81a7-0b91d69e83e4))
  (pad "E23" smd circle (at 9.5 -8.5) (size 0.5 0.5) (layers "F.Cu" "F.Paste" "F.Mask") (tstamp 0b9eb993-d485-4f1c-a16e-5a5f760adab7))
  (pad "E24" smd circle (at 10.5 -8.5) (size 0.5 0.5) (layers "F.Cu" "F.Paste" "F.Mask") (tstamp 44f94255-c3b1-4034-a00b-576c82422433))
  (pad "E25" smd circle (at 11.5 -8.5) (size 0.5 0.5) (layers "F.Cu" "F.Paste" "F.Mask") (tstamp 254223d5-b3b4-4ca1-898b-c9a49be36371))
  (pad "E26" smd circle (at 12.5 -8.5) (size 0.5 0.5) (layers "F.Cu" "F.Paste" "F.Mask") (tstamp eeb7f73d-9c29-4b38-843a-672f3238d28b))
  (pad "F1" smd circle (at -12.5 -7.5) (size 0.5 0.5) (layers "F.Cu" "F.Paste" "F.Mask") (tstamp 7f827158-12aa-4325-b6fc-01f4c8241c44))
  (pad "F2" smd circle (at -11.5 -7.5) (size 0.5 0.5) (layers "F.Cu" "F.Paste" "F.Mask") (tstamp b8737087-9b98-481f-919b-fc290646aef0))
  (pad "F3" smd circle (at -10.5 -7.5) (size 0.5 0.5) (layers "F.Cu" "F.Paste" "F.Mask") (tstamp 793cb1ad-d238-4460-8dca-2dd92601d069))
  (pad "F4" smd circle (at -9.5 -7.5) (size 0.5 0.5) (layers "F.Cu" "F.Paste" "F.Mask") (tstamp 7f4c8588-5807-47ab-8e67-dc8622ce13cd))
  (pad "F5" smd circle (at -8.5 -7.5) (size 0.5 0.5) (layers "F.Cu" "F.Paste" "F.Mask") (tstamp ef758168-fbd3-42ce-b4f8-e964b3140f00))
  (pad "F6" smd circle (at -7.5 -7.5) (size 0.5 0.5) (layers "F.Cu" "F.Paste" "F.Mask") (tstamp 242f3647-9c21-45b7-a239-72dce48b9bef))
  (pad "F7" smd circle (at -6.5 -7.5) (size 0.5 0.5) (layers "F.Cu" "F.Paste" "F.Mask") (tstamp 1f4dcbd6-8d99-4042-afaa-65f00a134612))
  (pad "F8" smd circle (at -5.5 -7.5) (size 0.5 0.5) (layers "F.Cu" "F.Paste" "F.Mask") (tstamp c738c49e-4e6f-437c-9b45-04e6250c4796))
  (pad "F9" smd circle (at -4.5 -7.5) (size 0.5 0.5) (layers "F.Cu" "F.Paste" "F.Mask") (tstamp f56abcef-fd1f-41a5-991c-f6abfe76d8d7))
  (pad "F10" smd circle (at -3.5 -7.5) (size 0.5 0.5) (layers "F.Cu" "F.Paste" "F.Mask") (tstamp 42eb5e0f-565c-4474-bf60-c4f59893edda))
  (pad "F11" smd circle (at -2.5 -7.5) (size 0.5 0.5) (layers "F.Cu" "F.Paste" "F.Mask") (tstamp 961bed01-ecf9-4365-8f02-d15dd6ac24f8))
  (pad "F12" smd circle (at -1.5 -7.5) (size 0.5 0.5) (layers "F.Cu" "F.Paste" "F.Mask") (tstamp f60ee1a8-e5ff-4fcb-b37d-9067f588e90f))
  (pad "F13" smd circle (at -0.5 -7.5) (size 0.5 0.5) (layers "F.Cu" "F.Paste" "F.Mask") (tstamp 3915b84e-c9a2-4acd-bd4d-52040b4a1f52))
  (pad "F14" smd circle (at 0.5 -7.5) (size 0.5 0.5) (layers "F.Cu" "F.Paste" "F.Mask") (tstamp 003d407c-b163-4470-9209-f958bbdd2a73))
  (pad "F15" smd circle (at 1.5 -7.5) (size 0.5 0.5) (layers "F.Cu" "F.Paste" "F.Mask") (tstamp 5c69ec4f-c6e8-4b92-b073-8fb5439b87a4))
  (pad "F16" smd circle (at 2.5 -7.5) (size 0.5 0.5) (layers "F.Cu" "F.Paste" "F.Mask") (tstamp 10449851-061b-4c17-830a-d2b630baebf0))
  (pad "F17" smd circle (at 3.5 -7.5) (size 0.5 0.5) (layers "F.Cu" "F.Paste" "F.Mask") (tstamp 87d5dbae-9526-40ce-94f7-195f4ba4e65b))
  (pad "F18" smd circle (at 4.5 -7.5) (size 0.5 0.5) (layers "F.Cu" "F.Paste" "F.Mask") (tstamp cb2997ac-cc26-4776-ada8-e83c9b48c806))
  (pad "F19" smd circle (at 5.5 -7.5) (size 0.5 0.5) (layers "F.Cu" "F.Paste" "F.Mask") (tstamp 2e341bea-f075-43ff-b5cb-e1d887779b07))
  (pad "F20" smd circle (at 6.5 -7.5) (size 0.5 0.5) (layers "F.Cu" "F.Paste" "F.Mask") (tstamp 4a956a66-5c1a-4d89-967b-f3bf7eb0fafa))
  (pad "F21" smd circle (at 7.5 -7.5) (size 0.5 0.5) (layers "F.Cu" "F.Paste" "F.Mask") (tstamp 75832011-20a5-4af1-9365-677deff3e72f))
  (pad "F22" smd circle (at 8.5 -7.5) (size 0.5 0.5) (layers "F.Cu" "F.Paste" "F.Mask") (tstamp 84226887-a566-43e1-940d-288868ea9d33))
  (pad "F23" smd circle (at 9.5 -7.5) (size 0.5 0.5) (layers "F.Cu" "F.Paste" "F.Mask") (tstamp ab74704e-aad2-4be4-a324-323bd81f21a7))
  (pad "F24" smd circle (at 10.5 -7.5) (size 0.5 0.5) (layers "F.Cu" "F.Paste" "F.Mask") (tstamp fc4ec648-e1ef-4c04-83d0-9ad7bfa7fe7e))
  (pad "F25" smd circle (at 11.5 -7.5) (size 0.5 0.5) (layers "F.Cu" "F.Paste" "F.Mask") (tstamp 7fd933b1-c86a-422d-96cf-132e287e9480))
  (pad "F26" smd circle (at 12.5 -7.5) (size 0.5 0.5) (layers "F.Cu" "F.Paste" "F.Mask") (tstamp 067bff92-2bb1-4c0f-9368-e48eac3bba1c))
  (pad "G1" smd circle (at -12.5 -6.5) (size 0.5 0.5) (layers "F.Cu" "F.Paste" "F.Mask") (tstamp 0d6bb711-44af-4adc-9295-de5fb4087cd7))
  (pad "G2" smd circle (at -11.5 -6.5) (size 0.5 0.5) (layers "F.Cu" "F.Paste" "F.Mask") (tstamp bd237f1d-944e-41ce-84e2-b408e8763d14))
  (pad "G3" smd circle (at -10.5 -6.5) (size 0.5 0.5) (layers "F.Cu" "F.Paste" "F.Mask") (tstamp 8dedc364-bdb3-4363-b1d3-d1274c6edc4e))
  (pad "G4" smd circle (at -9.5 -6.5) (size 0.5 0.5) (layers "F.Cu" "F.Paste" "F.Mask") (tstamp 82624607-ec45-4b68-a961-5bcc4a975d31))
  (pad "G5" smd circle (at -8.5 -6.5) (size 0.5 0.5) (layers "F.Cu" "F.Paste" "F.Mask") (tstamp edba70b7-d171-4e7d-8f03-12869ad2146a))
  (pad "G6" smd circle (at -7.5 -6.5) (size 0.5 0.5) (layers "F.Cu" "F.Paste" "F.Mask") (tstamp 5794ebf3-2ace-45fc-8e55-214111cb4a60))
  (pad "G7" smd circle (at -6.5 -6.5) (size 0.5 0.5) (layers "F.Cu" "F.Paste" "F.Mask") (tstamp 172dbce7-4313-464b-bb0f-0d6b9b1661d2))
  (pad "G8" smd circle (at -5.5 -6.5) (size 0.5 0.5) (layers "F.Cu" "F.Paste" "F.Mask") (tstamp 14e68575-8974-40d4-972c-07de1f01b8c2))
  (pad "G9" smd circle (at -4.5 -6.5) (size 0.5 0.5) (layers "F.Cu" "F.Paste" "F.Mask") (tstamp 1c5a4f24-c082-48c5-b763-ff615c5cec40))
  (pad "G10" smd circle (at -3.5 -6.5) (size 0.5 0.5) (layers "F.Cu" "F.Paste" "F.Mask") (tstamp 9e3d6964-5a32-4baf-a8dc-5979d7837950))
  (pad "G11" smd circle (at -2.5 -6.5) (size 0.5 0.5) (layers "F.Cu" "F.Paste" "F.Mask") (tstamp 08cc1ef2-679b-4f4c-94a3-a5c00c1c63b0))
  (pad "G12" smd circle (at -1.5 -6.5) (size 0.5 0.5) (layers "F.Cu" "F.Paste" "F.Mask") (tstamp 25be44f2-b8ef-41ee-ad5c-d7cde23b6fc7))
  (pad "G13" smd circle (at -0.5 -6.5) (size 0.5 0.5) (layers "F.Cu" "F.Paste" "F.Mask") (tstamp d9b46259-c024-4424-af61-675f1052efe7))
  (pad "G14" smd circle (at 0.5 -6.5) (size 0.5 0.5) (layers "F.Cu" "F.Paste" "F.Mask") (tstamp 6372bb5f-c471-4a77-86d9-e4213f4443c6))
  (pad "G15" smd circle (at 1.5 -6.5) (size 0.5 0.5) (layers "F.Cu" "F.Paste" "F.Mask") (tstamp 07fc400e-e9c3-4e3d-8744-40711f25bb32))
  (pad "G16" smd circle (at 2.5 -6.5) (size 0.5 0.5) (layers "F.Cu" "F.Paste" "F.Mask") (tstamp d16e4061-f692-4779-a002-41a2b466f51d))
  (pad "G17" smd circle (at 3.5 -6.5) (size 0.5 0.5) (layers "F.Cu" "F.Paste" "F.Mask") (tstamp 7ffbef03-9fee-4d4d-9159-62d3a574e785))
  (pad "G18" smd circle (at 4.5 -6.5) (size 0.5 0.5) (layers "F.Cu" "F.Paste" "F.Mask") (tstamp 9fecd68b-226b-4649-a82b-1e52cf7dd615))
  (pad "G19" smd circle (at 5.5 -6.5) (size 0.5 0.5) (layers "F.Cu" "F.Paste" "F.Mask") (tstamp 6335f870-b3c8-4d5c-bc45-1c6696a9dddb))
  (pad "G20" smd circle (at 6.5 -6.5) (size 0.5 0.5) (layers "F.Cu" "F.Paste" "F.Mask") (tstamp 1666d0a6-14be-4c5b-a831-4c8f1e2b1ca5))
  (pad "G21" smd circle (at 7.5 -6.5) (size 0.5 0.5) (layers "F.Cu" "F.Paste" "F.Mask") (tstamp 6538beae-0623-4075-b07e-2ef7b40f412a))
  (pad "G22" smd circle (at 8.5 -6.5) (size 0.5 0.5) (layers "F.Cu" "F.Paste" "F.Mask") (tstamp 3dae2e01-48db-4612-bc11-934bde9e6061))
  (pad "G23" smd circle (at 9.5 -6.5) (size 0.5 0.5) (layers "F.Cu" "F.Paste" "F.Mask") (tstamp 689aa44d-f2a0-476b-a316-a1a23f953bc5))
  (pad "G24" smd circle (at 10.5 -6.5) (size 0.5 0.5) (layers "F.Cu" "F.Paste" "F.Mask") (tstamp 57569dd0-caa2-472d-84ef-746a58eab0fd))
  (pad "G25" smd circle (at 11.5 -6.5) (size 0.5 0.5) (layers "F.Cu" "F.Paste" "F.Mask") (tstamp 0b799e9f-c60f-4fda-b998-fc77b1a11d98))
  (pad "G26" smd circle (at 12.5 -6.5) (size 0.5 0.5) (layers "F.Cu" "F.Paste" "F.Mask") (tstamp d3f44fe4-367c-4802-98fd-988d2e937e0a))
  (pad "H1" smd circle (at -12.5 -5.5) (size 0.5 0.5) (layers "F.Cu" "F.Paste" "F.Mask") (tstamp 12c458a2-8691-440f-8f07-f6c6407d6a84))
  (pad "H2" smd circle (at -11.5 -5.5) (size 0.5 0.5) (layers "F.Cu" "F.Paste" "F.Mask") (tstamp 5f5d3318-0340-43aa-a0a6-b760c7729e31))
  (pad "H3" smd circle (at -10.5 -5.5) (size 0.5 0.5) (layers "F.Cu" "F.Paste" "F.Mask") (tstamp 4bacf614-55da-4d69-b39f-d62fa0974bb4))
  (pad "H4" smd circle (at -9.5 -5.5) (size 0.5 0.5) (layers "F.Cu" "F.Paste" "F.Mask") (tstamp 30d23ca6-9221-482d-8810-5b94ee382657))
  (pad "H5" smd circle (at -8.5 -5.5) (size 0.5 0.5) (layers "F.Cu" "F.Paste" "F.Mask") (tstamp 41e86e14-4f1c-45d5-8d54-b5974e908128))
  (pad "H6" smd circle (at -7.5 -5.5) (size 0.5 0.5) (layers "F.Cu" "F.Paste" "F.Mask") (tstamp f954de11-021e-410d-9e83-f43f45a16540))
  (pad "H7" smd circle (at -6.5 -5.5) (size 0.5 0.5) (layers "F.Cu" "F.Paste" "F.Mask") (tstamp 7840b50a-f469-4282-8dd2-686b452f7868))
  (pad "H8" smd circle (at -5.5 -5.5) (size 0.5 0.5) (layers "F.Cu" "F.Paste" "F.Mask") (tstamp 0ee32839-7cf6-4e60-bc7d-9c56ce0a3d57))
  (pad "H9" smd circle (at -4.5 -5.5) (size 0.5 0.5) (layers "F.Cu" "F.Paste" "F.Mask") (tstamp 591e9466-cb1c-4080-824f-ae2652654d1c))
  (pad "H10" smd circle (at -3.5 -5.5) (size 0.5 0.5) (layers "F.Cu" "F.Paste" "F.Mask") (tstamp cc10216a-2bf9-4d52-83e2-5afccd9177df))
  (pad "H11" smd circle (at -2.5 -5.5) (size 0.5 0.5) (layers "F.Cu" "F.Paste" "F.Mask") (tstamp 90e4e1c1-cb27-4ff2-8478-96c408bd6d76))
  (pad "H12" smd circle (at -1.5 -5.5) (size 0.5 0.5) (layers "F.Cu" "F.Paste" "F.Mask") (tstamp 9b9b857e-2c52-460c-b801-ecbfa40584cf))
  (pad "H13" smd circle (at -0.5 -5.5) (size 0.5 0.5) (layers "F.Cu" "F.Paste" "F.Mask") (tstamp a872aeaf-8a69-4859-8e69-1fe3853fd5bd))
  (pad "H14" smd circle (at 0.5 -5.5) (size 0.5 0.5) (layers "F.Cu" "F.Paste" "F.Mask") (tstamp abee521c-c7ec-448d-bb15-334c98ff9ca3))
  (pad "H15" smd circle (at 1.5 -5.5) (size 0.5 0.5) (layers "F.Cu" "F.Paste" "F.Mask") (tstamp 243ce4f0-a283-4db0-9d55-a630673a0f82))
  (pad "H16" smd circle (at 2.5 -5.5) (size 0.5 0.5) (layers "F.Cu" "F.Paste" "F.Mask") (tstamp 7b8c4549-383a-4142-8acf-74b2dca786ae))
  (pad "H17" smd circle (at 3.5 -5.5) (size 0.5 0.5) (layers "F.Cu" "F.Paste" "F.Mask") (tstamp 1f488e66-08ef-4475-80f2-3167d37478b9))
  (pad "H18" smd circle (at 4.5 -5.5) (size 0.5 0.5) (layers "F.Cu" "F.Paste" "F.Mask") (tstamp 84c847d8-58a9-4768-9097-f668ae6c1037))
  (pad "H19" smd circle (at 5.5 -5.5) (size 0.5 0.5) (layers "F.Cu" "F.Paste" "F.Mask") (tstamp 358ae9bc-617c-4e18-b721-9733a3b68bb2))
  (pad "H20" smd circle (at 6.5 -5.5) (size 0.5 0.5) (layers "F.Cu" "F.Paste" "F.Mask") (tstamp e13e6aea-8c9c-4d75-bd4c-ba060637316e))
  (pad "H21" smd circle (at 7.5 -5.5) (size 0.5 0.5) (layers "F.Cu" "F.Paste" "F.Mask") (tstamp 4e4d4fe5-142e-4bfd-98b3-08d751722e24))
  (pad "H22" smd circle (at 8.5 -5.5) (size 0.5 0.5) (layers "F.Cu" "F.Paste" "F.Mask") (tstamp c37d83e2-7956-4c51-8e9b-9e95648af522))
  (pad "H23" smd circle (at 9.5 -5.5) (size 0.5 0.5) (layers "F.Cu" "F.Paste" "F.Mask") (tstamp 8ce4d302-8bcb-4af5-8eb9-61a468ddc3e3))
  (pad "H24" smd circle (at 10.5 -5.5) (size 0.5 0.5) (layers "F.Cu" "F.Paste" "F.Mask") (tstamp 34e77c37-8239-4aa2-978b-e32dab980b87))
  (pad "H25" smd circle (at 11.5 -5.5) (size 0.5 0.5) (layers "F.Cu" "F.Paste" "F.Mask") (tstamp 0b0c6cd6-acbe-4b3e-b457-4c14abae3c12))
  (pad "H26" smd circle (at 12.5 -5.5) (size 0.5 0.5) (layers "F.Cu" "F.Paste" "F.Mask") (tstamp 69f56e66-5325-4faf-bd05-410a414cd54c))
  (pad "J1" smd circle (at -12.5 -4.5) (size 0.5 0.5) (layers "F.Cu" "F.Paste" "F.Mask") (tstamp 92096312-1240-4d5c-9a78-8f6f5dbcf884))
  (pad "J2" smd circle (at -11.5 -4.5) (size 0.5 0.5) (layers "F.Cu" "F.Paste" "F.Mask") (tstamp ef4fc663-72e5-4c87-8c94-3e4686f2ad6c))
  (pad "J3" smd circle (at -10.5 -4.5) (size 0.5 0.5) (layers "F.Cu" "F.Paste" "F.Mask") (tstamp 69395d33-c8c3-40af-9f4d-5f6772b7cb99))
  (pad "J4" smd circle (at -9.5 -4.5) (size 0.5 0.5) (layers "F.Cu" "F.Paste" "F.Mask") (tstamp 5e36381f-b32c-4d43-9f92-ac6e79505ca2))
  (pad "J5" smd circle (at -8.5 -4.5) (size 0.5 0.5) (layers "F.Cu" "F.Paste" "F.Mask") (tstamp 2fdbaa2b-3268-4618-810b-21bfa04b07e6))
  (pad "J6" smd circle (at -7.5 -4.5) (size 0.5 0.5) (layers "F.Cu" "F.Paste" "F.Mask") (tstamp aef603fb-aee1-4077-b78d-680417f406f9))
  (pad "J7" smd circle (at -6.5 -4.5) (size 0.5 0.5) (layers "F.Cu" "F.Paste" "F.Mask") (tstamp cf94b734-0386-4002-b5e7-28e28809d1e8))
  (pad "J8" smd circle (at -5.5 -4.5) (size 0.5 0.5) (layers "F.Cu" "F.Paste" "F.Mask") (tstamp fcbd8a0d-ebde-4a6c-93a1-4bf526bbf647))
  (pad "J9" smd circle (at -4.5 -4.5) (size 0.5 0.5) (layers "F.Cu" "F.Paste" "F.Mask") (tstamp 3884143b-a452-48a5-9269-2a5c27df2421))
  (pad "J10" smd circle (at -3.5 -4.5) (size 0.5 0.5) (layers "F.Cu" "F.Paste" "F.Mask") (tstamp 743453e1-6919-416f-b761-c2189bb7f98d))
  (pad "J11" smd circle (at -2.5 -4.5) (size 0.5 0.5) (layers "F.Cu" "F.Paste" "F.Mask") (tstamp bdd12c4a-b0ff-4429-874b-a5253e4b1628))
  (pad "J12" smd circle (at -1.5 -4.5) (size 0.5 0.5) (layers "F.Cu" "F.Paste" "F.Mask") (tstamp 91c7f36e-630b-4f50-87ed-03f004c27144))
  (pad "J13" smd circle (at -0.5 -4.5) (size 0.5 0.5) (layers "F.Cu" "F.Paste" "F.Mask") (tstamp 85db1f9e-cc5a-455f-97fa-15421a38a5f9))
  (pad "J14" smd circle (at 0.5 -4.5) (size 0.5 0.5) (layers "F.Cu" "F.Paste" "F.Mask") (tstamp 40389441-f3f1-4905-ab74-5e60b9389466))
  (pad "J15" smd circle (at 1.5 -4.5) (size 0.5 0.5) (layers "F.Cu" "F.Paste" "F.Mask") (tstamp e658f725-babd-47e2-9a7a-709fd993f54d))
  (pad "J16" smd circle (at 2.5 -4.5) (size 0.5 0.5) (layers "F.Cu" "F.Paste" "F.Mask") (tstamp 87c817d4-606f-4094-8692-e8c02fb09bec))
  (pad "J17" smd circle (at 3.5 -4.5) (size 0.5 0.5) (layers "F.Cu" "F.Paste" "F.Mask") (tstamp b051b89b-64e5-465b-bfc4-50b5a5149491))
  (pad "J18" smd circle (at 4.5 -4.5) (size 0.5 0.5) (layers "F.Cu" "F.Paste" "F.Mask") (tstamp c0cb508e-e033-40db-9914-a83c7874f887))
  (pad "J19" smd circle (at 5.5 -4.5) (size 0.5 0.5) (layers "F.Cu" "F.Paste" "F.Mask") (tstamp 3af470fb-3dd2-4a44-9fe1-af5a4461df59))
  (pad "J20" smd circle (at 6.5 -4.5) (size 0.5 0.5) (layers "F.Cu" "F.Paste" "F.Mask") (tstamp 1af93af8-9af2-4be1-b377-cf8b3ea110bf))
  (pad "J21" smd circle (at 7.5 -4.5) (size 0.5 0.5) (layers "F.Cu" "F.Paste" "F.Mask") (tstamp 1af57f01-027a-4028-9351-016af6e263e4))
  (pad "J22" smd circle (at 8.5 -4.5) (size 0.5 0.5) (layers "F.Cu" "F.Paste" "F.Mask") (tstamp e5e0d638-5616-421c-a0c3-0b13176d254f))
  (pad "J23" smd circle (at 9.5 -4.5) (size 0.5 0.5) (layers "F.Cu" "F.Paste" "F.Mask") (tstamp f69bf095-966c-45b4-b70f-b9f7ad18b0d5))
  (pad "J24" smd circle (at 10.5 -4.5) (size 0.5 0.5) (layers "F.Cu" "F.Paste" "F.Mask") (tstamp b8f40f4d-04a1-4a8c-b88d-58037b6a8466))
  (pad "J25" smd circle (at 11.5 -4.5) (size 0.5 0.5) (layers "F.Cu" "F.Paste" "F.Mask") (tstamp 25666a09-7f5b-46c4-9d2f-ba7308610bc9))
  (pad "J26" smd circle (at 12.5 -4.5) (size 0.5 0.5) (layers "F.Cu" "F.Paste" "F.Mask") (tstamp 24c0233f-cd7e-4785-af67-7c2bb2f5a4fe))
  (pad "K1" smd circle (at -12.5 -3.5) (size 0.5 0.5) (layers "F.Cu" "F.Paste" "F.Mask") (tstamp 3055bc1e-0620-449a-81e2-ac03a59cfb5c))
  (pad "K2" smd circle (at -11.5 -3.5) (size 0.5 0.5) (layers "F.Cu" "F.Paste" "F.Mask") (tstamp 7b5f6efe-f0c1-4a8c-9f53-b97971cd26ad))
  (pad "K3" smd circle (at -10.5 -3.5) (size 0.5 0.5) (layers "F.Cu" "F.Paste" "F.Mask") (tstamp aff36c28-3f0b-4d35-91e7-a25f97763dda))
  (pad "K4" smd circle (at -9.5 -3.5) (size 0.5 0.5) (layers "F.Cu" "F.Paste" "F.Mask") (tstamp 331be26b-428e-4615-a4f4-1bbcafc8c5d3))
  (pad "K5" smd circle (at -8.5 -3.5) (size 0.5 0.5) (layers "F.Cu" "F.Paste" "F.Mask") (tstamp fb3a577e-423f-4a8c-b05b-f0c82ef0a335))
  (pad "K6" smd circle (at -7.5 -3.5) (size 0.5 0.5) (layers "F.Cu" "F.Paste" "F.Mask") (tstamp 8003ea1a-b339-47fc-b9ac-bc0488ebb1d3))
  (pad "K7" smd circle (at -6.5 -3.5) (size 0.5 0.5) (layers "F.Cu" "F.Paste" "F.Mask") (tstamp 70c971c7-cc49-4977-80f3-817f284ba221))
  (pad "K8" smd circle (at -5.5 -3.5) (size 0.5 0.5) (layers "F.Cu" "F.Paste" "F.Mask") (tstamp 74ed4157-77d7-4731-931c-a8906b9a1e8a))
  (pad "K9" smd circle (at -4.5 -3.5) (size 0.5 0.5) (layers "F.Cu" "F.Paste" "F.Mask") (tstamp 9cc937f3-34b9-4eb2-a10f-b6b9d3cce435))
  (pad "K10" smd circle (at -3.5 -3.5) (size 0.5 0.5) (layers "F.Cu" "F.Paste" "F.Mask") (tstamp 03188f97-92f0-4c3f-9fc8-1f2ba5c1b14b))
  (pad "K11" smd circle (at -2.5 -3.5) (size 0.5 0.5) (layers "F.Cu" "F.Paste" "F.Mask") (tstamp ee0503de-43df-4844-9d62-46edef1f0849))
  (pad "K12" smd circle (at -1.5 -3.5) (size 0.5 0.5) (layers "F.Cu" "F.Paste" "F.Mask") (tstamp 601258e1-eadc-46bd-91b4-5e4fea5a6819))
  (pad "K13" smd circle (at -0.5 -3.5) (size 0.5 0.5) (layers "F.Cu" "F.Paste" "F.Mask") (tstamp 9abbae95-a242-4388-9083-b6db187ee6f1))
  (pad "K14" smd circle (at 0.5 -3.5) (size 0.5 0.5) (layers "F.Cu" "F.Paste" "F.Mask") (tstamp de23c682-70c5-4209-9245-951a739b65ba))
  (pad "K15" smd circle (at 1.5 -3.5) (size 0.5 0.5) (layers "F.Cu" "F.Paste" "F.Mask") (tstamp 76b67e48-a24a-4b05-b8fa-e42da0806dce))
  (pad "K16" smd circle (at 2.5 -3.5) (size 0.5 0.5) (layers "F.Cu" "F.Paste" "F.Mask") (tstamp b3cabc05-436e-46ba-8398-8a1d0e2fd93e))
  (pad "K17" smd circle (at 3.5 -3.5) (size 0.5 0.5) (layers "F.Cu" "F.Paste" "F.Mask") (tstamp 8a86070f-f1a6-44f2-a5c4-75c6ad0238da))
  (pad "K18" smd circle (at 4.5 -3.5) (size 0.5 0.5) (layers "F.Cu" "F.Paste" "F.Mask") (tstamp e4e4d4f9-a1d9-44fe-bec8-f0fded83b679))
  (pad "K19" smd circle (at 5.5 -3.5) (size 0.5 0.5) (layers "F.Cu" "F.Paste" "F.Mask") (tstamp edfecb18-0e34-4f9e-9657-9d4d030ab650))
  (pad "K20" smd circle (at 6.5 -3.5) (size 0.5 0.5) (layers "F.Cu" "F.Paste" "F.Mask") (tstamp 101667ca-9b16-4930-ac18-fa71864388be))
  (pad "K21" smd circle (at 7.5 -3.5) (size 0.5 0.5) (layers "F.Cu" "F.Paste" "F.Mask") (tstamp d24e9c14-ce61-4cb7-a213-8c760a056a1a))
  (pad "K22" smd circle (at 8.5 -3.5) (size 0.5 0.5) (layers "F.Cu" "F.Paste" "F.Mask") (tstamp 0da36bac-0ff2-489e-9e7a-e9d309d8bd26))
  (pad "K23" smd circle (at 9.5 -3.5) (size 0.5 0.5) (layers "F.Cu" "F.Paste" "F.Mask") (tstamp 250ceb74-9794-40fc-9976-2e573ca3fc78))
  (pad "K24" smd circle (at 10.5 -3.5) (size 0.5 0.5) (layers "F.Cu" "F.Paste" "F.Mask") (tstamp df874a33-2e9c-4311-86a2-c2ae3e9c24d9))
  (pad "K25" smd circle (at 11.5 -3.5) (size 0.5 0.5) (layers "F.Cu" "F.Paste" "F.Mask") (tstamp f942d826-4724-4758-a9cc-dde01ec6ac4c))
  (pad "K26" smd circle (at 12.5 -3.5) (size 0.5 0.5) (layers "F.Cu" "F.Paste" "F.Mask") (tstamp 77885cdc-6ae0-4392-b035-313ecaaa4e06))
  (pad "L1" smd circle (at -12.5 -2.5) (size 0.5 0.5) (layers "F.Cu" "F.Paste" "F.Mask") (tstamp 63933e2c-ee70-4e2d-b571-4a1afee8e073))
  (pad "L2" smd circle (at -11.5 -2.5) (size 0.5 0.5) (layers "F.Cu" "F.Paste" "F.Mask") (tstamp bebbd5d8-5dd6-40ba-92d7-b1a6ec5a7368))
  (pad "L3" smd circle (at -10.5 -2.5) (size 0.5 0.5) (layers "F.Cu" "F.Paste" "F.Mask") (tstamp 1bbd1abc-fd25-4a97-8eea-fc2fad679091))
  (pad "L4" smd circle (at -9.5 -2.5) (size 0.5 0.5) (layers "F.Cu" "F.Paste" "F.Mask") (tstamp f7312148-2ddd-4a99-80e0-2dd09556b8d5))
  (pad "L5" smd circle (at -8.5 -2.5) (size 0.5 0.5) (layers "F.Cu" "F.Paste" "F.Mask") (tstamp 509dfe5e-c072-46b1-9507-5d8e967017d8))
  (pad "L6" smd circle (at -7.5 -2.5) (size 0.5 0.5) (layers "F.Cu" "F.Paste" "F.Mask") (tstamp f9dfc958-4740-40ea-8664-1c957d485f6a))
  (pad "L7" smd circle (at -6.5 -2.5) (size 0.5 0.5) (layers "F.Cu" "F.Paste" "F.Mask") (tstamp cf145abd-88b7-4fbd-92a7-bcca5a125314))
  (pad "L8" smd circle (at -5.5 -2.5) (size 0.5 0.5) (layers "F.Cu" "F.Paste" "F.Mask") (tstamp 344fbeb9-3800-42e7-bb2d-0607e81bf884))
  (pad "L9" smd circle (at -4.5 -2.5) (size 0.5 0.5) (layers "F.Cu" "F.Paste" "F.Mask") (tstamp c79734dc-4145-48aa-907a-be7315f57a5a))
  (pad "L10" smd circle (at -3.5 -2.5) (size 0.5 0.5) (layers "F.Cu" "F.Paste" "F.Mask") (tstamp 4f967eec-ad4a-4da4-b263-ef9facbfb3b0))
  (pad "L11" smd circle (at -2.5 -2.5) (size 0.5 0.5) (layers "F.Cu" "F.Paste" "F.Mask") (tstamp f227ece9-2d73-4709-88ca-27b881560495))
  (pad "L12" smd circle (at -1.5 -2.5) (size 0.5 0.5) (layers "F.Cu" "F.Paste" "F.Mask") (tstamp aa6d1b11-32d5-4576-9c19-2ab59150f798))
  (pad "L13" smd circle (at -0.5 -2.5) (size 0.5 0.5) (layers "F.Cu" "F.Paste" "F.Mask") (tstamp 1914d2b0-c721-4acc-a7a0-5bf79242f697))
  (pad "L14" smd circle (at 0.5 -2.5) (size 0.5 0.5) (layers "F.Cu" "F.Paste" "F.Mask") (tstamp bb6df364-73ad-425b-b06b-7574e385b091))
  (pad "L15" smd circle (at 1.5 -2.5) (size 0.5 0.5) (layers "F.Cu" "F.Paste" "F.Mask") (tstamp 9b13aac5-08a1-4f99-9b94-6dbab1abd34e))
  (pad "L16" smd circle (at 2.5 -2.5) (size 0.5 0.5) (layers "F.Cu" "F.Paste" "F.Mask") (tstamp 3c8d0f9b-ab76-497b-a5a4-74675a4ac9d0))
  (pad "L17" smd circle (at 3.5 -2.5) (size 0.5 0.5) (layers "F.Cu" "F.Paste" "F.Mask") (tstamp 761561e2-5095-4ce4-a522-ba3363afc253))
  (pad "L18" smd circle (at 4.5 -2.5) (size 0.5 0.5) (layers "F.Cu" "F.Paste" "F.Mask") (tstamp 4be4657c-1eed-4dc0-901d-3124c8259b93))
  (pad "L19" smd circle (at 5.5 -2.5) (size 0.5 0.5) (layers "F.Cu" "F.Paste" "F.Mask") (tstamp 9c292cb2-4642-4281-b2e4-dc72f5cbe3d7))
  (pad "L20" smd circle (at 6.5 -2.5) (size 0.5 0.5) (layers "F.Cu" "F.Paste" "F.Mask") (tstamp c7232c36-57f9-4ce4-b865-59f7d9ecf9f7))
  (pad "L21" smd circle (at 7.5 -2.5) (size 0.5 0.5) (layers "F.Cu" "F.Paste" "F.Mask") (tstamp 09f7390d-30fa-42ff-9d4f-de45be2511bd))
  (pad "L22" smd circle (at 8.5 -2.5) (size 0.5 0.5) (layers "F.Cu" "F.Paste" "F.Mask") (tstamp 0bac6361-edb7-4851-953c-84549b7c0b59))
  (pad "L23" smd circle (at 9.5 -2.5) (size 0.5 0.5) (layers "F.Cu" "F.Paste" "F.Mask") (tstamp 57fb0203-57ba-4748-adfa-c86f8ac9cf9e))
  (pad "L24" smd circle (at 10.5 -2.5) (size 0.5 0.5) (layers "F.Cu" "F.Paste" "F.Mask") (tstamp e1f80ab7-bf95-4d97-be19-99db4c78809f))
  (pad "L25" smd circle (at 11.5 -2.5) (size 0.5 0.5) (layers "F.Cu" "F.Paste" "F.Mask") (tstamp 7fc50a7d-1e42-4f16-a622-e47c8fb3d558))
  (pad "L26" smd circle (at 12.5 -2.5) (size 0.5 0.5) (layers "F.Cu" "F.Paste" "F.Mask") (tstamp 2bf85c46-29ee-41f6-abb7-ec4f31844c2e))
  (pad "M1" smd circle (at -12.5 -1.5) (size 0.5 0.5) (layers "F.Cu" "F.Paste" "F.Mask") (tstamp 86a2802d-9d8f-4acf-9269-f5079ad05faf))
  (pad "M2" smd circle (at -11.5 -1.5) (size 0.5 0.5) (layers "F.Cu" "F.Paste" "F.Mask") (tstamp d8d0b93c-ff88-454a-9422-de7a648776da))
  (pad "M3" smd circle (at -10.5 -1.5) (size 0.5 0.5) (layers "F.Cu" "F.Paste" "F.Mask") (tstamp 6d142b24-ea84-4413-a490-5dfd2b3c4392))
  (pad "M4" smd circle (at -9.5 -1.5) (size 0.5 0.5) (layers "F.Cu" "F.Paste" "F.Mask") (tstamp 5d80dc82-9bef-49b0-a554-37b8f84dd3fc))
  (pad "M5" smd circle (at -8.5 -1.5) (size 0.5 0.5) (layers "F.Cu" "F.Paste" "F.Mask") (tstamp 2b719f60-2fb6-42bb-b857-c7e93a616792))
  (pad "M6" smd circle (at -7.5 -1.5) (size 0.5 0.5) (layers "F.Cu" "F.Paste" "F.Mask") (tstamp 36fcd74d-df48-421d-b218-9721345431d2))
  (pad "M7" smd circle (at -6.5 -1.5) (size 0.5 0.5) (layers "F.Cu" "F.Paste" "F.Mask") (tstamp a4e195bb-454a-46a9-957e-026354edf5b5))
  (pad "M8" smd circle (at -5.5 -1.5) (size 0.5 0.5) (layers "F.Cu" "F.Paste" "F.Mask") (tstamp 62d756aa-9ca0-4b18-ae36-62d118820acf))
  (pad "M9" smd circle (at -4.5 -1.5) (size 0.5 0.5) (layers "F.Cu" "F.Paste" "F.Mask") (tstamp 048b32f8-bab2-4db3-b584-ae99509bda85))
  (pad "M10" smd circle (at -3.5 -1.5) (size 0.5 0.5) (layers "F.Cu" "F.Paste" "F.Mask") (tstamp 6c35d300-6d40-49ad-8b93-70abe295d156))
  (pad "M11" smd circle (at -2.5 -1.5) (size 0.5 0.5) (layers "F.Cu" "F.Paste" "F.Mask") (tstamp 66cff791-a797-4e68-9362-b044e5de0c47))
  (pad "M12" smd circle (at -1.5 -1.5) (size 0.5 0.5) (layers "F.Cu" "F.Paste" "F.Mask") (tstamp 26b8ab7f-4a9e-4892-aacc-da4a43c7db35))
  (pad "M13" smd circle (at -0.5 -1.5) (size 0.5 0.5) (layers "F.Cu" "F.Paste" "F.Mask") (tstamp 8c6a372e-7398-41b7-acc2-b1e842c18ab4))
  (pad "M14" smd circle (at 0.5 -1.5) (size 0.5 0.5) (layers "F.Cu" "F.Paste" "F.Mask") (tstamp efd7d681-4568-4bed-b5e8-a16d15964730))
  (pad "M15" smd circle (at 1.5 -1.5) (size 0.5 0.5) (layers "F.Cu" "F.Paste" "F.Mask") (tstamp 3d21879b-ccfb-42b1-8211-e9ba32add18a))
  (pad "M16" smd circle (at 2.5 -1.5) (size 0.5 0.5) (layers "F.Cu" "F.Paste" "F.Mask") (tstamp 20b65c1d-52dc-4b11-b976-d10d4db45895))
  (pad "M17" smd circle (at 3.5 -1.5) (size 0.5 0.5) (layers "F.Cu" "F.Paste" "F.Mask") (tstamp dcd4a2fe-71dd-4212-9fc5-d15ff248221b))
  (pad "M18" smd circle (at 4.5 -1.5) (size 0.5 0.5) (layers "F.Cu" "F.Paste" "F.Mask") (tstamp 380b33ca-d8ad-4c23-9043-28fedce44691))
  (pad "M19" smd circle (at 5.5 -1.5) (size 0.5 0.5) (layers "F.Cu" "F.Paste" "F.Mask") (tstamp 754908ae-8546-474a-86f3-8f741184a925))
  (pad "M20" smd circle (at 6.5 -1.5) (size 0.5 0.5) (layers "F.Cu" "F.Paste" "F.Mask") (tstamp 9e71e473-777f-4c27-ada3-565f889e176b))
  (pad "M21" smd circle (at 7.5 -1.5) (size 0.5 0.5) (layers "F.Cu" "F.Paste" "F.Mask") (tstamp f4c43072-1c9d-4e0b-b5cd-7985adc50581))
  (pad "M22" smd circle (at 8.5 -1.5) (size 0.5 0.5) (layers "F.Cu" "F.Paste" "F.Mask") (tstamp 3cab81fe-74e2-45ee-a718-ccd8a70fa74f))
  (pad "M23" smd circle (at 9.5 -1.5) (size 0.5 0.5) (layers "F.Cu" "F.Paste" "F.Mask") (tstamp 1812db43-0749-41bb-94f8-910d59fe576c))
  (pad "M24" smd circle (at 10.5 -1.5) (size 0.5 0.5) (layers "F.Cu" "F.Paste" "F.Mask") (tstamp d728f254-8d15-4172-ba02-cdc397cdd910))
  (pad "M25" smd circle (at 11.5 -1.5) (size 0.5 0.5) (layers "F.Cu" "F.Paste" "F.Mask") (tstamp d62f34df-aa3f-4aaa-aa10-99393d27696b))
  (pad "M26" smd circle (at 12.5 -1.5) (size 0.5 0.5) (layers "F.Cu" "F.Paste" "F.Mask") (tstamp 287a3dc6-697b-4dee-8b31-632326d4b3b1))
  (pad "N1" smd circle (at -12.5 -0.5) (size 0.5 0.5) (layers "F.Cu" "F.Paste" "F.Mask") (tstamp bb247502-ca87-43e9-89fc-a4add7cbb930))
  (pad "N2" smd circle (at -11.5 -0.5) (size 0.5 0.5) (layers "F.Cu" "F.Paste" "F.Mask") (tstamp dbb6c993-5c18-4769-841f-ebacf04edc40))
  (pad "N3" smd circle (at -10.5 -0.5) (size 0.5 0.5) (layers "F.Cu" "F.Paste" "F.Mask") (tstamp fda16d8c-87dc-49c3-96ef-6ca9d2a9cbd3))
  (pad "N4" smd circle (at -9.5 -0.5) (size 0.5 0.5) (layers "F.Cu" "F.Paste" "F.Mask") (tstamp 50f4d4f3-21a2-44f2-9871-b45a94cdcee8))
  (pad "N5" smd circle (at -8.5 -0.5) (size 0.5 0.5) (layers "F.Cu" "F.Paste" "F.Mask") (tstamp 000398ac-667c-445e-bfee-4328c6f7b171))
  (pad "N6" smd circle (at -7.5 -0.5) (size 0.5 0.5) (layers "F.Cu" "F.Paste" "F.Mask") (tstamp 3e4e75fd-fe4c-44b3-ac97-994e0efb72c9))
  (pad "N7" smd circle (at -6.5 -0.5) (size 0.5 0.5) (layers "F.Cu" "F.Paste" "F.Mask") (tstamp 51bd4d9f-ba32-436d-87da-1a64cc9d4e0b))
  (pad "N8" smd circle (at -5.5 -0.5) (size 0.5 0.5) (layers "F.Cu" "F.Paste" "F.Mask") (tstamp e5652902-83cc-4b0a-a191-78780938290f))
  (pad "N9" smd circle (at -4.5 -0.5) (size 0.5 0.5) (layers "F.Cu" "F.Paste" "F.Mask") (tstamp 7fb29cf5-0e02-48f3-868f-37f2912f8d58))
  (pad "N10" smd circle (at -3.5 -0.5) (size 0.5 0.5) (layers "F.Cu" "F.Paste" "F.Mask") (tstamp c5483466-5d20-439a-9ef0-14220dad6a8e))
  (pad "N11" smd circle (at -2.5 -0.5) (size 0.5 0.5) (layers "F.Cu" "F.Paste" "F.Mask") (tstamp e77bed9c-856d-4917-a3fd-df0a5caadc4e))
  (pad "N12" smd circle (at -1.5 -0.5) (size 0.5 0.5) (layers "F.Cu" "F.Paste" "F.Mask") (tstamp c4dc6786-2ff6-4972-b792-3810619e434b))
  (pad "N13" smd circle (at -0.5 -0.5) (size 0.5 0.5) (layers "F.Cu" "F.Paste" "F.Mask") (tstamp a9d799b6-c36f-4b5c-bf70-aabe6d06e0b6))
  (pad "N14" smd circle (at 0.5 -0.5) (size 0.5 0.5) (layers "F.Cu" "F.Paste" "F.Mask") (tstamp 28622bb0-591f-47ad-941e-e5c3cf990714))
  (pad "N15" smd circle (at 1.5 -0.5) (size 0.5 0.5) (layers "F.Cu" "F.Paste" "F.Mask") (tstamp eeb6eddc-dde3-44ec-90da-e5e96b75c6be))
  (pad "N16" smd circle (at 2.5 -0.5) (size 0.5 0.5) (layers "F.Cu" "F.Paste" "F.Mask") (tstamp edad1ab0-4f7d-47cc-afbc-6ea5a77994de))
  (pad "N17" smd circle (at 3.5 -0.5) (size 0.5 0.5) (layers "F.Cu" "F.Paste" "F.Mask") (tstamp 9fe3f142-21e5-4e1b-9b1e-2b029fa7c75d))
  (pad "N18" smd circle (at 4.5 -0.5) (size 0.5 0.5) (layers "F.Cu" "F.Paste" "F.Mask") (tstamp 68f3b3a3-f260-43c5-8d45-a10e489f2290))
  (pad "N19" smd circle (at 5.5 -0.5) (size 0.5 0.5) (layers "F.Cu" "F.Paste" "F.Mask") (tstamp 2b921c64-de7d-44a5-ac3b-2f85d0934899))
  (pad "N20" smd circle (at 6.5 -0.5) (size 0.5 0.5) (layers "F.Cu" "F.Paste" "F.Mask") (tstamp 550929b4-10ec-4828-bdb7-c0a6eb5edba7))
  (pad "N21" smd circle (at 7.5 -0.5) (size 0.5 0.5) (layers "F.Cu" "F.Paste" "F.Mask") (tstamp 21f8f009-b728-42a3-8354-990ac026da4f))
  (pad "N22" smd circle (at 8.5 -0.5) (size 0.5 0.5) (layers "F.Cu" "F.Paste" "F.Mask") (tstamp 5e34b018-8f54-48b9-adf5-beaf62a754c8))
  (pad "N23" smd circle (at 9.5 -0.5) (size 0.5 0.5) (layers "F.Cu" "F.Paste" "F.Mask") (tstamp b70cf946-f2f5-44f7-aa98-1c0a4abe8eb7))
  (pad "N24" smd circle (at 10.5 -0.5) (size 0.5 0.5) (layers "F.Cu" "F.Paste" "F.Mask") (tstamp 38aa4d81-86dc-40b6-8657-d937c822cc3f))
  (pad "N25" smd circle (at 11.5 -0.5) (size 0.5 0.5) (layers "F.Cu" "F.Paste" "F.Mask") (tstamp d60bd60f-ce1d-4da4-96ce-3f47f6bb9c18))
  (pad "N26" smd circle (at 12.5 -0.5) (size 0.5 0.5) (layers "F.Cu" "F.Paste" "F.Mask") (tstamp fbb22120-15b1-43cb-9cec-1d7ee7bdaa96))
  (pad "P1" smd circle (at -12.5 0.5) (size 0.5 0.5) (layers "F.Cu" "F.Paste" "F.Mask") (tstamp 45f8fddc-aa9f-4e2b-9ef2-204bc24bb45f))
  (pad "P2" smd circle (at -11.5 0.5) (size 0.5 0.5) (layers "F.Cu" "F.Paste" "F.Mask") (tstamp e5d8f958-7485-4020-8e95-2a8c120fbffb))
  (pad "P3" smd circle (at -10.5 0.5) (size 0.5 0.5) (layers "F.Cu" "F.Paste" "F.Mask") (tstamp 0a6de278-088c-4427-8302-4e43698142ef))
  (pad "P4" smd circle (at -9.5 0.5) (size 0.5 0.5) (layers "F.Cu" "F.Paste" "F.Mask") (tstamp 48f66c7f-de0b-40d9-a2f5-6bd78de1237c))
  (pad "P5" smd circle (at -8.5 0.5) (size 0.5 0.5) (layers "F.Cu" "F.Paste" "F.Mask") (tstamp be2305d2-7bac-458a-a80b-515346248645))
  (pad "P6" smd circle (at -7.5 0.5) (size 0.5 0.5) (layers "F.Cu" "F.Paste" "F.Mask") (tstamp b064065e-bb38-42ac-b8e4-0fdb1a8cc6a6))
  (pad "P7" smd circle (at -6.5 0.5) (size 0.5 0.5) (layers "F.Cu" "F.Paste" "F.Mask") (tstamp e3e5dcd2-89de-44b2-8cd8-475586b057bb))
  (pad "P8" smd circle (at -5.5 0.5) (size 0.5 0.5) (layers "F.Cu" "F.Paste" "F.Mask") (tstamp dcd46ad8-fa3a-4364-b702-7c342a329b77))
  (pad "P9" smd circle (at -4.5 0.5) (size 0.5 0.5) (layers "F.Cu" "F.Paste" "F.Mask") (tstamp 07bfdba8-1bd1-43cc-9d47-f695fd1ee88c))
  (pad "P10" smd circle (at -3.5 0.5) (size 0.5 0.5) (layers "F.Cu" "F.Paste" "F.Mask") (tstamp b65ae6d5-41bf-452b-aa92-eb4cd5e386f2))
  (pad "P11" smd circle (at -2.5 0.5) (size 0.5 0.5) (layers "F.Cu" "F.Paste" "F.Mask") (tstamp 61746690-8752-426d-9c64-a154feabd31a))
  (pad "P12" smd circle (at -1.5 0.5) (size 0.5 0.5) (layers "F.Cu" "F.Paste" "F.Mask") (tstamp 8f7c2ccc-7e8e-4131-8a79-cd8af65ad6a3))
  (pad "P13" smd circle (at -0.5 0.5) (size 0.5 0.5) (layers "F.Cu" "F.Paste" "F.Mask") (tstamp 574cbd47-84de-41fc-ae6a-d41752c10f5e))
  (pad "P14" smd circle (at 0.5 0.5) (size 0.5 0.5) (layers "F.Cu" "F.Paste" "F.Mask") (tstamp 20f6cf04-5e54-40bd-bf26-074da97f41b5))
  (pad "P15" smd circle (at 1.5 0.5) (size 0.5 0.5) (layers "F.Cu" "F.Paste" "F.Mask") (tstamp d66b969d-51d7-4e93-be7e-badeee831e98))
  (pad "P16" smd circle (at 2.5 0.5) (size 0.5 0.5) (layers "F.Cu" "F.Paste" "F.Mask") (tstamp 94684ebf-59f0-47e2-92e1-f79fa2ab07f9))
  (pad "P17" smd circle (at 3.5 0.5) (size 0.5 0.5) (layers "F.Cu" "F.Paste" "F.Mask") (tstamp eb24ca06-71b9-4507-9c2a-76b06d39b3ac))
  (pad "P18" smd circle (at 4.5 0.5) (size 0.5 0.5) (layers "F.Cu" "F.Paste" "F.Mask") (tstamp 06ac0c8f-0e5f-4870-a4be-b0b21500dc43))
  (pad "P19" smd circle (at 5.5 0.5) (size 0.5 0.5) (layers "F.Cu" "F.Paste" "F.Mask") (tstamp 4883b1f5-17bb-4485-abd3-0f712e31f7ae))
  (pad "P20" smd circle (at 6.5 0.5) (size 0.5 0.5) (layers "F.Cu" "F.Paste" "F.Mask") (tstamp 34b06145-973c-4956-8d3a-fb3c4f8f05fd))
  (pad "P21" smd circle (at 7.5 0.5) (size 0.5 0.5) (layers "F.Cu" "F.Paste" "F.Mask") (tstamp 65d62d30-a97e-43b2-9165-58610aff01a7))
  (pad "P22" smd circle (at 8.5 0.5) (size 0.5 0.5) (layers "F.Cu" "F.Paste" "F.Mask") (tstamp 95058f58-6273-4224-9f23-53fe523650e9))
  (pad "P23" smd circle (at 9.5 0.5) (size 0.5 0.5) (layers "F.Cu" "F.Paste" "F.Mask") (tstamp 7d8c3534-59ae-4dcd-8a97-35820cd3d1de))
  (pad "P24" smd circle (at 10.5 0.5) (size 0.5 0.5) (layers "F.Cu" "F.Paste" "F.Mask") (tstamp d77d2614-f861-4c2b-8377-b3e546ef5c6c))
  (pad "P25" smd circle (at 11.5 0.5) (size 0.5 0.5) (layers "F.Cu" "F.Paste" "F.Mask") (tstamp 870e4c6e-8285-4ca2-8384-2d82a00289ff))
  (pad "P26" smd circle (at 12.5 0.5) (size 0.5 0.5) (layers "F.Cu" "F.Paste" "F.Mask") (tstamp 9574e268-c9f1-40fc-bf49-63bb86a30962))
  (pad "R1" smd circle (at -12.5 1.5) (size 0.5 0.5) (layers "F.Cu" "F.Paste" "F.Mask") (tstamp af1d4d5b-cb24-4732-aafa-72f073affe16))
  (pad "R2" smd circle (at -11.5 1.5) (size 0.5 0.5) (layers "F.Cu" "F.Paste" "F.Mask") (tstamp dca0c01c-586a-43c8-b0d1-0040d9321cb8))
  (pad "R3" smd circle (at -10.5 1.5) (size 0.5 0.5) (layers "F.Cu" "F.Paste" "F.Mask") (tstamp 287ef97f-474c-48eb-a93f-091b836b02fe))
  (pad "R4" smd circle (at -9.5 1.5) (size 0.5 0.5) (layers "F.Cu" "F.Paste" "F.Mask") (tstamp 34d71dae-41a9-45f3-8fae-c5a4c52a1773))
  (pad "R5" smd circle (at -8.5 1.5) (size 0.5 0.5) (layers "F.Cu" "F.Paste" "F.Mask") (tstamp a70346a2-cdfa-4ed3-9904-ed91640bd134))
  (pad "R6" smd circle (at -7.5 1.5) (size 0.5 0.5) (layers "F.Cu" "F.Paste" "F.Mask") (tstamp cfc724ec-5622-419b-9574-e63f25927a5b))
  (pad "R7" smd circle (at -6.5 1.5) (size 0.5 0.5) (layers "F.Cu" "F.Paste" "F.Mask") (tstamp 17f1a30f-0230-45b3-9fd9-3a8f46515f0c))
  (pad "R8" smd circle (at -5.5 1.5) (size 0.5 0.5) (layers "F.Cu" "F.Paste" "F.Mask") (tstamp 39bf9c16-ce5a-47ba-b9d1-c8d41d3ead9e))
  (pad "R9" smd circle (at -4.5 1.5) (size 0.5 0.5) (layers "F.Cu" "F.Paste" "F.Mask") (tstamp e34d4c8f-02f1-4872-b580-f472324e6294))
  (pad "R10" smd circle (at -3.5 1.5) (size 0.5 0.5) (layers "F.Cu" "F.Paste" "F.Mask") (tstamp bfa49b04-4173-4800-ab3d-1d78beaacecc))
  (pad "R11" smd circle (at -2.5 1.5) (size 0.5 0.5) (layers "F.Cu" "F.Paste" "F.Mask") (tstamp c21a04f6-91a7-40f8-8e90-174f11dba679))
  (pad "R12" smd circle (at -1.5 1.5) (size 0.5 0.5) (layers "F.Cu" "F.Paste" "F.Mask") (tstamp 0aaadf9b-f193-4fd5-aa5d-5f1746d2925f))
  (pad "R13" smd circle (at -0.5 1.5) (size 0.5 0.5) (layers "F.Cu" "F.Paste" "F.Mask") (tstamp f48b5e3d-f9f2-421f-afb0-ab80ebddd8d8))
  (pad "R14" smd circle (at 0.5 1.5) (size 0.5 0.5) (layers "F.Cu" "F.Paste" "F.Mask") (tstamp 53aefb0d-b501-4d04-b9b5-4922a3d18a8f))
  (pad "R15" smd circle (at 1.5 1.5) (size 0.5 0.5) (layers "F.Cu" "F.Paste" "F.Mask") (tstamp 4c82d7b1-800a-4153-b52b-05512cdfe009))
  (pad "R16" smd circle (at 2.5 1.5) (size 0.5 0.5) (layers "F.Cu" "F.Paste" "F.Mask") (tstamp ae4bc046-8774-4d28-8c87-81fd7d5ee026))
  (pad "R17" smd circle (at 3.5 1.5) (size 0.5 0.5) (layers "F.Cu" "F.Paste" "F.Mask") (tstamp c78a7377-cf7c-4f72-85be-0ace9b6609c2))
  (pad "R18" smd circle (at 4.5 1.5) (size 0.5 0.5) (layers "F.Cu" "F.Paste" "F.Mask") (tstamp 0fbc0818-1b0e-42c3-b1ed-4749ab66f1dc))
  (pad "R19" smd circle (at 5.5 1.5) (size 0.5 0.5) (layers "F.Cu" "F.Paste" "F.Mask") (tstamp 25b57cd2-701a-49da-9d04-4342ed26053d))
  (pad "R20" smd circle (at 6.5 1.5) (size 0.5 0.5) (layers "F.Cu" "F.Paste" "F.Mask") (tstamp 656802ba-1043-4eca-b834-44d4084b41a4))
  (pad "R21" smd circle (at 7.5 1.5) (size 0.5 0.5) (layers "F.Cu" "F.Paste" "F.Mask") (tstamp 0fa399ae-e17d-4fb9-983a-717d562e132f))
  (pad "R22" smd circle (at 8.5 1.5) (size 0.5 0.5) (layers "F.Cu" "F.Paste" "F.Mask") (tstamp 92beaded-4c09-4675-98f9-5ee94ed01d67))
  (pad "R23" smd circle (at 9.5 1.5) (size 0.5 0.5) (layers "F.Cu" "F.Paste" "F.Mask") (tstamp cdf21a5f-fceb-4ddc-aa6c-fdd65d940b72))
  (pad "R24" smd circle (at 10.5 1.5) (size 0.5 0.5) (layers "F.Cu" "F.Paste" "F.Mask") (tstamp 9716f153-ea00-4f31-afe9-2f0270365540))
  (pad "R25" smd circle (at 11.5 1.5) (size 0.5 0.5) (layers "F.Cu" "F.Paste" "F.Mask") (tstamp 3238b2c5-510e-41cf-8476-45d9064a888d))
  (pad "R26" smd circle (at 12.5 1.5) (size 0.5 0.5) (layers "F.Cu" "F.Paste" "F.Mask") (tstamp 27bbea66-89bf-4e87-868e-6f9201b9fa20))
  (pad "T1" smd circle (at -12.5 2.5) (size 0.5 0.5) (layers "F.Cu" "F.Paste" "F.Mask") (tstamp fbeb914e-6dfb-42b6-84cf-bf0439d3954e))
  (pad "T2" smd circle (at -11.5 2.5) (size 0.5 0.5) (layers "F.Cu" "F.Paste" "F.Mask") (tstamp 7f4f155a-a08c-4d9e-8e06-7ca86c4706e2))
  (pad "T3" smd circle (at -10.5 2.5) (size 0.5 0.5) (layers "F.Cu" "F.Paste" "F.Mask") (tstamp 30e31549-fcfe-42dc-bdfd-1150143b2abd))
  (pad "T4" smd circle (at -9.5 2.5) (size 0.5 0.5) (layers "F.Cu" "F.Paste" "F.Mask") (tstamp 5d24c31d-0145-4888-85ae-04e4deb8231d))
  (pad "T5" smd circle (at -8.5 2.5) (size 0.5 0.5) (layers "F.Cu" "F.Paste" "F.Mask") (tstamp 4b12f522-1231-46ae-b8e2-2fd39c8eb66e))
  (pad "T6" smd circle (at -7.5 2.5) (size 0.5 0.5) (layers "F.Cu" "F.Paste" "F.Mask") (tstamp db22fa06-08c7-43ba-9028-81e6bad8c0ae))
  (pad "T7" smd circle (at -6.5 2.5) (size 0.5 0.5) (layers "F.Cu" "F.Paste" "F.Mask") (tstamp 94c0ba7e-d3bd-4e88-a7dd-6caa0fb4b053))
  (pad "T8" smd circle (at -5.5 2.5) (size 0.5 0.5) (layers "F.Cu" "F.Paste" "F.Mask") (tstamp 6436ffa2-ea8f-4ba7-8bd0-78c4b46a3ebe))
  (pad "T9" smd circle (at -4.5 2.5) (size 0.5 0.5) (layers "F.Cu" "F.Paste" "F.Mask") (tstamp fa546a12-67f4-4d30-a339-0bc5653b3af8))
  (pad "T10" smd circle (at -3.5 2.5) (size 0.5 0.5) (layers "F.Cu" "F.Paste" "F.Mask") (tstamp ab44f38c-f1ef-42b0-b08c-b63381f7ef74))
  (pad "T11" smd circle (at -2.5 2.5) (size 0.5 0.5) (layers "F.Cu" "F.Paste" "F.Mask") (tstamp f05dc9fe-d96a-4a39-9a0d-0274af9f01ae))
  (pad "T12" smd circle (at -1.5 2.5) (size 0.5 0.5) (layers "F.Cu" "F.Paste" "F.Mask") (tstamp 8bda2697-194d-44e0-8343-3cf20201ba9b))
  (pad "T13" smd circle (at -0.5 2.5) (size 0.5 0.5) (layers "F.Cu" "F.Paste" "F.Mask") (tstamp 63469e33-18e6-4c51-9421-946abe0fdd14))
  (pad "T14" smd circle (at 0.5 2.5) (size 0.5 0.5) (layers "F.Cu" "F.Paste" "F.Mask") (tstamp 6f31a0ab-d03f-437b-96de-bbcf1625bbb9))
  (pad "T15" smd circle (at 1.5 2.5) (size 0.5 0.5) (layers "F.Cu" "F.Paste" "F.Mask") (tstamp d62c393d-70f8-43b2-b8d6-ac78e9261187))
  (pad "T16" smd circle (at 2.5 2.5) (size 0.5 0.5) (layers "F.Cu" "F.Paste" "F.Mask") (tstamp 6ea497a9-691c-4bbf-bc9f-9ecaa226af0d))
  (pad "T17" smd circle (at 3.5 2.5) (size 0.5 0.5) (layers "F.Cu" "F.Paste" "F.Mask") (tstamp b6491ca0-27a6-4841-9494-3d2aaeaa2e16))
  (pad "T18" smd circle (at 4.5 2.5) (size 0.5 0.5) (layers "F.Cu" "F.Paste" "F.Mask") (tstamp 222b3ff7-cedc-41bf-99d4-3a5648857979))
  (pad "T19" smd circle (at 5.5 2.5) (size 0.5 0.5) (layers "F.Cu" "F.Paste" "F.Mask") (tstamp e91c70a4-0877-4ee0-b629-865e0a990bc6))
  (pad "T20" smd circle (at 6.5 2.5) (size 0.5 0.5) (layers "F.Cu" "F.Paste" "F.Mask") (tstamp 150d3916-d8b5-42ed-8c2b-5f9bacff04d9))
  (pad "T21" smd circle (at 7.5 2.5) (size 0.5 0.5) (layers "F.Cu" "F.Paste" "F.Mask") (tstamp 9eb8c303-95ac-4412-abf3-e5c974b07fa7))
  (pad "T22" smd circle (at 8.5 2.5) (size 0.5 0.5) (layers "F.Cu" "F.Paste" "F.Mask") (tstamp 192001c5-9b65-403f-a032-8e87d417352b))
  (pad "T23" smd circle (at 9.5 2.5) (size 0.5 0.5) (layers "F.Cu" "F.Paste" "F.Mask") (tstamp c1622860-e86e-49b9-8513-b59e6b161fe0))
  (pad "T24" smd circle (at 10.5 2.5) (size 0.5 0.5) (layers "F.Cu" "F.Paste" "F.Mask") (tstamp bbfd8add-0e38-4493-a6c7-d09612cfd377))
  (pad "T25" smd circle (at 11.5 2.5) (size 0.5 0.5) (layers "F.Cu" "F.Paste" "F.Mask") (tstamp 4c1fe9a4-6117-43e6-a933-50a76c912dd9))
  (pad "T26" smd circle (at 12.5 2.5) (size 0.5 0.5) (layers "F.Cu" "F.Paste" "F.Mask") (tstamp 1bca099d-fe13-471c-91c5-8f3e5eb4e7d2))
  (pad "U1" smd circle (at -12.5 3.5) (size 0.5 0.5) (layers "F.Cu" "F.Paste" "F.Mask") (tstamp a3cf1d8a-b1f1-494a-b16d-c5c1950bf54b))
  (pad "U2" smd circle (at -11.5 3.5) (size 0.5 0.5) (layers "F.Cu" "F.Paste" "F.Mask") (tstamp 5b3eaf4a-d771-4e33-9b58-4f07dcb7a268))
  (pad "U3" smd circle (at -10.5 3.5) (size 0.5 0.5) (layers "F.Cu" "F.Paste" "F.Mask") (tstamp 85bf4105-db4f-4a44-8701-2452fecbdeca))
  (pad "U4" smd circle (at -9.5 3.5) (size 0.5 0.5) (layers "F.Cu" "F.Paste" "F.Mask") (tstamp 24f6fa46-2df5-45e9-bfb0-27e71e9bb4ee))
  (pad "U5" smd circle (at -8.5 3.5) (size 0.5 0.5) (layers "F.Cu" "F.Paste" "F.Mask") (tstamp ddfb03e6-f315-4f7a-8aaf-ea07168e4e74))
  (pad "U6" smd circle (at -7.5 3.5) (size 0.5 0.5) (layers "F.Cu" "F.Paste" "F.Mask") (tstamp b6ed356f-49ef-4fee-a0fe-6f105e7d0680))
  (pad "U7" smd circle (at -6.5 3.5) (size 0.5 0.5) (layers "F.Cu" "F.Paste" "F.Mask") (tstamp 520290c3-c29d-4afe-8946-b74d316932af))
  (pad "U8" smd circle (at -5.5 3.5) (size 0.5 0.5) (layers "F.Cu" "F.Paste" "F.Mask") (tstamp fdd955c2-fb20-45e5-bf4e-f7170a8ae616))
  (pad "U9" smd circle (at -4.5 3.5) (size 0.5 0.5) (layers "F.Cu" "F.Paste" "F.Mask") (tstamp 6bb883fc-46db-464e-af1b-af0bc9600b6f))
  (pad "U10" smd circle (at -3.5 3.5) (size 0.5 0.5) (layers "F.Cu" "F.Paste" "F.Mask") (tstamp 8504c642-24be-4656-84e4-1c25171642d6))
  (pad "U11" smd circle (at -2.5 3.5) (size 0.5 0.5) (layers "F.Cu" "F.Paste" "F.Mask") (tstamp e36608b4-fbe8-4545-b7a1-4cce91b8de2e))
  (pad "U12" smd circle (at -1.5 3.5) (size 0.5 0.5) (layers "F.Cu" "F.Paste" "F.Mask") (tstamp b8b5ea01-4c89-4ed0-bcf0-15af3a913bfa))
  (pad "U13" smd circle (at -0.5 3.5) (size 0.5 0.5) (layers "F.Cu" "F.Paste" "F.Mask") (tstamp c112a938-f37b-4d79-92c5-28d948f16284))
  (pad "U14" smd circle (at 0.5 3.5) (size 0.5 0.5) (layers "F.Cu" "F.Paste" "F.Mask") (tstamp 686e24d3-8330-4b6d-b7e7-6e9acf0752f5))
  (pad "U15" smd circle (at 1.5 3.5) (size 0.5 0.5) (layers "F.Cu" "F.Paste" "F.Mask") (tstamp 67ef3489-f503-4d59-940f-c5fbf291d33f))
  (pad "U16" smd circle (at 2.5 3.5) (size 0.5 0.5) (layers "F.Cu" "F.Paste" "F.Mask") (tstamp 1bba9c83-2dd6-458d-8a1d-10096790f05b))
  (pad "U17" smd circle (at 3.5 3.5) (size 0.5 0.5) (layers "F.Cu" "F.Paste" "F.Mask") (tstamp 4dbbdc93-bd7b-4ed2-ac6d-c09cde2b22cb))
  (pad "U18" smd circle (at 4.5 3.5) (size 0.5 0.5) (layers "F.Cu" "F.Paste" "F.Mask") (tstamp 0af0fe19-cecf-4ded-b51f-d2d3d087f6e8))
  (pad "U19" smd circle (at 5.5 3.5) (size 0.5 0.5) (layers "F.Cu" "F.Paste" "F.Mask") (tstamp c2064513-79ed-4908-95ed-382ba4315e23))
  (pad "U20" smd circle (at 6.5 3.5) (size 0.5 0.5) (layers "F.Cu" "F.Paste" "F.Mask") (tstamp 72616e33-4bba-49e9-82c0-0967446b08c1))
  (pad "U21" smd circle (at 7.5 3.5) (size 0.5 0.5) (layers "F.Cu" "F.Paste" "F.Mask") (tstamp a39f0987-6a12-4434-9258-ab6dba2e086e))
  (pad "U22" smd circle (at 8.5 3.5) (size 0.5 0.5) (layers "F.Cu" "F.Paste" "F.Mask") (tstamp 022a74b9-161d-428b-8429-34ffa7d52ef7))
  (pad "U23" smd circle (at 9.5 3.5) (size 0.5 0.5) (layers "F.Cu" "F.Paste" "F.Mask") (tstamp b6c8d3c1-a602-49af-9d56-ccbf86c45c2f))
  (pad "U24" smd circle (at 10.5 3.5) (size 0.5 0.5) (layers "F.Cu" "F.Paste" "F.Mask") (tstamp facc98f9-954e-4794-af2d-5fda5c10a163))
  (pad "U25" smd circle (at 11.5 3.5) (size 0.5 0.5) (layers "F.Cu" "F.Paste" "F.Mask") (tstamp cd25c164-2b0d-4e93-907d-b1b7a96950f4))
  (pad "U26" smd circle (at 12.5 3.5) (size 0.5 0.5) (layers "F.Cu" "F.Paste" "F.Mask") (tstamp d904811a-41f2-403f-b08e-8ee6426ef7b4))
  (pad "V1" smd circle (at -12.5 4.5) (size 0.5 0.5) (layers "F.Cu" "F.Paste" "F.Mask") (tstamp 04f7bb53-e5d0-49db-afe2-1a9aa4bac6c9))
  (pad "V2" smd circle (at -11.5 4.5) (size 0.5 0.5) (layers "F.Cu" "F.Paste" "F.Mask") (tstamp 9b6ea482-ee15-4f9b-8377-c9e4fd11047f))
  (pad "V3" smd circle (at -10.5 4.5) (size 0.5 0.5) (layers "F.Cu" "F.Paste" "F.Mask") (tstamp 8ad36166-e20b-4993-a49b-1d336c50f2a5))
  (pad "V4" smd circle (at -9.5 4.5) (size 0.5 0.5) (layers "F.Cu" "F.Paste" "F.Mask") (tstamp a25fceeb-9d69-4114-83c8-e32bf82d9237))
  (pad "V5" smd circle (at -8.5 4.5) (size 0.5 0.5) (layers "F.Cu" "F.Paste" "F.Mask") (tstamp 9760ae8b-e596-4c05-9312-31d234dcec45))
  (pad "V6" smd circle (at -7.5 4.5) (size 0.5 0.5) (layers "F.Cu" "F.Paste" "F.Mask") (tstamp 1f7ed063-e3c7-4e08-8d9b-d4e8941ded83))
  (pad "V7" smd circle (at -6.5 4.5) (size 0.5 0.5) (layers "F.Cu" "F.Paste" "F.Mask") (tstamp 26c6b0d2-8131-4bee-8e04-41ed22538760))
  (pad "V8" smd circle (at -5.5 4.5) (size 0.5 0.5) (layers "F.Cu" "F.Paste" "F.Mask") (tstamp 83673da8-e2d8-4449-9d25-60cd1ee042e8))
  (pad "V9" smd circle (at -4.5 4.5) (size 0.5 0.5) (layers "F.Cu" "F.Paste" "F.Mask") (tstamp a73e9b72-6552-444a-9ddb-29f08f960fa6))
  (pad "V10" smd circle (at -3.5 4.5) (size 0.5 0.5) (layers "F.Cu" "F.Paste" "F.Mask") (tstamp 6c947bf0-195a-4d20-9408-659b5092191e))
  (pad "V11" smd circle (at -2.5 4.5) (size 0.5 0.5) (layers "F.Cu" "F.Paste" "F.Mask") (tstamp 6b14fa17-f4eb-45ee-bfd0-8fafbbaca80c))
  (pad "V12" smd circle (at -1.5 4.5) (size 0.5 0.5) (layers "F.Cu" "F.Paste" "F.Mask") (tstamp 0d114920-9d17-4dd8-bf8c-58c27b071bfa))
  (pad "V13" smd circle (at -0.5 4.5) (size 0.5 0.5) (layers "F.Cu" "F.Paste" "F.Mask") (tstamp b3fc4fe0-1724-4004-bd4f-5dcee786001a))
  (pad "V14" smd circle (at 0.5 4.5) (size 0.5 0.5) (layers "F.Cu" "F.Paste" "F.Mask") (tstamp c9823507-5db5-4924-92ff-917d2ccad836))
  (pad "V15" smd circle (at 1.5 4.5) (size 0.5 0.5) (layers "F.Cu" "F.Paste" "F.Mask") (tstamp 3a454da6-26d2-43ee-ae6d-d336f412510e))
  (pad "V16" smd circle (at 2.5 4.5) (size 0.5 0.5) (layers "F.Cu" "F.Paste" "F.Mask") (tstamp 6f596e46-d6aa-440b-9ce0-c15ba527ad51))
  (pad "V17" smd circle (at 3.5 4.5) (size 0.5 0.5) (layers "F.Cu" "F.Paste" "F.Mask") (tstamp ef3597d1-0e6c-4551-9ba2-03fbf934e760))
  (pad "V18" smd circle (at 4.5 4.5) (size 0.5 0.5) (layers "F.Cu" "F.Paste" "F.Mask") (tstamp 1db54008-72f1-48ca-9f71-a9adeabb2f44))
  (pad "V19" smd circle (at 5.5 4.5) (size 0.5 0.5) (layers "F.Cu" "F.Paste" "F.Mask") (tstamp d342a508-737c-4884-9e35-29a402907f25))
  (pad "V20" smd circle (at 6.5 4.5) (size 0.5 0.5) (layers "F.Cu" "F.Paste" "F.Mask") (tstamp 81b6f917-fb90-44ac-8f82-0afa1452e9bf))
  (pad "V21" smd circle (at 7.5 4.5) (size 0.5 0.5) (layers "F.Cu" "F.Paste" "F.Mask") (tstamp 12356d96-2071-4d2b-8496-ff98ba62075d))
  (pad "V22" smd circle (at 8.5 4.5) (size 0.5 0.5) (layers "F.Cu" "F.Paste" "F.Mask") (tstamp 0b54d74e-735a-411a-8b6a-e381f7ee9166))
  (pad "V23" smd circle (at 9.5 4.5) (size 0.5 0.5) (layers "F.Cu" "F.Paste" "F.Mask") (tstamp 6093735b-9190-46b3-be76-84c1e752abf6))
  (pad "V24" smd circle (at 10.5 4.5) (size 0.5 0.5) (layers "F.Cu" "F.Paste" "F.Mask") (tstamp 366bbc20-8198-428e-99ad-5e80622e4ebb))
  (pad "V25" smd circle (at 11.5 4.5) (size 0.5 0.5) (layers "F.Cu" "F.Paste" "F.Mask") (tstamp 655bc467-aafe-40a9-88e6-196414d24b89))
  (pad "V26" smd circle (at 12.5 4.5) (size 0.5 0.5) (layers "F.Cu" "F.Paste" "F.Mask") (tstamp 8823db7a-fb74-4cff-8d6f-997fe711ccff))
  (pad "W1" smd circle (at -12.5 5.5) (size 0.5 0.5) (layers "F.Cu" "F.Paste" "F.Mask") (tstamp 575b9aa8-0711-4a69-a32f-c7156a24c7a4))
  (pad "W2" smd circle (at -11.5 5.5) (size 0.5 0.5) (layers "F.Cu" "F.Paste" "F.Mask") (tstamp a3c077a7-4501-4846-b3ef-99bcda18984b))
  (pad "W3" smd circle (at -10.5 5.5) (size 0.5 0.5) (layers "F.Cu" "F.Paste" "F.Mask") (tstamp 38f66944-eca9-45ec-b470-59762cbaa88e))
  (pad "W4" smd circle (at -9.5 5.5) (size 0.5 0.5) (layers "F.Cu" "F.Paste" "F.Mask") (tstamp 51d1c2bf-7de9-4d0b-b1fc-e1e24c91a32b))
  (pad "W5" smd circle (at -8.5 5.5) (size 0.5 0.5) (layers "F.Cu" "F.Paste" "F.Mask") (tstamp a1da863f-5590-4b5c-98e6-bdd479b8c130))
  (pad "W6" smd circle (at -7.5 5.5) (size 0.5 0.5) (layers "F.Cu" "F.Paste" "F.Mask") (tstamp a0cd5bc1-eb59-49e2-89a9-230eedac1c9d))
  (pad "W7" smd circle (at -6.5 5.5) (size 0.5 0.5) (layers "F.Cu" "F.Paste" "F.Mask") (tstamp d042f46b-5952-449f-b57e-e26b838510fc))
  (pad "W8" smd circle (at -5.5 5.5) (size 0.5 0.5) (layers "F.Cu" "F.Paste" "F.Mask") (tstamp 813ff7d6-64fa-41a3-9a76-9a3bd3f64227))
  (pad "W9" smd circle (at -4.5 5.5) (size 0.5 0.5) (layers "F.Cu" "F.Paste" "F.Mask") (tstamp 7f347759-6220-490f-8681-58c9d543e7cd))
  (pad "W10" smd circle (at -3.5 5.5) (size 0.5 0.5) (layers "F.Cu" "F.Paste" "F.Mask") (tstamp 97b1fa08-a7dc-4c44-aaaf-d1932566a43a))
  (pad "W11" smd circle (at -2.5 5.5) (size 0.5 0.5) (layers "F.Cu" "F.Paste" "F.Mask") (tstamp 4d56e718-24c2-4d52-8dc7-b843d498823f))
  (pad "W12" smd circle (at -1.5 5.5) (size 0.5 0.5) (layers "F.Cu" "F.Paste" "F.Mask") (tstamp 7557e5b8-4275-4806-b7d0-5a899f9e2ecb))
  (pad "W13" smd circle (at -0.5 5.5) (size 0.5 0.5) (layers "F.Cu" "F.Paste" "F.Mask") (tstamp a10ce85e-0679-416c-8124-0701029bdb60))
  (pad "W14" smd circle (at 0.5 5.5) (size 0.5 0.5) (layers "F.Cu" "F.Paste" "F.Mask") (tstamp 0f6265b5-2e5f-4717-8991-0aa5be1a149a))
  (pad "W15" smd circle (at 1.5 5.5) (size 0.5 0.5) (layers "F.Cu" "F.Paste" "F.Mask") (tstamp 17d2a378-a89b-4bf3-925e-556413c99746))
  (pad "W16" smd circle (at 2.5 5.5) (size 0.5 0.5) (layers "F.Cu" "F.Paste" "F.Mask") (tstamp 4f5b8dbe-53a8-4876-b17f-38e1b2af0a75))
  (pad "W17" smd circle (at 3.5 5.5) (size 0.5 0.5) (layers "F.Cu" "F.Paste" "F.Mask") (tstamp f8ddfb52-0c5c-46d9-ad8b-7aa1cedff005))
  (pad "W18" smd circle (at 4.5 5.5) (size 0.5 0.5) (layers "F.Cu" "F.Paste" "F.Mask") (tstamp 71ebb7b7-c392-4215-aa0b-a8225623cffc))
  (pad "W19" smd circle (at 5.5 5.5) (size 0.5 0.5) (layers "F.Cu" "F.Paste" "F.Mask") (tstamp 8be19ec7-7c65-4213-ab5f-e450d8aebf64))
  (pad "W20" smd circle (at 6.5 5.5) (size 0.5 0.5) (layers "F.Cu" "F.Paste" "F.Mask") (tstamp 09290f0f-3ef4-4f68-9d22-880132595fbc))
  (pad "W21" smd circle (at 7.5 5.5) (size 0.5 0.5) (layers "F.Cu" "F.Paste" "F.Mask") (tstamp d4f45af3-92db-438c-96d9-7b0bbfc5df1a))
  (pad "W22" smd circle (at 8.5 5.5) (size 0.5 0.5) (layers "F.Cu" "F.Paste" "F.Mask") (tstamp ff28091d-2851-422b-9f2a-83a95e4ba1fd))
  (pad "W23" smd circle (at 9.5 5.5) (size 0.5 0.5) (layers "F.Cu" "F.Paste" "F.Mask") (tstamp cf45ea4a-3861-49c7-9073-28ccd3431468))
  (pad "W24" smd circle (at 10.5 5.5) (size 0.5 0.5) (layers "F.Cu" "F.Paste" "F.Mask") (tstamp deb4d977-a881-48a7-b342-3bb380ec6047))
  (pad "W25" smd circle (at 11.5 5.5) (size 0.5 0.5) (layers "F.Cu" "F.Paste" "F.Mask") (tstamp 8df24cfd-683b-4e62-9175-4b5da70b4289))
  (pad "W26" smd circle (at 12.5 5.5) (size 0.5 0.5) (layers "F.Cu" "F.Paste" "F.Mask") (tstamp aed50d13-ef35-4742-b624-cc6c2dcd5b40))
  (pad "Y1" smd circle (at -12.5 6.5) (size 0.5 0.5) (layers "F.Cu" "F.Paste" "F.Mask") (tstamp bff7ec16-75d1-46bc-bfce-85ed2530951f))
  (pad "Y2" smd circle (at -11.5 6.5) (size 0.5 0.5) (layers "F.Cu" "F.Paste" "F.Mask") (tstamp 2221eb10-8a26-4864-ac77-11d2b9f423c2))
  (pad "Y3" smd circle (at -10.5 6.5) (size 0.5 0.5) (layers "F.Cu" "F.Paste" "F.Mask") (tstamp 75e54bc9-634e-4264-b2e5-18f3ece15798))
  (pad "Y4" smd circle (at -9.5 6.5) (size 0.5 0.5) (layers "F.Cu" "F.Paste" "F.Mask") (tstamp d2e794cb-d83e-4adc-8c59-f2aa8f51c30f))
  (pad "Y5" smd circle (at -8.5 6.5) (size 0.5 0.5) (layers "F.Cu" "F.Paste" "F.Mask") (tstamp 588d0a73-4bab-41e0-be47-71b8fe3c18b6))
  (pad "Y6" smd circle (at -7.5 6.5) (size 0.5 0.5) (layers "F.Cu" "F.Paste" "F.Mask") (tstamp b75fb614-bb16-4099-9a1f-60ed6e4b6e18))
  (pad "Y7" smd circle (at -6.5 6.5) (size 0.5 0.5) (layers "F.Cu" "F.Paste" "F.Mask") (tstamp a8a91949-79a2-480d-8a08-fba73491259a))
  (pad "Y8" smd circle (at -5.5 6.5) (size 0.5 0.5) (layers "F.Cu" "F.Paste" "F.Mask") (tstamp f0bdf57b-a5b9-46ed-bc9b-58100bdcdf2f))
  (pad "Y9" smd circle (at -4.5 6.5) (size 0.5 0.5) (layers "F.Cu" "F.Paste" "F.Mask") (tstamp 0040e12a-0701-463d-bb09-7fc667ed3b57))
  (pad "Y10" smd circle (at -3.5 6.5) (size 0.5 0.5) (layers "F.Cu" "F.Paste" "F.Mask") (tstamp 1f3eddec-3450-4a51-ab88-891691740d6f))
  (pad "Y11" smd circle (at -2.5 6.5) (size 0.5 0.5) (layers "F.Cu" "F.Paste" "F.Mask") (tstamp 95bc47d4-9e63-4e4d-8e36-622648a7332d))
  (pad "Y12" smd circle (at -1.5 6.5) (size 0.5 0.5) (layers "F.Cu" "F.Paste" "F.Mask") (tstamp 4771c41a-18fc-4220-8433-e990d0e06a6e))
  (pad "Y13" smd circle (at -0.5 6.5) (size 0.5 0.5) (layers "F.Cu" "F.Paste" "F.Mask") (tstamp b199a4c1-049e-4014-8a60-b1ce3f6aafed))
  (pad "Y14" smd circle (at 0.5 6.5) (size 0.5 0.5) (layers "F.Cu" "F.Paste" "F.Mask") (tstamp 86c91069-6ea8-4e4b-a24e-f87443b6f4f1))
  (pad "Y15" smd circle (at 1.5 6.5) (size 0.5 0.5) (layers "F.Cu" "F.Paste" "F.Mask") (tstamp 240b04f3-32c5-40d7-90db-404767dc419b))
  (pad "Y16" smd circle (at 2.5 6.5) (size 0.5 0.5) (layers "F.Cu" "F.Paste" "F.Mask") (tstamp 5a3bf435-c21a-4747-90d9-c576bc3ba2f6))
  (pad "Y17" smd circle (at 3.5 6.5) (size 0.5 0.5) (layers "F.Cu" "F.Paste" "F.Mask") (tstamp 200632f1-23b4-4491-8cc4-4d6cae70c313))
  (pad "Y18" smd circle (at 4.5 6.5) (size 0.5 0.5) (layers "F.Cu" "F.Paste" "F.Mask") (tstamp c9c32a4c-b3b4-477e-ab76-2f310804a9ef))
  (pad "Y19" smd circle (at 5.5 6.5) (size 0.5 0.5) (layers "F.Cu" "F.Paste" "F.Mask") (tstamp 4673f94a-5687-4c3f-a389-438bceaf3136))
  (pad "Y20" smd circle (at 6.5 6.5) (size 0.5 0.5) (layers "F.Cu" "F.Paste" "F.Mask") (tstamp a0b75804-eb4e-4162-9305-6c71a513c5d6))
  (pad "Y21" smd circle (at 7.5 6.5) (size 0.5 0.5) (layers "F.Cu" "F.Paste" "F.Mask") (tstamp d4b6a30a-1b96-4e4a-8bc3-f26ba37181fc))
  (pad "Y22" smd circle (at 8.5 6.5) (size 0.5 0.5) (layers "F.Cu" "F.Paste" "F.Mask") (tstamp c587d648-f8f1-46e8-b552-9dd9c2c9e843))
  (pad "Y23" smd circle (at 9.5 6.5) (size 0.5 0.5) (layers "F.Cu" "F.Paste" "F.Mask") (tstamp 45f7d790-2b5f-4796-9868-b0dd6d8e9339))
  (pad "Y24" smd circle (at 10.5 6.5) (size 0.5 0.5) (layers "F.Cu" "F.Paste" "F.Mask") (tstamp 027eec99-655a-4b73-9427-b32793c5a1a2))
  (pad "Y25" smd circle (at 11.5 6.5) (size 0.5 0.5) (layers "F.Cu" "F.Paste" "F.Mask") (tstamp 385b936e-2aee-4aba-a272-73ed47f12694))
  (pad "Y26" smd circle (at 12.5 6.5) (size 0.5 0.5) (layers "F.Cu" "F.Paste" "F.Mask") (tstamp a162872a-9483-4590-bd59-fafdd2728819))
  (model "${KICAD6_3DMODEL_DIR}/Package_BGA.3dshapes/BGA-672_27.0x27.0mm_Layout26x26_P1.0mm_Ball0.6mm_Pad0.5mm_NSMD.wrl"
    (offset (xyz 0 0 0))
    (scale (xyz 1 1 1))
    (rotate (xyz 0 0 0))
  )
)
