(footprint "BGA-676_27.0x27.0mm_Layout26x26_P1.0mm_Ball0.6mm_Pad0.5mm_NSMD" (version 20221018) (generator pcbnew)
  (layer "F.Cu")
  (descr "XILINX BGA-676, https://www.xilinx.com/support/documentation/package_specs/fg676.pdf")
  (tags "XILINX BGA-676 FG676/FGG676")
  (attr smd)
  (fp_text reference "REF**" (at 0 -14.5) (layer "F.SilkS")
      (effects (font (size 1 1) (thickness 0.15)))
    (tstamp 195dcedc-665c-4f50-85ea-aa3ec0e59efe)
  )
  (fp_text value "BGA-676_27.0x27.0mm_Layout26x26_P1.0mm_Ball0.6mm_Pad0.5mm_NSMD" (at 0 14.5) (layer "F.Fab")
      (effects (font (size 1 1) (thickness 0.15)))
    (tstamp 4d753415-22da-45e0-ae91-9b9a3ccbee39)
  )
  (fp_text user "${REFERENCE}" (at 0 0) (layer "F.Fab")
      (effects (font (size 1 1) (thickness 0.15)))
    (tstamp ff20d4e8-0f4d-47fa-97a0-835717d9aa9d)
  )
  (fp_line (start -13.65 -12.5) (end -13.65 -6.9)
    (stroke (width 0.15) (type solid)) (layer "F.SilkS") (tstamp 8f625c01-06cc-4f19-8429-28443e698d65))
  (fp_line (start -13.65 13.65) (end -13.65 6.9)
    (stroke (width 0.15) (type solid)) (layer "F.SilkS") (tstamp 61ce3edd-f793-48cc-b2e6-5d4601865250))
  (fp_line (start -12.5 -13.65) (end -13.65 -12.5)
    (stroke (width 0.15) (type solid)) (layer "F.SilkS") (tstamp 1852f894-c085-477d-8606-6fe87f33e511))
  (fp_line (start -6.9 -13.65) (end -12.5 -13.65)
    (stroke (width 0.15) (type solid)) (layer "F.SilkS") (tstamp a540a775-7ef0-4dec-91e9-2cefc0c9dbed))
  (fp_line (start -6.9 13.65) (end -13.65 13.65)
    (stroke (width 0.15) (type solid)) (layer "F.SilkS") (tstamp 5be811f9-6079-4c12-901e-520bc00211f9))
  (fp_line (start 6.9 -13.65) (end 13.65 -13.65)
    (stroke (width 0.15) (type solid)) (layer "F.SilkS") (tstamp 7562b7ce-001e-43b6-97d1-291c1ec42a8c))
  (fp_line (start 6.9 -13.65) (end 13.65 -13.65)
    (stroke (width 0.15) (type solid)) (layer "F.SilkS") (tstamp ccaf9b2b-10f3-45ad-8c66-45ee430a9ec7))
  (fp_line (start 6.9 -13.65) (end 13.65 -13.65)
    (stroke (width 0.15) (type solid)) (layer "F.SilkS") (tstamp f3ec0d38-24c8-4fa5-9fb8-644d81031be0))
  (fp_line (start 6.9 13.65) (end 13.65 13.65)
    (stroke (width 0.15) (type solid)) (layer "F.SilkS") (tstamp aa1a1e31-3e8a-4ac1-9f8d-48cfc8b5ba07))
  (fp_line (start 13.65 -13.65) (end 13.65 -6.9)
    (stroke (width 0.15) (type solid)) (layer "F.SilkS") (tstamp 297e5524-a723-4c02-a13d-d1231cf0673e))
  (fp_line (start 13.65 -13.65) (end 13.65 -6.9)
    (stroke (width 0.15) (type solid)) (layer "F.SilkS") (tstamp 31e3396a-0ce0-400b-9640-c600389d36a9))
  (fp_line (start 13.65 -13.65) (end 13.65 -6.9)
    (stroke (width 0.15) (type solid)) (layer "F.SilkS") (tstamp 9220242e-3043-4bbf-96fa-d77a43813fae))
  (fp_line (start 13.65 13.65) (end 13.65 6.9)
    (stroke (width 0.15) (type solid)) (layer "F.SilkS") (tstamp 6c35cecd-8884-4bd4-abdb-a2bcac9cbbec))
  (fp_line (start -14.5 -14.5) (end 14.5 -14.5)
    (stroke (width 0.05) (type solid)) (layer "F.CrtYd") (tstamp 8450a350-4b02-4b00-831e-a0b12cab308c))
  (fp_line (start -14.5 14.5) (end -14.5 -14.5)
    (stroke (width 0.05) (type solid)) (layer "F.CrtYd") (tstamp e12b60dc-ed2d-4f83-90cb-0a94270ecb1d))
  (fp_line (start 14.5 -14.5) (end 14.5 14.5)
    (stroke (width 0.05) (type solid)) (layer "F.CrtYd") (tstamp 6107616e-1557-47fe-8c65-923370809857))
  (fp_line (start 14.5 14.5) (end -14.5 14.5)
    (stroke (width 0.05) (type solid)) (layer "F.CrtYd") (tstamp c72725ac-d832-4d99-b671-45c39d1fc852))
  (fp_line (start -13.5 -12.5) (end -13.5 13.5)
    (stroke (width 0.1) (type solid)) (layer "F.Fab") (tstamp 0a2a0d9d-cbab-4916-983d-ef5115f15f65))
  (fp_line (start -13.5 13.5) (end 13.5 13.5)
    (stroke (width 0.1) (type solid)) (layer "F.Fab") (tstamp 14a9a58b-3478-433a-a799-d74fb4cc0f81))
  (fp_line (start -12.5 -13.5) (end -13.5 -12.5)
    (stroke (width 0.1) (type solid)) (layer "F.Fab") (tstamp 099a7d60-0717-49b5-bd2a-6cb9e3cf1a6c))
  (fp_line (start 13.5 -13.5) (end -12.5 -13.5)
    (stroke (width 0.1) (type solid)) (layer "F.Fab") (tstamp 2dfbcfbd-5335-4c1f-be90-585e8b101e0d))
  (fp_line (start 13.5 13.5) (end 13.5 -13.5)
    (stroke (width 0.1) (type solid)) (layer "F.Fab") (tstamp 3c800606-fe4c-46ab-9a45-8aac9a49ca04))
  (pad "A1" smd circle (at -12.5 -12.5) (size 0.5 0.5) (layers "F.Cu" "F.Paste" "F.Mask") (tstamp 1e993e1f-1ea5-4ccf-af29-9efcb1f3d1f9))
  (pad "A2" smd circle (at -11.5 -12.5) (size 0.5 0.5) (layers "F.Cu" "F.Paste" "F.Mask") (tstamp 8a058f47-f12d-4282-bfaa-3229bf4f7629))
  (pad "A3" smd circle (at -10.5 -12.5) (size 0.5 0.5) (layers "F.Cu" "F.Paste" "F.Mask") (tstamp 4af6ba30-71b0-4402-9d5e-991e41df2927))
  (pad "A4" smd circle (at -9.5 -12.5) (size 0.5 0.5) (layers "F.Cu" "F.Paste" "F.Mask") (tstamp 0d0c4e5b-f216-45c4-9b87-90ce88e607f0))
  (pad "A5" smd circle (at -8.5 -12.5) (size 0.5 0.5) (layers "F.Cu" "F.Paste" "F.Mask") (tstamp 6da74aad-fe98-48b8-ae76-323dc51be5a0))
  (pad "A6" smd circle (at -7.5 -12.5) (size 0.5 0.5) (layers "F.Cu" "F.Paste" "F.Mask") (tstamp 73d47416-4b0e-4584-b926-c2869831b776))
  (pad "A7" smd circle (at -6.5 -12.5) (size 0.5 0.5) (layers "F.Cu" "F.Paste" "F.Mask") (tstamp cbb016bb-cd8a-4549-81bb-0145de93ba60))
  (pad "A8" smd circle (at -5.5 -12.5) (size 0.5 0.5) (layers "F.Cu" "F.Paste" "F.Mask") (tstamp 56e5be73-e2b1-4bce-ace5-d4cf555b158b))
  (pad "A9" smd circle (at -4.5 -12.5) (size 0.5 0.5) (layers "F.Cu" "F.Paste" "F.Mask") (tstamp 396e4b57-f25b-4fb5-937c-3ea58668c5da))
  (pad "A10" smd circle (at -3.5 -12.5) (size 0.5 0.5) (layers "F.Cu" "F.Paste" "F.Mask") (tstamp 098cdaea-0e90-4eb5-913b-8dbdf0b19ee8))
  (pad "A11" smd circle (at -2.5 -12.5) (size 0.5 0.5) (layers "F.Cu" "F.Paste" "F.Mask") (tstamp ac13e099-7885-45da-9e0d-e5e4911aa72c))
  (pad "A12" smd circle (at -1.5 -12.5) (size 0.5 0.5) (layers "F.Cu" "F.Paste" "F.Mask") (tstamp 577dc89d-3a38-4ef6-8996-2dc70ecdcbb5))
  (pad "A13" smd circle (at -0.5 -12.5) (size 0.5 0.5) (layers "F.Cu" "F.Paste" "F.Mask") (tstamp 8d2d8b05-42fb-4483-8314-a3016a96db7a))
  (pad "A14" smd circle (at 0.5 -12.5) (size 0.5 0.5) (layers "F.Cu" "F.Paste" "F.Mask") (tstamp b9e11cf8-5d05-42fe-a005-adb7b5d9812c))
  (pad "A15" smd circle (at 1.5 -12.5) (size 0.5 0.5) (layers "F.Cu" "F.Paste" "F.Mask") (tstamp dcc0825b-d42a-451f-bb5e-bf5d40e20488))
  (pad "A16" smd circle (at 2.5 -12.5) (size 0.5 0.5) (layers "F.Cu" "F.Paste" "F.Mask") (tstamp 3e40d75b-1439-4670-887c-34159388a4ab))
  (pad "A17" smd circle (at 3.5 -12.5) (size 0.5 0.5) (layers "F.Cu" "F.Paste" "F.Mask") (tstamp 6e940ced-ad6e-4f02-9456-ae25391f7025))
  (pad "A18" smd circle (at 4.5 -12.5) (size 0.5 0.5) (layers "F.Cu" "F.Paste" "F.Mask") (tstamp b08e2229-6e71-49b7-bc35-e8a5f334ca53))
  (pad "A19" smd circle (at 5.5 -12.5) (size 0.5 0.5) (layers "F.Cu" "F.Paste" "F.Mask") (tstamp 7adbfe7e-9259-483c-bcf2-e7bf213fe0cc))
  (pad "A20" smd circle (at 6.5 -12.5) (size 0.5 0.5) (layers "F.Cu" "F.Paste" "F.Mask") (tstamp 4a3eafed-480b-4a07-ac37-8e6b0aa66b1d))
  (pad "A21" smd circle (at 7.5 -12.5) (size 0.5 0.5) (layers "F.Cu" "F.Paste" "F.Mask") (tstamp 4b0c7ef4-77ab-47c4-b38f-e1633f5f46ee))
  (pad "A22" smd circle (at 8.5 -12.5) (size 0.5 0.5) (layers "F.Cu" "F.Paste" "F.Mask") (tstamp e5bab7ed-fa18-4da1-9562-a07b785105a4))
  (pad "A23" smd circle (at 9.5 -12.5) (size 0.5 0.5) (layers "F.Cu" "F.Paste" "F.Mask") (tstamp 05a2af4e-3c43-4c7d-bd4c-71634bac541e))
  (pad "A24" smd circle (at 10.5 -12.5) (size 0.5 0.5) (layers "F.Cu" "F.Paste" "F.Mask") (tstamp 90816a62-7136-4f19-8177-51a9fb05cc4b))
  (pad "A25" smd circle (at 11.5 -12.5) (size 0.5 0.5) (layers "F.Cu" "F.Paste" "F.Mask") (tstamp bddf9b11-84a5-4314-b56b-c5c5332d3841))
  (pad "A26" smd circle (at 12.5 -12.5) (size 0.5 0.5) (layers "F.Cu" "F.Paste" "F.Mask") (tstamp 38168ea8-1961-4cd7-b68e-b539753b9a21))
  (pad "AA1" smd circle (at -12.5 7.5) (size 0.5 0.5) (layers "F.Cu" "F.Paste" "F.Mask") (tstamp 181518e5-0817-4f53-955f-2a8c9ffd198e))
  (pad "AA2" smd circle (at -11.5 7.5) (size 0.5 0.5) (layers "F.Cu" "F.Paste" "F.Mask") (tstamp e7409610-dabb-443c-88e4-02eec59a7546))
  (pad "AA3" smd circle (at -10.5 7.5) (size 0.5 0.5) (layers "F.Cu" "F.Paste" "F.Mask") (tstamp 6176f28e-2e4a-4b23-9864-b26c436d9810))
  (pad "AA4" smd circle (at -9.5 7.5) (size 0.5 0.5) (layers "F.Cu" "F.Paste" "F.Mask") (tstamp 1c060b25-fdeb-4206-a5c1-c471eef6b261))
  (pad "AA5" smd circle (at -8.5 7.5) (size 0.5 0.5) (layers "F.Cu" "F.Paste" "F.Mask") (tstamp 0ebe3734-4c6d-4614-924a-caf13f8142cd))
  (pad "AA6" smd circle (at -7.5 7.5) (size 0.5 0.5) (layers "F.Cu" "F.Paste" "F.Mask") (tstamp cebbf328-d94b-44d0-bf93-27e0ee2b211e))
  (pad "AA7" smd circle (at -6.5 7.5) (size 0.5 0.5) (layers "F.Cu" "F.Paste" "F.Mask") (tstamp 1d86315c-677f-4c17-9915-28e83439bc3d))
  (pad "AA8" smd circle (at -5.5 7.5) (size 0.5 0.5) (layers "F.Cu" "F.Paste" "F.Mask") (tstamp c496af83-4be6-4c14-9ad4-da565a84da5c))
  (pad "AA9" smd circle (at -4.5 7.5) (size 0.5 0.5) (layers "F.Cu" "F.Paste" "F.Mask") (tstamp 446439d6-e1a7-4f1b-95f7-ef894cb6aa14))
  (pad "AA10" smd circle (at -3.5 7.5) (size 0.5 0.5) (layers "F.Cu" "F.Paste" "F.Mask") (tstamp aa36d402-e690-4d7b-ad4a-810c10414b08))
  (pad "AA11" smd circle (at -2.5 7.5) (size 0.5 0.5) (layers "F.Cu" "F.Paste" "F.Mask") (tstamp f9a12b53-2b12-4a27-b9d6-7be6bad587ee))
  (pad "AA12" smd circle (at -1.5 7.5) (size 0.5 0.5) (layers "F.Cu" "F.Paste" "F.Mask") (tstamp 8ca43109-1c7a-47bc-9a7b-b8146a7c8322))
  (pad "AA13" smd circle (at -0.5 7.5) (size 0.5 0.5) (layers "F.Cu" "F.Paste" "F.Mask") (tstamp b823942f-5436-47bd-9188-544bc602379d))
  (pad "AA14" smd circle (at 0.5 7.5) (size 0.5 0.5) (layers "F.Cu" "F.Paste" "F.Mask") (tstamp 2747865e-1b43-4b29-a2f8-57d62e156198))
  (pad "AA15" smd circle (at 1.5 7.5) (size 0.5 0.5) (layers "F.Cu" "F.Paste" "F.Mask") (tstamp fa667273-9ff2-43af-b593-15661b594fcf))
  (pad "AA16" smd circle (at 2.5 7.5) (size 0.5 0.5) (layers "F.Cu" "F.Paste" "F.Mask") (tstamp 9e9e2f64-db07-4a31-ab3a-9de572857f11))
  (pad "AA17" smd circle (at 3.5 7.5) (size 0.5 0.5) (layers "F.Cu" "F.Paste" "F.Mask") (tstamp d1e64ad6-7166-4a82-a4a6-22bf5de7314d))
  (pad "AA18" smd circle (at 4.5 7.5) (size 0.5 0.5) (layers "F.Cu" "F.Paste" "F.Mask") (tstamp 9d43ea9a-c2d0-4a93-9e09-8c90fbfbd4c2))
  (pad "AA19" smd circle (at 5.5 7.5) (size 0.5 0.5) (layers "F.Cu" "F.Paste" "F.Mask") (tstamp 11fdc486-46a1-4bcb-8fe4-447365e16151))
  (pad "AA20" smd circle (at 6.5 7.5) (size 0.5 0.5) (layers "F.Cu" "F.Paste" "F.Mask") (tstamp 8b0da603-6d98-4bb1-810f-6e2622ce7aeb))
  (pad "AA21" smd circle (at 7.5 7.5) (size 0.5 0.5) (layers "F.Cu" "F.Paste" "F.Mask") (tstamp 508c0872-f82c-4267-88f0-129a315b4292))
  (pad "AA22" smd circle (at 8.5 7.5) (size 0.5 0.5) (layers "F.Cu" "F.Paste" "F.Mask") (tstamp 760571d6-d097-4fb2-8922-1bc002c1bc98))
  (pad "AA23" smd circle (at 9.5 7.5) (size 0.5 0.5) (layers "F.Cu" "F.Paste" "F.Mask") (tstamp 14e321df-8957-41b6-af32-cce328274473))
  (pad "AA24" smd circle (at 10.5 7.5) (size 0.5 0.5) (layers "F.Cu" "F.Paste" "F.Mask") (tstamp c6b64d85-3e0b-4876-acae-1a7cf9e28d95))
  (pad "AA25" smd circle (at 11.5 7.5) (size 0.5 0.5) (layers "F.Cu" "F.Paste" "F.Mask") (tstamp 4a1a0909-269f-4bd6-ac7d-d9f31d528f8b))
  (pad "AA26" smd circle (at 12.5 7.5) (size 0.5 0.5) (layers "F.Cu" "F.Paste" "F.Mask") (tstamp 9b3ef040-7229-41fa-9a7e-6c9376c16533))
  (pad "AB1" smd circle (at -12.5 8.5) (size 0.5 0.5) (layers "F.Cu" "F.Paste" "F.Mask") (tstamp 02f1b540-ffab-477b-849e-0e4ca408630d))
  (pad "AB2" smd circle (at -11.5 8.5) (size 0.5 0.5) (layers "F.Cu" "F.Paste" "F.Mask") (tstamp e1457cd5-a40c-4b23-8fae-060f4ef4b713))
  (pad "AB3" smd circle (at -10.5 8.5) (size 0.5 0.5) (layers "F.Cu" "F.Paste" "F.Mask") (tstamp 4413c2f8-c4a2-4b30-9f9c-150560e38097))
  (pad "AB4" smd circle (at -9.5 8.5) (size 0.5 0.5) (layers "F.Cu" "F.Paste" "F.Mask") (tstamp 9ba515b9-6813-4f2c-ba42-5dd19f0cf244))
  (pad "AB5" smd circle (at -8.5 8.5) (size 0.5 0.5) (layers "F.Cu" "F.Paste" "F.Mask") (tstamp 241cfad1-49ac-419c-8e01-d9a84bb58fe4))
  (pad "AB6" smd circle (at -7.5 8.5) (size 0.5 0.5) (layers "F.Cu" "F.Paste" "F.Mask") (tstamp 846ed722-8717-4814-8da7-c506e793fab7))
  (pad "AB7" smd circle (at -6.5 8.5) (size 0.5 0.5) (layers "F.Cu" "F.Paste" "F.Mask") (tstamp 2e7c4d5b-e977-4c39-b2ea-43411d028bb8))
  (pad "AB8" smd circle (at -5.5 8.5) (size 0.5 0.5) (layers "F.Cu" "F.Paste" "F.Mask") (tstamp ca60c502-d55f-4405-95ef-1661b3d4aa12))
  (pad "AB9" smd circle (at -4.5 8.5) (size 0.5 0.5) (layers "F.Cu" "F.Paste" "F.Mask") (tstamp 96e5865a-4c78-47c0-8267-5f04e220e9f0))
  (pad "AB10" smd circle (at -3.5 8.5) (size 0.5 0.5) (layers "F.Cu" "F.Paste" "F.Mask") (tstamp e46f56a5-6dcd-4b37-ae15-76ec8b1f60ca))
  (pad "AB11" smd circle (at -2.5 8.5) (size 0.5 0.5) (layers "F.Cu" "F.Paste" "F.Mask") (tstamp b59b8f41-2022-4992-a042-64ddc1f6091a))
  (pad "AB12" smd circle (at -1.5 8.5) (size 0.5 0.5) (layers "F.Cu" "F.Paste" "F.Mask") (tstamp cb5607cd-e580-42e2-bab2-9015450c0d48))
  (pad "AB13" smd circle (at -0.5 8.5) (size 0.5 0.5) (layers "F.Cu" "F.Paste" "F.Mask") (tstamp 0b28d18a-7aab-480c-8f9a-7ca76f9423a3))
  (pad "AB14" smd circle (at 0.5 8.5) (size 0.5 0.5) (layers "F.Cu" "F.Paste" "F.Mask") (tstamp 380314d4-3cdd-419b-b40a-03cb5f71d67f))
  (pad "AB15" smd circle (at 1.5 8.5) (size 0.5 0.5) (layers "F.Cu" "F.Paste" "F.Mask") (tstamp 4e36806b-84ea-41a3-b03e-6011fa242f02))
  (pad "AB16" smd circle (at 2.5 8.5) (size 0.5 0.5) (layers "F.Cu" "F.Paste" "F.Mask") (tstamp b29a2f85-8cd6-42cd-abcc-f92180c48af4))
  (pad "AB17" smd circle (at 3.5 8.5) (size 0.5 0.5) (layers "F.Cu" "F.Paste" "F.Mask") (tstamp 960ae752-a1ef-4eff-8c44-993df3fedbfd))
  (pad "AB18" smd circle (at 4.5 8.5) (size 0.5 0.5) (layers "F.Cu" "F.Paste" "F.Mask") (tstamp ed704b6a-a6e7-4a90-836b-ef8235335c84))
  (pad "AB19" smd circle (at 5.5 8.5) (size 0.5 0.5) (layers "F.Cu" "F.Paste" "F.Mask") (tstamp 794a3b36-8bc0-4cef-9ea4-f3b3050a16ee))
  (pad "AB20" smd circle (at 6.5 8.5) (size 0.5 0.5) (layers "F.Cu" "F.Paste" "F.Mask") (tstamp 8da2790a-c9e8-44ea-a728-6cdaa77cd069))
  (pad "AB21" smd circle (at 7.5 8.5) (size 0.5 0.5) (layers "F.Cu" "F.Paste" "F.Mask") (tstamp 73a87ef4-ed11-4c3a-9f29-485a1c5a24de))
  (pad "AB22" smd circle (at 8.5 8.5) (size 0.5 0.5) (layers "F.Cu" "F.Paste" "F.Mask") (tstamp 225e6c90-feff-479d-9e01-93394c9e34cf))
  (pad "AB23" smd circle (at 9.5 8.5) (size 0.5 0.5) (layers "F.Cu" "F.Paste" "F.Mask") (tstamp 9fced2b3-601f-403e-bbde-2f2334cf3b79))
  (pad "AB24" smd circle (at 10.5 8.5) (size 0.5 0.5) (layers "F.Cu" "F.Paste" "F.Mask") (tstamp bace14da-3843-4fbe-a073-32ca401c5ffd))
  (pad "AB25" smd circle (at 11.5 8.5) (size 0.5 0.5) (layers "F.Cu" "F.Paste" "F.Mask") (tstamp f25e6538-9dce-4f39-8313-2848f9e3bea3))
  (pad "AB26" smd circle (at 12.5 8.5) (size 0.5 0.5) (layers "F.Cu" "F.Paste" "F.Mask") (tstamp c09a5e53-f636-4aa2-b0a1-13cf295d64af))
  (pad "AC1" smd circle (at -12.5 9.5) (size 0.5 0.5) (layers "F.Cu" "F.Paste" "F.Mask") (tstamp dc2e5096-7345-4d23-b9ec-6730db5f9f26))
  (pad "AC2" smd circle (at -11.5 9.5) (size 0.5 0.5) (layers "F.Cu" "F.Paste" "F.Mask") (tstamp 07c2fa36-71ef-4c1b-9b04-9c9940677655))
  (pad "AC3" smd circle (at -10.5 9.5) (size 0.5 0.5) (layers "F.Cu" "F.Paste" "F.Mask") (tstamp e2340a95-6cad-4487-9717-6de3cfa0239e))
  (pad "AC4" smd circle (at -9.5 9.5) (size 0.5 0.5) (layers "F.Cu" "F.Paste" "F.Mask") (tstamp 1459d8b8-cf0f-4ab3-b2bb-d2626ac28081))
  (pad "AC5" smd circle (at -8.5 9.5) (size 0.5 0.5) (layers "F.Cu" "F.Paste" "F.Mask") (tstamp b1ad94f0-9e2a-40b1-9392-a8180d6f7f38))
  (pad "AC6" smd circle (at -7.5 9.5) (size 0.5 0.5) (layers "F.Cu" "F.Paste" "F.Mask") (tstamp 8754b72d-857d-4121-a15b-9d7508e12382))
  (pad "AC7" smd circle (at -6.5 9.5) (size 0.5 0.5) (layers "F.Cu" "F.Paste" "F.Mask") (tstamp 841da095-cd49-410d-864c-ac11825379b3))
  (pad "AC8" smd circle (at -5.5 9.5) (size 0.5 0.5) (layers "F.Cu" "F.Paste" "F.Mask") (tstamp ce7e5c9f-9f29-444c-9d12-1db263787be2))
  (pad "AC9" smd circle (at -4.5 9.5) (size 0.5 0.5) (layers "F.Cu" "F.Paste" "F.Mask") (tstamp 25f6047a-aca7-4728-a000-c7a53789946d))
  (pad "AC10" smd circle (at -3.5 9.5) (size 0.5 0.5) (layers "F.Cu" "F.Paste" "F.Mask") (tstamp 9e6ff316-1ac5-4e8f-9545-765da7620955))
  (pad "AC11" smd circle (at -2.5 9.5) (size 0.5 0.5) (layers "F.Cu" "F.Paste" "F.Mask") (tstamp d4c6a4d8-398a-4a97-adff-4cc1f17da2cf))
  (pad "AC12" smd circle (at -1.5 9.5) (size 0.5 0.5) (layers "F.Cu" "F.Paste" "F.Mask") (tstamp 17bdad96-0c97-44e2-a05c-0a0f931194bb))
  (pad "AC13" smd circle (at -0.5 9.5) (size 0.5 0.5) (layers "F.Cu" "F.Paste" "F.Mask") (tstamp 34133fd3-5974-45c0-a850-33cefc7c1551))
  (pad "AC14" smd circle (at 0.5 9.5) (size 0.5 0.5) (layers "F.Cu" "F.Paste" "F.Mask") (tstamp 995931a4-03fe-4d84-ae8d-8c70194977da))
  (pad "AC15" smd circle (at 1.5 9.5) (size 0.5 0.5) (layers "F.Cu" "F.Paste" "F.Mask") (tstamp bd44598b-231e-4785-bdd3-1c1732bc3c54))
  (pad "AC16" smd circle (at 2.5 9.5) (size 0.5 0.5) (layers "F.Cu" "F.Paste" "F.Mask") (tstamp 5177cc19-8541-4dc0-945e-f693d7f680c5))
  (pad "AC17" smd circle (at 3.5 9.5) (size 0.5 0.5) (layers "F.Cu" "F.Paste" "F.Mask") (tstamp 5c084e86-392e-4acc-a97f-5e9e88020421))
  (pad "AC18" smd circle (at 4.5 9.5) (size 0.5 0.5) (layers "F.Cu" "F.Paste" "F.Mask") (tstamp 2fddf0e9-0259-4c20-8491-1c98269ba6b7))
  (pad "AC19" smd circle (at 5.5 9.5) (size 0.5 0.5) (layers "F.Cu" "F.Paste" "F.Mask") (tstamp f7fb01a9-e707-47a6-a8ca-5cbb61454395))
  (pad "AC20" smd circle (at 6.5 9.5) (size 0.5 0.5) (layers "F.Cu" "F.Paste" "F.Mask") (tstamp 1b21ae80-0071-49c3-b1bf-429c450e9578))
  (pad "AC21" smd circle (at 7.5 9.5) (size 0.5 0.5) (layers "F.Cu" "F.Paste" "F.Mask") (tstamp ff70facb-bd40-45a5-be15-3e1c754887d4))
  (pad "AC22" smd circle (at 8.5 9.5) (size 0.5 0.5) (layers "F.Cu" "F.Paste" "F.Mask") (tstamp 6f111734-56af-4b1e-a3e0-db4d4daa47a6))
  (pad "AC23" smd circle (at 9.5 9.5) (size 0.5 0.5) (layers "F.Cu" "F.Paste" "F.Mask") (tstamp f11eedce-8b34-488e-b71c-082082da3557))
  (pad "AC24" smd circle (at 10.5 9.5) (size 0.5 0.5) (layers "F.Cu" "F.Paste" "F.Mask") (tstamp 2e2c837b-4b07-451a-9a4e-62bccb1fd486))
  (pad "AC25" smd circle (at 11.5 9.5) (size 0.5 0.5) (layers "F.Cu" "F.Paste" "F.Mask") (tstamp aa8205bd-a9e6-4811-ae96-76145001a0c3))
  (pad "AC26" smd circle (at 12.5 9.5) (size 0.5 0.5) (layers "F.Cu" "F.Paste" "F.Mask") (tstamp 7144fa53-f08e-45b5-b12a-6f2034b49658))
  (pad "AD1" smd circle (at -12.5 10.5) (size 0.5 0.5) (layers "F.Cu" "F.Paste" "F.Mask") (tstamp 8749a616-13e4-4ec7-91f2-bb2fa8becc92))
  (pad "AD2" smd circle (at -11.5 10.5) (size 0.5 0.5) (layers "F.Cu" "F.Paste" "F.Mask") (tstamp d53e3a35-73c9-4f67-8664-5e2ec1caecfb))
  (pad "AD3" smd circle (at -10.5 10.5) (size 0.5 0.5) (layers "F.Cu" "F.Paste" "F.Mask") (tstamp 6585fa52-aef8-44f3-9c53-94a067a44a35))
  (pad "AD4" smd circle (at -9.5 10.5) (size 0.5 0.5) (layers "F.Cu" "F.Paste" "F.Mask") (tstamp 1a9a430c-2220-46f4-8cc6-478bd66fce12))
  (pad "AD5" smd circle (at -8.5 10.5) (size 0.5 0.5) (layers "F.Cu" "F.Paste" "F.Mask") (tstamp 9f5f3c52-3651-4d37-b9fb-7ad588762a9a))
  (pad "AD6" smd circle (at -7.5 10.5) (size 0.5 0.5) (layers "F.Cu" "F.Paste" "F.Mask") (tstamp 2644e927-fbf9-4997-ad76-e0157827a220))
  (pad "AD7" smd circle (at -6.5 10.5) (size 0.5 0.5) (layers "F.Cu" "F.Paste" "F.Mask") (tstamp 8f1341d9-3fa3-440a-8174-c1f077072ad1))
  (pad "AD8" smd circle (at -5.5 10.5) (size 0.5 0.5) (layers "F.Cu" "F.Paste" "F.Mask") (tstamp af169228-23d7-4b4a-a9da-c63284e370d8))
  (pad "AD9" smd circle (at -4.5 10.5) (size 0.5 0.5) (layers "F.Cu" "F.Paste" "F.Mask") (tstamp fdf4e238-d06e-4679-8b14-a61a93acf911))
  (pad "AD10" smd circle (at -3.5 10.5) (size 0.5 0.5) (layers "F.Cu" "F.Paste" "F.Mask") (tstamp 99deab13-b8f6-4623-a459-ca87bf3310dc))
  (pad "AD11" smd circle (at -2.5 10.5) (size 0.5 0.5) (layers "F.Cu" "F.Paste" "F.Mask") (tstamp a921e905-c821-4a01-a5b3-a8927d3f382d))
  (pad "AD12" smd circle (at -1.5 10.5) (size 0.5 0.5) (layers "F.Cu" "F.Paste" "F.Mask") (tstamp 185768a6-52ef-4b83-ae87-4d280d706ee8))
  (pad "AD13" smd circle (at -0.5 10.5) (size 0.5 0.5) (layers "F.Cu" "F.Paste" "F.Mask") (tstamp 8ebd7e2d-16d1-49eb-b538-e6b507c01e5e))
  (pad "AD14" smd circle (at 0.5 10.5) (size 0.5 0.5) (layers "F.Cu" "F.Paste" "F.Mask") (tstamp 60d1a525-164f-4f19-b555-39afa3b9953f))
  (pad "AD15" smd circle (at 1.5 10.5) (size 0.5 0.5) (layers "F.Cu" "F.Paste" "F.Mask") (tstamp 6071119d-3219-40e6-8b81-94951cb0d974))
  (pad "AD16" smd circle (at 2.5 10.5) (size 0.5 0.5) (layers "F.Cu" "F.Paste" "F.Mask") (tstamp 2a00c6d9-53f2-4886-9577-ed06edab66a4))
  (pad "AD17" smd circle (at 3.5 10.5) (size 0.5 0.5) (layers "F.Cu" "F.Paste" "F.Mask") (tstamp bd099053-9261-4987-aa8e-f21e4f6fa724))
  (pad "AD18" smd circle (at 4.5 10.5) (size 0.5 0.5) (layers "F.Cu" "F.Paste" "F.Mask") (tstamp c66cbc8f-adab-4b81-86ff-4f17bb9023b2))
  (pad "AD19" smd circle (at 5.5 10.5) (size 0.5 0.5) (layers "F.Cu" "F.Paste" "F.Mask") (tstamp dc5b0247-f81e-490d-8f26-c0942fa4e296))
  (pad "AD20" smd circle (at 6.5 10.5) (size 0.5 0.5) (layers "F.Cu" "F.Paste" "F.Mask") (tstamp 2e6f0427-40ac-46f7-9ef8-884da707db31))
  (pad "AD21" smd circle (at 7.5 10.5) (size 0.5 0.5) (layers "F.Cu" "F.Paste" "F.Mask") (tstamp 8dff1a76-53f3-487a-84d6-a475df8814cc))
  (pad "AD22" smd circle (at 8.5 10.5) (size 0.5 0.5) (layers "F.Cu" "F.Paste" "F.Mask") (tstamp 40dd2e0a-af5d-4294-b65e-75ad4c88dde6))
  (pad "AD23" smd circle (at 9.5 10.5) (size 0.5 0.5) (layers "F.Cu" "F.Paste" "F.Mask") (tstamp 85bb375f-f495-492b-91f3-f1b5079160a8))
  (pad "AD24" smd circle (at 10.5 10.5) (size 0.5 0.5) (layers "F.Cu" "F.Paste" "F.Mask") (tstamp b6cdc4d6-377d-43c1-a304-c6eaf9aa6f0f))
  (pad "AD25" smd circle (at 11.5 10.5) (size 0.5 0.5) (layers "F.Cu" "F.Paste" "F.Mask") (tstamp d97ac1f4-c41a-4c67-a9b2-04f67a1ba85a))
  (pad "AD26" smd circle (at 12.5 10.5) (size 0.5 0.5) (layers "F.Cu" "F.Paste" "F.Mask") (tstamp d3be814c-a1e2-4601-91f9-6dfef78225a5))
  (pad "AE1" smd circle (at -12.5 11.5) (size 0.5 0.5) (layers "F.Cu" "F.Paste" "F.Mask") (tstamp 0d9d3cb7-074a-42ca-bcc2-5a269ddfc23d))
  (pad "AE2" smd circle (at -11.5 11.5) (size 0.5 0.5) (layers "F.Cu" "F.Paste" "F.Mask") (tstamp 7326451e-948e-4c27-bacc-a4431e8ec7ea))
  (pad "AE3" smd circle (at -10.5 11.5) (size 0.5 0.5) (layers "F.Cu" "F.Paste" "F.Mask") (tstamp bcc46f83-63c6-4421-bb4c-78ae462f2366))
  (pad "AE4" smd circle (at -9.5 11.5) (size 0.5 0.5) (layers "F.Cu" "F.Paste" "F.Mask") (tstamp d815b1b6-9f08-4eea-87a4-4bddc072c375))
  (pad "AE5" smd circle (at -8.5 11.5) (size 0.5 0.5) (layers "F.Cu" "F.Paste" "F.Mask") (tstamp fc9edaf7-3be2-4398-a539-f21a1636fa2a))
  (pad "AE6" smd circle (at -7.5 11.5) (size 0.5 0.5) (layers "F.Cu" "F.Paste" "F.Mask") (tstamp 4ccb0445-14ef-41dc-897b-807f273d1581))
  (pad "AE7" smd circle (at -6.5 11.5) (size 0.5 0.5) (layers "F.Cu" "F.Paste" "F.Mask") (tstamp 998636c7-c5c0-4311-9b78-7f32427f83be))
  (pad "AE8" smd circle (at -5.5 11.5) (size 0.5 0.5) (layers "F.Cu" "F.Paste" "F.Mask") (tstamp 4eba03a7-9ea5-4358-8d28-af4881040cc7))
  (pad "AE9" smd circle (at -4.5 11.5) (size 0.5 0.5) (layers "F.Cu" "F.Paste" "F.Mask") (tstamp 71a91fd6-5fa3-42c0-a95c-29db4f875afd))
  (pad "AE10" smd circle (at -3.5 11.5) (size 0.5 0.5) (layers "F.Cu" "F.Paste" "F.Mask") (tstamp 10b060c8-e2d9-42f1-b99b-b85ba2f35aa6))
  (pad "AE11" smd circle (at -2.5 11.5) (size 0.5 0.5) (layers "F.Cu" "F.Paste" "F.Mask") (tstamp f7021988-6fa4-4136-99ac-f25781a6db6d))
  (pad "AE12" smd circle (at -1.5 11.5) (size 0.5 0.5) (layers "F.Cu" "F.Paste" "F.Mask") (tstamp d60487f1-fca3-4f92-9531-ba6ca7d5e7a8))
  (pad "AE13" smd circle (at -0.5 11.5) (size 0.5 0.5) (layers "F.Cu" "F.Paste" "F.Mask") (tstamp 87dd6ede-1d63-41b4-aa6a-52dc4d828f3f))
  (pad "AE14" smd circle (at 0.5 11.5) (size 0.5 0.5) (layers "F.Cu" "F.Paste" "F.Mask") (tstamp 58452075-fade-4e64-b3db-bfe6dcc080b1))
  (pad "AE15" smd circle (at 1.5 11.5) (size 0.5 0.5) (layers "F.Cu" "F.Paste" "F.Mask") (tstamp 6b6a5d4e-d56a-4682-8b4c-2ba724a9a0a6))
  (pad "AE16" smd circle (at 2.5 11.5) (size 0.5 0.5) (layers "F.Cu" "F.Paste" "F.Mask") (tstamp 4cc9c10e-1070-4bca-941d-d6a1007d3d66))
  (pad "AE17" smd circle (at 3.5 11.5) (size 0.5 0.5) (layers "F.Cu" "F.Paste" "F.Mask") (tstamp 2eb1d5cb-e02f-4c97-bb51-c04fbb552450))
  (pad "AE18" smd circle (at 4.5 11.5) (size 0.5 0.5) (layers "F.Cu" "F.Paste" "F.Mask") (tstamp ce7a6490-361e-4338-8b0e-2b99127384e3))
  (pad "AE19" smd circle (at 5.5 11.5) (size 0.5 0.5) (layers "F.Cu" "F.Paste" "F.Mask") (tstamp 4c0b4ec6-2ae7-4b30-b2a7-3fe284a7e36b))
  (pad "AE20" smd circle (at 6.5 11.5) (size 0.5 0.5) (layers "F.Cu" "F.Paste" "F.Mask") (tstamp 3d526c15-cb15-4ccb-8014-430f8c20e158))
  (pad "AE21" smd circle (at 7.5 11.5) (size 0.5 0.5) (layers "F.Cu" "F.Paste" "F.Mask") (tstamp d608cac1-1951-44a5-b48f-9f5a623011f4))
  (pad "AE22" smd circle (at 8.5 11.5) (size 0.5 0.5) (layers "F.Cu" "F.Paste" "F.Mask") (tstamp f4aeae02-ccd9-4e62-9523-0e4b914e2d83))
  (pad "AE23" smd circle (at 9.5 11.5) (size 0.5 0.5) (layers "F.Cu" "F.Paste" "F.Mask") (tstamp 842e1250-f100-4a07-b0a2-bd14054f24ae))
  (pad "AE24" smd circle (at 10.5 11.5) (size 0.5 0.5) (layers "F.Cu" "F.Paste" "F.Mask") (tstamp 296bd8fc-df7e-4ef0-8771-eb00b9015580))
  (pad "AE25" smd circle (at 11.5 11.5) (size 0.5 0.5) (layers "F.Cu" "F.Paste" "F.Mask") (tstamp b7dd01a8-17d9-4025-8723-a68f2c54ce04))
  (pad "AE26" smd circle (at 12.5 11.5) (size 0.5 0.5) (layers "F.Cu" "F.Paste" "F.Mask") (tstamp d8cf5229-a2fe-4114-80fe-7f45ab368621))
  (pad "AF1" smd circle (at -12.5 12.5) (size 0.5 0.5) (layers "F.Cu" "F.Paste" "F.Mask") (tstamp b4a2d911-05f6-4d0c-af1c-3c4fde895bf4))
  (pad "AF2" smd circle (at -11.5 12.5) (size 0.5 0.5) (layers "F.Cu" "F.Paste" "F.Mask") (tstamp df9ffb98-e63b-45b4-be3a-a8f82a60d8c4))
  (pad "AF3" smd circle (at -10.5 12.5) (size 0.5 0.5) (layers "F.Cu" "F.Paste" "F.Mask") (tstamp 6e6bfac5-73a3-4fdb-b4ca-49c5db6958d6))
  (pad "AF4" smd circle (at -9.5 12.5) (size 0.5 0.5) (layers "F.Cu" "F.Paste" "F.Mask") (tstamp 77630083-850a-4d9e-a9af-dbcd6af436d0))
  (pad "AF5" smd circle (at -8.5 12.5) (size 0.5 0.5) (layers "F.Cu" "F.Paste" "F.Mask") (tstamp 306d2d33-7bbe-4002-aa6f-f9ea383ea8ad))
  (pad "AF6" smd circle (at -7.5 12.5) (size 0.5 0.5) (layers "F.Cu" "F.Paste" "F.Mask") (tstamp 55e71059-3c81-477e-b6e1-5fac1b3093d6))
  (pad "AF7" smd circle (at -6.5 12.5) (size 0.5 0.5) (layers "F.Cu" "F.Paste" "F.Mask") (tstamp 7d1b5341-4bfe-4948-b474-ffb2e96f3a82))
  (pad "AF8" smd circle (at -5.5 12.5) (size 0.5 0.5) (layers "F.Cu" "F.Paste" "F.Mask") (tstamp f2f92e56-2356-497e-928c-cf61a1e2aed7))
  (pad "AF9" smd circle (at -4.5 12.5) (size 0.5 0.5) (layers "F.Cu" "F.Paste" "F.Mask") (tstamp 952cd9b2-dd90-476d-b7f5-0c24b9878a03))
  (pad "AF10" smd circle (at -3.5 12.5) (size 0.5 0.5) (layers "F.Cu" "F.Paste" "F.Mask") (tstamp b5e39e0a-1fea-4714-bb2a-b7d5efd00838))
  (pad "AF11" smd circle (at -2.5 12.5) (size 0.5 0.5) (layers "F.Cu" "F.Paste" "F.Mask") (tstamp 0ec09c9e-abc6-49a4-83d6-32ec3df8f569))
  (pad "AF12" smd circle (at -1.5 12.5) (size 0.5 0.5) (layers "F.Cu" "F.Paste" "F.Mask") (tstamp 37b3a6a9-f259-4b20-a499-e75617cda141))
  (pad "AF13" smd circle (at -0.5 12.5) (size 0.5 0.5) (layers "F.Cu" "F.Paste" "F.Mask") (tstamp 2b0b1f3f-bfb6-4100-bc95-5196d54459ab))
  (pad "AF14" smd circle (at 0.5 12.5) (size 0.5 0.5) (layers "F.Cu" "F.Paste" "F.Mask") (tstamp 029994b6-fd4f-4099-8472-acf5a9a45890))
  (pad "AF15" smd circle (at 1.5 12.5) (size 0.5 0.5) (layers "F.Cu" "F.Paste" "F.Mask") (tstamp 7245f993-0b01-42b7-8be5-918b528bee08))
  (pad "AF16" smd circle (at 2.5 12.5) (size 0.5 0.5) (layers "F.Cu" "F.Paste" "F.Mask") (tstamp eafc6a0a-4027-4340-b18d-e174e366d1fc))
  (pad "AF17" smd circle (at 3.5 12.5) (size 0.5 0.5) (layers "F.Cu" "F.Paste" "F.Mask") (tstamp 60b9732f-2cb4-4fe4-a75f-1a048bebf858))
  (pad "AF18" smd circle (at 4.5 12.5) (size 0.5 0.5) (layers "F.Cu" "F.Paste" "F.Mask") (tstamp 652fedb1-383d-4e23-a011-c80f60db9ee9))
  (pad "AF19" smd circle (at 5.5 12.5) (size 0.5 0.5) (layers "F.Cu" "F.Paste" "F.Mask") (tstamp 506c5db1-7cbb-459f-898d-40ed990fa64f))
  (pad "AF20" smd circle (at 6.5 12.5) (size 0.5 0.5) (layers "F.Cu" "F.Paste" "F.Mask") (tstamp f0803925-ae89-463d-927f-2ab36e183f50))
  (pad "AF21" smd circle (at 7.5 12.5) (size 0.5 0.5) (layers "F.Cu" "F.Paste" "F.Mask") (tstamp 78adfdd5-bc77-4595-8c09-3356f437bf7b))
  (pad "AF22" smd circle (at 8.5 12.5) (size 0.5 0.5) (layers "F.Cu" "F.Paste" "F.Mask") (tstamp 4288289e-77ee-4643-8e16-656cb68bcc55))
  (pad "AF23" smd circle (at 9.5 12.5) (size 0.5 0.5) (layers "F.Cu" "F.Paste" "F.Mask") (tstamp fd440d1f-5b3c-4a61-b16d-2987a02fe447))
  (pad "AF24" smd circle (at 10.5 12.5) (size 0.5 0.5) (layers "F.Cu" "F.Paste" "F.Mask") (tstamp 580affb9-64f2-4ca3-a439-0d69d7ce154a))
  (pad "AF25" smd circle (at 11.5 12.5) (size 0.5 0.5) (layers "F.Cu" "F.Paste" "F.Mask") (tstamp 9861b213-a4b8-47e2-abe4-8e6072da021e))
  (pad "AF26" smd circle (at 12.5 12.5) (size 0.5 0.5) (layers "F.Cu" "F.Paste" "F.Mask") (tstamp 5949f331-4216-44fc-aa45-00f1926a3929))
  (pad "B1" smd circle (at -12.5 -11.5) (size 0.5 0.5) (layers "F.Cu" "F.Paste" "F.Mask") (tstamp 4818b3cf-3f2d-499a-a3d6-897cadd1923c))
  (pad "B2" smd circle (at -11.5 -11.5) (size 0.5 0.5) (layers "F.Cu" "F.Paste" "F.Mask") (tstamp 3baf8472-b670-4920-9284-ced5bfe76297))
  (pad "B3" smd circle (at -10.5 -11.5) (size 0.5 0.5) (layers "F.Cu" "F.Paste" "F.Mask") (tstamp 30432866-8687-4295-98ef-6c83a1b28052))
  (pad "B4" smd circle (at -9.5 -11.5) (size 0.5 0.5) (layers "F.Cu" "F.Paste" "F.Mask") (tstamp 39bf7407-a8b3-46c4-8099-79a15055f40f))
  (pad "B5" smd circle (at -8.5 -11.5) (size 0.5 0.5) (layers "F.Cu" "F.Paste" "F.Mask") (tstamp 4b8826e0-7222-4915-a0e4-4a0deaab9c3e))
  (pad "B6" smd circle (at -7.5 -11.5) (size 0.5 0.5) (layers "F.Cu" "F.Paste" "F.Mask") (tstamp 90fe82dc-a320-41d1-97dc-8f3f07b87047))
  (pad "B7" smd circle (at -6.5 -11.5) (size 0.5 0.5) (layers "F.Cu" "F.Paste" "F.Mask") (tstamp 37132fb3-6b3c-446f-b651-c4274e7bb8cd))
  (pad "B8" smd circle (at -5.5 -11.5) (size 0.5 0.5) (layers "F.Cu" "F.Paste" "F.Mask") (tstamp 235e8147-b459-4023-aa06-2ffd52eb3ae9))
  (pad "B9" smd circle (at -4.5 -11.5) (size 0.5 0.5) (layers "F.Cu" "F.Paste" "F.Mask") (tstamp dce89e82-9960-4906-ba60-cc1dd092d827))
  (pad "B10" smd circle (at -3.5 -11.5) (size 0.5 0.5) (layers "F.Cu" "F.Paste" "F.Mask") (tstamp 3b14e37a-b113-4a0c-88be-2dda31ed71d6))
  (pad "B11" smd circle (at -2.5 -11.5) (size 0.5 0.5) (layers "F.Cu" "F.Paste" "F.Mask") (tstamp 880da6c3-dc02-4c8e-b4c6-9bc12b43bae2))
  (pad "B12" smd circle (at -1.5 -11.5) (size 0.5 0.5) (layers "F.Cu" "F.Paste" "F.Mask") (tstamp 8aea7c33-c640-42e1-a7b9-62ac3c66f687))
  (pad "B13" smd circle (at -0.5 -11.5) (size 0.5 0.5) (layers "F.Cu" "F.Paste" "F.Mask") (tstamp 1f7fa2fb-70a5-48fe-a8a8-50981b6247fe))
  (pad "B14" smd circle (at 0.5 -11.5) (size 0.5 0.5) (layers "F.Cu" "F.Paste" "F.Mask") (tstamp 0b2fd594-fcf2-4eb3-b551-8ac88d740a22))
  (pad "B15" smd circle (at 1.5 -11.5) (size 0.5 0.5) (layers "F.Cu" "F.Paste" "F.Mask") (tstamp 125ca18b-3fe8-4345-a11d-139b918a86a2))
  (pad "B16" smd circle (at 2.5 -11.5) (size 0.5 0.5) (layers "F.Cu" "F.Paste" "F.Mask") (tstamp d5a727f9-f29e-4f65-a287-362afbbb3b78))
  (pad "B17" smd circle (at 3.5 -11.5) (size 0.5 0.5) (layers "F.Cu" "F.Paste" "F.Mask") (tstamp 7ba39b70-eba0-4aac-8ce8-0ef8e16e9b40))
  (pad "B18" smd circle (at 4.5 -11.5) (size 0.5 0.5) (layers "F.Cu" "F.Paste" "F.Mask") (tstamp 3a3ca47e-71b4-405a-ac0b-e01006e3187c))
  (pad "B19" smd circle (at 5.5 -11.5) (size 0.5 0.5) (layers "F.Cu" "F.Paste" "F.Mask") (tstamp 85f2ac8e-abdd-4661-8ef1-d6b76b4b7325))
  (pad "B20" smd circle (at 6.5 -11.5) (size 0.5 0.5) (layers "F.Cu" "F.Paste" "F.Mask") (tstamp 518dc12f-0e19-4ed6-bc1f-ca28fd64767f))
  (pad "B21" smd circle (at 7.5 -11.5) (size 0.5 0.5) (layers "F.Cu" "F.Paste" "F.Mask") (tstamp 0b277198-b24f-4e70-87c0-41af30f57aa3))
  (pad "B22" smd circle (at 8.5 -11.5) (size 0.5 0.5) (layers "F.Cu" "F.Paste" "F.Mask") (tstamp 52424ecf-6736-4b23-bdf9-db5b63563c17))
  (pad "B23" smd circle (at 9.5 -11.5) (size 0.5 0.5) (layers "F.Cu" "F.Paste" "F.Mask") (tstamp f98d3017-c326-43c6-a772-b4679edeaad6))
  (pad "B24" smd circle (at 10.5 -11.5) (size 0.5 0.5) (layers "F.Cu" "F.Paste" "F.Mask") (tstamp 29f05b32-e985-4ec1-94f5-268dd7ad32e3))
  (pad "B25" smd circle (at 11.5 -11.5) (size 0.5 0.5) (layers "F.Cu" "F.Paste" "F.Mask") (tstamp 3092dd96-f1b1-4681-8923-3bb0458567f7))
  (pad "B26" smd circle (at 12.5 -11.5) (size 0.5 0.5) (layers "F.Cu" "F.Paste" "F.Mask") (tstamp e736a0eb-b785-433f-98aa-1c40f166614b))
  (pad "C1" smd circle (at -12.5 -10.5) (size 0.5 0.5) (layers "F.Cu" "F.Paste" "F.Mask") (tstamp abacf991-95ca-4e85-aeed-a649e15f568a))
  (pad "C2" smd circle (at -11.5 -10.5) (size 0.5 0.5) (layers "F.Cu" "F.Paste" "F.Mask") (tstamp b746f664-10cd-49b5-9471-22ae4bb9fe77))
  (pad "C3" smd circle (at -10.5 -10.5) (size 0.5 0.5) (layers "F.Cu" "F.Paste" "F.Mask") (tstamp 6b6379d0-aa1c-4dda-9969-4f21e6c8924f))
  (pad "C4" smd circle (at -9.5 -10.5) (size 0.5 0.5) (layers "F.Cu" "F.Paste" "F.Mask") (tstamp 1ae9b009-d7f8-4039-9971-d346849212b1))
  (pad "C5" smd circle (at -8.5 -10.5) (size 0.5 0.5) (layers "F.Cu" "F.Paste" "F.Mask") (tstamp 6c888dbd-6e1a-445f-a79c-50fb861da1ff))
  (pad "C6" smd circle (at -7.5 -10.5) (size 0.5 0.5) (layers "F.Cu" "F.Paste" "F.Mask") (tstamp 242aface-032e-4eee-839b-5486710de806))
  (pad "C7" smd circle (at -6.5 -10.5) (size 0.5 0.5) (layers "F.Cu" "F.Paste" "F.Mask") (tstamp 1920e6d5-a3fc-4759-8305-72356bdfd082))
  (pad "C8" smd circle (at -5.5 -10.5) (size 0.5 0.5) (layers "F.Cu" "F.Paste" "F.Mask") (tstamp 8e45de92-581b-43e0-8805-40aa18321bcc))
  (pad "C9" smd circle (at -4.5 -10.5) (size 0.5 0.5) (layers "F.Cu" "F.Paste" "F.Mask") (tstamp 68547cf0-3941-401d-9bf5-0e8a2a10b3d9))
  (pad "C10" smd circle (at -3.5 -10.5) (size 0.5 0.5) (layers "F.Cu" "F.Paste" "F.Mask") (tstamp 2e2b9ab5-ef1a-46ba-917b-319e6884a65e))
  (pad "C11" smd circle (at -2.5 -10.5) (size 0.5 0.5) (layers "F.Cu" "F.Paste" "F.Mask") (tstamp 4d864707-0543-4535-9565-e9e05f82fdef))
  (pad "C12" smd circle (at -1.5 -10.5) (size 0.5 0.5) (layers "F.Cu" "F.Paste" "F.Mask") (tstamp be0c946f-b148-4349-b1a9-e75c653c0d34))
  (pad "C13" smd circle (at -0.5 -10.5) (size 0.5 0.5) (layers "F.Cu" "F.Paste" "F.Mask") (tstamp f6daf5e4-5c5c-44d7-9d25-272db810a9fe))
  (pad "C14" smd circle (at 0.5 -10.5) (size 0.5 0.5) (layers "F.Cu" "F.Paste" "F.Mask") (tstamp aa3a643f-82f9-46b5-80eb-f06aff9e20f3))
  (pad "C15" smd circle (at 1.5 -10.5) (size 0.5 0.5) (layers "F.Cu" "F.Paste" "F.Mask") (tstamp 233ef8ee-8c84-469b-a8d8-764018c07f85))
  (pad "C16" smd circle (at 2.5 -10.5) (size 0.5 0.5) (layers "F.Cu" "F.Paste" "F.Mask") (tstamp 51dc8bf0-dc86-4922-91cd-c50e9e5a5831))
  (pad "C17" smd circle (at 3.5 -10.5) (size 0.5 0.5) (layers "F.Cu" "F.Paste" "F.Mask") (tstamp bc3b6062-837d-4947-a6c1-e6585e34641d))
  (pad "C18" smd circle (at 4.5 -10.5) (size 0.5 0.5) (layers "F.Cu" "F.Paste" "F.Mask") (tstamp 869bd318-9b50-45ec-be5f-9ecdc959bf4c))
  (pad "C19" smd circle (at 5.5 -10.5) (size 0.5 0.5) (layers "F.Cu" "F.Paste" "F.Mask") (tstamp 9c5083ba-56f7-49ce-8e97-eb4c7864eabf))
  (pad "C20" smd circle (at 6.5 -10.5) (size 0.5 0.5) (layers "F.Cu" "F.Paste" "F.Mask") (tstamp e706dad0-4947-40ba-81e5-d5ab3177c4a3))
  (pad "C21" smd circle (at 7.5 -10.5) (size 0.5 0.5) (layers "F.Cu" "F.Paste" "F.Mask") (tstamp c4c05c99-779b-4323-8f08-7dd7fcce39ab))
  (pad "C22" smd circle (at 8.5 -10.5) (size 0.5 0.5) (layers "F.Cu" "F.Paste" "F.Mask") (tstamp 4cc3df05-8bd9-40d5-a89f-6e1764fbcab8))
  (pad "C23" smd circle (at 9.5 -10.5) (size 0.5 0.5) (layers "F.Cu" "F.Paste" "F.Mask") (tstamp 811f6905-b419-4967-9e42-30c44dd8df1a))
  (pad "C24" smd circle (at 10.5 -10.5) (size 0.5 0.5) (layers "F.Cu" "F.Paste" "F.Mask") (tstamp 2ade8fcf-58db-450a-811f-a0e20d45e7e6))
  (pad "C25" smd circle (at 11.5 -10.5) (size 0.5 0.5) (layers "F.Cu" "F.Paste" "F.Mask") (tstamp 04a8872f-d499-450d-a63d-5570f6978702))
  (pad "C26" smd circle (at 12.5 -10.5) (size 0.5 0.5) (layers "F.Cu" "F.Paste" "F.Mask") (tstamp b2243429-3ca9-4be2-bb3e-373dbad2d8f9))
  (pad "D1" smd circle (at -12.5 -9.5) (size 0.5 0.5) (layers "F.Cu" "F.Paste" "F.Mask") (tstamp 54bc0960-0187-4e39-adc0-d0e45b331d49))
  (pad "D2" smd circle (at -11.5 -9.5) (size 0.5 0.5) (layers "F.Cu" "F.Paste" "F.Mask") (tstamp 0441b354-975d-4d09-b9ad-5ed6c2cd47c7))
  (pad "D3" smd circle (at -10.5 -9.5) (size 0.5 0.5) (layers "F.Cu" "F.Paste" "F.Mask") (tstamp 586272c9-0fad-4a07-86af-0b8b4368dfe8))
  (pad "D4" smd circle (at -9.5 -9.5) (size 0.5 0.5) (layers "F.Cu" "F.Paste" "F.Mask") (tstamp 643f7313-e130-4bc2-a062-2fc77a4158fd))
  (pad "D5" smd circle (at -8.5 -9.5) (size 0.5 0.5) (layers "F.Cu" "F.Paste" "F.Mask") (tstamp d6196512-881d-4c2e-8162-2eee52da7977))
  (pad "D6" smd circle (at -7.5 -9.5) (size 0.5 0.5) (layers "F.Cu" "F.Paste" "F.Mask") (tstamp b0c9410a-4111-4b51-a44a-51f85f6d369a))
  (pad "D7" smd circle (at -6.5 -9.5) (size 0.5 0.5) (layers "F.Cu" "F.Paste" "F.Mask") (tstamp e4110ecb-5652-4a71-ae84-40f958f94603))
  (pad "D8" smd circle (at -5.5 -9.5) (size 0.5 0.5) (layers "F.Cu" "F.Paste" "F.Mask") (tstamp 94c0611c-a340-46aa-a22d-287b959b87eb))
  (pad "D9" smd circle (at -4.5 -9.5) (size 0.5 0.5) (layers "F.Cu" "F.Paste" "F.Mask") (tstamp 1d6ef1b5-ec0e-49e3-8f6d-78468823445c))
  (pad "D10" smd circle (at -3.5 -9.5) (size 0.5 0.5) (layers "F.Cu" "F.Paste" "F.Mask") (tstamp af881986-f78a-483f-bb54-3ccae747b9e1))
  (pad "D11" smd circle (at -2.5 -9.5) (size 0.5 0.5) (layers "F.Cu" "F.Paste" "F.Mask") (tstamp e0693ab3-57be-45f4-a8b4-b10fc4bd6d59))
  (pad "D12" smd circle (at -1.5 -9.5) (size 0.5 0.5) (layers "F.Cu" "F.Paste" "F.Mask") (tstamp 8a7bfa1e-70f2-4d39-9bde-afdec1a55916))
  (pad "D13" smd circle (at -0.5 -9.5) (size 0.5 0.5) (layers "F.Cu" "F.Paste" "F.Mask") (tstamp c003be60-d7f2-4fbd-a8c1-639c87eef2bb))
  (pad "D14" smd circle (at 0.5 -9.5) (size 0.5 0.5) (layers "F.Cu" "F.Paste" "F.Mask") (tstamp a6410e06-6ad9-4ec5-a21e-bdb995ac5ff8))
  (pad "D15" smd circle (at 1.5 -9.5) (size 0.5 0.5) (layers "F.Cu" "F.Paste" "F.Mask") (tstamp 982f4bed-7dcb-4fba-8408-7ef09bc8d28d))
  (pad "D16" smd circle (at 2.5 -9.5) (size 0.5 0.5) (layers "F.Cu" "F.Paste" "F.Mask") (tstamp 45a81677-b0b6-46c0-9eb0-f65d4e229bb7))
  (pad "D17" smd circle (at 3.5 -9.5) (size 0.5 0.5) (layers "F.Cu" "F.Paste" "F.Mask") (tstamp 27bd7bda-efa5-41a1-ad61-7974c57fb7c6))
  (pad "D18" smd circle (at 4.5 -9.5) (size 0.5 0.5) (layers "F.Cu" "F.Paste" "F.Mask") (tstamp 76885e43-a719-4d04-994b-f9b9f189a3de))
  (pad "D19" smd circle (at 5.5 -9.5) (size 0.5 0.5) (layers "F.Cu" "F.Paste" "F.Mask") (tstamp f51ed91f-63d6-4bf3-b824-28726cedaa51))
  (pad "D20" smd circle (at 6.5 -9.5) (size 0.5 0.5) (layers "F.Cu" "F.Paste" "F.Mask") (tstamp 50b76ac1-0234-4829-8583-dbad0cd0c215))
  (pad "D21" smd circle (at 7.5 -9.5) (size 0.5 0.5) (layers "F.Cu" "F.Paste" "F.Mask") (tstamp 55455f39-bcf5-4719-ab52-bed7704f9f4e))
  (pad "D22" smd circle (at 8.5 -9.5) (size 0.5 0.5) (layers "F.Cu" "F.Paste" "F.Mask") (tstamp fe67c66e-c18b-44ff-8f63-9cc4cda1c331))
  (pad "D23" smd circle (at 9.5 -9.5) (size 0.5 0.5) (layers "F.Cu" "F.Paste" "F.Mask") (tstamp 2d8a7bb8-0b9e-49ec-a45b-b71e56bdd898))
  (pad "D24" smd circle (at 10.5 -9.5) (size 0.5 0.5) (layers "F.Cu" "F.Paste" "F.Mask") (tstamp 290b1319-a84b-4266-b5e0-fe1ba880365a))
  (pad "D25" smd circle (at 11.5 -9.5) (size 0.5 0.5) (layers "F.Cu" "F.Paste" "F.Mask") (tstamp 18385d01-54f7-4b4d-b79c-9c688c170728))
  (pad "D26" smd circle (at 12.5 -9.5) (size 0.5 0.5) (layers "F.Cu" "F.Paste" "F.Mask") (tstamp dce9f2ee-6381-416f-80ba-eff1a04a6fce))
  (pad "E1" smd circle (at -12.5 -8.5) (size 0.5 0.5) (layers "F.Cu" "F.Paste" "F.Mask") (tstamp 8540e339-c5df-4b2b-9441-76f8e7fd2603))
  (pad "E2" smd circle (at -11.5 -8.5) (size 0.5 0.5) (layers "F.Cu" "F.Paste" "F.Mask") (tstamp 13e57c32-48b7-4648-ac08-ceeb6894e74f))
  (pad "E3" smd circle (at -10.5 -8.5) (size 0.5 0.5) (layers "F.Cu" "F.Paste" "F.Mask") (tstamp 025306cc-de8a-4c47-97a9-353726ccee78))
  (pad "E4" smd circle (at -9.5 -8.5) (size 0.5 0.5) (layers "F.Cu" "F.Paste" "F.Mask") (tstamp bc6df093-a01c-48bb-bc39-c9129235bc45))
  (pad "E5" smd circle (at -8.5 -8.5) (size 0.5 0.5) (layers "F.Cu" "F.Paste" "F.Mask") (tstamp 533137fc-4d11-4c5f-a0aa-fd4cb6b3c53a))
  (pad "E6" smd circle (at -7.5 -8.5) (size 0.5 0.5) (layers "F.Cu" "F.Paste" "F.Mask") (tstamp 340071c3-b4f4-46d0-8c25-cc2a8ec2d2ba))
  (pad "E7" smd circle (at -6.5 -8.5) (size 0.5 0.5) (layers "F.Cu" "F.Paste" "F.Mask") (tstamp dea0342e-6dd3-4a82-8b36-c952a04ab783))
  (pad "E8" smd circle (at -5.5 -8.5) (size 0.5 0.5) (layers "F.Cu" "F.Paste" "F.Mask") (tstamp 9d6e2cbf-ab68-4305-8373-40d3c5cb4cb5))
  (pad "E9" smd circle (at -4.5 -8.5) (size 0.5 0.5) (layers "F.Cu" "F.Paste" "F.Mask") (tstamp de88bffe-e631-49f5-a372-49ec3526c80e))
  (pad "E10" smd circle (at -3.5 -8.5) (size 0.5 0.5) (layers "F.Cu" "F.Paste" "F.Mask") (tstamp e41bffb9-d885-404b-ab6d-c9b6f2564dbb))
  (pad "E11" smd circle (at -2.5 -8.5) (size 0.5 0.5) (layers "F.Cu" "F.Paste" "F.Mask") (tstamp 35a1a97c-13eb-410e-888e-20ce803cbcc9))
  (pad "E12" smd circle (at -1.5 -8.5) (size 0.5 0.5) (layers "F.Cu" "F.Paste" "F.Mask") (tstamp 22ef2106-684c-4a3c-81d9-1d92a288576a))
  (pad "E13" smd circle (at -0.5 -8.5) (size 0.5 0.5) (layers "F.Cu" "F.Paste" "F.Mask") (tstamp f238319e-7bbb-4767-9d60-58e8745831a9))
  (pad "E14" smd circle (at 0.5 -8.5) (size 0.5 0.5) (layers "F.Cu" "F.Paste" "F.Mask") (tstamp 810a0614-534d-4149-8ebf-162e91536f30))
  (pad "E15" smd circle (at 1.5 -8.5) (size 0.5 0.5) (layers "F.Cu" "F.Paste" "F.Mask") (tstamp 8de47c48-5873-451f-b95e-3316e2f40313))
  (pad "E16" smd circle (at 2.5 -8.5) (size 0.5 0.5) (layers "F.Cu" "F.Paste" "F.Mask") (tstamp f57b076a-0a24-4900-800f-6a8256e10586))
  (pad "E17" smd circle (at 3.5 -8.5) (size 0.5 0.5) (layers "F.Cu" "F.Paste" "F.Mask") (tstamp e0bc3b83-c496-490b-9f4f-7a13b6b57769))
  (pad "E18" smd circle (at 4.5 -8.5) (size 0.5 0.5) (layers "F.Cu" "F.Paste" "F.Mask") (tstamp 0b597713-7b51-4c66-bc46-38ae38c19a9c))
  (pad "E19" smd circle (at 5.5 -8.5) (size 0.5 0.5) (layers "F.Cu" "F.Paste" "F.Mask") (tstamp 4bc8483b-e3a9-4f50-9ec1-55b79f4cef0e))
  (pad "E20" smd circle (at 6.5 -8.5) (size 0.5 0.5) (layers "F.Cu" "F.Paste" "F.Mask") (tstamp 3981835c-5027-418d-97c4-ba8f15203998))
  (pad "E21" smd circle (at 7.5 -8.5) (size 0.5 0.5) (layers "F.Cu" "F.Paste" "F.Mask") (tstamp 76409a4f-5fff-4eb7-ad3f-efb834af8fb0))
  (pad "E22" smd circle (at 8.5 -8.5) (size 0.5 0.5) (layers "F.Cu" "F.Paste" "F.Mask") (tstamp f92ba891-b8f1-4350-a7f8-f14737594f19))
  (pad "E23" smd circle (at 9.5 -8.5) (size 0.5 0.5) (layers "F.Cu" "F.Paste" "F.Mask") (tstamp 546353b8-d1d8-422f-8592-4647722a747a))
  (pad "E24" smd circle (at 10.5 -8.5) (size 0.5 0.5) (layers "F.Cu" "F.Paste" "F.Mask") (tstamp 27830747-494d-412e-9575-07a8a40ea281))
  (pad "E25" smd circle (at 11.5 -8.5) (size 0.5 0.5) (layers "F.Cu" "F.Paste" "F.Mask") (tstamp e276ea9e-d7f2-4566-9f6c-207260b135db))
  (pad "E26" smd circle (at 12.5 -8.5) (size 0.5 0.5) (layers "F.Cu" "F.Paste" "F.Mask") (tstamp 9d584c8b-7d78-482f-9150-3370fd73026f))
  (pad "F1" smd circle (at -12.5 -7.5) (size 0.5 0.5) (layers "F.Cu" "F.Paste" "F.Mask") (tstamp 068a8dd1-e2ca-4595-95a4-e33d76b823e6))
  (pad "F2" smd circle (at -11.5 -7.5) (size 0.5 0.5) (layers "F.Cu" "F.Paste" "F.Mask") (tstamp 5d4afffc-6832-4d29-91d5-dc3bad6e5100))
  (pad "F3" smd circle (at -10.5 -7.5) (size 0.5 0.5) (layers "F.Cu" "F.Paste" "F.Mask") (tstamp c3684159-ee9e-4a07-b72f-df17801703e4))
  (pad "F4" smd circle (at -9.5 -7.5) (size 0.5 0.5) (layers "F.Cu" "F.Paste" "F.Mask") (tstamp b1ce4cd8-0657-4f95-a8a0-bbbacca33bd0))
  (pad "F5" smd circle (at -8.5 -7.5) (size 0.5 0.5) (layers "F.Cu" "F.Paste" "F.Mask") (tstamp bfe8da08-8956-42cb-9644-98e3e3b5bd0d))
  (pad "F6" smd circle (at -7.5 -7.5) (size 0.5 0.5) (layers "F.Cu" "F.Paste" "F.Mask") (tstamp 99d2224c-4d7a-4d4a-bc2e-52405ec336c1))
  (pad "F7" smd circle (at -6.5 -7.5) (size 0.5 0.5) (layers "F.Cu" "F.Paste" "F.Mask") (tstamp d8264d88-26e6-480d-a56e-bed48e83b067))
  (pad "F8" smd circle (at -5.5 -7.5) (size 0.5 0.5) (layers "F.Cu" "F.Paste" "F.Mask") (tstamp 847e23f5-4d1c-4ffd-83ac-a9ee3a57f889))
  (pad "F9" smd circle (at -4.5 -7.5) (size 0.5 0.5) (layers "F.Cu" "F.Paste" "F.Mask") (tstamp 53bd6eb9-bae5-4bbe-b03e-010b17198eb0))
  (pad "F10" smd circle (at -3.5 -7.5) (size 0.5 0.5) (layers "F.Cu" "F.Paste" "F.Mask") (tstamp 2dddfa29-8e11-4285-a90f-4761e1e03910))
  (pad "F11" smd circle (at -2.5 -7.5) (size 0.5 0.5) (layers "F.Cu" "F.Paste" "F.Mask") (tstamp 78bf587f-13af-4b77-9d6f-957a35f82f3a))
  (pad "F12" smd circle (at -1.5 -7.5) (size 0.5 0.5) (layers "F.Cu" "F.Paste" "F.Mask") (tstamp f0146b91-2d23-4e81-8860-7e8fef2614c3))
  (pad "F13" smd circle (at -0.5 -7.5) (size 0.5 0.5) (layers "F.Cu" "F.Paste" "F.Mask") (tstamp 08486b04-5671-4063-a09b-8228139a9c00))
  (pad "F14" smd circle (at 0.5 -7.5) (size 0.5 0.5) (layers "F.Cu" "F.Paste" "F.Mask") (tstamp 413752ca-68db-4e29-b955-b92f6a207dbd))
  (pad "F15" smd circle (at 1.5 -7.5) (size 0.5 0.5) (layers "F.Cu" "F.Paste" "F.Mask") (tstamp 330913de-74b0-4d5b-80ed-19cb521c7ea2))
  (pad "F16" smd circle (at 2.5 -7.5) (size 0.5 0.5) (layers "F.Cu" "F.Paste" "F.Mask") (tstamp 6519f73d-3be6-42a5-9321-c461d7d410c3))
  (pad "F17" smd circle (at 3.5 -7.5) (size 0.5 0.5) (layers "F.Cu" "F.Paste" "F.Mask") (tstamp 91379e1f-f28a-49de-87db-4163cd830650))
  (pad "F18" smd circle (at 4.5 -7.5) (size 0.5 0.5) (layers "F.Cu" "F.Paste" "F.Mask") (tstamp 706ba859-dddd-4915-b492-6ece039f95a1))
  (pad "F19" smd circle (at 5.5 -7.5) (size 0.5 0.5) (layers "F.Cu" "F.Paste" "F.Mask") (tstamp 32f3d270-4c71-4fdb-9785-861b8455f8ae))
  (pad "F20" smd circle (at 6.5 -7.5) (size 0.5 0.5) (layers "F.Cu" "F.Paste" "F.Mask") (tstamp a36133c1-3351-4ccb-ad2f-fcc1b820ceae))
  (pad "F21" smd circle (at 7.5 -7.5) (size 0.5 0.5) (layers "F.Cu" "F.Paste" "F.Mask") (tstamp bb8a0a0e-8c81-4fdd-8eca-e163e4bb33d5))
  (pad "F22" smd circle (at 8.5 -7.5) (size 0.5 0.5) (layers "F.Cu" "F.Paste" "F.Mask") (tstamp 6e328caa-5770-4627-9405-109c3d6816d1))
  (pad "F23" smd circle (at 9.5 -7.5) (size 0.5 0.5) (layers "F.Cu" "F.Paste" "F.Mask") (tstamp 0623c1df-c9c3-43d6-93aa-4b863c48e0d5))
  (pad "F24" smd circle (at 10.5 -7.5) (size 0.5 0.5) (layers "F.Cu" "F.Paste" "F.Mask") (tstamp 00da6a3c-f1b1-4946-a3de-a6911f6d4d3e))
  (pad "F25" smd circle (at 11.5 -7.5) (size 0.5 0.5) (layers "F.Cu" "F.Paste" "F.Mask") (tstamp 8949b19a-6f6a-47cb-9e99-76053f4922dd))
  (pad "F26" smd circle (at 12.5 -7.5) (size 0.5 0.5) (layers "F.Cu" "F.Paste" "F.Mask") (tstamp 2062304b-84d7-46d1-bf93-eed1fb8f7ace))
  (pad "G1" smd circle (at -12.5 -6.5) (size 0.5 0.5) (layers "F.Cu" "F.Paste" "F.Mask") (tstamp 075f1cad-f4c7-4888-b63b-1e6e0174af91))
  (pad "G2" smd circle (at -11.5 -6.5) (size 0.5 0.5) (layers "F.Cu" "F.Paste" "F.Mask") (tstamp 73f5267c-36d1-4f1a-b981-ee0d5d54774a))
  (pad "G3" smd circle (at -10.5 -6.5) (size 0.5 0.5) (layers "F.Cu" "F.Paste" "F.Mask") (tstamp 2ca4b968-cc63-47ae-912c-fe95e07704a5))
  (pad "G4" smd circle (at -9.5 -6.5) (size 0.5 0.5) (layers "F.Cu" "F.Paste" "F.Mask") (tstamp b137eaab-d243-4cc4-ba8b-2c39ddffa5f3))
  (pad "G5" smd circle (at -8.5 -6.5) (size 0.5 0.5) (layers "F.Cu" "F.Paste" "F.Mask") (tstamp 2b2f864e-e1d2-4c36-919a-588c6f170bcc))
  (pad "G6" smd circle (at -7.5 -6.5) (size 0.5 0.5) (layers "F.Cu" "F.Paste" "F.Mask") (tstamp da2026c0-4a99-4332-9364-333367d83efa))
  (pad "G7" smd circle (at -6.5 -6.5) (size 0.5 0.5) (layers "F.Cu" "F.Paste" "F.Mask") (tstamp 35ef364c-f0f0-496d-9c3f-93aca9d95aaf))
  (pad "G8" smd circle (at -5.5 -6.5) (size 0.5 0.5) (layers "F.Cu" "F.Paste" "F.Mask") (tstamp 1d9c73b9-dd9d-40be-8104-ebfb60b679dc))
  (pad "G9" smd circle (at -4.5 -6.5) (size 0.5 0.5) (layers "F.Cu" "F.Paste" "F.Mask") (tstamp efba2524-ecde-47ba-9c92-97a14fb9c741))
  (pad "G10" smd circle (at -3.5 -6.5) (size 0.5 0.5) (layers "F.Cu" "F.Paste" "F.Mask") (tstamp 524423c4-d632-4d16-b144-dde515932d96))
  (pad "G11" smd circle (at -2.5 -6.5) (size 0.5 0.5) (layers "F.Cu" "F.Paste" "F.Mask") (tstamp 19a49a9d-8289-4418-adeb-d33ad5cab3a1))
  (pad "G12" smd circle (at -1.5 -6.5) (size 0.5 0.5) (layers "F.Cu" "F.Paste" "F.Mask") (tstamp 63b85e7e-b01c-4355-8e63-7995b0633b6e))
  (pad "G13" smd circle (at -0.5 -6.5) (size 0.5 0.5) (layers "F.Cu" "F.Paste" "F.Mask") (tstamp 5a7e557c-5b98-4136-8433-fa3001fcf151))
  (pad "G14" smd circle (at 0.5 -6.5) (size 0.5 0.5) (layers "F.Cu" "F.Paste" "F.Mask") (tstamp 0bd8e846-bc24-499d-b935-38e8fd8000cc))
  (pad "G15" smd circle (at 1.5 -6.5) (size 0.5 0.5) (layers "F.Cu" "F.Paste" "F.Mask") (tstamp ed67cfe5-096c-450f-85fd-43e70ba723c1))
  (pad "G16" smd circle (at 2.5 -6.5) (size 0.5 0.5) (layers "F.Cu" "F.Paste" "F.Mask") (tstamp 3ef53366-bb76-487c-bc54-d60d91ab6b5a))
  (pad "G17" smd circle (at 3.5 -6.5) (size 0.5 0.5) (layers "F.Cu" "F.Paste" "F.Mask") (tstamp c23a9447-dea7-4e29-9e41-cb7bc692d74e))
  (pad "G18" smd circle (at 4.5 -6.5) (size 0.5 0.5) (layers "F.Cu" "F.Paste" "F.Mask") (tstamp e889ca9b-cc36-4ef0-badb-66692b345d67))
  (pad "G19" smd circle (at 5.5 -6.5) (size 0.5 0.5) (layers "F.Cu" "F.Paste" "F.Mask") (tstamp fae4b4a5-5da0-4dd4-8477-d35644597db6))
  (pad "G20" smd circle (at 6.5 -6.5) (size 0.5 0.5) (layers "F.Cu" "F.Paste" "F.Mask") (tstamp b3551c38-c7aa-44e9-bbd3-15ad76c4817a))
  (pad "G21" smd circle (at 7.5 -6.5) (size 0.5 0.5) (layers "F.Cu" "F.Paste" "F.Mask") (tstamp a702e602-e5f4-4568-be18-85d118e2373c))
  (pad "G22" smd circle (at 8.5 -6.5) (size 0.5 0.5) (layers "F.Cu" "F.Paste" "F.Mask") (tstamp f2a602ba-4283-46a2-a514-2610e4b07a12))
  (pad "G23" smd circle (at 9.5 -6.5) (size 0.5 0.5) (layers "F.Cu" "F.Paste" "F.Mask") (tstamp 7d4e630d-4e31-4ff0-ac4e-edbd993bead4))
  (pad "G24" smd circle (at 10.5 -6.5) (size 0.5 0.5) (layers "F.Cu" "F.Paste" "F.Mask") (tstamp 15c938f9-f8d5-48c8-9763-323911f8d775))
  (pad "G25" smd circle (at 11.5 -6.5) (size 0.5 0.5) (layers "F.Cu" "F.Paste" "F.Mask") (tstamp 36900145-ece1-491c-8d99-7725de3bab18))
  (pad "G26" smd circle (at 12.5 -6.5) (size 0.5 0.5) (layers "F.Cu" "F.Paste" "F.Mask") (tstamp 302ea29c-f803-4b10-bf69-3d93c371c9e9))
  (pad "H1" smd circle (at -12.5 -5.5) (size 0.5 0.5) (layers "F.Cu" "F.Paste" "F.Mask") (tstamp 4ad4aa3a-9ab8-493c-bc1c-5db7c51dd0a2))
  (pad "H2" smd circle (at -11.5 -5.5) (size 0.5 0.5) (layers "F.Cu" "F.Paste" "F.Mask") (tstamp e28ee0f2-ae46-475b-b01b-17192afaa27d))
  (pad "H3" smd circle (at -10.5 -5.5) (size 0.5 0.5) (layers "F.Cu" "F.Paste" "F.Mask") (tstamp 1944de14-37f0-4935-8ebf-2a2fabd32c5e))
  (pad "H4" smd circle (at -9.5 -5.5) (size 0.5 0.5) (layers "F.Cu" "F.Paste" "F.Mask") (tstamp 93a87191-9138-4ba7-ae8f-ab720328e81f))
  (pad "H5" smd circle (at -8.5 -5.5) (size 0.5 0.5) (layers "F.Cu" "F.Paste" "F.Mask") (tstamp c2a43661-9c5b-4fc5-84cb-5382f120e579))
  (pad "H6" smd circle (at -7.5 -5.5) (size 0.5 0.5) (layers "F.Cu" "F.Paste" "F.Mask") (tstamp 9ac593a3-3d6d-405a-8d41-4299230ff679))
  (pad "H7" smd circle (at -6.5 -5.5) (size 0.5 0.5) (layers "F.Cu" "F.Paste" "F.Mask") (tstamp a59598af-ad9a-49f4-a362-d598e552a6d1))
  (pad "H8" smd circle (at -5.5 -5.5) (size 0.5 0.5) (layers "F.Cu" "F.Paste" "F.Mask") (tstamp e58ae80a-1e9e-4f8a-9a2c-c108a6e517bb))
  (pad "H9" smd circle (at -4.5 -5.5) (size 0.5 0.5) (layers "F.Cu" "F.Paste" "F.Mask") (tstamp 716c8435-ee87-4984-b0aa-fefcb17c27d7))
  (pad "H10" smd circle (at -3.5 -5.5) (size 0.5 0.5) (layers "F.Cu" "F.Paste" "F.Mask") (tstamp 8b33a4e3-15b8-4c3f-9273-c1e5631a9b68))
  (pad "H11" smd circle (at -2.5 -5.5) (size 0.5 0.5) (layers "F.Cu" "F.Paste" "F.Mask") (tstamp c9c855ac-945d-41ac-b279-e4d49a182e75))
  (pad "H12" smd circle (at -1.5 -5.5) (size 0.5 0.5) (layers "F.Cu" "F.Paste" "F.Mask") (tstamp 12b13786-54c8-4a9f-a422-0fe4eb8b6b5a))
  (pad "H13" smd circle (at -0.5 -5.5) (size 0.5 0.5) (layers "F.Cu" "F.Paste" "F.Mask") (tstamp c3d9f036-1ff4-4ebb-ab42-10f1b8b6cfb2))
  (pad "H14" smd circle (at 0.5 -5.5) (size 0.5 0.5) (layers "F.Cu" "F.Paste" "F.Mask") (tstamp 5e9c1746-eedc-4a60-8cb8-6c538be1c322))
  (pad "H15" smd circle (at 1.5 -5.5) (size 0.5 0.5) (layers "F.Cu" "F.Paste" "F.Mask") (tstamp aebbf5d1-bbf0-4641-ab06-3312373fe0cf))
  (pad "H16" smd circle (at 2.5 -5.5) (size 0.5 0.5) (layers "F.Cu" "F.Paste" "F.Mask") (tstamp f12f9b24-dd95-45f1-84db-637735a2aa95))
  (pad "H17" smd circle (at 3.5 -5.5) (size 0.5 0.5) (layers "F.Cu" "F.Paste" "F.Mask") (tstamp 23ce0db9-6d1c-415d-be87-44c28d15d3cd))
  (pad "H18" smd circle (at 4.5 -5.5) (size 0.5 0.5) (layers "F.Cu" "F.Paste" "F.Mask") (tstamp c5b5ea83-55f3-4eb0-a827-445b4ad4cdc2))
  (pad "H19" smd circle (at 5.5 -5.5) (size 0.5 0.5) (layers "F.Cu" "F.Paste" "F.Mask") (tstamp c0f37a7a-a301-4ad6-9221-66ab03e4f9f1))
  (pad "H20" smd circle (at 6.5 -5.5) (size 0.5 0.5) (layers "F.Cu" "F.Paste" "F.Mask") (tstamp 4d24f542-2bea-4082-9b34-a7cf2f3c9a38))
  (pad "H21" smd circle (at 7.5 -5.5) (size 0.5 0.5) (layers "F.Cu" "F.Paste" "F.Mask") (tstamp 54781194-c33a-439b-b959-71147c2b18fc))
  (pad "H22" smd circle (at 8.5 -5.5) (size 0.5 0.5) (layers "F.Cu" "F.Paste" "F.Mask") (tstamp cd255e92-e0f6-4e29-ba93-73be0acf161d))
  (pad "H23" smd circle (at 9.5 -5.5) (size 0.5 0.5) (layers "F.Cu" "F.Paste" "F.Mask") (tstamp 68978ac1-0ed1-41ec-bda3-eb76844ac771))
  (pad "H24" smd circle (at 10.5 -5.5) (size 0.5 0.5) (layers "F.Cu" "F.Paste" "F.Mask") (tstamp 3208a60a-3bcd-40cc-a8f3-2f7528af1e06))
  (pad "H25" smd circle (at 11.5 -5.5) (size 0.5 0.5) (layers "F.Cu" "F.Paste" "F.Mask") (tstamp efe1f33a-8f0a-41f0-a9de-93102e55236d))
  (pad "H26" smd circle (at 12.5 -5.5) (size 0.5 0.5) (layers "F.Cu" "F.Paste" "F.Mask") (tstamp 1a8fdbdd-9f3d-48c2-92a2-adc9d5b58d74))
  (pad "J1" smd circle (at -12.5 -4.5) (size 0.5 0.5) (layers "F.Cu" "F.Paste" "F.Mask") (tstamp e4d9c33b-e5a2-41c8-a90b-034bf6c6a12b))
  (pad "J2" smd circle (at -11.5 -4.5) (size 0.5 0.5) (layers "F.Cu" "F.Paste" "F.Mask") (tstamp e28bd9af-59e2-4d0c-a30f-250bda9a39fa))
  (pad "J3" smd circle (at -10.5 -4.5) (size 0.5 0.5) (layers "F.Cu" "F.Paste" "F.Mask") (tstamp af5b0bdc-49a7-43d2-9019-378384ec59c6))
  (pad "J4" smd circle (at -9.5 -4.5) (size 0.5 0.5) (layers "F.Cu" "F.Paste" "F.Mask") (tstamp 49d66d43-7aeb-4ae9-a663-1d7265904b8b))
  (pad "J5" smd circle (at -8.5 -4.5) (size 0.5 0.5) (layers "F.Cu" "F.Paste" "F.Mask") (tstamp 5f0cfac6-c5b9-4c37-ab7c-4a8f500f3a16))
  (pad "J6" smd circle (at -7.5 -4.5) (size 0.5 0.5) (layers "F.Cu" "F.Paste" "F.Mask") (tstamp 8610dc82-fb87-446b-bdcd-f97941499026))
  (pad "J7" smd circle (at -6.5 -4.5) (size 0.5 0.5) (layers "F.Cu" "F.Paste" "F.Mask") (tstamp 55217ff8-b359-4245-98f2-490e3995425a))
  (pad "J8" smd circle (at -5.5 -4.5) (size 0.5 0.5) (layers "F.Cu" "F.Paste" "F.Mask") (tstamp b0a9b922-6bbb-49c6-bb94-0f63f47e499f))
  (pad "J9" smd circle (at -4.5 -4.5) (size 0.5 0.5) (layers "F.Cu" "F.Paste" "F.Mask") (tstamp ff3cf8c8-8354-4c1d-8552-1407a547ac4d))
  (pad "J10" smd circle (at -3.5 -4.5) (size 0.5 0.5) (layers "F.Cu" "F.Paste" "F.Mask") (tstamp deb7e480-7126-439e-b897-78dc391d611e))
  (pad "J11" smd circle (at -2.5 -4.5) (size 0.5 0.5) (layers "F.Cu" "F.Paste" "F.Mask") (tstamp 7992359a-d722-4bf5-9f36-a6cb6c91b93a))
  (pad "J12" smd circle (at -1.5 -4.5) (size 0.5 0.5) (layers "F.Cu" "F.Paste" "F.Mask") (tstamp 7d5f3a10-bf05-4f7c-8b69-c0bc3ce72720))
  (pad "J13" smd circle (at -0.5 -4.5) (size 0.5 0.5) (layers "F.Cu" "F.Paste" "F.Mask") (tstamp 5d6e5427-36df-4a57-964d-53e969e5fe7c))
  (pad "J14" smd circle (at 0.5 -4.5) (size 0.5 0.5) (layers "F.Cu" "F.Paste" "F.Mask") (tstamp a9d2e5bf-211e-4634-ad4b-a63a36200b42))
  (pad "J15" smd circle (at 1.5 -4.5) (size 0.5 0.5) (layers "F.Cu" "F.Paste" "F.Mask") (tstamp 5fa2fd88-ae4a-4ec2-a114-d26b04e4f352))
  (pad "J16" smd circle (at 2.5 -4.5) (size 0.5 0.5) (layers "F.Cu" "F.Paste" "F.Mask") (tstamp bb008bf0-6a5e-405f-811b-4d325b55bd09))
  (pad "J17" smd circle (at 3.5 -4.5) (size 0.5 0.5) (layers "F.Cu" "F.Paste" "F.Mask") (tstamp 7c220124-7a1d-48d8-b96e-dce94aaab07d))
  (pad "J18" smd circle (at 4.5 -4.5) (size 0.5 0.5) (layers "F.Cu" "F.Paste" "F.Mask") (tstamp 020c46ab-aa57-4528-bb83-275bab06ebf2))
  (pad "J19" smd circle (at 5.5 -4.5) (size 0.5 0.5) (layers "F.Cu" "F.Paste" "F.Mask") (tstamp ba1e416c-fc65-4f9c-8e08-37baea7191b2))
  (pad "J20" smd circle (at 6.5 -4.5) (size 0.5 0.5) (layers "F.Cu" "F.Paste" "F.Mask") (tstamp 174f877c-8920-43d9-abe8-84d94fe1b01d))
  (pad "J21" smd circle (at 7.5 -4.5) (size 0.5 0.5) (layers "F.Cu" "F.Paste" "F.Mask") (tstamp f9275525-4328-4e08-8d24-5f274eafd23c))
  (pad "J22" smd circle (at 8.5 -4.5) (size 0.5 0.5) (layers "F.Cu" "F.Paste" "F.Mask") (tstamp c089888e-d872-49d7-a42a-0964a7a41e46))
  (pad "J23" smd circle (at 9.5 -4.5) (size 0.5 0.5) (layers "F.Cu" "F.Paste" "F.Mask") (tstamp 41af5144-cd51-49f7-8d49-2618ccdc4932))
  (pad "J24" smd circle (at 10.5 -4.5) (size 0.5 0.5) (layers "F.Cu" "F.Paste" "F.Mask") (tstamp 4970799d-29c4-4302-91fb-b7e9e8e58d40))
  (pad "J25" smd circle (at 11.5 -4.5) (size 0.5 0.5) (layers "F.Cu" "F.Paste" "F.Mask") (tstamp 0a0bba6e-f9eb-44d2-9991-5c81c42c7ed5))
  (pad "J26" smd circle (at 12.5 -4.5) (size 0.5 0.5) (layers "F.Cu" "F.Paste" "F.Mask") (tstamp 06fd12d4-5259-4156-bb04-1970d548f7af))
  (pad "K1" smd circle (at -12.5 -3.5) (size 0.5 0.5) (layers "F.Cu" "F.Paste" "F.Mask") (tstamp db3a9ac4-14ac-40c8-aaeb-b6ca20bd384e))
  (pad "K2" smd circle (at -11.5 -3.5) (size 0.5 0.5) (layers "F.Cu" "F.Paste" "F.Mask") (tstamp e54fa9d5-87c6-4153-96c5-ba8ea70473d9))
  (pad "K3" smd circle (at -10.5 -3.5) (size 0.5 0.5) (layers "F.Cu" "F.Paste" "F.Mask") (tstamp 67913e53-053f-4543-9e3e-d49ed3fb6879))
  (pad "K4" smd circle (at -9.5 -3.5) (size 0.5 0.5) (layers "F.Cu" "F.Paste" "F.Mask") (tstamp c391ffda-8ecf-48b7-943a-c46527d89de6))
  (pad "K5" smd circle (at -8.5 -3.5) (size 0.5 0.5) (layers "F.Cu" "F.Paste" "F.Mask") (tstamp 894abea3-e28c-49b6-9895-456dfad83d9a))
  (pad "K6" smd circle (at -7.5 -3.5) (size 0.5 0.5) (layers "F.Cu" "F.Paste" "F.Mask") (tstamp e226ffe4-3208-4ff9-b03d-1cbfcccce45e))
  (pad "K7" smd circle (at -6.5 -3.5) (size 0.5 0.5) (layers "F.Cu" "F.Paste" "F.Mask") (tstamp 4f7a76ef-cf83-4ddf-b2f2-8ac574de6591))
  (pad "K8" smd circle (at -5.5 -3.5) (size 0.5 0.5) (layers "F.Cu" "F.Paste" "F.Mask") (tstamp c1c2b81f-ca6f-45be-8a87-10eff3567a41))
  (pad "K9" smd circle (at -4.5 -3.5) (size 0.5 0.5) (layers "F.Cu" "F.Paste" "F.Mask") (tstamp 2108b354-1e59-49fc-a3a3-8cba39a87824))
  (pad "K10" smd circle (at -3.5 -3.5) (size 0.5 0.5) (layers "F.Cu" "F.Paste" "F.Mask") (tstamp 6012264e-6df5-44bc-ba96-95d7d099a9af))
  (pad "K11" smd circle (at -2.5 -3.5) (size 0.5 0.5) (layers "F.Cu" "F.Paste" "F.Mask") (tstamp b05d2f27-2f8a-4953-81c3-f1931e213670))
  (pad "K12" smd circle (at -1.5 -3.5) (size 0.5 0.5) (layers "F.Cu" "F.Paste" "F.Mask") (tstamp 272cff61-48a6-4d1e-b1ac-8f4490884f3a))
  (pad "K13" smd circle (at -0.5 -3.5) (size 0.5 0.5) (layers "F.Cu" "F.Paste" "F.Mask") (tstamp 91f24541-5c53-46ba-9e32-baf656e04b85))
  (pad "K14" smd circle (at 0.5 -3.5) (size 0.5 0.5) (layers "F.Cu" "F.Paste" "F.Mask") (tstamp f1076f04-d09e-4633-9974-c46594d8bac5))
  (pad "K15" smd circle (at 1.5 -3.5) (size 0.5 0.5) (layers "F.Cu" "F.Paste" "F.Mask") (tstamp 5ce625ae-8a4c-44c3-b65a-7447aef50dae))
  (pad "K16" smd circle (at 2.5 -3.5) (size 0.5 0.5) (layers "F.Cu" "F.Paste" "F.Mask") (tstamp 47c3d6f0-c2f0-4e95-a0a1-dfae5dac9288))
  (pad "K17" smd circle (at 3.5 -3.5) (size 0.5 0.5) (layers "F.Cu" "F.Paste" "F.Mask") (tstamp cc800eb9-d024-4910-9a9a-c64351d9ca5e))
  (pad "K18" smd circle (at 4.5 -3.5) (size 0.5 0.5) (layers "F.Cu" "F.Paste" "F.Mask") (tstamp fc8237bb-edb2-4b9e-a030-da4c47532b77))
  (pad "K19" smd circle (at 5.5 -3.5) (size 0.5 0.5) (layers "F.Cu" "F.Paste" "F.Mask") (tstamp 06cbc0e6-5f14-4993-9df6-f4b725646bd5))
  (pad "K20" smd circle (at 6.5 -3.5) (size 0.5 0.5) (layers "F.Cu" "F.Paste" "F.Mask") (tstamp 3f238f2a-f61d-407b-81f8-89585f5e348b))
  (pad "K21" smd circle (at 7.5 -3.5) (size 0.5 0.5) (layers "F.Cu" "F.Paste" "F.Mask") (tstamp b6ba7f26-b955-4ac5-80ba-cace5a146f20))
  (pad "K22" smd circle (at 8.5 -3.5) (size 0.5 0.5) (layers "F.Cu" "F.Paste" "F.Mask") (tstamp 5737d763-94fe-4db2-9649-c6d081e9c5fb))
  (pad "K23" smd circle (at 9.5 -3.5) (size 0.5 0.5) (layers "F.Cu" "F.Paste" "F.Mask") (tstamp 295d02bd-30b7-4938-aaed-3046bcb6c620))
  (pad "K24" smd circle (at 10.5 -3.5) (size 0.5 0.5) (layers "F.Cu" "F.Paste" "F.Mask") (tstamp b17332a1-6851-46e7-941b-fedef32b16e0))
  (pad "K25" smd circle (at 11.5 -3.5) (size 0.5 0.5) (layers "F.Cu" "F.Paste" "F.Mask") (tstamp f56962bb-e788-4eb8-91fe-047d574e2cba))
  (pad "K26" smd circle (at 12.5 -3.5) (size 0.5 0.5) (layers "F.Cu" "F.Paste" "F.Mask") (tstamp cef4779d-2d95-4115-9017-568c28f41787))
  (pad "L1" smd circle (at -12.5 -2.5) (size 0.5 0.5) (layers "F.Cu" "F.Paste" "F.Mask") (tstamp 7ddb99e4-6c94-4785-890d-8a6128e84f1a))
  (pad "L2" smd circle (at -11.5 -2.5) (size 0.5 0.5) (layers "F.Cu" "F.Paste" "F.Mask") (tstamp e8710e92-9622-4fa6-8dd5-fb49540fbf3f))
  (pad "L3" smd circle (at -10.5 -2.5) (size 0.5 0.5) (layers "F.Cu" "F.Paste" "F.Mask") (tstamp b6e7f49d-a4e9-400e-92bb-b05edfda3d3b))
  (pad "L4" smd circle (at -9.5 -2.5) (size 0.5 0.5) (layers "F.Cu" "F.Paste" "F.Mask") (tstamp f5086764-3f19-4400-af1f-cf3afb250194))
  (pad "L5" smd circle (at -8.5 -2.5) (size 0.5 0.5) (layers "F.Cu" "F.Paste" "F.Mask") (tstamp cfb1ac55-906a-4b25-bd51-51b9a57700ff))
  (pad "L6" smd circle (at -7.5 -2.5) (size 0.5 0.5) (layers "F.Cu" "F.Paste" "F.Mask") (tstamp 3ad66a92-3fbb-49fd-a615-9bf1af92c757))
  (pad "L7" smd circle (at -6.5 -2.5) (size 0.5 0.5) (layers "F.Cu" "F.Paste" "F.Mask") (tstamp fd2def9c-a8d8-424e-827b-4cdbd865809f))
  (pad "L8" smd circle (at -5.5 -2.5) (size 0.5 0.5) (layers "F.Cu" "F.Paste" "F.Mask") (tstamp a38e443e-636d-4ce4-8f5c-058ca2ed8ceb))
  (pad "L9" smd circle (at -4.5 -2.5) (size 0.5 0.5) (layers "F.Cu" "F.Paste" "F.Mask") (tstamp 3b951701-79e4-4685-ae6f-126d17e4b673))
  (pad "L10" smd circle (at -3.5 -2.5) (size 0.5 0.5) (layers "F.Cu" "F.Paste" "F.Mask") (tstamp af87dde3-b96e-4b51-9ccf-949aa5b73f29))
  (pad "L11" smd circle (at -2.5 -2.5) (size 0.5 0.5) (layers "F.Cu" "F.Paste" "F.Mask") (tstamp 27df7430-c2e0-4baf-870d-059499c32957))
  (pad "L12" smd circle (at -1.5 -2.5) (size 0.5 0.5) (layers "F.Cu" "F.Paste" "F.Mask") (tstamp dfea9fa5-7417-4744-a189-a0bbf4e1a747))
  (pad "L13" smd circle (at -0.5 -2.5) (size 0.5 0.5) (layers "F.Cu" "F.Paste" "F.Mask") (tstamp 075d5658-d3d5-4acd-9ef2-f3a4d3a2e873))
  (pad "L14" smd circle (at 0.5 -2.5) (size 0.5 0.5) (layers "F.Cu" "F.Paste" "F.Mask") (tstamp f7d8d3c3-17b4-4fa6-98d5-6d35500331cf))
  (pad "L15" smd circle (at 1.5 -2.5) (size 0.5 0.5) (layers "F.Cu" "F.Paste" "F.Mask") (tstamp 47736ed5-01b1-430b-abd5-893e547aeaf6))
  (pad "L16" smd circle (at 2.5 -2.5) (size 0.5 0.5) (layers "F.Cu" "F.Paste" "F.Mask") (tstamp 08619052-3cad-4a39-8e8e-389ea3dee803))
  (pad "L17" smd circle (at 3.5 -2.5) (size 0.5 0.5) (layers "F.Cu" "F.Paste" "F.Mask") (tstamp 97dffc03-5fb1-4ffb-ab25-196d8df787ec))
  (pad "L18" smd circle (at 4.5 -2.5) (size 0.5 0.5) (layers "F.Cu" "F.Paste" "F.Mask") (tstamp c8b1fa72-e12b-4c05-a8cc-f182f7604513))
  (pad "L19" smd circle (at 5.5 -2.5) (size 0.5 0.5) (layers "F.Cu" "F.Paste" "F.Mask") (tstamp bcffa0f7-548d-4d7a-8617-5f89bdc1ba0c))
  (pad "L20" smd circle (at 6.5 -2.5) (size 0.5 0.5) (layers "F.Cu" "F.Paste" "F.Mask") (tstamp 714e78f0-4e7d-42c0-88d7-a72185605cc3))
  (pad "L21" smd circle (at 7.5 -2.5) (size 0.5 0.5) (layers "F.Cu" "F.Paste" "F.Mask") (tstamp c337bc86-c8b6-4f76-960e-6ca801706f4b))
  (pad "L22" smd circle (at 8.5 -2.5) (size 0.5 0.5) (layers "F.Cu" "F.Paste" "F.Mask") (tstamp fb881edd-acfa-4dd3-8e82-831f1ba8e7fa))
  (pad "L23" smd circle (at 9.5 -2.5) (size 0.5 0.5) (layers "F.Cu" "F.Paste" "F.Mask") (tstamp abd36c7b-dd70-4613-8248-f3246905563c))
  (pad "L24" smd circle (at 10.5 -2.5) (size 0.5 0.5) (layers "F.Cu" "F.Paste" "F.Mask") (tstamp 3b6adbbd-4fd4-4716-bc18-7aa9a3802c67))
  (pad "L25" smd circle (at 11.5 -2.5) (size 0.5 0.5) (layers "F.Cu" "F.Paste" "F.Mask") (tstamp 5da56b79-1586-475b-970c-6953acf3e665))
  (pad "L26" smd circle (at 12.5 -2.5) (size 0.5 0.5) (layers "F.Cu" "F.Paste" "F.Mask") (tstamp 8e13cc66-cd43-4fb9-a491-206affd9d853))
  (pad "M1" smd circle (at -12.5 -1.5) (size 0.5 0.5) (layers "F.Cu" "F.Paste" "F.Mask") (tstamp bb5b7a51-fb3f-4cb3-94cb-25c5a5762f62))
  (pad "M2" smd circle (at -11.5 -1.5) (size 0.5 0.5) (layers "F.Cu" "F.Paste" "F.Mask") (tstamp 8a71f43e-dd84-4cf8-baed-c8473f1db99e))
  (pad "M3" smd circle (at -10.5 -1.5) (size 0.5 0.5) (layers "F.Cu" "F.Paste" "F.Mask") (tstamp bba5b134-79a3-481f-a057-62ed5f623c5e))
  (pad "M4" smd circle (at -9.5 -1.5) (size 0.5 0.5) (layers "F.Cu" "F.Paste" "F.Mask") (tstamp 123e1229-34f4-44fb-9c35-c13fd9966532))
  (pad "M5" smd circle (at -8.5 -1.5) (size 0.5 0.5) (layers "F.Cu" "F.Paste" "F.Mask") (tstamp 51e0ec68-7654-4105-92a4-450acafcb8e2))
  (pad "M6" smd circle (at -7.5 -1.5) (size 0.5 0.5) (layers "F.Cu" "F.Paste" "F.Mask") (tstamp 139838ca-719d-4e59-92bc-d12ecde63d6d))
  (pad "M7" smd circle (at -6.5 -1.5) (size 0.5 0.5) (layers "F.Cu" "F.Paste" "F.Mask") (tstamp 72533563-30b0-42d1-a549-581ae631b517))
  (pad "M8" smd circle (at -5.5 -1.5) (size 0.5 0.5) (layers "F.Cu" "F.Paste" "F.Mask") (tstamp 9e1870f7-4203-4514-9f8e-db908364b031))
  (pad "M9" smd circle (at -4.5 -1.5) (size 0.5 0.5) (layers "F.Cu" "F.Paste" "F.Mask") (tstamp f048ca92-cbc7-4b30-a36f-f7194786e481))
  (pad "M10" smd circle (at -3.5 -1.5) (size 0.5 0.5) (layers "F.Cu" "F.Paste" "F.Mask") (tstamp c3d1485a-8f83-48f4-845b-691f93133c51))
  (pad "M11" smd circle (at -2.5 -1.5) (size 0.5 0.5) (layers "F.Cu" "F.Paste" "F.Mask") (tstamp 8014930b-eb64-4df5-a6e9-aaecc70bce8b))
  (pad "M12" smd circle (at -1.5 -1.5) (size 0.5 0.5) (layers "F.Cu" "F.Paste" "F.Mask") (tstamp 39ca0aa0-4cdb-4412-a32b-f10cf8969484))
  (pad "M13" smd circle (at -0.5 -1.5) (size 0.5 0.5) (layers "F.Cu" "F.Paste" "F.Mask") (tstamp dc359ad4-229e-4940-9e9b-ae5ab86a775d))
  (pad "M14" smd circle (at 0.5 -1.5) (size 0.5 0.5) (layers "F.Cu" "F.Paste" "F.Mask") (tstamp c4965583-e38f-4e51-8383-0f0eff5bb0ed))
  (pad "M15" smd circle (at 1.5 -1.5) (size 0.5 0.5) (layers "F.Cu" "F.Paste" "F.Mask") (tstamp b6daf8ba-0207-49b1-954f-f9b3aa1541ce))
  (pad "M16" smd circle (at 2.5 -1.5) (size 0.5 0.5) (layers "F.Cu" "F.Paste" "F.Mask") (tstamp d588e101-6eaf-4b6d-9508-3c62c737b374))
  (pad "M17" smd circle (at 3.5 -1.5) (size 0.5 0.5) (layers "F.Cu" "F.Paste" "F.Mask") (tstamp 594c72f8-b88d-4f84-8bd0-4b7ac93e22a8))
  (pad "M18" smd circle (at 4.5 -1.5) (size 0.5 0.5) (layers "F.Cu" "F.Paste" "F.Mask") (tstamp da78f58f-56e4-41c9-aca8-246c05bd1c8d))
  (pad "M19" smd circle (at 5.5 -1.5) (size 0.5 0.5) (layers "F.Cu" "F.Paste" "F.Mask") (tstamp ebb22f34-fc68-4b70-b443-d7948a3e7c77))
  (pad "M20" smd circle (at 6.5 -1.5) (size 0.5 0.5) (layers "F.Cu" "F.Paste" "F.Mask") (tstamp 191cf2e8-d3d6-46cb-8b0f-f95b43e1c317))
  (pad "M21" smd circle (at 7.5 -1.5) (size 0.5 0.5) (layers "F.Cu" "F.Paste" "F.Mask") (tstamp df4a0e7c-9e4c-4808-ac33-8e363646a5cc))
  (pad "M22" smd circle (at 8.5 -1.5) (size 0.5 0.5) (layers "F.Cu" "F.Paste" "F.Mask") (tstamp 7795d23a-82f0-4752-8199-ad6c89542e2a))
  (pad "M23" smd circle (at 9.5 -1.5) (size 0.5 0.5) (layers "F.Cu" "F.Paste" "F.Mask") (tstamp 24db73c8-3ec2-4674-96ea-8e7668ff38cc))
  (pad "M24" smd circle (at 10.5 -1.5) (size 0.5 0.5) (layers "F.Cu" "F.Paste" "F.Mask") (tstamp 1983007c-7337-45df-9027-0966fb5b54cd))
  (pad "M25" smd circle (at 11.5 -1.5) (size 0.5 0.5) (layers "F.Cu" "F.Paste" "F.Mask") (tstamp 677350b2-d600-415c-995c-41da8c27f148))
  (pad "M26" smd circle (at 12.5 -1.5) (size 0.5 0.5) (layers "F.Cu" "F.Paste" "F.Mask") (tstamp c1675c9f-7b7c-4ed7-abc9-7d1cb5b4098d))
  (pad "N1" smd circle (at -12.5 -0.5) (size 0.5 0.5) (layers "F.Cu" "F.Paste" "F.Mask") (tstamp 36d2b082-bcdd-4ded-b080-f11fe7c20528))
  (pad "N2" smd circle (at -11.5 -0.5) (size 0.5 0.5) (layers "F.Cu" "F.Paste" "F.Mask") (tstamp 6c787405-bb45-4ca1-aa57-c1292739fab3))
  (pad "N3" smd circle (at -10.5 -0.5) (size 0.5 0.5) (layers "F.Cu" "F.Paste" "F.Mask") (tstamp 488183ac-a484-4585-bb5c-5f3d0a5cf402))
  (pad "N4" smd circle (at -9.5 -0.5) (size 0.5 0.5) (layers "F.Cu" "F.Paste" "F.Mask") (tstamp 1c316fb6-bab0-4984-8d83-59c23f7d1347))
  (pad "N5" smd circle (at -8.5 -0.5) (size 0.5 0.5) (layers "F.Cu" "F.Paste" "F.Mask") (tstamp 56e733d2-dbf2-491e-82e0-9f64d8f1403f))
  (pad "N6" smd circle (at -7.5 -0.5) (size 0.5 0.5) (layers "F.Cu" "F.Paste" "F.Mask") (tstamp 9d768bd1-9f69-4880-86fc-64dff6f44b81))
  (pad "N7" smd circle (at -6.5 -0.5) (size 0.5 0.5) (layers "F.Cu" "F.Paste" "F.Mask") (tstamp 55889d34-9840-4a64-92cb-a4a3257b5d72))
  (pad "N8" smd circle (at -5.5 -0.5) (size 0.5 0.5) (layers "F.Cu" "F.Paste" "F.Mask") (tstamp 84f87342-8d84-4465-b796-3031d8023456))
  (pad "N9" smd circle (at -4.5 -0.5) (size 0.5 0.5) (layers "F.Cu" "F.Paste" "F.Mask") (tstamp bf25d302-f674-4c56-bd44-ab06a8d7ba40))
  (pad "N10" smd circle (at -3.5 -0.5) (size 0.5 0.5) (layers "F.Cu" "F.Paste" "F.Mask") (tstamp 8507da6b-23a5-419a-aa8c-f7e2fc1cba24))
  (pad "N11" smd circle (at -2.5 -0.5) (size 0.5 0.5) (layers "F.Cu" "F.Paste" "F.Mask") (tstamp 4b1ebde9-3b2e-4af8-9117-b586420f3379))
  (pad "N12" smd circle (at -1.5 -0.5) (size 0.5 0.5) (layers "F.Cu" "F.Paste" "F.Mask") (tstamp 3b1b0860-e454-44f9-baed-b7ba3c08a000))
  (pad "N13" smd circle (at -0.5 -0.5) (size 0.5 0.5) (layers "F.Cu" "F.Paste" "F.Mask") (tstamp 230823ff-8eb6-458b-91c7-64775ba86782))
  (pad "N14" smd circle (at 0.5 -0.5) (size 0.5 0.5) (layers "F.Cu" "F.Paste" "F.Mask") (tstamp 7936c9f9-609b-4e50-ae3f-f326c9199389))
  (pad "N15" smd circle (at 1.5 -0.5) (size 0.5 0.5) (layers "F.Cu" "F.Paste" "F.Mask") (tstamp 269fd834-aa72-4f78-b06e-c48ef5f6e111))
  (pad "N16" smd circle (at 2.5 -0.5) (size 0.5 0.5) (layers "F.Cu" "F.Paste" "F.Mask") (tstamp af43631d-8693-4dd5-a67e-f5f04af7edfd))
  (pad "N17" smd circle (at 3.5 -0.5) (size 0.5 0.5) (layers "F.Cu" "F.Paste" "F.Mask") (tstamp 6d300182-02a0-4c93-a6e1-b890def35fa7))
  (pad "N18" smd circle (at 4.5 -0.5) (size 0.5 0.5) (layers "F.Cu" "F.Paste" "F.Mask") (tstamp cf7ed3f8-ce8f-4263-8679-6aa8249b32ed))
  (pad "N19" smd circle (at 5.5 -0.5) (size 0.5 0.5) (layers "F.Cu" "F.Paste" "F.Mask") (tstamp 75cc4ec2-fa0a-4394-ba18-ad7e4907cd56))
  (pad "N20" smd circle (at 6.5 -0.5) (size 0.5 0.5) (layers "F.Cu" "F.Paste" "F.Mask") (tstamp 7636f01c-a2bd-498c-aae5-30006a1ad432))
  (pad "N21" smd circle (at 7.5 -0.5) (size 0.5 0.5) (layers "F.Cu" "F.Paste" "F.Mask") (tstamp 3478a999-a694-4132-91d3-8f98c7339a4b))
  (pad "N22" smd circle (at 8.5 -0.5) (size 0.5 0.5) (layers "F.Cu" "F.Paste" "F.Mask") (tstamp 05ddf413-59bf-49f5-af10-ddfe4180d3ce))
  (pad "N23" smd circle (at 9.5 -0.5) (size 0.5 0.5) (layers "F.Cu" "F.Paste" "F.Mask") (tstamp 6d973e20-e488-424d-9708-8210e79d6d34))
  (pad "N24" smd circle (at 10.5 -0.5) (size 0.5 0.5) (layers "F.Cu" "F.Paste" "F.Mask") (tstamp 10039593-f018-4477-b0aa-2fa81e148402))
  (pad "N25" smd circle (at 11.5 -0.5) (size 0.5 0.5) (layers "F.Cu" "F.Paste" "F.Mask") (tstamp e3ded53b-69ab-4ede-bdc6-d596c1256f9c))
  (pad "N26" smd circle (at 12.5 -0.5) (size 0.5 0.5) (layers "F.Cu" "F.Paste" "F.Mask") (tstamp c1fc3df3-e3d7-4e0b-aa6e-8e2de0bfc147))
  (pad "P1" smd circle (at -12.5 0.5) (size 0.5 0.5) (layers "F.Cu" "F.Paste" "F.Mask") (tstamp d469cc3b-c997-4be7-bed8-95ed3ce2a690))
  (pad "P2" smd circle (at -11.5 0.5) (size 0.5 0.5) (layers "F.Cu" "F.Paste" "F.Mask") (tstamp 9f4d1301-65e1-4c96-bd7e-6cb378bac26b))
  (pad "P3" smd circle (at -10.5 0.5) (size 0.5 0.5) (layers "F.Cu" "F.Paste" "F.Mask") (tstamp 063a3080-50a0-47f9-a91f-f39bcafddd77))
  (pad "P4" smd circle (at -9.5 0.5) (size 0.5 0.5) (layers "F.Cu" "F.Paste" "F.Mask") (tstamp fcddd87f-2587-481a-aa87-0920a030793f))
  (pad "P5" smd circle (at -8.5 0.5) (size 0.5 0.5) (layers "F.Cu" "F.Paste" "F.Mask") (tstamp 4d614c57-4010-45e1-9f28-7f00abc7c768))
  (pad "P6" smd circle (at -7.5 0.5) (size 0.5 0.5) (layers "F.Cu" "F.Paste" "F.Mask") (tstamp 20401f31-8907-4a99-b9c1-7782808acd2c))
  (pad "P7" smd circle (at -6.5 0.5) (size 0.5 0.5) (layers "F.Cu" "F.Paste" "F.Mask") (tstamp 9d49c20d-43de-4cd3-8b85-5b73d7fea361))
  (pad "P8" smd circle (at -5.5 0.5) (size 0.5 0.5) (layers "F.Cu" "F.Paste" "F.Mask") (tstamp f70f2c51-3b00-4999-9b36-e91ae2730952))
  (pad "P9" smd circle (at -4.5 0.5) (size 0.5 0.5) (layers "F.Cu" "F.Paste" "F.Mask") (tstamp 34a5ff3a-e7cc-4844-9745-816f6015d907))
  (pad "P10" smd circle (at -3.5 0.5) (size 0.5 0.5) (layers "F.Cu" "F.Paste" "F.Mask") (tstamp ebb4a4fc-68cf-4625-b786-ba74b4043bf1))
  (pad "P11" smd circle (at -2.5 0.5) (size 0.5 0.5) (layers "F.Cu" "F.Paste" "F.Mask") (tstamp 0a1c2f8b-caf3-4991-ad36-9ef632199379))
  (pad "P12" smd circle (at -1.5 0.5) (size 0.5 0.5) (layers "F.Cu" "F.Paste" "F.Mask") (tstamp 4f61b7a6-66ff-4dcc-8666-dc95107993ab))
  (pad "P13" smd circle (at -0.5 0.5) (size 0.5 0.5) (layers "F.Cu" "F.Paste" "F.Mask") (tstamp 999d1d3c-fb9b-4c18-b251-bdc323fd0da5))
  (pad "P14" smd circle (at 0.5 0.5) (size 0.5 0.5) (layers "F.Cu" "F.Paste" "F.Mask") (tstamp 4b6a480b-a222-4385-890a-33395b3124f3))
  (pad "P15" smd circle (at 1.5 0.5) (size 0.5 0.5) (layers "F.Cu" "F.Paste" "F.Mask") (tstamp ef38ab67-6c2b-43ef-867b-6fb9f2aacf89))
  (pad "P16" smd circle (at 2.5 0.5) (size 0.5 0.5) (layers "F.Cu" "F.Paste" "F.Mask") (tstamp 51965b49-1b44-4da2-93bb-68ae4c9f0fe2))
  (pad "P17" smd circle (at 3.5 0.5) (size 0.5 0.5) (layers "F.Cu" "F.Paste" "F.Mask") (tstamp 25091596-6960-476f-ac17-ffc4ea68d0b8))
  (pad "P18" smd circle (at 4.5 0.5) (size 0.5 0.5) (layers "F.Cu" "F.Paste" "F.Mask") (tstamp bc655688-2391-40b9-9444-4e4884787708))
  (pad "P19" smd circle (at 5.5 0.5) (size 0.5 0.5) (layers "F.Cu" "F.Paste" "F.Mask") (tstamp 401b302b-8f55-4846-956a-0eb4552a2e82))
  (pad "P20" smd circle (at 6.5 0.5) (size 0.5 0.5) (layers "F.Cu" "F.Paste" "F.Mask") (tstamp 2b6b936a-b522-47d3-9b66-0ff998837c2c))
  (pad "P21" smd circle (at 7.5 0.5) (size 0.5 0.5) (layers "F.Cu" "F.Paste" "F.Mask") (tstamp e7dd92ed-ae37-4aae-b195-fc302ba10561))
  (pad "P22" smd circle (at 8.5 0.5) (size 0.5 0.5) (layers "F.Cu" "F.Paste" "F.Mask") (tstamp a24ea86d-ccb2-4853-9b63-7e1ebcdfd216))
  (pad "P23" smd circle (at 9.5 0.5) (size 0.5 0.5) (layers "F.Cu" "F.Paste" "F.Mask") (tstamp 3001e4bf-0c43-4bb2-a0b9-d73f2fb08d7f))
  (pad "P24" smd circle (at 10.5 0.5) (size 0.5 0.5) (layers "F.Cu" "F.Paste" "F.Mask") (tstamp d76b732e-fed7-486f-8a3a-9bdbac53b283))
  (pad "P25" smd circle (at 11.5 0.5) (size 0.5 0.5) (layers "F.Cu" "F.Paste" "F.Mask") (tstamp e6bce23f-3205-44b3-9bca-a9aab7e0afec))
  (pad "P26" smd circle (at 12.5 0.5) (size 0.5 0.5) (layers "F.Cu" "F.Paste" "F.Mask") (tstamp 927aeca4-d781-49b4-b684-f8d021edb187))
  (pad "R1" smd circle (at -12.5 1.5) (size 0.5 0.5) (layers "F.Cu" "F.Paste" "F.Mask") (tstamp ca58e321-b40d-4acc-898a-7f9aa6e18370))
  (pad "R2" smd circle (at -11.5 1.5) (size 0.5 0.5) (layers "F.Cu" "F.Paste" "F.Mask") (tstamp 119ee7d7-2236-4b17-800c-240f6d91a1f8))
  (pad "R3" smd circle (at -10.5 1.5) (size 0.5 0.5) (layers "F.Cu" "F.Paste" "F.Mask") (tstamp 9b9b4ac4-90c5-46aa-946f-fabbfce8e69c))
  (pad "R4" smd circle (at -9.5 1.5) (size 0.5 0.5) (layers "F.Cu" "F.Paste" "F.Mask") (tstamp 82b0a368-95b3-427e-ade6-26abcbe288e9))
  (pad "R5" smd circle (at -8.5 1.5) (size 0.5 0.5) (layers "F.Cu" "F.Paste" "F.Mask") (tstamp d4c48eaf-f48b-4090-8980-0905b7d60715))
  (pad "R6" smd circle (at -7.5 1.5) (size 0.5 0.5) (layers "F.Cu" "F.Paste" "F.Mask") (tstamp bd535136-959a-42db-ab92-8f54a339fac1))
  (pad "R7" smd circle (at -6.5 1.5) (size 0.5 0.5) (layers "F.Cu" "F.Paste" "F.Mask") (tstamp 4588cb4f-c79d-42d6-9972-bf4de8ae9f8f))
  (pad "R8" smd circle (at -5.5 1.5) (size 0.5 0.5) (layers "F.Cu" "F.Paste" "F.Mask") (tstamp ccce2f51-768c-4333-b47d-8f037257bf71))
  (pad "R9" smd circle (at -4.5 1.5) (size 0.5 0.5) (layers "F.Cu" "F.Paste" "F.Mask") (tstamp c14143dd-e0a0-47ad-acd4-8d6362b7335a))
  (pad "R10" smd circle (at -3.5 1.5) (size 0.5 0.5) (layers "F.Cu" "F.Paste" "F.Mask") (tstamp c2ca21a6-1e01-4f5e-bed4-3b8d02ac8621))
  (pad "R11" smd circle (at -2.5 1.5) (size 0.5 0.5) (layers "F.Cu" "F.Paste" "F.Mask") (tstamp ce86656d-753c-4087-bdce-a1bb5843e928))
  (pad "R12" smd circle (at -1.5 1.5) (size 0.5 0.5) (layers "F.Cu" "F.Paste" "F.Mask") (tstamp 257ec979-e5c8-4d75-aadb-fbe36a44b117))
  (pad "R13" smd circle (at -0.5 1.5) (size 0.5 0.5) (layers "F.Cu" "F.Paste" "F.Mask") (tstamp 30f5023c-5a28-43ca-949e-02104c1c650a))
  (pad "R14" smd circle (at 0.5 1.5) (size 0.5 0.5) (layers "F.Cu" "F.Paste" "F.Mask") (tstamp 6aa357ec-9ab6-4895-8a5b-1f778e3d3795))
  (pad "R15" smd circle (at 1.5 1.5) (size 0.5 0.5) (layers "F.Cu" "F.Paste" "F.Mask") (tstamp a2352166-9202-40fe-bd85-1ce19557039c))
  (pad "R16" smd circle (at 2.5 1.5) (size 0.5 0.5) (layers "F.Cu" "F.Paste" "F.Mask") (tstamp 74173c0d-8b00-4afd-854c-1e680ce2b674))
  (pad "R17" smd circle (at 3.5 1.5) (size 0.5 0.5) (layers "F.Cu" "F.Paste" "F.Mask") (tstamp b8328725-ed65-46ba-9416-23d38646e124))
  (pad "R18" smd circle (at 4.5 1.5) (size 0.5 0.5) (layers "F.Cu" "F.Paste" "F.Mask") (tstamp e35d9c18-3607-4f67-9e9c-b419e5e9ef70))
  (pad "R19" smd circle (at 5.5 1.5) (size 0.5 0.5) (layers "F.Cu" "F.Paste" "F.Mask") (tstamp ef415c02-3538-47fc-be60-dfd358cc5cd5))
  (pad "R20" smd circle (at 6.5 1.5) (size 0.5 0.5) (layers "F.Cu" "F.Paste" "F.Mask") (tstamp cb68e454-498e-447d-9600-cd1da07ccb34))
  (pad "R21" smd circle (at 7.5 1.5) (size 0.5 0.5) (layers "F.Cu" "F.Paste" "F.Mask") (tstamp eb9811b8-5429-43d4-80c8-d793a2c789d6))
  (pad "R22" smd circle (at 8.5 1.5) (size 0.5 0.5) (layers "F.Cu" "F.Paste" "F.Mask") (tstamp 5a40c323-97c8-4675-b348-c58de116d155))
  (pad "R23" smd circle (at 9.5 1.5) (size 0.5 0.5) (layers "F.Cu" "F.Paste" "F.Mask") (tstamp 45cb3c1d-4b07-4e68-ae2c-e7bc75c82707))
  (pad "R24" smd circle (at 10.5 1.5) (size 0.5 0.5) (layers "F.Cu" "F.Paste" "F.Mask") (tstamp 48955220-0629-4296-8255-773582884e32))
  (pad "R25" smd circle (at 11.5 1.5) (size 0.5 0.5) (layers "F.Cu" "F.Paste" "F.Mask") (tstamp e68d0588-b581-4849-a460-9c59edcc4c87))
  (pad "R26" smd circle (at 12.5 1.5) (size 0.5 0.5) (layers "F.Cu" "F.Paste" "F.Mask") (tstamp 6bbc8f14-99ec-41e9-98cf-9f006f1405b4))
  (pad "T1" smd circle (at -12.5 2.5) (size 0.5 0.5) (layers "F.Cu" "F.Paste" "F.Mask") (tstamp 5a177f30-4009-491c-a4f1-8d30940614cd))
  (pad "T2" smd circle (at -11.5 2.5) (size 0.5 0.5) (layers "F.Cu" "F.Paste" "F.Mask") (tstamp ea7547fc-65e5-4342-9723-86b0d62db2c4))
  (pad "T3" smd circle (at -10.5 2.5) (size 0.5 0.5) (layers "F.Cu" "F.Paste" "F.Mask") (tstamp a055c5ad-194b-435f-99d4-dc3400838e9f))
  (pad "T4" smd circle (at -9.5 2.5) (size 0.5 0.5) (layers "F.Cu" "F.Paste" "F.Mask") (tstamp ea8e2055-2296-4cfa-b3fe-c46bbebf0b6d))
  (pad "T5" smd circle (at -8.5 2.5) (size 0.5 0.5) (layers "F.Cu" "F.Paste" "F.Mask") (tstamp 6bf102c9-cc98-4c22-be41-d6c39fdb02fd))
  (pad "T6" smd circle (at -7.5 2.5) (size 0.5 0.5) (layers "F.Cu" "F.Paste" "F.Mask") (tstamp 7b425419-38e3-494e-ad11-7063b362ceca))
  (pad "T7" smd circle (at -6.5 2.5) (size 0.5 0.5) (layers "F.Cu" "F.Paste" "F.Mask") (tstamp e1ccf9f2-1518-4b37-a41c-a668b685a874))
  (pad "T8" smd circle (at -5.5 2.5) (size 0.5 0.5) (layers "F.Cu" "F.Paste" "F.Mask") (tstamp 6b21383e-d088-48bb-b9af-686b6a129a31))
  (pad "T9" smd circle (at -4.5 2.5) (size 0.5 0.5) (layers "F.Cu" "F.Paste" "F.Mask") (tstamp 887a183a-9070-4962-aa19-8f459abb2bd1))
  (pad "T10" smd circle (at -3.5 2.5) (size 0.5 0.5) (layers "F.Cu" "F.Paste" "F.Mask") (tstamp f318dc52-4407-4fe8-b4c1-0bb0913d7c66))
  (pad "T11" smd circle (at -2.5 2.5) (size 0.5 0.5) (layers "F.Cu" "F.Paste" "F.Mask") (tstamp 82b31c09-8126-496a-adbd-e28a706a4129))
  (pad "T12" smd circle (at -1.5 2.5) (size 0.5 0.5) (layers "F.Cu" "F.Paste" "F.Mask") (tstamp da42fdc2-e1a3-420a-b66d-57b78907043d))
  (pad "T13" smd circle (at -0.5 2.5) (size 0.5 0.5) (layers "F.Cu" "F.Paste" "F.Mask") (tstamp 5cf501e4-5d24-4778-8790-6abfe988a90a))
  (pad "T14" smd circle (at 0.5 2.5) (size 0.5 0.5) (layers "F.Cu" "F.Paste" "F.Mask") (tstamp 054d3753-6367-4b1e-8f32-7665f909f7f9))
  (pad "T15" smd circle (at 1.5 2.5) (size 0.5 0.5) (layers "F.Cu" "F.Paste" "F.Mask") (tstamp cf6fd5f3-2da1-49af-bb15-eb62c05f8717))
  (pad "T16" smd circle (at 2.5 2.5) (size 0.5 0.5) (layers "F.Cu" "F.Paste" "F.Mask") (tstamp 81769b31-f1af-4024-a4d1-d99c3d5db2bc))
  (pad "T17" smd circle (at 3.5 2.5) (size 0.5 0.5) (layers "F.Cu" "F.Paste" "F.Mask") (tstamp 973194f6-5c0a-48fc-863e-c552943a3f41))
  (pad "T18" smd circle (at 4.5 2.5) (size 0.5 0.5) (layers "F.Cu" "F.Paste" "F.Mask") (tstamp cc665ce0-a7ce-4c68-a9ea-5000290d842a))
  (pad "T19" smd circle (at 5.5 2.5) (size 0.5 0.5) (layers "F.Cu" "F.Paste" "F.Mask") (tstamp 531e3e53-4bec-44f6-a720-a96641838014))
  (pad "T20" smd circle (at 6.5 2.5) (size 0.5 0.5) (layers "F.Cu" "F.Paste" "F.Mask") (tstamp d1635ae0-9eac-4c06-a7be-0f809e851df8))
  (pad "T21" smd circle (at 7.5 2.5) (size 0.5 0.5) (layers "F.Cu" "F.Paste" "F.Mask") (tstamp fca835cb-91e6-4017-bd53-fb53a639efe3))
  (pad "T22" smd circle (at 8.5 2.5) (size 0.5 0.5) (layers "F.Cu" "F.Paste" "F.Mask") (tstamp f5038e06-49f1-4053-94a6-1efbcf990b70))
  (pad "T23" smd circle (at 9.5 2.5) (size 0.5 0.5) (layers "F.Cu" "F.Paste" "F.Mask") (tstamp 582cfc41-8e9f-418d-9e36-8100d7fa4cb0))
  (pad "T24" smd circle (at 10.5 2.5) (size 0.5 0.5) (layers "F.Cu" "F.Paste" "F.Mask") (tstamp 7e9d2775-7d13-436d-ad29-0a2568315cb3))
  (pad "T25" smd circle (at 11.5 2.5) (size 0.5 0.5) (layers "F.Cu" "F.Paste" "F.Mask") (tstamp 86aeeb7e-f5a0-4433-abb4-b942d8a04984))
  (pad "T26" smd circle (at 12.5 2.5) (size 0.5 0.5) (layers "F.Cu" "F.Paste" "F.Mask") (tstamp 8dc526be-2bc9-4e37-83f2-bb9e5b7b9e7f))
  (pad "U1" smd circle (at -12.5 3.5) (size 0.5 0.5) (layers "F.Cu" "F.Paste" "F.Mask") (tstamp 122afa77-54e4-4af8-b217-6e029e6f3583))
  (pad "U2" smd circle (at -11.5 3.5) (size 0.5 0.5) (layers "F.Cu" "F.Paste" "F.Mask") (tstamp e400566f-a244-49b3-8771-25ed85a2c91d))
  (pad "U3" smd circle (at -10.5 3.5) (size 0.5 0.5) (layers "F.Cu" "F.Paste" "F.Mask") (tstamp 1922508b-205f-49ec-8cd1-4aced02be61c))
  (pad "U4" smd circle (at -9.5 3.5) (size 0.5 0.5) (layers "F.Cu" "F.Paste" "F.Mask") (tstamp a22aa30e-6dae-4b70-9b14-47eefde89958))
  (pad "U5" smd circle (at -8.5 3.5) (size 0.5 0.5) (layers "F.Cu" "F.Paste" "F.Mask") (tstamp 016c1059-68d6-428a-9560-40f923e3dad1))
  (pad "U6" smd circle (at -7.5 3.5) (size 0.5 0.5) (layers "F.Cu" "F.Paste" "F.Mask") (tstamp 33bd01ee-853e-4b74-8477-dc7b441e1565))
  (pad "U7" smd circle (at -6.5 3.5) (size 0.5 0.5) (layers "F.Cu" "F.Paste" "F.Mask") (tstamp 8dcf44dd-efea-42bd-9431-64991ccd00f5))
  (pad "U8" smd circle (at -5.5 3.5) (size 0.5 0.5) (layers "F.Cu" "F.Paste" "F.Mask") (tstamp 88d896af-4b16-48d5-b089-03bb1942edab))
  (pad "U9" smd circle (at -4.5 3.5) (size 0.5 0.5) (layers "F.Cu" "F.Paste" "F.Mask") (tstamp 1bebb416-f2ed-4f0e-a63c-641ac179161c))
  (pad "U10" smd circle (at -3.5 3.5) (size 0.5 0.5) (layers "F.Cu" "F.Paste" "F.Mask") (tstamp 09d56cfa-0269-4a12-865e-352108124c2e))
  (pad "U11" smd circle (at -2.5 3.5) (size 0.5 0.5) (layers "F.Cu" "F.Paste" "F.Mask") (tstamp 5eb4aee7-6558-443e-bdb9-a4073615e675))
  (pad "U12" smd circle (at -1.5 3.5) (size 0.5 0.5) (layers "F.Cu" "F.Paste" "F.Mask") (tstamp 98b84f1d-5b10-4190-993e-313c28ba656f))
  (pad "U13" smd circle (at -0.5 3.5) (size 0.5 0.5) (layers "F.Cu" "F.Paste" "F.Mask") (tstamp 079376e3-488c-49d2-844d-7b24e052b51d))
  (pad "U14" smd circle (at 0.5 3.5) (size 0.5 0.5) (layers "F.Cu" "F.Paste" "F.Mask") (tstamp 4350ffac-b044-4b5b-82d0-9ffb55430081))
  (pad "U15" smd circle (at 1.5 3.5) (size 0.5 0.5) (layers "F.Cu" "F.Paste" "F.Mask") (tstamp 30402911-3645-44b6-b046-dfd558506a1a))
  (pad "U16" smd circle (at 2.5 3.5) (size 0.5 0.5) (layers "F.Cu" "F.Paste" "F.Mask") (tstamp c8d02872-ded3-4a36-a02f-f81d5d143d50))
  (pad "U17" smd circle (at 3.5 3.5) (size 0.5 0.5) (layers "F.Cu" "F.Paste" "F.Mask") (tstamp b9796e10-cc22-44a0-abc3-fe17f79a3e41))
  (pad "U18" smd circle (at 4.5 3.5) (size 0.5 0.5) (layers "F.Cu" "F.Paste" "F.Mask") (tstamp 971af235-5021-4626-bc65-9a589ee5fac4))
  (pad "U19" smd circle (at 5.5 3.5) (size 0.5 0.5) (layers "F.Cu" "F.Paste" "F.Mask") (tstamp 0a5ff17d-d088-45d7-b7cf-c1c0295c5462))
  (pad "U20" smd circle (at 6.5 3.5) (size 0.5 0.5) (layers "F.Cu" "F.Paste" "F.Mask") (tstamp 96963a95-856d-4841-802d-06c96e2114e8))
  (pad "U21" smd circle (at 7.5 3.5) (size 0.5 0.5) (layers "F.Cu" "F.Paste" "F.Mask") (tstamp 3b7473f1-dc54-4e7d-9e00-a9e20a96c4d1))
  (pad "U22" smd circle (at 8.5 3.5) (size 0.5 0.5) (layers "F.Cu" "F.Paste" "F.Mask") (tstamp 12adf8dc-0ae4-4567-be6c-9172869dcb21))
  (pad "U23" smd circle (at 9.5 3.5) (size 0.5 0.5) (layers "F.Cu" "F.Paste" "F.Mask") (tstamp 5ea06fba-7873-442c-aa03-a47fc3820cba))
  (pad "U24" smd circle (at 10.5 3.5) (size 0.5 0.5) (layers "F.Cu" "F.Paste" "F.Mask") (tstamp ed032dea-ead0-44bf-a61b-d31e925418d3))
  (pad "U25" smd circle (at 11.5 3.5) (size 0.5 0.5) (layers "F.Cu" "F.Paste" "F.Mask") (tstamp 5b589bf2-db9e-42cb-b7d8-3f6de505f993))
  (pad "U26" smd circle (at 12.5 3.5) (size 0.5 0.5) (layers "F.Cu" "F.Paste" "F.Mask") (tstamp ae58eecc-d495-4f86-9828-0cd4d94c26b9))
  (pad "V1" smd circle (at -12.5 4.5) (size 0.5 0.5) (layers "F.Cu" "F.Paste" "F.Mask") (tstamp 378da3ac-118b-404f-97cc-028998879fda))
  (pad "V2" smd circle (at -11.5 4.5) (size 0.5 0.5) (layers "F.Cu" "F.Paste" "F.Mask") (tstamp 1989c79e-de4c-494d-be1b-ee87411cd40a))
  (pad "V3" smd circle (at -10.5 4.5) (size 0.5 0.5) (layers "F.Cu" "F.Paste" "F.Mask") (tstamp 214e352d-55d8-4422-aded-f5b6f1b2c090))
  (pad "V4" smd circle (at -9.5 4.5) (size 0.5 0.5) (layers "F.Cu" "F.Paste" "F.Mask") (tstamp a1d99de6-87c7-46b4-9eb3-1e8ad3ed30ca))
  (pad "V5" smd circle (at -8.5 4.5) (size 0.5 0.5) (layers "F.Cu" "F.Paste" "F.Mask") (tstamp 716aa94f-1b09-428d-917f-25604ee9765e))
  (pad "V6" smd circle (at -7.5 4.5) (size 0.5 0.5) (layers "F.Cu" "F.Paste" "F.Mask") (tstamp 57c549fb-e746-4c3e-93ca-a8645e062b90))
  (pad "V7" smd circle (at -6.5 4.5) (size 0.5 0.5) (layers "F.Cu" "F.Paste" "F.Mask") (tstamp d3954bf2-5285-41bb-858f-6d441751b07c))
  (pad "V8" smd circle (at -5.5 4.5) (size 0.5 0.5) (layers "F.Cu" "F.Paste" "F.Mask") (tstamp f9bbcbc2-b1d1-4058-b51f-89b0fe22ce04))
  (pad "V9" smd circle (at -4.5 4.5) (size 0.5 0.5) (layers "F.Cu" "F.Paste" "F.Mask") (tstamp b202c929-47f0-45c9-b1ea-aa0e30dc38ca))
  (pad "V10" smd circle (at -3.5 4.5) (size 0.5 0.5) (layers "F.Cu" "F.Paste" "F.Mask") (tstamp fec53433-194b-4ce0-aa3e-43cf2a2f0494))
  (pad "V11" smd circle (at -2.5 4.5) (size 0.5 0.5) (layers "F.Cu" "F.Paste" "F.Mask") (tstamp a197c039-325d-422a-b893-5fffac859831))
  (pad "V12" smd circle (at -1.5 4.5) (size 0.5 0.5) (layers "F.Cu" "F.Paste" "F.Mask") (tstamp 57e9e169-64ad-4ff1-b09a-222c1cf09b24))
  (pad "V13" smd circle (at -0.5 4.5) (size 0.5 0.5) (layers "F.Cu" "F.Paste" "F.Mask") (tstamp 68742e35-0ad1-44b7-983e-2d93bf81b228))
  (pad "V14" smd circle (at 0.5 4.5) (size 0.5 0.5) (layers "F.Cu" "F.Paste" "F.Mask") (tstamp 397829f0-3b09-4e58-87ab-f1da8bbe439b))
  (pad "V15" smd circle (at 1.5 4.5) (size 0.5 0.5) (layers "F.Cu" "F.Paste" "F.Mask") (tstamp 5ca09c13-7005-40aa-90c8-34693051092b))
  (pad "V16" smd circle (at 2.5 4.5) (size 0.5 0.5) (layers "F.Cu" "F.Paste" "F.Mask") (tstamp fbd51d9a-a8d0-4cb1-8837-c38470060699))
  (pad "V17" smd circle (at 3.5 4.5) (size 0.5 0.5) (layers "F.Cu" "F.Paste" "F.Mask") (tstamp e4e26571-1c62-4f16-b7da-7f73b7907764))
  (pad "V18" smd circle (at 4.5 4.5) (size 0.5 0.5) (layers "F.Cu" "F.Paste" "F.Mask") (tstamp 24e7f5f3-558b-4fa3-9587-c1a93b8e4575))
  (pad "V19" smd circle (at 5.5 4.5) (size 0.5 0.5) (layers "F.Cu" "F.Paste" "F.Mask") (tstamp d0c1c09e-5fa6-4fbd-9c31-57feaa0c179d))
  (pad "V20" smd circle (at 6.5 4.5) (size 0.5 0.5) (layers "F.Cu" "F.Paste" "F.Mask") (tstamp 5c0d1516-f6ea-4caf-b09c-f246ddcf4e4b))
  (pad "V21" smd circle (at 7.5 4.5) (size 0.5 0.5) (layers "F.Cu" "F.Paste" "F.Mask") (tstamp 20b2f799-7787-4564-88f8-2fee95f03793))
  (pad "V22" smd circle (at 8.5 4.5) (size 0.5 0.5) (layers "F.Cu" "F.Paste" "F.Mask") (tstamp 8e3fc36f-819e-4ae7-9bed-5449790770b1))
  (pad "V23" smd circle (at 9.5 4.5) (size 0.5 0.5) (layers "F.Cu" "F.Paste" "F.Mask") (tstamp 577a6b51-2a31-407d-8440-e4603f2a5396))
  (pad "V24" smd circle (at 10.5 4.5) (size 0.5 0.5) (layers "F.Cu" "F.Paste" "F.Mask") (tstamp 4538b708-474d-4163-aaeb-8e7291a72d55))
  (pad "V25" smd circle (at 11.5 4.5) (size 0.5 0.5) (layers "F.Cu" "F.Paste" "F.Mask") (tstamp a33effa6-716c-4c08-a4a5-9ab300d28f5e))
  (pad "V26" smd circle (at 12.5 4.5) (size 0.5 0.5) (layers "F.Cu" "F.Paste" "F.Mask") (tstamp 812dc281-8075-425d-8e3b-d802e3efe682))
  (pad "W1" smd circle (at -12.5 5.5) (size 0.5 0.5) (layers "F.Cu" "F.Paste" "F.Mask") (tstamp 3324af4f-8c48-4cb4-b12c-a8bf41893dcf))
  (pad "W2" smd circle (at -11.5 5.5) (size 0.5 0.5) (layers "F.Cu" "F.Paste" "F.Mask") (tstamp 0c372f85-4714-438f-9f93-bcac9da03c4a))
  (pad "W3" smd circle (at -10.5 5.5) (size 0.5 0.5) (layers "F.Cu" "F.Paste" "F.Mask") (tstamp 99e9b446-4112-49e6-bc17-96cf189f9a75))
  (pad "W4" smd circle (at -9.5 5.5) (size 0.5 0.5) (layers "F.Cu" "F.Paste" "F.Mask") (tstamp 717d35bb-c5f0-4d91-b7a8-5aa0ac95ee72))
  (pad "W5" smd circle (at -8.5 5.5) (size 0.5 0.5) (layers "F.Cu" "F.Paste" "F.Mask") (tstamp d9916e51-e42e-4e47-ae19-9ea5a4d14694))
  (pad "W6" smd circle (at -7.5 5.5) (size 0.5 0.5) (layers "F.Cu" "F.Paste" "F.Mask") (tstamp 300c0247-9b35-46e0-8d42-e5473a4adbfd))
  (pad "W7" smd circle (at -6.5 5.5) (size 0.5 0.5) (layers "F.Cu" "F.Paste" "F.Mask") (tstamp 586fbad1-dc55-47a2-9d34-0256b9cf23c5))
  (pad "W8" smd circle (at -5.5 5.5) (size 0.5 0.5) (layers "F.Cu" "F.Paste" "F.Mask") (tstamp 90c2c2e5-d37c-4862-95ec-bfc281c4b194))
  (pad "W9" smd circle (at -4.5 5.5) (size 0.5 0.5) (layers "F.Cu" "F.Paste" "F.Mask") (tstamp d5d135ac-7ebe-4c86-a0be-8310178d65cb))
  (pad "W10" smd circle (at -3.5 5.5) (size 0.5 0.5) (layers "F.Cu" "F.Paste" "F.Mask") (tstamp 6502d0ee-eeb2-4b3c-a59a-1e255f330da1))
  (pad "W11" smd circle (at -2.5 5.5) (size 0.5 0.5) (layers "F.Cu" "F.Paste" "F.Mask") (tstamp ce5347a4-a86c-4ee9-b9bd-f02c07a6714a))
  (pad "W12" smd circle (at -1.5 5.5) (size 0.5 0.5) (layers "F.Cu" "F.Paste" "F.Mask") (tstamp d8ad4326-7899-4ace-a133-d0d4347d0d36))
  (pad "W13" smd circle (at -0.5 5.5) (size 0.5 0.5) (layers "F.Cu" "F.Paste" "F.Mask") (tstamp e8d2de5f-489b-4580-a708-03e6c27e6b5d))
  (pad "W14" smd circle (at 0.5 5.5) (size 0.5 0.5) (layers "F.Cu" "F.Paste" "F.Mask") (tstamp 2232b391-dd43-42df-96e9-d20e515689b9))
  (pad "W15" smd circle (at 1.5 5.5) (size 0.5 0.5) (layers "F.Cu" "F.Paste" "F.Mask") (tstamp 6b7c0b9d-a657-49fa-9298-73dd2f64a53a))
  (pad "W16" smd circle (at 2.5 5.5) (size 0.5 0.5) (layers "F.Cu" "F.Paste" "F.Mask") (tstamp 9c6c6f43-a135-4480-993f-32bef5d2af23))
  (pad "W17" smd circle (at 3.5 5.5) (size 0.5 0.5) (layers "F.Cu" "F.Paste" "F.Mask") (tstamp ebe4ef7a-14de-4953-8c84-241f40e4d8e4))
  (pad "W18" smd circle (at 4.5 5.5) (size 0.5 0.5) (layers "F.Cu" "F.Paste" "F.Mask") (tstamp 7fc36d7d-8683-45d6-8b2e-7cf0d5052b91))
  (pad "W19" smd circle (at 5.5 5.5) (size 0.5 0.5) (layers "F.Cu" "F.Paste" "F.Mask") (tstamp c1ec1ece-e53b-40e5-8e66-54945069a2f3))
  (pad "W20" smd circle (at 6.5 5.5) (size 0.5 0.5) (layers "F.Cu" "F.Paste" "F.Mask") (tstamp af8a789a-0129-4d48-bdf9-f54d2734dbf6))
  (pad "W21" smd circle (at 7.5 5.5) (size 0.5 0.5) (layers "F.Cu" "F.Paste" "F.Mask") (tstamp 1ba1e352-a4ca-442e-9aaa-1fd380687b70))
  (pad "W22" smd circle (at 8.5 5.5) (size 0.5 0.5) (layers "F.Cu" "F.Paste" "F.Mask") (tstamp a84c08f4-7c95-4c94-b3a1-cb5081d3297c))
  (pad "W23" smd circle (at 9.5 5.5) (size 0.5 0.5) (layers "F.Cu" "F.Paste" "F.Mask") (tstamp f7e7218c-d547-40ec-9484-163a636727e1))
  (pad "W24" smd circle (at 10.5 5.5) (size 0.5 0.5) (layers "F.Cu" "F.Paste" "F.Mask") (tstamp fdab6d8d-93ad-4203-ad06-aa2729052e4b))
  (pad "W25" smd circle (at 11.5 5.5) (size 0.5 0.5) (layers "F.Cu" "F.Paste" "F.Mask") (tstamp f44bab95-14f5-415b-803a-671b0cd8c2eb))
  (pad "W26" smd circle (at 12.5 5.5) (size 0.5 0.5) (layers "F.Cu" "F.Paste" "F.Mask") (tstamp ed2169f7-5ad6-4bfd-9695-79990c56db90))
  (pad "Y1" smd circle (at -12.5 6.5) (size 0.5 0.5) (layers "F.Cu" "F.Paste" "F.Mask") (tstamp 5ec948a3-0471-4549-b152-d07fa6948922))
  (pad "Y2" smd circle (at -11.5 6.5) (size 0.5 0.5) (layers "F.Cu" "F.Paste" "F.Mask") (tstamp ce905231-7fc5-4176-92ff-2396ad94fcf1))
  (pad "Y3" smd circle (at -10.5 6.5) (size 0.5 0.5) (layers "F.Cu" "F.Paste" "F.Mask") (tstamp 0b80e4c7-a18f-403d-822b-edbe27a75a85))
  (pad "Y4" smd circle (at -9.5 6.5) (size 0.5 0.5) (layers "F.Cu" "F.Paste" "F.Mask") (tstamp 4582cb6b-56a8-44b2-bf37-c29afffa209c))
  (pad "Y5" smd circle (at -8.5 6.5) (size 0.5 0.5) (layers "F.Cu" "F.Paste" "F.Mask") (tstamp cba77ba5-2791-407f-85e3-846a9fe290cb))
  (pad "Y6" smd circle (at -7.5 6.5) (size 0.5 0.5) (layers "F.Cu" "F.Paste" "F.Mask") (tstamp e1302234-58b2-444e-9a3d-a0c71e1e9a8b))
  (pad "Y7" smd circle (at -6.5 6.5) (size 0.5 0.5) (layers "F.Cu" "F.Paste" "F.Mask") (tstamp 7766a715-9dd6-4283-80c7-f73b9a155e01))
  (pad "Y8" smd circle (at -5.5 6.5) (size 0.5 0.5) (layers "F.Cu" "F.Paste" "F.Mask") (tstamp 7c5fd03e-9158-405b-8ebd-cd071ebb60e2))
  (pad "Y9" smd circle (at -4.5 6.5) (size 0.5 0.5) (layers "F.Cu" "F.Paste" "F.Mask") (tstamp 95c4aad3-ff11-42ae-96d6-86931257aa36))
  (pad "Y10" smd circle (at -3.5 6.5) (size 0.5 0.5) (layers "F.Cu" "F.Paste" "F.Mask") (tstamp 2111c75d-bd28-47b1-b697-67ea3a26e53e))
  (pad "Y11" smd circle (at -2.5 6.5) (size 0.5 0.5) (layers "F.Cu" "F.Paste" "F.Mask") (tstamp 20de281c-ecd7-443a-9a36-005a5f146431))
  (pad "Y12" smd circle (at -1.5 6.5) (size 0.5 0.5) (layers "F.Cu" "F.Paste" "F.Mask") (tstamp 1ed25a65-4e2f-4a5d-a0ab-fdb4219171e4))
  (pad "Y13" smd circle (at -0.5 6.5) (size 0.5 0.5) (layers "F.Cu" "F.Paste" "F.Mask") (tstamp 134f0947-785d-4d53-93d9-787a2df6a7f9))
  (pad "Y14" smd circle (at 0.5 6.5) (size 0.5 0.5) (layers "F.Cu" "F.Paste" "F.Mask") (tstamp 431ce92b-4ef7-458b-b170-d04628584c37))
  (pad "Y15" smd circle (at 1.5 6.5) (size 0.5 0.5) (layers "F.Cu" "F.Paste" "F.Mask") (tstamp fde68f32-c807-4b30-ae0b-9e514af7ead8))
  (pad "Y16" smd circle (at 2.5 6.5) (size 0.5 0.5) (layers "F.Cu" "F.Paste" "F.Mask") (tstamp 45f3902e-230e-40cb-8bd5-27668544088e))
  (pad "Y17" smd circle (at 3.5 6.5) (size 0.5 0.5) (layers "F.Cu" "F.Paste" "F.Mask") (tstamp 83fd6a30-41bb-480b-aa78-f216220323cc))
  (pad "Y18" smd circle (at 4.5 6.5) (size 0.5 0.5) (layers "F.Cu" "F.Paste" "F.Mask") (tstamp a0cec2e0-08b8-4522-bdcb-2e602d5a8c5b))
  (pad "Y19" smd circle (at 5.5 6.5) (size 0.5 0.5) (layers "F.Cu" "F.Paste" "F.Mask") (tstamp 4fa68a24-35fd-49a3-9241-1ebace0449a6))
  (pad "Y20" smd circle (at 6.5 6.5) (size 0.5 0.5) (layers "F.Cu" "F.Paste" "F.Mask") (tstamp 05ad2547-8403-42b4-806c-aae9c9bf61f6))
  (pad "Y21" smd circle (at 7.5 6.5) (size 0.5 0.5) (layers "F.Cu" "F.Paste" "F.Mask") (tstamp 2ddd5999-0fc2-4d30-be2b-02edd8075ce7))
  (pad "Y22" smd circle (at 8.5 6.5) (size 0.5 0.5) (layers "F.Cu" "F.Paste" "F.Mask") (tstamp 43842a5f-03e8-4ce6-9eea-1973bdc4c067))
  (pad "Y23" smd circle (at 9.5 6.5) (size 0.5 0.5) (layers "F.Cu" "F.Paste" "F.Mask") (tstamp e52a68be-22bb-41b1-836c-58396ca1f088))
  (pad "Y24" smd circle (at 10.5 6.5) (size 0.5 0.5) (layers "F.Cu" "F.Paste" "F.Mask") (tstamp 53125d7a-526c-4f8c-ad39-7cb7cb513a23))
  (pad "Y25" smd circle (at 11.5 6.5) (size 0.5 0.5) (layers "F.Cu" "F.Paste" "F.Mask") (tstamp 84b74653-46ba-483b-9332-04e03c950be8))
  (pad "Y26" smd circle (at 12.5 6.5) (size 0.5 0.5) (layers "F.Cu" "F.Paste" "F.Mask") (tstamp 87e47238-b4a1-4dbc-a944-42d76513a960))
  (model "${KICAD6_3DMODEL_DIR}/Package_BGA.3dshapes/BGA-676_27.0x27.0mm_Layout26x26_P1.0mm_Ball0.6mm_Pad0.5mm_NSMD.wrl"
    (offset (xyz 0 0 0))
    (scale (xyz 1 1 1))
    (rotate (xyz 0 0 0))
  )
)
