(footprint "FBGA-78_7.5x11mm_Layout2x3x13_P0.8mm" (version 20221018) (generator pcbnew)
  (layer "F.Cu")
  (descr "FBGA-78, https://www.skhynix.com/product/filedata/fileDownload.do?seq=7687")
  (tags "FBGA-78")
  (attr smd)
  (fp_text reference "REF**" (at 0 -6.48) (layer "F.SilkS")
      (effects (font (size 1 1) (thickness 0.15)))
    (tstamp 3bd5247d-d948-46d4-9c0c-b8c394c64d86)
  )
  (fp_text value "FBGA-78_7.5x11mm_Layout2x3x13_P0.8mm" (at 0 6.55) (layer "F.Fab")
      (effects (font (size 1 1) (thickness 0.15)))
    (tstamp 5b3882a4-7d16-40fe-afdc-f7a2515a20c6)
  )
  (fp_text user "${REFERENCE}" (at 0 0) (layer "F.Fab")
      (effects (font (size 1 1) (thickness 0.15)))
    (tstamp 0d76e32c-4e0a-4e1e-a654-652790de6ffb)
  )
  (fp_line (start -4.05 -5.8) (end -3.35 -5.8)
    (stroke (width 0.12) (type solid)) (layer "F.SilkS") (tstamp 20a90823-9068-424a-9b8c-b0c15c79e1a4))
  (fp_line (start -4.05 -5.1) (end -4.05 -5.8)
    (stroke (width 0.12) (type solid)) (layer "F.SilkS") (tstamp 02ee02be-57c5-4408-84b5-2ccdf49462e5))
  (fp_line (start -3.85 -5.6) (end 3.85 -5.6)
    (stroke (width 0.12) (type solid)) (layer "F.SilkS") (tstamp 7b9f543c-38d9-4dbe-9ebe-800002bcbc9b))
  (fp_line (start -3.85 5.6) (end -3.85 -5.6)
    (stroke (width 0.12) (type solid)) (layer "F.SilkS") (tstamp d1f2ce58-336d-45ff-aeb1-7664d4e26358))
  (fp_line (start 3.85 -5.6) (end 3.85 5.6)
    (stroke (width 0.12) (type solid)) (layer "F.SilkS") (tstamp 308e9f85-e413-4736-9a18-9c2d54f50512))
  (fp_line (start 3.85 5.6) (end -3.85 5.6)
    (stroke (width 0.12) (type solid)) (layer "F.SilkS") (tstamp 4933ac41-3467-4c6b-af7a-4c41f831b912))
  (fp_line (start -4.75 -6.5) (end -4.75 6.5)
    (stroke (width 0.05) (type solid)) (layer "F.CrtYd") (tstamp 2f750045-6c59-4c0e-a901-dc51077fb71e))
  (fp_line (start -4.75 -6.5) (end 4.75 -6.5)
    (stroke (width 0.05) (type solid)) (layer "F.CrtYd") (tstamp 2015b532-f028-4a95-b680-f2987cddaac8))
  (fp_line (start -4.75 6.5) (end 4.75 6.5)
    (stroke (width 0.05) (type solid)) (layer "F.CrtYd") (tstamp 31eb3a5c-666f-470d-b924-d2335b9d3e42))
  (fp_line (start 4.75 6.5) (end 4.75 -6.5)
    (stroke (width 0.05) (type solid)) (layer "F.CrtYd") (tstamp 112d9951-7a58-4f3d-87c1-e8153248bcdc))
  (fp_line (start -3.75 -5) (end -3.75 5.5)
    (stroke (width 0.1) (type solid)) (layer "F.Fab") (tstamp 0e5f62a0-feb3-4b95-ac72-7e36a41c514b))
  (fp_line (start -3.75 -5) (end -3.25 -5.5)
    (stroke (width 0.1) (type solid)) (layer "F.Fab") (tstamp 29005ede-e8f5-4df6-9631-af61b6c98f58))
  (fp_line (start -3.75 5.5) (end 3.75 5.5)
    (stroke (width 0.1) (type solid)) (layer "F.Fab") (tstamp 3159e5b8-12f4-4efb-84f0-590d70bc2bb7))
  (fp_line (start 3.75 -5.5) (end -3.25 -5.5)
    (stroke (width 0.1) (type solid)) (layer "F.Fab") (tstamp fbb6c279-2c37-4a24-83e3-ea6bed3b5c38))
  (fp_line (start 3.75 5.5) (end 3.75 -5.5)
    (stroke (width 0.1) (type solid)) (layer "F.Fab") (tstamp 8e481c54-6e2c-4a23-a34a-f1fe7c98f3d1))
  (pad "A1" smd circle (at -3.2 -4.8) (size 0.42 0.42) (layers "F.Cu" "F.Paste" "F.Mask") (tstamp 42b81756-32cd-4502-b925-c39e54585888))
  (pad "A2" smd circle (at -2.4 -4.8) (size 0.42 0.42) (layers "F.Cu" "F.Paste" "F.Mask") (tstamp adb08276-32f1-4a5c-91d8-03cee0a0d165))
  (pad "A3" smd circle (at -1.6 -4.8) (size 0.42 0.42) (layers "F.Cu" "F.Paste" "F.Mask") (tstamp 6df18f44-ecda-4443-8a60-5310a89bdefd))
  (pad "A7" smd circle (at 1.6 -4.8) (size 0.42 0.42) (layers "F.Cu" "F.Paste" "F.Mask") (tstamp 7223ac2b-79ce-4265-85f6-1dde3d1a7501))
  (pad "A8" smd circle (at 2.4 -4.8) (size 0.42 0.42) (layers "F.Cu" "F.Paste" "F.Mask") (tstamp cfb347da-a27f-49fc-9f9c-469018b659a4))
  (pad "A9" smd circle (at 3.2 -4.8) (size 0.42 0.42) (layers "F.Cu" "F.Paste" "F.Mask") (tstamp 35295d1d-e10e-47e8-bdca-cfe6f639bea9))
  (pad "B1" smd circle (at -3.2 -4) (size 0.42 0.42) (layers "F.Cu" "F.Paste" "F.Mask") (tstamp 598453ed-eb68-4025-9c1c-cc107fa86e67))
  (pad "B2" smd circle (at -2.4 -4) (size 0.42 0.42) (layers "F.Cu" "F.Paste" "F.Mask") (tstamp 939b5c88-ecf5-4d3b-9921-b4f283b2ad14))
  (pad "B3" smd circle (at -1.6 -4) (size 0.42 0.42) (layers "F.Cu" "F.Paste" "F.Mask") (tstamp b08a84c7-6e49-4e61-ab1c-130be6eb6f30))
  (pad "B7" smd circle (at 1.6 -4) (size 0.42 0.42) (layers "F.Cu" "F.Paste" "F.Mask") (tstamp 211d313f-c2ce-4836-96c6-ed7a75e65a8b))
  (pad "B8" smd circle (at 2.4 -4) (size 0.42 0.42) (layers "F.Cu" "F.Paste" "F.Mask") (tstamp 8c0ef7d1-a65e-4d04-b976-7c7f80d3a9fe))
  (pad "B9" smd circle (at 3.2 -4) (size 0.42 0.42) (layers "F.Cu" "F.Paste" "F.Mask") (tstamp b6ac01a7-8d6a-45c7-8e4c-1df70c2ef08d))
  (pad "C1" smd circle (at -3.2 -3.2) (size 0.42 0.42) (layers "F.Cu" "F.Paste" "F.Mask") (tstamp 9b420c98-6d52-4a6f-b6a3-f9deb004c1c0))
  (pad "C2" smd circle (at -2.4 -3.2) (size 0.42 0.42) (layers "F.Cu" "F.Paste" "F.Mask") (tstamp 153009b0-f07c-4112-ae1b-696068db65b4))
  (pad "C3" smd circle (at -1.6 -3.2) (size 0.42 0.42) (layers "F.Cu" "F.Paste" "F.Mask") (tstamp 8899b11b-17d0-41d5-be96-bb0bcbf736be))
  (pad "C7" smd circle (at 1.6 -3.2) (size 0.42 0.42) (layers "F.Cu" "F.Paste" "F.Mask") (tstamp 86f223c5-d277-4f9a-bf45-c3ed7a435898))
  (pad "C8" smd circle (at 2.4 -3.2) (size 0.42 0.42) (layers "F.Cu" "F.Paste" "F.Mask") (tstamp 90a01b59-c263-4282-9f32-43cdc94b09fa))
  (pad "C9" smd circle (at 3.2 -3.2) (size 0.42 0.42) (layers "F.Cu" "F.Paste" "F.Mask") (tstamp 22517497-135a-4144-b9ca-78eda67fd422))
  (pad "D1" smd circle (at -3.2 -2.4) (size 0.42 0.42) (layers "F.Cu" "F.Paste" "F.Mask") (tstamp 4a374c35-91fd-4d2f-8e9a-88a97b330792))
  (pad "D2" smd circle (at -2.4 -2.4) (size 0.42 0.42) (layers "F.Cu" "F.Paste" "F.Mask") (tstamp 7d9066a2-dfd2-4d0d-897f-d575ff62bd31))
  (pad "D3" smd circle (at -1.6 -2.4) (size 0.42 0.42) (layers "F.Cu" "F.Paste" "F.Mask") (tstamp 6110d7c9-522e-4dd1-bde0-465fb7060e58))
  (pad "D7" smd circle (at 1.6 -2.4) (size 0.42 0.42) (layers "F.Cu" "F.Paste" "F.Mask") (tstamp eff008f6-6c04-4167-9c87-4e11c52eac65))
  (pad "D8" smd circle (at 2.4 -2.4) (size 0.42 0.42) (layers "F.Cu" "F.Paste" "F.Mask") (tstamp 9194cae5-e330-42d3-bc8e-b7eb3d1622fa))
  (pad "D9" smd circle (at 3.2 -2.4) (size 0.42 0.42) (layers "F.Cu" "F.Paste" "F.Mask") (tstamp 6b93b803-873b-4c06-abf8-afc685c09a1b))
  (pad "E1" smd circle (at -3.2 -1.6) (size 0.42 0.42) (layers "F.Cu" "F.Paste" "F.Mask") (tstamp b7dd00c2-f1c0-49a7-9284-06686cc922f2))
  (pad "E2" smd circle (at -2.4 -1.6) (size 0.42 0.42) (layers "F.Cu" "F.Paste" "F.Mask") (tstamp 96f4d7e5-62d8-4c2a-a1e1-bf361d34ea28))
  (pad "E3" smd circle (at -1.6 -1.6) (size 0.42 0.42) (layers "F.Cu" "F.Paste" "F.Mask") (tstamp 386e3d60-5971-4013-ba25-d01438f3bea0))
  (pad "E7" smd circle (at 1.6 -1.6) (size 0.42 0.42) (layers "F.Cu" "F.Paste" "F.Mask") (tstamp 572d8628-f64c-42a6-82ca-6d53573745af))
  (pad "E8" smd circle (at 2.4 -1.6) (size 0.42 0.42) (layers "F.Cu" "F.Paste" "F.Mask") (tstamp 26aaa4d5-5b49-4244-9ec1-256f15c001e4))
  (pad "E9" smd circle (at 3.2 -1.6) (size 0.42 0.42) (layers "F.Cu" "F.Paste" "F.Mask") (tstamp 3f5f264d-272e-400b-9c62-4493532099ba))
  (pad "F1" smd circle (at -3.2 -0.8) (size 0.42 0.42) (layers "F.Cu" "F.Paste" "F.Mask") (tstamp 02f5de00-a4ee-4154-82b5-c5c1e1109a72))
  (pad "F2" smd circle (at -2.4 -0.8) (size 0.42 0.42) (layers "F.Cu" "F.Paste" "F.Mask") (tstamp 604f0ec6-7713-420c-b74e-fa4f7d5455a0))
  (pad "F3" smd circle (at -1.6 -0.8) (size 0.42 0.42) (layers "F.Cu" "F.Paste" "F.Mask") (tstamp 4e72fadb-818b-4def-b2f6-6e80e9894544))
  (pad "F7" smd circle (at 1.6 -0.8) (size 0.42 0.42) (layers "F.Cu" "F.Paste" "F.Mask") (tstamp c3b95838-48d1-40c4-98e1-ac1e97fe4f3b))
  (pad "F8" smd circle (at 2.4 -0.8) (size 0.42 0.42) (layers "F.Cu" "F.Paste" "F.Mask") (tstamp fd94f976-99c1-4ec4-afcb-89e37fa54e21))
  (pad "F9" smd circle (at 3.2 -0.8) (size 0.42 0.42) (layers "F.Cu" "F.Paste" "F.Mask") (tstamp 83c55f36-6ce0-4dd0-b19c-931f7a98d083))
  (pad "G1" smd circle (at -3.2 0) (size 0.42 0.42) (layers "F.Cu" "F.Paste" "F.Mask") (tstamp c6de465f-5f7c-4b0d-918b-f2f749ec3ceb))
  (pad "G2" smd circle (at -2.4 0) (size 0.42 0.42) (layers "F.Cu" "F.Paste" "F.Mask") (tstamp d9a58004-d3fc-4b8a-9754-12ebdcbc65c6))
  (pad "G3" smd circle (at -1.6 0) (size 0.42 0.42) (layers "F.Cu" "F.Paste" "F.Mask") (tstamp 695bc372-c906-4a9d-8140-cff1e59a8775))
  (pad "G7" smd circle (at 1.6 0) (size 0.42 0.42) (layers "F.Cu" "F.Paste" "F.Mask") (tstamp 4d95aa9c-bad8-4387-8b25-9f295a87c2be))
  (pad "G8" smd circle (at 2.4 0) (size 0.42 0.42) (layers "F.Cu" "F.Paste" "F.Mask") (tstamp 40c71ae4-37b5-4a8d-be53-49fa18ed3cf3))
  (pad "G9" smd circle (at 3.2 0) (size 0.42 0.42) (layers "F.Cu" "F.Paste" "F.Mask") (tstamp 5c792cd2-d6a3-4dad-af6a-563657ad9f4a))
  (pad "H1" smd circle (at -3.2 0.8) (size 0.42 0.42) (layers "F.Cu" "F.Paste" "F.Mask") (tstamp 6ace50ff-be8e-4e00-811a-75b7b471cf74))
  (pad "H2" smd circle (at -2.4 0.8) (size 0.42 0.42) (layers "F.Cu" "F.Paste" "F.Mask") (tstamp a37e0b9d-3866-45e0-af9b-82ea56b3d1c1))
  (pad "H3" smd circle (at -1.6 0.8) (size 0.42 0.42) (layers "F.Cu" "F.Paste" "F.Mask") (tstamp 5c52dfe2-1817-493f-a89a-18f77d263ab0))
  (pad "H7" smd circle (at 1.6 0.8) (size 0.42 0.42) (layers "F.Cu" "F.Paste" "F.Mask") (tstamp 3febcd85-cbf6-4ba7-bc49-4f2f2bcb4b9e))
  (pad "H8" smd circle (at 2.4 0.8) (size 0.42 0.42) (layers "F.Cu" "F.Paste" "F.Mask") (tstamp 6138191b-8f42-4d1f-b494-c5ff3bf8d3b0))
  (pad "H9" smd circle (at 3.2 0.8) (size 0.42 0.42) (layers "F.Cu" "F.Paste" "F.Mask") (tstamp bbc5ca07-4109-4426-b89b-9d30b382585b))
  (pad "J1" smd circle (at -3.2 1.6) (size 0.42 0.42) (layers "F.Cu" "F.Paste" "F.Mask") (tstamp 5a72bbf7-b152-42c4-b8d7-f77f20ff6c08))
  (pad "J2" smd circle (at -2.4 1.6) (size 0.42 0.42) (layers "F.Cu" "F.Paste" "F.Mask") (tstamp 1b74839f-56e1-4032-85b2-46711382e366))
  (pad "J3" smd circle (at -1.6 1.6) (size 0.42 0.42) (layers "F.Cu" "F.Paste" "F.Mask") (tstamp cbed541e-cb5d-4d49-b386-cff75199b6cb))
  (pad "J7" smd circle (at 1.6 1.6) (size 0.42 0.42) (layers "F.Cu" "F.Paste" "F.Mask") (tstamp 11c1b938-d1ac-4405-9b68-fb562f2680f3))
  (pad "J8" smd circle (at 2.4 1.6) (size 0.42 0.42) (layers "F.Cu" "F.Paste" "F.Mask") (tstamp 626315ac-7cdd-4328-a12f-ba52c24816b3))
  (pad "J9" smd circle (at 3.2 1.6) (size 0.42 0.42) (layers "F.Cu" "F.Paste" "F.Mask") (tstamp 58b97d8a-d1bd-4edc-9fea-bc2d3ac3a462))
  (pad "K1" smd circle (at -3.2 2.4) (size 0.42 0.42) (layers "F.Cu" "F.Paste" "F.Mask") (tstamp 53ab7526-59f2-4781-8a20-45339d389267))
  (pad "K2" smd circle (at -2.4 2.4) (size 0.42 0.42) (layers "F.Cu" "F.Paste" "F.Mask") (tstamp 460f9c5a-22ee-495c-a9f9-8a80c34c072f))
  (pad "K3" smd circle (at -1.6 2.4) (size 0.42 0.42) (layers "F.Cu" "F.Paste" "F.Mask") (tstamp 607d4840-fe1d-4f52-a501-6419b2ef0f56))
  (pad "K7" smd circle (at 1.6 2.4) (size 0.42 0.42) (layers "F.Cu" "F.Paste" "F.Mask") (tstamp f55b59f7-f5c3-4a24-b67b-204d4be66e34))
  (pad "K8" smd circle (at 2.4 2.4) (size 0.42 0.42) (layers "F.Cu" "F.Paste" "F.Mask") (tstamp 6d3d0086-8462-4b08-ab45-aa09d767ffb0))
  (pad "K9" smd circle (at 3.2 2.4) (size 0.42 0.42) (layers "F.Cu" "F.Paste" "F.Mask") (tstamp 9e5585cb-b9ae-4c37-a945-a340212bb70a))
  (pad "L1" smd circle (at -3.2 3.2) (size 0.42 0.42) (layers "F.Cu" "F.Paste" "F.Mask") (tstamp ef261b18-aabc-45fa-9772-367b312f87d8))
  (pad "L2" smd circle (at -2.4 3.2) (size 0.42 0.42) (layers "F.Cu" "F.Paste" "F.Mask") (tstamp 3a798e62-9c41-40c0-bf90-eb7a63383a14))
  (pad "L3" smd circle (at -1.6 3.2) (size 0.42 0.42) (layers "F.Cu" "F.Paste" "F.Mask") (tstamp bb927bc5-6f3a-4c48-ab8e-1cdfb33daf7b))
  (pad "L7" smd circle (at 1.6 3.2) (size 0.42 0.42) (layers "F.Cu" "F.Paste" "F.Mask") (tstamp 933bff56-2540-434f-990c-a044cd359573))
  (pad "L8" smd circle (at 2.4 3.2) (size 0.42 0.42) (layers "F.Cu" "F.Paste" "F.Mask") (tstamp 364d64bd-2230-4ddf-9caa-65df14f5e60e))
  (pad "L9" smd circle (at 3.2 3.2) (size 0.42 0.42) (layers "F.Cu" "F.Paste" "F.Mask") (tstamp 1ccd8fa9-ab45-4a60-846f-a7d0aacfa893))
  (pad "M1" smd circle (at -3.2 4) (size 0.42 0.42) (layers "F.Cu" "F.Paste" "F.Mask") (tstamp 265fb1be-9803-4962-a320-19ca19371e7e))
  (pad "M2" smd circle (at -2.4 4) (size 0.42 0.42) (layers "F.Cu" "F.Paste" "F.Mask") (tstamp ba5e804d-34a2-4e42-a865-65ebfcf0cc7c))
  (pad "M3" smd circle (at -1.6 4) (size 0.42 0.42) (layers "F.Cu" "F.Paste" "F.Mask") (tstamp c9598c10-893b-4ac2-be1d-d11bea616659))
  (pad "M7" smd circle (at 1.6 4) (size 0.42 0.42) (layers "F.Cu" "F.Paste" "F.Mask") (tstamp ee7f8267-72ba-48f1-84c5-e14d88cb9594))
  (pad "M8" smd circle (at 2.4 4) (size 0.42 0.42) (layers "F.Cu" "F.Paste" "F.Mask") (tstamp ecd07700-fc92-4a8c-b306-1a61d01e8b0d))
  (pad "M9" smd circle (at 3.2 4) (size 0.42 0.42) (layers "F.Cu" "F.Paste" "F.Mask") (tstamp 2e514850-6482-400c-be7d-04071c11f676))
  (pad "N1" smd circle (at -3.2 4.8) (size 0.42 0.42) (layers "F.Cu" "F.Paste" "F.Mask") (tstamp b1515072-f2d1-4eb2-a97c-2f2b6540ef66))
  (pad "N2" smd circle (at -2.4 4.8) (size 0.42 0.42) (layers "F.Cu" "F.Paste" "F.Mask") (tstamp 4826bac3-4042-4090-a63b-43040fc02f3a))
  (pad "N3" smd circle (at -1.6 4.8) (size 0.42 0.42) (layers "F.Cu" "F.Paste" "F.Mask") (tstamp 86367bf4-d8fd-4344-b3b8-9fdcd55c97a3))
  (pad "N7" smd circle (at 1.6 4.8) (size 0.42 0.42) (layers "F.Cu" "F.Paste" "F.Mask") (tstamp 0a4fa8a4-1b5a-4e62-a0ef-b3bcbdf7bf1e))
  (pad "N8" smd circle (at 2.4 4.8) (size 0.42 0.42) (layers "F.Cu" "F.Paste" "F.Mask") (tstamp 2667509d-4947-499e-badb-d16741676554))
  (pad "N9" smd circle (at 3.2 4.8) (size 0.42 0.42) (layers "F.Cu" "F.Paste" "F.Mask") (tstamp 10a4b5a3-fd72-4f97-bd94-cee868037b0f))
  (model "${KICAD6_3DMODEL_DIR}/Package_BGA.3dshapes/FBGA-78_7.5x11mm_Layout2x3x13_P0.8mm.wrl"
    (offset (xyz 0 0 0))
    (scale (xyz 1 1 1))
    (rotate (xyz 0 0 0))
  )
)
