(footprint "Texas_DSBGA-8_0.9x1.9mm_Layout2x4_P0.5mm" (version 20221018) (generator pcbnew)
  (layer "F.Cu")
  (descr "Texas Instruments, DSBGA, 0.9x1.9mm, 8 bump 2x4 (perimeter) array, NSMD pad definition (http://www.ti.com/lit/ds/symlink/txb0102.pdf, http://www.ti.com/lit/an/snva009ag/snva009ag.pdf)")
  (tags "Texas Instruments DSBGA BGA YZP R-XBGA-N8")
  (solder_mask_margin 0.05)
  (attr smd)
  (fp_text reference "REF**" (at 0 -2) (layer "F.SilkS")
      (effects (font (size 1 1) (thickness 0.15)))
    (tstamp b8d5c978-f826-4381-a3e9-669580d83956)
  )
  (fp_text value "Texas_DSBGA-8_0.9x1.9mm_Layout2x4_P0.5mm" (at 0 2) (layer "F.Fab")
      (effects (font (size 1 1) (thickness 0.15)))
    (tstamp 1d18fa8b-7d8d-4097-a186-366346c1ad37)
  )
  (fp_text user "${REFERENCE}" (at 0 0 90) (layer "F.Fab")
      (effects (font (size 0.4 0.4) (thickness 0.05)))
    (tstamp b86e7d6c-7199-4865-b387-670b4a9bd0bc)
  )
  (fp_line (start -0.75 -1.25) (end -0.75 -1.25)
    (stroke (width 0.12) (type solid)) (layer "F.SilkS") (tstamp 573ce430-dacb-46b3-aff8-683c9802c15e))
  (fp_line (start -0.75 -1.25) (end -0.75 -0.5)
    (stroke (width 0.12) (type solid)) (layer "F.SilkS") (tstamp a7b8602b-da69-47dc-8eda-e0c4aefa76e6))
  (fp_line (start -0.55 -1.05) (end -0.55 1.05)
    (stroke (width 0.12) (type solid)) (layer "F.SilkS") (tstamp 25238b87-b0de-4f2c-9f40-a2400eb9c934))
  (fp_line (start -0.55 1.05) (end 0.55 1.05)
    (stroke (width 0.12) (type solid)) (layer "F.SilkS") (tstamp 44538763-04ea-4ed5-bcac-bb9fe107803f))
  (fp_line (start 0 -1.25) (end -0.75 -1.25)
    (stroke (width 0.12) (type solid)) (layer "F.SilkS") (tstamp fd3519f1-55f0-415a-8d76-6ac63208e74f))
  (fp_line (start 0.55 -1.05) (end -0.55 -1.05)
    (stroke (width 0.12) (type solid)) (layer "F.SilkS") (tstamp 7e677cb2-31e3-4314-bbdf-640b6a611a49))
  (fp_line (start 0.55 -1.05) (end 0.55 1.05)
    (stroke (width 0.12) (type solid)) (layer "F.SilkS") (tstamp 498aaea3-a014-488e-b73b-83153fb8fa67))
  (fp_line (start -1.47 -1.97) (end -1.47 1.97)
    (stroke (width 0.05) (type solid)) (layer "F.CrtYd") (tstamp fef80a48-3c9e-4ac7-861e-7ae655e4265f))
  (fp_line (start -1.47 1.97) (end 1.47 1.97)
    (stroke (width 0.05) (type solid)) (layer "F.CrtYd") (tstamp 0280485a-3879-41d3-8b57-428eb0af37a0))
  (fp_line (start 1.47 -1.97) (end -1.47 -1.97)
    (stroke (width 0.05) (type solid)) (layer "F.CrtYd") (tstamp 5f050e36-0fa4-48f6-809c-abd470fc4872))
  (fp_line (start 1.47 1.97) (end 1.47 -1.97)
    (stroke (width 0.05) (type solid)) (layer "F.CrtYd") (tstamp e27237af-6832-43ce-b89d-2b637d6c26e2))
  (fp_line (start -0.47 -0.8) (end -0.47 0.97)
    (stroke (width 0.1) (type solid)) (layer "F.Fab") (tstamp 529d7c41-4245-4333-927f-8c703c1f0d2f))
  (fp_line (start -0.47 -0.8) (end -0.3 -0.97)
    (stroke (width 0.1) (type solid)) (layer "F.Fab") (tstamp d4bc687d-72e0-4acc-aae2-b403c443ce0b))
  (fp_line (start -0.47 0.97) (end 0.47 0.97)
    (stroke (width 0.1) (type solid)) (layer "F.Fab") (tstamp 5a0e1a25-659d-412b-b38a-bd53a4281a21))
  (fp_line (start 0.47 -0.97) (end -0.3 -0.97)
    (stroke (width 0.1) (type solid)) (layer "F.Fab") (tstamp b189cee9-54d1-407e-ae7f-ec78dda871de))
  (fp_line (start 0.47 0.97) (end 0.47 -0.97)
    (stroke (width 0.1) (type solid)) (layer "F.Fab") (tstamp 734b10be-cc9c-49c4-b139-016c2839a117))
  (pad "" smd rect (at -0.25 -0.75) (size 0.3 0.3) (layers "F.Paste") (tstamp 6823d909-61a7-4cb8-b5dd-b6f4fd3dd261))
  (pad "" smd rect (at -0.25 -0.25) (size 0.3 0.3) (layers "F.Paste") (tstamp e0b0ad0d-6346-491a-8d5a-ad17f26b9132))
  (pad "" smd rect (at -0.25 0.25) (size 0.3 0.3) (layers "F.Paste") (tstamp 8ab52f84-aa1c-4de7-a5c7-617c3d7488f9))
  (pad "" smd rect (at -0.25 0.75) (size 0.3 0.3) (layers "F.Paste") (tstamp 7889bad6-6712-455b-a0c8-eb17ee389d23))
  (pad "" smd rect (at 0.25 -0.75) (size 0.3 0.3) (layers "F.Paste") (tstamp 5e3afbb7-1caf-4488-b4c4-d9a3027f8f08))
  (pad "" smd rect (at 0.25 -0.25) (size 0.3 0.3) (layers "F.Paste") (tstamp 4e7fc27b-2962-4987-b884-6ae01ac6efb1))
  (pad "" smd rect (at 0.25 0.25) (size 0.3 0.3) (layers "F.Paste") (tstamp cc6c09ae-8f53-48f8-8c51-c77201c02b12))
  (pad "" smd rect (at 0.25 0.75) (size 0.3 0.3) (layers "F.Paste") (tstamp 63aeb90c-2c4e-425f-b33e-e89948178cd0))
  (pad "A1" smd circle (at -0.25 -0.75) (size 0.265 0.265) (layers "F.Cu" "F.Mask") (tstamp dc266066-3d8b-43dc-a642-ed3e3de451ab))
  (pad "A2" smd circle (at 0.25 -0.75) (size 0.265 0.265) (layers "F.Cu" "F.Mask") (tstamp bd2d2994-d0e5-4d81-b307-063419580d14))
  (pad "B1" smd circle (at -0.25 -0.25) (size 0.265 0.265) (layers "F.Cu" "F.Mask") (tstamp fec7964e-451d-41b8-86bd-821db263e72a))
  (pad "B2" smd circle (at 0.25 -0.25) (size 0.265 0.265) (layers "F.Cu" "F.Mask") (tstamp 71ac2677-d3c6-4758-9ddc-ffef65567491))
  (pad "C1" smd circle (at -0.25 0.25) (size 0.265 0.265) (layers "F.Cu" "F.Mask") (tstamp 14060147-9e3a-4fb2-84a4-3da62013e7e3))
  (pad "C2" smd circle (at 0.25 0.25) (size 0.265 0.265) (layers "F.Cu" "F.Mask") (tstamp dda360e9-bbfe-4986-beee-ee811cf6100a))
  (pad "D1" smd circle (at -0.25 0.75) (size 0.265 0.265) (layers "F.Cu" "F.Mask") (tstamp fad3df75-6d3d-454d-bd16-4a9c7f807263))
  (pad "D2" smd circle (at 0.25 0.75) (size 0.265 0.265) (layers "F.Cu" "F.Mask") (tstamp fcc4d09c-64ff-49b5-a6dc-81869bc7aaf3))
  (model "${KICAD6_3DMODEL_DIR}/Package_BGA.3dshapes/Texas_DSBGA-8_0.9x1.9mm_Layout2x4_P0.5mm.wrl"
    (offset (xyz 0 0 0))
    (scale (xyz 1 1 1))
    (rotate (xyz 0 0 0))
  )
)
