(footprint "UFBGA-32_4.0x4.0mm_Layout6x6_P0.5mm" (version 20221018) (generator pcbnew)
  (layer "F.Cu")
  (descr "UFBGA-32, 6x6, 4x4mm package, pitch 0.5mm")
  (tags "UFBGA-32")
  (attr smd)
  (fp_text reference "REF**" (at 0 -3.75) (layer "F.SilkS")
      (effects (font (size 1 1) (thickness 0.15)))
    (tstamp b06c2a93-5036-4319-bcf7-6953db236840)
  )
  (fp_text value "UFBGA-32_4.0x4.0mm_Layout6x6_P0.5mm" (at 0 3.75) (layer "F.Fab")
      (effects (font (size 1 1) (thickness 0.15)))
    (tstamp 2a7f0a74-dcb0-4ff5-854d-13cb3884ac39)
  )
  (fp_text user "${REFERENCE}" (at 0 0) (layer "F.Fab")
      (effects (font (size 0.9 0.9) (thickness 0.15)))
    (tstamp aade8326-12d1-49dd-bc34-52d57db4e5cf)
  )
  (fp_line (start -2.32 -2.32) (end -1.32 -2.32)
    (stroke (width 0.12) (type solid)) (layer "F.SilkS") (tstamp 99917996-719c-4c1c-98c9-d5b3e5315cf5))
  (fp_line (start -2.32 -1.32) (end -2.32 -2.32)
    (stroke (width 0.12) (type solid)) (layer "F.SilkS") (tstamp d0a9cef9-08a1-4371-a391-0792f5ff9c23))
  (fp_line (start -2.12 -2.12) (end -2.12 2.12)
    (stroke (width 0.12) (type solid)) (layer "F.SilkS") (tstamp 512e874f-cdff-480e-b08f-89a4d6b9c9a8))
  (fp_line (start -2.12 2.12) (end 2.12 2.12)
    (stroke (width 0.12) (type solid)) (layer "F.SilkS") (tstamp fa5a1e28-e349-47d0-809f-681929090b74))
  (fp_line (start 2.12 -2.12) (end -2.12 -2.12)
    (stroke (width 0.12) (type solid)) (layer "F.SilkS") (tstamp f6c3734c-8f2c-4aa7-9b43-0ec8c4ee3e9a))
  (fp_line (start 2.12 2.12) (end 2.12 -2.12)
    (stroke (width 0.12) (type solid)) (layer "F.SilkS") (tstamp 2e985179-0c20-4aab-9bd8-8e973f31a6cf))
  (fp_line (start -3 -3) (end -3 3)
    (stroke (width 0.05) (type solid)) (layer "F.CrtYd") (tstamp bb393e98-b013-461d-898c-18c8e2303703))
  (fp_line (start -3 -3) (end 3 -3)
    (stroke (width 0.05) (type solid)) (layer "F.CrtYd") (tstamp f6bef0c9-b0d0-4081-a08a-e113a66ddcbb))
  (fp_line (start 3 3) (end -3 3)
    (stroke (width 0.05) (type solid)) (layer "F.CrtYd") (tstamp a8272853-bb5f-4356-9c65-5e9ae08e0730))
  (fp_line (start 3 3) (end 3 -3)
    (stroke (width 0.05) (type solid)) (layer "F.CrtYd") (tstamp 5594c807-0a17-467e-883d-61b92d1b7eb8))
  (fp_line (start -2 -1) (end -2 2)
    (stroke (width 0.1) (type solid)) (layer "F.Fab") (tstamp 6b752e20-7803-4dd7-8c4c-fdb7152154de))
  (fp_line (start -2 2) (end 2 2)
    (stroke (width 0.1) (type solid)) (layer "F.Fab") (tstamp 2f0b2680-58df-4add-b08e-c37e184b3b01))
  (fp_line (start -1 -2) (end -2 -1)
    (stroke (width 0.1) (type solid)) (layer "F.Fab") (tstamp 1b67f9c4-f4d0-487e-9ae6-99234266845d))
  (fp_line (start 2 -2) (end -1 -2)
    (stroke (width 0.1) (type solid)) (layer "F.Fab") (tstamp 1220e8d3-2ec1-471b-9f54-501fdea8ef31))
  (fp_line (start 2 2) (end 2 -2)
    (stroke (width 0.1) (type solid)) (layer "F.Fab") (tstamp 7e59c65a-0d3c-4567-b0c7-4e59f444cf76))
  (pad "A1" smd circle (at -1.25 -1.25) (size 0.25 0.25) (layers "F.Cu" "F.Paste" "F.Mask") (tstamp da32e01c-7729-4d9a-9925-5ef05656af29))
  (pad "A2" smd circle (at -0.75 -1.25) (size 0.25 0.25) (layers "F.Cu" "F.Paste" "F.Mask") (tstamp 55ded416-13c0-4e19-a999-36fb25f8ac47))
  (pad "A3" smd circle (at -0.25 -1.25) (size 0.25 0.25) (layers "F.Cu" "F.Paste" "F.Mask") (tstamp b1f87726-2fb9-423b-a45f-b6405aa3c366))
  (pad "A4" smd circle (at 0.25 -1.25) (size 0.25 0.25) (layers "F.Cu" "F.Paste" "F.Mask") (tstamp db50c3d3-a799-4106-95fc-bbe24c7e51f0))
  (pad "A5" smd circle (at 0.75 -1.25) (size 0.25 0.25) (layers "F.Cu" "F.Paste" "F.Mask") (tstamp ff3826f5-26f3-4210-9331-b450a1b4103a))
  (pad "A6" smd circle (at 1.25 -1.25) (size 0.25 0.25) (layers "F.Cu" "F.Paste" "F.Mask") (tstamp cb9160d8-7f6a-48a6-8db2-dcfd5e40f78c))
  (pad "B1" smd circle (at -1.25 -0.75) (size 0.25 0.25) (layers "F.Cu" "F.Paste" "F.Mask") (tstamp efa01241-1601-4421-9b20-3795f0701171))
  (pad "B2" smd circle (at -0.75 -0.75) (size 0.25 0.25) (layers "F.Cu" "F.Paste" "F.Mask") (tstamp d0d6bead-a301-4edd-905a-39dd5e467ec2))
  (pad "B3" smd circle (at -0.25 -0.75) (size 0.25 0.25) (layers "F.Cu" "F.Paste" "F.Mask") (tstamp b2a58cd6-69c2-4f79-a708-63991f3cce1b))
  (pad "B4" smd circle (at 0.25 -0.75) (size 0.25 0.25) (layers "F.Cu" "F.Paste" "F.Mask") (tstamp 384e63fb-2622-46f2-ad89-5bdccfa141ab))
  (pad "B5" smd circle (at 0.75 -0.75) (size 0.25 0.25) (layers "F.Cu" "F.Paste" "F.Mask") (tstamp 845273ed-39ed-4329-a1d3-788e142bc685))
  (pad "B6" smd circle (at 1.25 -0.75) (size 0.25 0.25) (layers "F.Cu" "F.Paste" "F.Mask") (tstamp a3fe113f-2182-4159-a9d5-25b1f9815889))
  (pad "C1" smd circle (at -1.25 -0.25) (size 0.25 0.25) (layers "F.Cu" "F.Paste" "F.Mask") (tstamp 7d2ac1ee-e483-4c55-994a-b93319b5a4a8))
  (pad "C2" smd circle (at -0.75 -0.25) (size 0.25 0.25) (layers "F.Cu" "F.Paste" "F.Mask") (tstamp c9d42de1-0fa3-4755-b106-8b8eabe7545e))
  (pad "C5" smd circle (at 0.75 -0.25) (size 0.25 0.25) (layers "F.Cu" "F.Paste" "F.Mask") (tstamp 6b09cb06-8776-4c0b-84d2-da8941961341))
  (pad "C6" smd circle (at 1.25 -0.25) (size 0.25 0.25) (layers "F.Cu" "F.Paste" "F.Mask") (tstamp 498e36ed-3329-4227-880b-f7522bdd12da))
  (pad "D1" smd circle (at -1.25 0.25) (size 0.25 0.25) (layers "F.Cu" "F.Paste" "F.Mask") (tstamp ae2f01e3-d205-450c-a392-50285378417b))
  (pad "D2" smd circle (at -0.75 0.25) (size 0.25 0.25) (layers "F.Cu" "F.Paste" "F.Mask") (tstamp ffeeace5-1e09-46dc-8ed9-0d12d5acefb5))
  (pad "D5" smd circle (at 0.75 0.25) (size 0.25 0.25) (layers "F.Cu" "F.Paste" "F.Mask") (tstamp 0e09afff-5033-48f4-b08f-9b2a1f5baa3f))
  (pad "D6" smd circle (at 1.25 0.25) (size 0.25 0.25) (layers "F.Cu" "F.Paste" "F.Mask") (tstamp ce219676-2fca-45b2-bc09-957a80bd3da8))
  (pad "E1" smd circle (at -1.25 0.75) (size 0.25 0.25) (layers "F.Cu" "F.Paste" "F.Mask") (tstamp 67525101-fcd8-48e7-a802-f354345204c1))
  (pad "E2" smd circle (at -0.75 0.75) (size 0.25 0.25) (layers "F.Cu" "F.Paste" "F.Mask") (tstamp e5fc7752-90df-4868-925a-b4cc75a44f44))
  (pad "E3" smd circle (at -0.25 0.75) (size 0.25 0.25) (layers "F.Cu" "F.Paste" "F.Mask") (tstamp b33b2d73-c437-4c44-aa2b-1adccec55e99))
  (pad "E4" smd circle (at 0.25 0.75) (size 0.25 0.25) (layers "F.Cu" "F.Paste" "F.Mask") (tstamp 046eff5a-1f86-488b-a6bd-248b6a40261f))
  (pad "E5" smd circle (at 0.75 0.75) (size 0.25 0.25) (layers "F.Cu" "F.Paste" "F.Mask") (tstamp 8e79d2b7-6e0e-456f-aaee-73a2fc1fb607))
  (pad "E6" smd circle (at 1.25 0.75) (size 0.25 0.25) (layers "F.Cu" "F.Paste" "F.Mask") (tstamp c8c9e78e-c5c6-42be-ab6c-f120d75256cd))
  (pad "F1" smd circle (at -1.25 1.25) (size 0.25 0.25) (layers "F.Cu" "F.Paste" "F.Mask") (tstamp 7457aac3-525c-475a-9a5a-d460d61c5385))
  (pad "F2" smd circle (at -0.75 1.25) (size 0.25 0.25) (layers "F.Cu" "F.Paste" "F.Mask") (tstamp 8fbfaba9-efe8-4c17-9a26-62ba4decd6c6))
  (pad "F3" smd circle (at -0.25 1.25) (size 0.25 0.25) (layers "F.Cu" "F.Paste" "F.Mask") (tstamp a578ca19-c791-4622-a93a-28897d1cfb9d))
  (pad "F4" smd circle (at 0.25 1.25) (size 0.25 0.25) (layers "F.Cu" "F.Paste" "F.Mask") (tstamp 0eba8a7c-3241-418d-95bb-5af4b4956bf5))
  (pad "F5" smd circle (at 0.75 1.25) (size 0.25 0.25) (layers "F.Cu" "F.Paste" "F.Mask") (tstamp 81665001-2716-48a0-b436-49245b4cc690))
  (pad "F6" smd circle (at 1.25 1.25) (size 0.25 0.25) (layers "F.Cu" "F.Paste" "F.Mask") (tstamp 3a8b4e3f-9a04-4d45-acfa-aff90ced391f))
  (model "${KICAD6_3DMODEL_DIR}/Package_BGA.3dshapes/UFBGA-32_4.0x4.0mm_Layout6x6_P0.5mm.wrl"
    (offset (xyz 0 0 0))
    (scale (xyz 1 1 1))
    (rotate (xyz 0 0 0))
  )
)
