(footprint "VFBGA-49_5.0x5.0mm_Layout7x7_P0.65mm" (version 20221018) (generator pcbnew)
  (layer "F.Cu")
  (descr "VFBGA-49, 7x7, 5x5mm package, pitch 0.65mm")
  (tags "VFBGA-49")
  (attr smd)
  (fp_text reference "REF**" (at 0 -4.25) (layer "F.SilkS")
      (effects (font (size 1 1) (thickness 0.15)))
    (tstamp 25aa23c9-82c3-4cca-81b2-f213889ec63f)
  )
  (fp_text value "VFBGA-49_5.0x5.0mm_Layout7x7_P0.65mm" (at 0 4.25) (layer "F.Fab")
      (effects (font (size 1 1) (thickness 0.15)))
    (tstamp e7f763be-f0a4-409f-ba61-dc36dc992155)
  )
  (fp_text user "${REFERENCE}" (at 0 0) (layer "F.Fab")
      (effects (font (size 1 1) (thickness 0.15)))
    (tstamp d452e4e3-1c6a-4ed3-8d72-8800c094f162)
  )
  (fp_line (start -2.82 -2.82) (end -1.82 -2.82)
    (stroke (width 0.12) (type solid)) (layer "F.SilkS") (tstamp 82106dd2-c322-4fd5-9ced-41edb9dffb3f))
  (fp_line (start -2.82 -1.82) (end -2.82 -2.82)
    (stroke (width 0.12) (type solid)) (layer "F.SilkS") (tstamp 99bb10da-4b0a-4156-a388-5b8147e53e42))
  (fp_line (start -2.62 -2.62) (end -2.62 2.62)
    (stroke (width 0.12) (type solid)) (layer "F.SilkS") (tstamp e4ea58dc-fee3-4d29-8ec6-84c71f0f7b25))
  (fp_line (start -2.62 2.62) (end 2.62 2.62)
    (stroke (width 0.12) (type solid)) (layer "F.SilkS") (tstamp 11623f87-f9a9-4934-bddb-6dd959675026))
  (fp_line (start 2.62 -2.62) (end -2.62 -2.62)
    (stroke (width 0.12) (type solid)) (layer "F.SilkS") (tstamp 1fc2a2c3-b284-45ba-ace9-da8ed1eef45e))
  (fp_line (start 2.62 2.62) (end 2.62 -2.62)
    (stroke (width 0.12) (type solid)) (layer "F.SilkS") (tstamp 323afef0-4858-4e2b-877e-81e55306ea8f))
  (fp_line (start -3.5 -3.5) (end -3.5 3.5)
    (stroke (width 0.05) (type solid)) (layer "F.CrtYd") (tstamp 92aeb331-b6fa-49ca-9fe0-5f3d5e727db1))
  (fp_line (start -3.5 -3.5) (end 3.5 -3.5)
    (stroke (width 0.05) (type solid)) (layer "F.CrtYd") (tstamp 8578f342-4c91-45a1-b48c-9bf1419b69c5))
  (fp_line (start 3.5 3.5) (end -3.5 3.5)
    (stroke (width 0.05) (type solid)) (layer "F.CrtYd") (tstamp 5a2499cf-5f83-4b5b-ab03-57324bf8033c))
  (fp_line (start 3.5 3.5) (end 3.5 -3.5)
    (stroke (width 0.05) (type solid)) (layer "F.CrtYd") (tstamp 826643a4-1e50-42f7-b0e3-83a7b481d53f))
  (fp_line (start -2.5 -1.5) (end -2.5 2.5)
    (stroke (width 0.1) (type solid)) (layer "F.Fab") (tstamp eefdc1c1-f471-4dd7-a001-6c8370de0e1a))
  (fp_line (start -2.5 2.5) (end 2.5 2.5)
    (stroke (width 0.1) (type solid)) (layer "F.Fab") (tstamp ff0392fd-8bd1-4235-8543-f6535056da3f))
  (fp_line (start -1.5 -2.5) (end -2.5 -1.5)
    (stroke (width 0.1) (type solid)) (layer "F.Fab") (tstamp 3a639d05-0a0c-497c-850f-04eb063ffb4d))
  (fp_line (start 2.5 -2.5) (end -1.5 -2.5)
    (stroke (width 0.1) (type solid)) (layer "F.Fab") (tstamp 44262d41-4891-4a86-b2e2-94e9ced2c158))
  (fp_line (start 2.5 2.5) (end 2.5 -2.5)
    (stroke (width 0.1) (type solid)) (layer "F.Fab") (tstamp 314d1573-27d2-41a6-baad-4054083a49ef))
  (pad "A1" smd circle (at -1.95 -1.95) (size 0.3 0.3) (layers "F.Cu" "F.Paste" "F.Mask") (tstamp faef0cdf-9ffd-4fb3-9107-a25463737880))
  (pad "A2" smd circle (at -1.3 -1.95) (size 0.3 0.3) (layers "F.Cu" "F.Paste" "F.Mask") (tstamp 4dc4dc73-f461-4568-8d81-91a1cba442c1))
  (pad "A3" smd circle (at -0.65 -1.95) (size 0.3 0.3) (layers "F.Cu" "F.Paste" "F.Mask") (tstamp 5682d0ea-be9e-4233-b985-83f189abecad))
  (pad "A4" smd circle (at 0 -1.95) (size 0.3 0.3) (layers "F.Cu" "F.Paste" "F.Mask") (tstamp 270790e2-1e36-49dc-be0a-1dfe642e465b))
  (pad "A5" smd circle (at 0.65 -1.95) (size 0.3 0.3) (layers "F.Cu" "F.Paste" "F.Mask") (tstamp 781f75f8-2bcc-4bed-b5b3-970eea377978))
  (pad "A6" smd circle (at 1.3 -1.95) (size 0.3 0.3) (layers "F.Cu" "F.Paste" "F.Mask") (tstamp af12110d-833f-410e-8daf-2057bdfa45e0))
  (pad "A7" smd circle (at 1.95 -1.95) (size 0.3 0.3) (layers "F.Cu" "F.Paste" "F.Mask") (tstamp b22e7f45-ea3b-4abb-bbc3-39f82950a7f6))
  (pad "B1" smd circle (at -1.95 -1.3) (size 0.3 0.3) (layers "F.Cu" "F.Paste" "F.Mask") (tstamp 986b44d3-d2df-4302-b64b-678feaee54cc))
  (pad "B2" smd circle (at -1.3 -1.3) (size 0.3 0.3) (layers "F.Cu" "F.Paste" "F.Mask") (tstamp 202254af-2372-423e-9289-503c356cf3a0))
  (pad "B3" smd circle (at -0.65 -1.3) (size 0.3 0.3) (layers "F.Cu" "F.Paste" "F.Mask") (tstamp 1d96d8c3-a70b-49ed-aebb-24faf4bf58c9))
  (pad "B4" smd circle (at 0 -1.3) (size 0.3 0.3) (layers "F.Cu" "F.Paste" "F.Mask") (tstamp be55317d-1550-4994-8c45-78dc84255f89))
  (pad "B5" smd circle (at 0.65 -1.3) (size 0.3 0.3) (layers "F.Cu" "F.Paste" "F.Mask") (tstamp f565204b-fd93-484e-baa8-6ea96850f15b))
  (pad "B6" smd circle (at 1.3 -1.3) (size 0.3 0.3) (layers "F.Cu" "F.Paste" "F.Mask") (tstamp 76d17de6-fb1a-499f-bbd9-5f3d5fd4f634))
  (pad "B7" smd circle (at 1.95 -1.3) (size 0.3 0.3) (layers "F.Cu" "F.Paste" "F.Mask") (tstamp 2570b147-4140-4165-92ca-14113e8c0520))
  (pad "C1" smd circle (at -1.95 -0.65) (size 0.3 0.3) (layers "F.Cu" "F.Paste" "F.Mask") (tstamp d646f47e-3ba2-4e93-867c-a7cf457f4bf3))
  (pad "C2" smd circle (at -1.3 -0.65) (size 0.3 0.3) (layers "F.Cu" "F.Paste" "F.Mask") (tstamp a0b563c2-df87-461c-87be-025fbf58a35e))
  (pad "C3" smd circle (at -0.65 -0.65) (size 0.3 0.3) (layers "F.Cu" "F.Paste" "F.Mask") (tstamp a9c59d98-58ec-4f47-bbb1-7e3779a8ea43))
  (pad "C4" smd circle (at 0 -0.65) (size 0.3 0.3) (layers "F.Cu" "F.Paste" "F.Mask") (tstamp d015c8fb-3717-46a7-b375-59d181b74997))
  (pad "C5" smd circle (at 0.65 -0.65) (size 0.3 0.3) (layers "F.Cu" "F.Paste" "F.Mask") (tstamp 44db5f31-338d-469c-a76e-194728f1795b))
  (pad "C6" smd circle (at 1.3 -0.65) (size 0.3 0.3) (layers "F.Cu" "F.Paste" "F.Mask") (tstamp 09417ef3-b655-482e-8548-e5ce6e1e6d3a))
  (pad "C7" smd circle (at 1.95 -0.65) (size 0.3 0.3) (layers "F.Cu" "F.Paste" "F.Mask") (tstamp 1869f099-12ee-4e9f-8baf-eff8a07f3dc5))
  (pad "D1" smd circle (at -1.95 0) (size 0.3 0.3) (layers "F.Cu" "F.Paste" "F.Mask") (tstamp 7c6df5e0-3b32-449a-9e4d-db73bfb68f3a))
  (pad "D2" smd circle (at -1.3 0) (size 0.3 0.3) (layers "F.Cu" "F.Paste" "F.Mask") (tstamp 9552f628-6070-413c-b6fa-eb4e5aee8e72))
  (pad "D3" smd circle (at -0.65 0) (size 0.3 0.3) (layers "F.Cu" "F.Paste" "F.Mask") (tstamp 561e44b0-dc4c-4c15-aa2b-f0c59794b93b))
  (pad "D4" smd circle (at 0 0) (size 0.3 0.3) (layers "F.Cu" "F.Paste" "F.Mask") (tstamp b264cf0a-0454-4c02-be8b-52824e817e4e))
  (pad "D5" smd circle (at 0.65 0) (size 0.3 0.3) (layers "F.Cu" "F.Paste" "F.Mask") (tstamp 92dc5d86-479e-4b3c-afda-b4de0e549661))
  (pad "D6" smd circle (at 1.3 0) (size 0.3 0.3) (layers "F.Cu" "F.Paste" "F.Mask") (tstamp 80be3dff-71b0-41b7-99de-4bc097b89053))
  (pad "D7" smd circle (at 1.95 0) (size 0.3 0.3) (layers "F.Cu" "F.Paste" "F.Mask") (tstamp ccf8e404-7e0c-499a-90d3-3e8f114e7484))
  (pad "E1" smd circle (at -1.95 0.65) (size 0.3 0.3) (layers "F.Cu" "F.Paste" "F.Mask") (tstamp 6e4b4dbc-d695-4455-9282-51e9900efabe))
  (pad "E2" smd circle (at -1.3 0.65) (size 0.3 0.3) (layers "F.Cu" "F.Paste" "F.Mask") (tstamp c6dd6f22-1d6a-43c8-b55a-692234470de5))
  (pad "E3" smd circle (at -0.65 0.65) (size 0.3 0.3) (layers "F.Cu" "F.Paste" "F.Mask") (tstamp cbafb0d4-f710-4dfc-a260-d20c2feaad5f))
  (pad "E4" smd circle (at 0 0.65) (size 0.3 0.3) (layers "F.Cu" "F.Paste" "F.Mask") (tstamp 256551ed-7f73-478f-ba19-f7b902806fbc))
  (pad "E5" smd circle (at 0.65 0.65) (size 0.3 0.3) (layers "F.Cu" "F.Paste" "F.Mask") (tstamp 0d6155ed-e1f0-4c53-aeac-d83e9d7c3ce7))
  (pad "E6" smd circle (at 1.3 0.65) (size 0.3 0.3) (layers "F.Cu" "F.Paste" "F.Mask") (tstamp 610939b5-4ccc-4911-bd60-2b88868e6d06))
  (pad "E7" smd circle (at 1.95 0.65) (size 0.3 0.3) (layers "F.Cu" "F.Paste" "F.Mask") (tstamp 8fdcc444-74db-4c3c-a1da-4903680e3d76))
  (pad "F1" smd circle (at -1.95 1.3) (size 0.3 0.3) (layers "F.Cu" "F.Paste" "F.Mask") (tstamp d3bc8e9e-d35a-4c3d-9c4b-4869d6b4dd2f))
  (pad "F2" smd circle (at -1.3 1.3) (size 0.3 0.3) (layers "F.Cu" "F.Paste" "F.Mask") (tstamp 35170554-73f2-4358-8933-2501299caa77))
  (pad "F3" smd circle (at -0.65 1.3) (size 0.3 0.3) (layers "F.Cu" "F.Paste" "F.Mask") (tstamp 331d9d99-c52b-4b2f-8234-fb3628641865))
  (pad "F4" smd circle (at 0 1.3) (size 0.3 0.3) (layers "F.Cu" "F.Paste" "F.Mask") (tstamp 78b4ccc5-de36-4d6c-b21b-4738e4e6cf63))
  (pad "F5" smd circle (at 0.65 1.3) (size 0.3 0.3) (layers "F.Cu" "F.Paste" "F.Mask") (tstamp e8c885c9-f0af-4dfa-b874-c7964bb0f860))
  (pad "F6" smd circle (at 1.3 1.3) (size 0.3 0.3) (layers "F.Cu" "F.Paste" "F.Mask") (tstamp 32506e0a-4198-4bed-8e0d-aef41ca6dda6))
  (pad "F7" smd circle (at 1.95 1.3) (size 0.3 0.3) (layers "F.Cu" "F.Paste" "F.Mask") (tstamp 00776020-e079-4ce8-a009-077349c8d2ed))
  (pad "G1" smd circle (at -1.95 1.95) (size 0.3 0.3) (layers "F.Cu" "F.Paste" "F.Mask") (tstamp 08152ca9-8def-4c11-a7a7-77e0be8d95ce))
  (pad "G2" smd circle (at -1.3 1.95) (size 0.3 0.3) (layers "F.Cu" "F.Paste" "F.Mask") (tstamp f574e135-4cc6-432c-b888-9ed1639dd9cf))
  (pad "G3" smd circle (at -0.65 1.95) (size 0.3 0.3) (layers "F.Cu" "F.Paste" "F.Mask") (tstamp 589b0b4f-ef9d-443e-a3c2-6f9f9129811e))
  (pad "G4" smd circle (at 0 1.95) (size 0.3 0.3) (layers "F.Cu" "F.Paste" "F.Mask") (tstamp 91e1aed2-a923-47ce-9e6a-fb8db93fcc3d))
  (pad "G5" smd circle (at 0.65 1.95) (size 0.3 0.3) (layers "F.Cu" "F.Paste" "F.Mask") (tstamp 755f8ac0-8df3-43f2-92e1-df6044f45480))
  (pad "G6" smd circle (at 1.3 1.95) (size 0.3 0.3) (layers "F.Cu" "F.Paste" "F.Mask") (tstamp 435cc9f0-65bb-4f2b-84b8-c894d22e579e))
  (pad "G7" smd circle (at 1.95 1.95) (size 0.3 0.3) (layers "F.Cu" "F.Paste" "F.Mask") (tstamp ed6401f3-3f76-48eb-8c5e-7ec5239c2e81))
  (model "${KICAD6_3DMODEL_DIR}/Package_BGA.3dshapes/VFBGA-49_5.0x5.0mm_Layout7x7_P0.65mm.wrl"
    (offset (xyz 0 0 0))
    (scale (xyz 1 1 1))
    (rotate (xyz 0 0 0))
  )
)
