(footprint "DFN-14-1EP_3x3mm_P0.4mm_EP1.78x2.35mm" (version 20221018) (generator pcbnew)
  (layer "F.Cu")
  (descr "DD Package; 14-Lead Plastic DFN (3mm x 3mm) (http://pdfserv.maximintegrated.com/land_patterns/90-0063.PDF)")
  (tags "DFN 0.40")
  (attr smd)
  (fp_text reference "REF**" (at 0 -2.55) (layer "F.SilkS")
      (effects (font (size 1 1) (thickness 0.15)))
    (tstamp 46771041-a444-47d3-99f3-8f004e73e894)
  )
  (fp_text value "DFN-14-1EP_3x3mm_P0.4mm_EP1.78x2.35mm" (at 0 2.55) (layer "F.Fab")
      (effects (font (size 1 1) (thickness 0.15)))
    (tstamp 65086432-5bce-4c75-9776-fe517bdef393)
  )
  (fp_text user "${REFERENCE}" (at 0.075 0.15) (layer "F.Fab")
      (effects (font (size 0.6 0.6) (thickness 0.125)))
    (tstamp 070b4fc1-194c-4ede-ae6a-04e8fcd60fbe)
  )
  (fp_line (start -1.5 1.625) (end 1.5 1.625)
    (stroke (width 0.15) (type solid)) (layer "F.SilkS") (tstamp 9d3b0ef0-8ab0-40db-a2f0-b7aed184eb63))
  (fp_line (start 0 -1.625) (end 1.5 -1.625)
    (stroke (width 0.15) (type solid)) (layer "F.SilkS") (tstamp 2167e68e-9e89-48fd-b84c-0220085f7447))
  (fp_line (start -2 -1.8) (end -2 1.8)
    (stroke (width 0.05) (type solid)) (layer "F.CrtYd") (tstamp 67baf303-2465-4ef0-837b-7bb0d85f7fc5))
  (fp_line (start -2 -1.8) (end 2 -1.8)
    (stroke (width 0.05) (type solid)) (layer "F.CrtYd") (tstamp db5bc58e-2616-4570-b435-5d7c9f1d68a5))
  (fp_line (start -2 1.8) (end 2 1.8)
    (stroke (width 0.05) (type solid)) (layer "F.CrtYd") (tstamp c629ed4b-e1ab-4996-80ee-031b731151a2))
  (fp_line (start 2 -1.8) (end 2 1.8)
    (stroke (width 0.05) (type solid)) (layer "F.CrtYd") (tstamp 300745c4-ae3c-4c8d-b6d6-be36feb936b5))
  (fp_line (start -1.5 -0.5) (end -0.5 -1.5)
    (stroke (width 0.15) (type solid)) (layer "F.Fab") (tstamp 42475192-a679-4e9e-94fe-2a32e6e539e4))
  (fp_line (start -1.5 1.5) (end -1.5 -0.5)
    (stroke (width 0.15) (type solid)) (layer "F.Fab") (tstamp 4ca7655b-417b-4ace-abc4-c0569df5aa52))
  (fp_line (start -0.5 -1.5) (end 1.5 -1.5)
    (stroke (width 0.15) (type solid)) (layer "F.Fab") (tstamp 0c80f386-ccd6-4a58-bc89-21fc6e525141))
  (fp_line (start 1.5 -1.5) (end 1.5 1.5)
    (stroke (width 0.15) (type solid)) (layer "F.Fab") (tstamp 6567a694-2ecb-40b4-9e0c-096b601bcc10))
  (fp_line (start 1.5 1.5) (end -1.5 1.5)
    (stroke (width 0.15) (type solid)) (layer "F.Fab") (tstamp 0199dd26-2a7f-4de2-82e4-8a8b14e06949))
  (pad "" smd rect (at -0.445 -0.5875) (size 0.7 0.97) (layers "F.Paste") (tstamp 61e76daf-d455-46c5-9ac7-de55c14ff378))
  (pad "" smd rect (at -0.445 0.5875) (size 0.7 0.97) (layers "F.Paste") (tstamp 2ba656a3-6447-4aee-885c-3f6c366f306c))
  (pad "" smd rect (at 0.45 -0.5875) (size 0.7 0.97) (layers "F.Paste") (tstamp 5925faac-88e3-4211-95cf-59dcda57a4d7))
  (pad "" smd rect (at 0.45 0.5875) (size 0.7 0.97) (layers "F.Paste") (tstamp 80c0228c-be83-4d4d-afbf-91a78bbe59dc))
  (pad "1" smd rect (at -1.475 -1.2) (size 0.7 0.25) (layers "F.Cu" "F.Paste" "F.Mask") (tstamp dc309ae4-3ea8-4f1f-91d6-aa3abd80ce44))
  (pad "2" smd rect (at -1.475 -0.8) (size 0.7 0.25) (layers "F.Cu" "F.Paste" "F.Mask") (tstamp b9bd4cbf-9374-4c9b-b944-53b605c1e2a3))
  (pad "3" smd rect (at -1.475 -0.4) (size 0.7 0.25) (layers "F.Cu" "F.Paste" "F.Mask") (tstamp 6f95232a-c5e3-4b33-b710-fdc9c4703dd3))
  (pad "4" smd rect (at -1.475 0) (size 0.7 0.25) (layers "F.Cu" "F.Paste" "F.Mask") (tstamp 4257cd63-2f4c-416b-b269-f961b1d928e5))
  (pad "5" smd rect (at -1.475 0.4) (size 0.7 0.25) (layers "F.Cu" "F.Paste" "F.Mask") (tstamp a094e801-8aa3-4bde-ab09-c9c863c2b9b4))
  (pad "6" smd rect (at -1.475 0.8) (size 0.7 0.25) (layers "F.Cu" "F.Paste" "F.Mask") (tstamp bb7c2736-22ff-45a7-bf71-4007667f5c79))
  (pad "7" smd rect (at -1.475 1.2) (size 0.7 0.25) (layers "F.Cu" "F.Paste" "F.Mask") (tstamp b1c56b0a-979b-4e71-b7f2-4949ac85ff21))
  (pad "8" smd rect (at 1.475 1.2) (size 0.7 0.25) (layers "F.Cu" "F.Paste" "F.Mask") (tstamp bbbb302c-a9d0-434a-b286-cc18aa4f1124))
  (pad "9" smd rect (at 1.475 0.8) (size 0.7 0.25) (layers "F.Cu" "F.Paste" "F.Mask") (tstamp eec6cb55-eccd-4f11-90af-52f032624e70))
  (pad "10" smd rect (at 1.475 0.4) (size 0.7 0.25) (layers "F.Cu" "F.Paste" "F.Mask") (tstamp d199b993-6f3d-4468-8427-c867a0626122))
  (pad "11" smd rect (at 1.475 0) (size 0.7 0.25) (layers "F.Cu" "F.Paste" "F.Mask") (tstamp d4692620-60e0-47fc-b0ec-0344e80da98a))
  (pad "12" smd rect (at 1.475 -0.4) (size 0.7 0.25) (layers "F.Cu" "F.Paste" "F.Mask") (tstamp 71d5c26f-08c3-4347-8c5b-a3b3601b7c8c))
  (pad "13" smd rect (at 1.475 -0.8) (size 0.7 0.25) (layers "F.Cu" "F.Paste" "F.Mask") (tstamp a2dd5e66-c26a-47ee-ab2c-13ef5bedb6b4))
  (pad "14" smd rect (at 1.475 -1.2) (size 0.7 0.25) (layers "F.Cu" "F.Paste" "F.Mask") (tstamp be33819f-4340-481b-b9f0-c9b1046025e6))
  (pad "15" smd rect (at 0 0) (size 1.78 2.35) (layers "F.Cu" "F.Mask") (tstamp 32c61589-9a22-4902-954c-806687c08596))
  (model "${KICAD6_3DMODEL_DIR}/Package_DFN_QFN.3dshapes/DFN-14-1EP_3x3mm_P0.4mm_EP1.78x2.35mm.wrl"
    (offset (xyz 0 0 0))
    (scale (xyz 1 1 1))
    (rotate (xyz 0 0 0))
  )
)
