(footprint "DFN-12-1EP_3x3mm_P0.45mm_EP1.66x2.38mm" (version 20221018) (generator pcbnew)
  (layer "F.Cu")
  (descr "DD Package; 12-Lead Plastic DFN (3mm x 3mm) (see Linear Technology DFN_12_05-08-1725.pdf)")
  (tags "DFN 0.45")
  (attr smd)
  (fp_text reference "REF**" (at 0 -2.55) (layer "F.SilkS")
      (effects (font (size 1 1) (thickness 0.15)))
    (tstamp f179dffc-b3c3-4f05-936c-ec214eb77136)
  )
  (fp_text value "DFN-12-1EP_3x3mm_P0.45mm_EP1.66x2.38mm" (at 0 2.55) (layer "F.Fab")
      (effects (font (size 1 1) (thickness 0.15)))
    (tstamp b799bbeb-a201-445d-bc04-3d80cc461cf0)
  )
  (fp_text user "${REFERENCE}" (at 0 0) (layer "F.Fab")
      (effects (font (size 0.7 0.7) (thickness 0.105)))
    (tstamp 95ff70e3-c90f-4022-94ad-345e9e4234cf)
  )
  (fp_line (start -1.5 1.625) (end 1.5 1.625)
    (stroke (width 0.15) (type solid)) (layer "F.SilkS") (tstamp f0bd5141-c3a0-46dc-b6ce-e9f8a1e6b817))
  (fp_line (start 0 -1.625) (end 1.5 -1.625)
    (stroke (width 0.15) (type solid)) (layer "F.SilkS") (tstamp 016c8fd4-e3b1-48c9-ba3d-657e7707a27b))
  (fp_line (start -2 -1.8) (end -2 1.8)
    (stroke (width 0.05) (type solid)) (layer "F.CrtYd") (tstamp bcdb7267-2015-4d2b-8a48-1755f2efd3c8))
  (fp_line (start -2 -1.8) (end 2 -1.8)
    (stroke (width 0.05) (type solid)) (layer "F.CrtYd") (tstamp e8f55684-1b5b-4113-930f-7c8205230abc))
  (fp_line (start -2 1.8) (end 2 1.8)
    (stroke (width 0.05) (type solid)) (layer "F.CrtYd") (tstamp 30748b3a-4bac-4022-8e6b-9581e017ef27))
  (fp_line (start 2 -1.8) (end 2 1.8)
    (stroke (width 0.05) (type solid)) (layer "F.CrtYd") (tstamp 86d94f20-fe54-412e-b302-8dc4d1c47c88))
  (fp_line (start -1.5 -0.5) (end -0.5 -1.5)
    (stroke (width 0.15) (type solid)) (layer "F.Fab") (tstamp d7425a41-96ac-47e0-8d3c-870870eb27db))
  (fp_line (start -1.5 1.5) (end -1.5 -0.5)
    (stroke (width 0.15) (type solid)) (layer "F.Fab") (tstamp 13015a64-71d8-4741-bfab-b7b1e52e9114))
  (fp_line (start -0.5 -1.5) (end 1.5 -1.5)
    (stroke (width 0.15) (type solid)) (layer "F.Fab") (tstamp dc3bba87-bd8c-4ce9-9a2a-dd5cf2d64a2a))
  (fp_line (start 1.5 -1.5) (end 1.5 1.5)
    (stroke (width 0.15) (type solid)) (layer "F.Fab") (tstamp 0d3fc569-fe2f-43e6-bebe-91c8c73a0ce9))
  (fp_line (start 1.5 1.5) (end -1.5 1.5)
    (stroke (width 0.15) (type solid)) (layer "F.Fab") (tstamp 8cb2f565-6e00-4894-979e-4832421bc6c6))
  (pad "" smd rect (at -0.415 -0.595) (size 0.64 1) (layers "F.Paste") (tstamp 83f4ba76-d4ad-4ad6-b0a5-33448be85ff5))
  (pad "" smd rect (at -0.415 0.595) (size 0.64 1) (layers "F.Paste") (tstamp 2a2af0a4-152f-4bab-9e33-79799ac6e161))
  (pad "" smd rect (at 0.415 -0.595) (size 0.64 1) (layers "F.Paste") (tstamp 70b59957-5776-4dc6-a2e8-3828ec118d31))
  (pad "" smd rect (at 0.415 0.595) (size 0.64 1) (layers "F.Paste") (tstamp 6c5889b5-adb6-4e44-874f-7d14c8f85767))
  (pad "1" smd rect (at -1.4 -1.125) (size 0.7 0.25) (layers "F.Cu" "F.Paste" "F.Mask") (tstamp c460212e-919a-49d5-9e78-9b6f57dfa1c8))
  (pad "2" smd rect (at -1.4 -0.675) (size 0.7 0.25) (layers "F.Cu" "F.Paste" "F.Mask") (tstamp 8085fcf7-d7ff-4b7a-a6f9-b59f0e3c36c6))
  (pad "3" smd rect (at -1.4 -0.225) (size 0.7 0.25) (layers "F.Cu" "F.Paste" "F.Mask") (tstamp 62de3347-e20f-4a69-bd0c-36c201006775))
  (pad "4" smd rect (at -1.4 0.225) (size 0.7 0.25) (layers "F.Cu" "F.Paste" "F.Mask") (tstamp af078975-b079-406e-80b5-64ef56cdfbc9))
  (pad "5" smd rect (at -1.4 0.675) (size 0.7 0.25) (layers "F.Cu" "F.Paste" "F.Mask") (tstamp 419e003c-3cf7-4f12-95b3-a953af867429))
  (pad "6" smd rect (at -1.4 1.125) (size 0.7 0.25) (layers "F.Cu" "F.Paste" "F.Mask") (tstamp a80c340f-4c29-4c69-9e9e-cb498e277c7f))
  (pad "7" smd rect (at 1.4 1.125) (size 0.7 0.25) (layers "F.Cu" "F.Paste" "F.Mask") (tstamp 1b5a7b13-18e8-46da-b4c7-56c4fc63812d))
  (pad "8" smd rect (at 1.4 0.675) (size 0.7 0.25) (layers "F.Cu" "F.Paste" "F.Mask") (tstamp 4ada8438-cba3-4aa6-94b1-11034a9770c1))
  (pad "9" smd rect (at 1.4 0.225) (size 0.7 0.25) (layers "F.Cu" "F.Paste" "F.Mask") (tstamp 4fb2f204-fa5b-412e-b544-894fb6e7c22c))
  (pad "10" smd rect (at 1.4 -0.225) (size 0.7 0.25) (layers "F.Cu" "F.Paste" "F.Mask") (tstamp 4bedb746-46f2-4ce7-836d-0185e7e19637))
  (pad "11" smd rect (at 1.4 -0.675) (size 0.7 0.25) (layers "F.Cu" "F.Paste" "F.Mask") (tstamp 6cead7ef-248d-4895-a1b4-ebb2d69984f8))
  (pad "12" smd rect (at 1.4 -1.125) (size 0.7 0.25) (layers "F.Cu" "F.Paste" "F.Mask") (tstamp c6c2c7dc-6259-45df-8033-c27a84801752))
  (pad "13" smd rect (at 0 0) (size 1.66 2.38) (layers "F.Cu" "F.Mask") (tstamp a6ba409f-3796-4388-b40c-8c02ecb0c89e))
  (model "${KICAD6_3DMODEL_DIR}/Package_DFN_QFN.3dshapes/DFN-12-1EP_3x3mm_P0.45mm_EP1.66x2.38mm.wrl"
    (offset (xyz 0 0 0))
    (scale (xyz 1 1 1))
    (rotate (xyz 0 0 0))
  )
)
