(footprint "Infineon_MLPQ-16-14-1EP_4x4mm_P0.5mm" (version 20221018) (generator pcbnew)
  (layer "F.Cu")
  (descr "MLPQ 32 leads, 7x7mm, 0.127mm stencil (https://www.infineon.com/dgdl/Infineon-AN1170-AN-v05_00-EN.pdf?fileId=5546d462533600a40153559ac3e51134)")
  (tags "mlpq 32 7x7mm")
  (solder_paste_margin -0.02)
  (attr smd)
  (fp_text reference "REF**" (at 0 -3.3) (layer "F.SilkS")
      (effects (font (size 1 1) (thickness 0.15)))
    (tstamp 227b1d20-e52d-42d3-a7c7-1943798d8307)
  )
  (fp_text value "Infineon_MLPQ-16-14-1EP_4x4mm_P0.5mm" (at 0 3.3) (layer "F.Fab")
      (effects (font (size 1 1) (thickness 0.15)))
    (tstamp d11fd03f-effa-4213-9f77-c11ceed3c4e6)
  )
  (fp_text user "${REFERENCE}" (at 0 0) (layer "F.Fab")
      (effects (font (size 0.9 0.9) (thickness 0.15)))
    (tstamp 49941f2f-9287-4121-86cb-dbb2eb09d7ab)
  )
  (fp_line (start -2.3 -1.1) (end -2.12 -1.1)
    (stroke (width 0.12) (type solid)) (layer "F.SilkS") (tstamp c07483ae-7cf7-4959-b363-b16c0fa6c036))
  (fp_line (start -2.12 -2.12) (end -2.12 -1.1)
    (stroke (width 0.12) (type solid)) (layer "F.SilkS") (tstamp b33a7d7e-df5e-4a08-a527-d1fc3805814c))
  (fp_line (start -2.12 1.1) (end -2.12 2.12)
    (stroke (width 0.12) (type solid)) (layer "F.SilkS") (tstamp b9c43ead-5f52-4b53-819c-2adbf808055c))
  (fp_line (start -1.1 -2.12) (end -2.12 -2.12)
    (stroke (width 0.12) (type solid)) (layer "F.SilkS") (tstamp ea0fedb1-fc9b-46b9-b1ee-8057b7e47b8d))
  (fp_line (start -1.1 2.12) (end -2.12 2.12)
    (stroke (width 0.12) (type solid)) (layer "F.SilkS") (tstamp 2ab74cdb-e500-4921-9ce7-f099cc20338d))
  (fp_line (start -0.1 -2.12) (end -0.4 -2.12)
    (stroke (width 0.12) (type solid)) (layer "F.SilkS") (tstamp 599fbd60-04ce-4280-ad2c-cda57cad9f87))
  (fp_line (start 2.12 -2.12) (end 1.1 -2.12)
    (stroke (width 0.12) (type solid)) (layer "F.SilkS") (tstamp 632c6bb0-e843-4998-99c2-614ee345ecf5))
  (fp_line (start 2.12 -2.12) (end 2.12 -1.1)
    (stroke (width 0.12) (type solid)) (layer "F.SilkS") (tstamp 2d54c8f3-da62-4628-aaff-04daaf95c235))
  (fp_line (start 2.12 0.1) (end 2.12 0.4)
    (stroke (width 0.12) (type solid)) (layer "F.SilkS") (tstamp 2c45d752-14bd-4eb2-bc02-270500080744))
  (fp_line (start 2.12 1.1) (end 2.12 2.12)
    (stroke (width 0.12) (type solid)) (layer "F.SilkS") (tstamp c7f1c363-0d00-4ff0-a727-e16ca90081ac))
  (fp_line (start 2.12 2.12) (end 1.1 2.12)
    (stroke (width 0.12) (type solid)) (layer "F.SilkS") (tstamp 4c1e3b86-7f16-4c41-8bc4-e1481c799ce6))
  (fp_line (start -2.55 -2.55) (end 2.55 -2.55)
    (stroke (width 0.05) (type solid)) (layer "F.CrtYd") (tstamp 6b52605a-3c3e-42d6-89d8-bc5cc60a3496))
  (fp_line (start -2.55 2.55) (end -2.55 -2.55)
    (stroke (width 0.05) (type solid)) (layer "F.CrtYd") (tstamp c55140b2-8c46-4c18-970f-66c94a7c88cd))
  (fp_line (start 2.55 -2.55) (end 2.55 2.55)
    (stroke (width 0.05) (type solid)) (layer "F.CrtYd") (tstamp 84b28532-ce5d-4075-9780-9aa3bd06eceb))
  (fp_line (start 2.55 2.55) (end -2.55 2.55)
    (stroke (width 0.05) (type solid)) (layer "F.CrtYd") (tstamp f780a90b-4439-4dce-bd11-6dfc22394226))
  (fp_line (start -2 2) (end -2 -1)
    (stroke (width 0.1) (type solid)) (layer "F.Fab") (tstamp b8da7a9b-16c1-403e-8433-8ca7dc8d5ba6))
  (fp_line (start -1 -2) (end -2 -1)
    (stroke (width 0.1) (type solid)) (layer "F.Fab") (tstamp acffa977-f617-4d8a-9343-8c4c528d5c87))
  (fp_line (start -1 -2) (end 2 -2)
    (stroke (width 0.1) (type solid)) (layer "F.Fab") (tstamp 8469b524-bfc0-4ec9-a4e8-ca477229c21e))
  (fp_line (start 2 -2) (end 2 2)
    (stroke (width 0.1) (type solid)) (layer "F.Fab") (tstamp 4b86ad9d-8e36-4161-b0e5-15a472b383f9))
  (fp_line (start 2 2) (end -2 2)
    (stroke (width 0.1) (type solid)) (layer "F.Fab") (tstamp 25ee70ee-d9da-458e-8716-c96c87389be5))
  (pad "" smd rect (at -0.335 -0.105) (size 1.5 0.8) (layers "F.Paste") (tstamp ef8a578f-6c00-4989-acbb-b70f4877839c))
  (pad "" smd rect (at -0.335 0.835) (size 1.5 0.8) (layers "F.Paste") (tstamp 398f49ed-7f2f-4dd7-a4b9-33c84f419a38))
  (pad "1" smd rect (at -1.975 -0.75) (size 0.65 0.22) (layers "F.Cu" "F.Paste" "F.Mask")
    (solder_paste_margin -0.02) (tstamp bd4161a4-153e-4d73-b27e-5c23907b0072))
  (pad "2" smd rect (at -1.975 -0.25) (size 0.65 0.22) (layers "F.Cu" "F.Paste" "F.Mask")
    (solder_paste_margin -0.02) (tstamp 0b46abad-28b7-4858-b348-6f42ba9fa0dd))
  (pad "3" smd rect (at -1.975 0.25) (size 0.65 0.22) (layers "F.Cu" "F.Paste" "F.Mask")
    (solder_paste_margin -0.02) (tstamp 82230c68-4e02-49f8-8903-dc01445c5ade))
  (pad "4" smd rect (at -1.975 0.75) (size 0.65 0.22) (layers "F.Cu" "F.Paste" "F.Mask")
    (solder_paste_margin -0.02) (tstamp e63f5022-fe80-43a1-8b80-d0f60d611fbd))
  (pad "5" smd rect (at -0.75 1.975) (size 0.22 0.65) (layers "F.Cu" "F.Paste" "F.Mask")
    (solder_paste_margin -0.02) (tstamp 84ea7148-896c-4d37-8fa6-41a7475c3115))
  (pad "6" smd rect (at -0.25 1.975) (size 0.22 0.65) (layers "F.Cu" "F.Paste" "F.Mask")
    (solder_paste_margin -0.02) (tstamp 94a8dfde-0ffb-47a8-9c96-4cba11f2b70f))
  (pad "7" smd rect (at 0.25 1.975) (size 0.22 0.65) (layers "F.Cu" "F.Paste" "F.Mask")
    (solder_paste_margin -0.02) (tstamp 7e49c232-bd3c-4024-a528-c4f302257e04))
  (pad "8" smd rect (at 0.75 1.975) (size 0.22 0.65) (layers "F.Cu" "F.Paste" "F.Mask")
    (solder_paste_margin -0.02) (tstamp 1ced53d1-6d50-4ea7-94bf-02a06e034b46))
  (pad "9" smd rect (at 1.975 0.75) (size 0.65 0.22) (layers "F.Cu" "F.Paste" "F.Mask")
    (solder_paste_margin -0.02) (tstamp a5eca99a-482c-4ae7-b87e-26ac3b7baa0c))
  (pad "11" smd rect (at 1.975 -0.25) (size 0.65 0.22) (layers "F.Cu" "F.Paste" "F.Mask")
    (solder_paste_margin -0.02) (tstamp f2ce381f-f295-447a-99e4-de987ad7e46f))
  (pad "12" smd rect (at 1.975 -0.75) (size 0.65 0.22) (layers "F.Cu" "F.Paste" "F.Mask")
    (solder_paste_margin -0.02) (tstamp 5b52f997-c4df-45d9-b9b1-fc51f84edece))
  (pad "13" smd rect (at 0.75 -1.975) (size 0.22 0.65) (layers "F.Cu" "F.Paste" "F.Mask")
    (solder_paste_margin -0.02) (tstamp 71a56bab-f2ff-4add-ad37-9cfd0f0274ad))
  (pad "14" smd rect (at 0.25 -1.975) (size 0.22 0.65) (layers "F.Cu" "F.Paste" "F.Mask")
    (solder_paste_margin -0.02) (tstamp c4f01189-afc4-4348-bb07-fce8dfc66d2f))
  (pad "16" smd rect (at -0.75 -1.975) (size 0.22 0.65) (layers "F.Cu" "F.Paste" "F.Mask")
    (solder_paste_margin -0.02) (tstamp 67af20ea-312e-4907-b604-b21ea7c31098))
  (pad "17" smd rect (at -1.075 -0.375 45) (size 0.2828 0.2828) (layers "F.Cu" "F.Mask") (tstamp 99590650-814d-44af-9d7c-1fe0b591f8bd))
  (pad "17" smd rect (at -0.335 0.465) (size 1.88 1.68) (layers "F.Cu" "F.Mask") (tstamp f2f1e152-7b76-45a5-8f21-541c93f37fc4))
  (pad "17" smd rect (at -0.235 -0.475) (size 1.68 0.2) (layers "F.Cu" "F.Mask") (tstamp 109f22ed-f2a1-45fd-b303-9d3a8ceecb28))
  (model "${KICAD6_3DMODEL_DIR}/Package_DFN_QFN.3dshapes/Infineon_MLPQ-16-14-1EP_4x4mm_P0.5mm.wrl"
    (offset (xyz 0 0 0))
    (scale (xyz 1 1 1))
    (rotate (xyz 0 0 0))
  )
)
