(footprint "OnSemi_XDFN4-1EP_1.0x1.0mm_EP0.52x0.52mm" (version 20221018) (generator pcbnew)
  (layer "F.Cu")
  (descr "XDFN4 footprint (as found on the https://www.onsemi.com/pub/Collateral/NCP115-D.PDF)")
  (tags "OnSemi XDFN4")
  (attr smd)
  (fp_text reference "REF**" (at 0.04 2.38) (layer "F.SilkS")
      (effects (font (size 1 1) (thickness 0.15)))
    (tstamp 5831c002-47eb-43e3-ba80-dd279fecaa9c)
  )
  (fp_text value "OnSemi_XDFN4-1EP_1.0x1.0mm_EP0.52x0.52mm" (at 0.5 -1.74) (layer "F.Fab")
      (effects (font (size 1 1) (thickness 0.15)))
    (tstamp 3e18b36a-eca5-41b8-b2c5-c5a6ba6db341)
  )
  (fp_text user "${REFERENCE}" (at 0.4 1.3) (layer "F.Fab")
      (effects (font (size 0.5 0.5) (thickness 0.125)))
    (tstamp 907a17d8-7c69-4493-91ab-d7df8bb73a2f)
  )
  (fp_line (start -0.86 -0.3) (end -0.86 0.72)
    (stroke (width 0.12) (type solid)) (layer "F.SilkS") (tstamp 4603f535-a138-47ef-8bb0-e18a22f8bc92))
  (fp_line (start -0.86 0.72) (end 0.86 0.72)
    (stroke (width 0.12) (type solid)) (layer "F.SilkS") (tstamp 8351203e-90b8-4649-8b9a-ca1d92f9e58d))
  (fp_line (start 0.86 -0.72) (end -0.3 -0.72)
    (stroke (width 0.12) (type solid)) (layer "F.SilkS") (tstamp ac171e64-9f55-4785-ae0a-3eaeed1f5569))
  (fp_line (start 0.86 0.72) (end 0.86 -0.72)
    (stroke (width 0.12) (type solid)) (layer "F.SilkS") (tstamp 223ad6c1-81bd-4b6d-aa63-bfa68305ba4f))
  (fp_line (start -0.87 -0.73) (end 0.85 -0.73)
    (stroke (width 0.05) (type solid)) (layer "F.CrtYd") (tstamp 114c000c-98c6-402c-b9e7-97237eda839c))
  (fp_line (start -0.87 0.73) (end -0.87 -0.73)
    (stroke (width 0.05) (type solid)) (layer "F.CrtYd") (tstamp 6efc55ac-fff8-4611-807c-c091ea7bfb05))
  (fp_line (start 0.85 -0.73) (end 0.85 0.73)
    (stroke (width 0.05) (type solid)) (layer "F.CrtYd") (tstamp 008196a9-32fa-4d07-a601-216ec29e3cde))
  (fp_line (start 0.85 0.73) (end -0.87 0.73)
    (stroke (width 0.05) (type solid)) (layer "F.CrtYd") (tstamp 86604b7f-524d-4217-bf45-88bd3f861c1a))
  (fp_line (start -0.5 -0.25) (end -0.25 -0.5)
    (stroke (width 0.1) (type solid)) (layer "F.Fab") (tstamp cccef342-87dd-4330-9010-f8a3478b3002))
  (fp_line (start -0.5 0.5) (end -0.5 -0.25)
    (stroke (width 0.1) (type solid)) (layer "F.Fab") (tstamp 3347bbff-b44a-49d0-8136-6636601ab5a7))
  (fp_line (start -0.25 -0.5) (end 0.5 -0.5)
    (stroke (width 0.1) (type solid)) (layer "F.Fab") (tstamp 85358420-2fcf-4825-80ec-ab3bc82db96f))
  (fp_line (start 0.5 -0.5) (end 0.5 0.5)
    (stroke (width 0.1) (type solid)) (layer "F.Fab") (tstamp aa3f6219-24c1-4f2a-a59e-f3bc0dc6c6b3))
  (fp_line (start 0.5 0.5) (end -0.5 0.5)
    (stroke (width 0.1) (type solid)) (layer "F.Fab") (tstamp fc635145-e799-4f65-ae50-bb3e22ba2f88))
  (pad "1" smd custom (at -0.485 -0.325 270) (size 0.26 0.23) (layers "F.Cu" "F.Paste" "F.Mask")
    (zone_connect 0) (thermal_bridge_angle 45)
    (options (clearance outline) (anchor rect))
    (primitives
      (gr_poly
        (pts
          (xy 0.13 -0.115)
          (xy -0.13 -0.115)
          (xy -0.13 -0.275)
          (xy -0.02 -0.275)
        )
        (width 0) (fill yes))
    ) (tstamp b05ff933-e469-4574-8eb8-23bffc1244ec))
  (pad "2" smd custom (at -0.485 0.325 270) (size 0.26 0.23) (layers "F.Cu" "F.Paste" "F.Mask")
    (zone_connect 0) (thermal_bridge_angle 45)
    (options (clearance outline) (anchor rect))
    (primitives
      (gr_poly
        (pts
          (xy 0.13 -0.115)
          (xy -0.13 -0.115)
          (xy 0.02 -0.275)
          (xy 0.13 -0.275)
        )
        (width 0) (fill yes))
    ) (tstamp d194cd47-72af-4cf9-98b8-4ce8c5cfa9b3))
  (pad "3" smd custom (at 0.485 0.325 90) (size 0.26 0.23) (layers "F.Cu" "F.Paste" "F.Mask")
    (zone_connect 0) (thermal_bridge_angle 45)
    (options (clearance outline) (anchor rect))
    (primitives
      (gr_poly
        (pts
          (xy 0.13 -0.115)
          (xy -0.13 -0.115)
          (xy -0.13 -0.275)
          (xy -0.02 -0.275)
        )
        (width 0) (fill yes))
    ) (tstamp 5f512be9-6fce-4561-8bd6-c51830f9a69b))
  (pad "4" smd custom (at 0.485 -0.325 90) (size 0.26 0.23) (layers "F.Cu" "F.Paste" "F.Mask")
    (zone_connect 0) (thermal_bridge_angle 45)
    (options (clearance outline) (anchor rect))
    (primitives
      (gr_poly
        (pts
          (xy 0.13 -0.115)
          (xy -0.13 -0.115)
          (xy 0.02 -0.275)
          (xy 0.13 -0.275)
        )
        (width 0) (fill yes))
    ) (tstamp a7e21854-19bb-4ee8-8fdd-3fea638d5ad2))
  (pad "5" smd rect (at 0 0 135) (size 0.52 0.52) (layers "F.Cu" "F.Paste" "F.Mask") (tstamp ce8d3bd9-5d3f-45e3-a6f1-7848c33ef7a0))
  (model "${KICAD7_3DMODEL_DIR}/Package_DFN_QFN.3dshapes/OnSemi_XDFN4-1EP_1.0x1.0mm_EP0.52x0.52mm.wrl"
    (offset (xyz 0 0 0))
    (scale (xyz 1 1 1))
    (rotate (xyz 0 0 0))
  )
)
