(footprint "QFN-64-1EP_9x9mm_P0.5mm_EP7.25x7.25mm" (version 20221018) (generator pcbnew)
  (layer "F.Cu")
  (descr "64-Lead Plastic Quad Flat No-Lead Package, 9x9mm Body (see Atmel Appnote 8826)")
  (tags "QFN 0.5")
  (attr smd)
  (fp_text reference "REF**" (at 0 -5.875) (layer "F.SilkS")
      (effects (font (size 1 1) (thickness 0.15)))
    (tstamp c915c21d-b0fc-4fc9-acfc-538c1bc3053d)
  )
  (fp_text value "QFN-64-1EP_9x9mm_P0.5mm_EP7.25x7.25mm" (at 0 5.875) (layer "F.Fab")
      (effects (font (size 1 1) (thickness 0.15)))
    (tstamp b2ace4ce-1c51-4617-b165-81bb691fa10e)
  )
  (fp_text user "${REFERENCE}" (at 0 0) (layer "F.Fab")
      (effects (font (size 1 1) (thickness 0.15)))
    (tstamp 7ef18256-c723-4356-9b41-d390a9ffd30c)
  )
  (fp_line (start -4.62 -4.62) (end -4.2 -4.62)
    (stroke (width 0.12) (type solid)) (layer "F.SilkS") (tstamp bc296910-bf9f-4362-ae8d-30897056993c))
  (fp_line (start -4.62 4.62) (end -4.62 4.2)
    (stroke (width 0.12) (type solid)) (layer "F.SilkS") (tstamp 840292d3-122e-4120-9463-187b536f3355))
  (fp_line (start -4.62 4.62) (end -4.2 4.62)
    (stroke (width 0.12) (type solid)) (layer "F.SilkS") (tstamp 24bb9304-2131-42ba-8b14-6944e410910d))
  (fp_line (start 4.62 -4.62) (end 4.2 -4.62)
    (stroke (width 0.12) (type solid)) (layer "F.SilkS") (tstamp ae0a81fb-4d66-4441-8f2a-b35a4396f4a2))
  (fp_line (start 4.62 -4.62) (end 4.62 -4.2)
    (stroke (width 0.12) (type solid)) (layer "F.SilkS") (tstamp 4b95271a-0661-49a1-bd04-9fa76e9c6f25))
  (fp_line (start 4.62 4.62) (end 4.2 4.62)
    (stroke (width 0.12) (type solid)) (layer "F.SilkS") (tstamp 49267ad8-6612-44be-a3ff-4c6d55f944dc))
  (fp_line (start 4.62 4.62) (end 4.62 4.2)
    (stroke (width 0.12) (type solid)) (layer "F.SilkS") (tstamp 5d45840f-481e-4365-8631-2f2de85d9e95))
  (fp_line (start -5.15 -5.15) (end -5.15 5.15)
    (stroke (width 0.05) (type solid)) (layer "F.CrtYd") (tstamp be32ceb6-3423-4db8-9333-5701f8bc8747))
  (fp_line (start -5.15 -5.15) (end 5.15 -5.15)
    (stroke (width 0.05) (type solid)) (layer "F.CrtYd") (tstamp 824e7ffd-5f78-4691-937d-532bec72d68e))
  (fp_line (start -5.15 5.15) (end 5.15 5.15)
    (stroke (width 0.05) (type solid)) (layer "F.CrtYd") (tstamp 4b742e79-3b2d-433e-8786-d9921d38cdf3))
  (fp_line (start 5.15 -5.15) (end 5.15 5.15)
    (stroke (width 0.05) (type solid)) (layer "F.CrtYd") (tstamp ec519c02-5111-4b74-906a-063088e0b3f8))
  (fp_line (start -4.5 -3.5) (end -3.5 -4.5)
    (stroke (width 0.1) (type solid)) (layer "F.Fab") (tstamp 2479fed8-be7c-4784-8b17-80e7dcd04ca6))
  (fp_line (start -4.5 4.5) (end -4.5 -3.5)
    (stroke (width 0.1) (type solid)) (layer "F.Fab") (tstamp 6f3e896d-04d8-486b-b55c-f7620959cb2a))
  (fp_line (start -3.5 -4.5) (end 4.5 -4.5)
    (stroke (width 0.1) (type solid)) (layer "F.Fab") (tstamp e1782bd7-169d-41eb-b928-05f4443a48d0))
  (fp_line (start 4.5 -4.5) (end 4.5 4.5)
    (stroke (width 0.1) (type solid)) (layer "F.Fab") (tstamp 60fdc611-e910-49da-aaaa-c1bda4e89f90))
  (fp_line (start 4.5 4.5) (end -4.5 4.5)
    (stroke (width 0.1) (type solid)) (layer "F.Fab") (tstamp ebe6528c-ef46-474f-acf3-1dc3fbf97f55))
  (pad "" smd rect (at -2.8 -2.8) (size 1.19 1.19) (layers "F.Paste") (tstamp d39f85d0-1cbe-4706-a74e-a563fd229a27))
  (pad "" smd rect (at -2.8 -1.4) (size 1.19 1.19) (layers "F.Paste") (tstamp a696ea8e-b363-4784-8782-6c6bf5543e0b))
  (pad "" smd rect (at -2.8 0) (size 1.19 1.19) (layers "F.Paste") (tstamp 4ac16b54-d7b3-4be6-a569-9e5ee20d2d12))
  (pad "" smd rect (at -2.8 1.4) (size 1.19 1.19) (layers "F.Paste") (tstamp eb0a5316-2086-44d9-8ad6-b54d1cf468ff))
  (pad "" smd rect (at -2.8 2.8) (size 1.19 1.19) (layers "F.Paste") (tstamp 2394671f-37fb-48f3-a171-e92ca6643af8))
  (pad "" smd rect (at -1.4 -2.8) (size 1.19 1.19) (layers "F.Paste") (tstamp 73df6446-5be1-487e-bbe6-f32e55777ecb))
  (pad "" smd rect (at -1.4 -1.4) (size 1.19 1.19) (layers "F.Paste") (tstamp b22948ae-7996-4906-ae83-58586c152092))
  (pad "" smd rect (at -1.4 0) (size 1.19 1.19) (layers "F.Paste") (tstamp 36eb91e0-c91d-4608-a8c8-659b78669b0e))
  (pad "" smd rect (at -1.4 1.4) (size 1.19 1.19) (layers "F.Paste") (tstamp 84cba96f-627a-4996-8c42-6ded769f9e3b))
  (pad "" smd rect (at -1.4 2.8) (size 1.19 1.19) (layers "F.Paste") (tstamp e824ac53-0a59-4a63-b5d9-a5e96524ef9e))
  (pad "" smd rect (at 0 -2.8) (size 1.19 1.19) (layers "F.Paste") (tstamp 0fbfaafb-eb8c-4915-b5e2-3d54336428ba))
  (pad "" smd rect (at 0 -1.4) (size 1.19 1.19) (layers "F.Paste") (tstamp 1c07759a-29f6-4aea-8308-3fb0fa628e99))
  (pad "" smd rect (at 0 0) (size 1.19 1.19) (layers "F.Paste") (tstamp 6bf6295a-bcc0-4956-9119-28dc183624c1))
  (pad "" smd rect (at 0 1.4) (size 1.19 1.19) (layers "F.Paste") (tstamp 4861f184-a71f-4b0f-80a8-01cfe071dba1))
  (pad "" smd rect (at 0 2.8) (size 1.19 1.19) (layers "F.Paste") (tstamp 5ae9bf84-74f0-4ed0-90bb-c53393cb3413))
  (pad "" smd rect (at 1.4 -2.8) (size 1.19 1.19) (layers "F.Paste") (tstamp 96fb131c-3ffe-4509-88e7-7eefcb20a2bb))
  (pad "" smd rect (at 1.4 -1.4) (size 1.19 1.19) (layers "F.Paste") (tstamp f98f8c82-c1bd-4b68-a59d-07272c433b84))
  (pad "" smd rect (at 1.4 0) (size 1.19 1.19) (layers "F.Paste") (tstamp 9466ce4f-5ead-49b4-8a54-039a13d92e19))
  (pad "" smd rect (at 1.4 1.4) (size 1.19 1.19) (layers "F.Paste") (tstamp f7d8f5de-56cd-498c-8beb-ad1f14e892be))
  (pad "" smd rect (at 1.4 2.8) (size 1.19 1.19) (layers "F.Paste") (tstamp 0a0ca604-d152-4e1a-98c0-61356a5b57e7))
  (pad "" smd rect (at 2.8 -2.8) (size 1.19 1.19) (layers "F.Paste") (tstamp 61bbb813-d766-4e02-b82b-318244880ee7))
  (pad "" smd rect (at 2.8 -1.4) (size 1.19 1.19) (layers "F.Paste") (tstamp 1a855ea9-17c6-4fb0-b2de-4be7c05d1132))
  (pad "" smd rect (at 2.8 0) (size 1.19 1.19) (layers "F.Paste") (tstamp 5631a6e3-20f0-4ff4-b718-e758e417218b))
  (pad "" smd rect (at 2.8 1.4) (size 1.19 1.19) (layers "F.Paste") (tstamp b030c702-8555-427c-9b51-068739828b05))
  (pad "" smd rect (at 2.8 2.8) (size 1.19 1.19) (layers "F.Paste") (tstamp b7eaf45e-6b48-40ee-8d7e-32f9cf29426e))
  (pad "1" smd oval (at -4.5 -3.75) (size 0.8 0.3) (layers "F.Cu" "F.Paste" "F.Mask") (tstamp 9ca9aed5-c98b-4c1c-9722-61c34c6b5b1a))
  (pad "2" smd oval (at -4.5 -3.25) (size 0.8 0.3) (layers "F.Cu" "F.Paste" "F.Mask") (tstamp 28de7a2d-4b79-4e13-8138-cf4646406097))
  (pad "3" smd oval (at -4.5 -2.75) (size 0.8 0.3) (layers "F.Cu" "F.Paste" "F.Mask") (tstamp 6a0d6923-990d-40a0-ae47-c00dd8bac350))
  (pad "4" smd oval (at -4.5 -2.25) (size 0.8 0.3) (layers "F.Cu" "F.Paste" "F.Mask") (tstamp cd747be1-d54a-4a52-ae83-0a7f7a96fe18))
  (pad "5" smd oval (at -4.5 -1.75) (size 0.8 0.3) (layers "F.Cu" "F.Paste" "F.Mask") (tstamp 4ff9864c-7aa1-4aa5-9da1-1b7574285e9e))
  (pad "6" smd oval (at -4.5 -1.25) (size 0.8 0.3) (layers "F.Cu" "F.Paste" "F.Mask") (tstamp d306ebc9-12a4-4f35-93b0-05056ed616e2))
  (pad "7" smd oval (at -4.5 -0.75) (size 0.8 0.3) (layers "F.Cu" "F.Paste" "F.Mask") (tstamp 501da872-efa0-4bfe-a9c6-dc1ef8f027d6))
  (pad "8" smd oval (at -4.5 -0.25) (size 0.8 0.3) (layers "F.Cu" "F.Paste" "F.Mask") (tstamp 0c9321a0-272f-4134-a3bc-9a8bfd023502))
  (pad "9" smd oval (at -4.5 0.25) (size 0.8 0.3) (layers "F.Cu" "F.Paste" "F.Mask") (tstamp f33d33eb-5ec7-4b0f-9038-e023dc1fa71d))
  (pad "10" smd oval (at -4.5 0.75) (size 0.8 0.3) (layers "F.Cu" "F.Paste" "F.Mask") (tstamp 2cb0458c-eb11-45c6-aaee-27999f668962))
  (pad "11" smd oval (at -4.5 1.25) (size 0.8 0.3) (layers "F.Cu" "F.Paste" "F.Mask") (tstamp 8299ba34-e708-49a4-aaa1-21c52ab891c5))
  (pad "12" smd oval (at -4.5 1.75) (size 0.8 0.3) (layers "F.Cu" "F.Paste" "F.Mask") (tstamp c9f49652-0768-4ad2-afef-d16c648eb8d6))
  (pad "13" smd oval (at -4.5 2.25) (size 0.8 0.3) (layers "F.Cu" "F.Paste" "F.Mask") (tstamp a5848bb2-28b3-4004-b4c5-297f43d34777))
  (pad "14" smd oval (at -4.5 2.75) (size 0.8 0.3) (layers "F.Cu" "F.Paste" "F.Mask") (tstamp 8e866f0d-7e3a-45cc-859d-abd41ce7d934))
  (pad "15" smd oval (at -4.5 3.25) (size 0.8 0.3) (layers "F.Cu" "F.Paste" "F.Mask") (tstamp 49578b99-402b-4865-9155-78ab5a35c997))
  (pad "16" smd oval (at -4.5 3.75) (size 0.8 0.3) (layers "F.Cu" "F.Paste" "F.Mask") (tstamp bbd59272-7907-49a0-ad29-53d2d53dad47))
  (pad "17" smd oval (at -3.75 4.5 90) (size 0.8 0.3) (layers "F.Cu" "F.Paste" "F.Mask") (tstamp 21dc0d45-4401-4355-bbcf-21e8a34488e3))
  (pad "18" smd oval (at -3.25 4.5 90) (size 0.8 0.3) (layers "F.Cu" "F.Paste" "F.Mask") (tstamp c283bc39-02cd-42c8-8d5e-862c406258ef))
  (pad "19" smd oval (at -2.75 4.5 90) (size 0.8 0.3) (layers "F.Cu" "F.Paste" "F.Mask") (tstamp 302f66c8-dad8-44cc-a66d-f4529222314c))
  (pad "20" smd oval (at -2.25 4.5 90) (size 0.8 0.3) (layers "F.Cu" "F.Paste" "F.Mask") (tstamp 733077cc-5b0f-40b1-a676-81de21fdd435))
  (pad "21" smd oval (at -1.75 4.5 90) (size 0.8 0.3) (layers "F.Cu" "F.Paste" "F.Mask") (tstamp 226a91bd-a794-413e-a318-ab314837ca29))
  (pad "22" smd oval (at -1.25 4.5 90) (size 0.8 0.3) (layers "F.Cu" "F.Paste" "F.Mask") (tstamp a8ee25f9-9fe5-462f-b585-a210161f4fff))
  (pad "23" smd oval (at -0.75 4.5 90) (size 0.8 0.3) (layers "F.Cu" "F.Paste" "F.Mask") (tstamp dd675935-af32-4d7b-aae1-7bf3d3450e59))
  (pad "24" smd oval (at -0.25 4.5 90) (size 0.8 0.3) (layers "F.Cu" "F.Paste" "F.Mask") (tstamp 25f98fb8-d863-40ab-bd84-05351cf5263e))
  (pad "25" smd oval (at 0.25 4.5 90) (size 0.8 0.3) (layers "F.Cu" "F.Paste" "F.Mask") (tstamp bf4a0732-8a0b-4fe5-aa8f-2491375473d0))
  (pad "26" smd oval (at 0.75 4.5 90) (size 0.8 0.3) (layers "F.Cu" "F.Paste" "F.Mask") (tstamp 9d1d7981-2bed-46ed-a0bc-9a926f2a313a))
  (pad "27" smd oval (at 1.25 4.5 90) (size 0.8 0.3) (layers "F.Cu" "F.Paste" "F.Mask") (tstamp f708d4b2-0924-4aa4-ba34-c03bae411a90))
  (pad "28" smd oval (at 1.75 4.5 90) (size 0.8 0.3) (layers "F.Cu" "F.Paste" "F.Mask") (tstamp 7f5d656a-2080-41ea-9354-54ade0030730))
  (pad "29" smd oval (at 2.25 4.5 90) (size 0.8 0.3) (layers "F.Cu" "F.Paste" "F.Mask") (tstamp 79d18a77-bda5-4218-a5d7-5589c511d945))
  (pad "30" smd oval (at 2.75 4.5 90) (size 0.8 0.3) (layers "F.Cu" "F.Paste" "F.Mask") (tstamp e8fbe178-4459-472a-a9c9-9089d0339d0d))
  (pad "31" smd oval (at 3.25 4.5 90) (size 0.8 0.3) (layers "F.Cu" "F.Paste" "F.Mask") (tstamp 7bc8e99e-6e00-41bd-aa7b-d2cc07ad4912))
  (pad "32" smd oval (at 3.75 4.5 90) (size 0.8 0.3) (layers "F.Cu" "F.Paste" "F.Mask") (tstamp ac43fce0-183d-430c-a0de-1e46757d30fc))
  (pad "33" smd oval (at 4.5 3.75) (size 0.8 0.3) (layers "F.Cu" "F.Paste" "F.Mask") (tstamp 288af4f2-caa6-4152-ac5d-b5f3419afe5f))
  (pad "34" smd oval (at 4.5 3.25) (size 0.8 0.3) (layers "F.Cu" "F.Paste" "F.Mask") (tstamp 33419a4e-7ec7-4c87-ac69-e31974105edc))
  (pad "35" smd oval (at 4.5 2.75) (size 0.8 0.3) (layers "F.Cu" "F.Paste" "F.Mask") (tstamp 3cdec92f-acf5-4b9e-8f31-3c9c65d3f36e))
  (pad "36" smd oval (at 4.5 2.25) (size 0.8 0.3) (layers "F.Cu" "F.Paste" "F.Mask") (tstamp 4f7f435b-17be-4ab6-bd36-3489a298a3c7))
  (pad "37" smd oval (at 4.5 1.75) (size 0.8 0.3) (layers "F.Cu" "F.Paste" "F.Mask") (tstamp a2d76c27-727a-43c3-9a5b-a4d53d4ff169))
  (pad "38" smd oval (at 4.5 1.25) (size 0.8 0.3) (layers "F.Cu" "F.Paste" "F.Mask") (tstamp e7ef105a-ceb8-4cd5-a00f-f1413dbc5bc0))
  (pad "39" smd oval (at 4.5 0.75) (size 0.8 0.3) (layers "F.Cu" "F.Paste" "F.Mask") (tstamp 568e32ac-292d-4add-9dd8-12034cb64906))
  (pad "40" smd oval (at 4.5 0.25) (size 0.8 0.3) (layers "F.Cu" "F.Paste" "F.Mask") (tstamp c6ecbc18-a108-4a47-8d6a-d84b995a5353))
  (pad "41" smd oval (at 4.5 -0.25) (size 0.8 0.3) (layers "F.Cu" "F.Paste" "F.Mask") (tstamp c900ff6c-9dd3-4ce3-992f-526086c759ee))
  (pad "42" smd oval (at 4.5 -0.75) (size 0.8 0.3) (layers "F.Cu" "F.Paste" "F.Mask") (tstamp 03ae8da4-8429-46d1-9791-75e9602444d6))
  (pad "43" smd oval (at 4.5 -1.25) (size 0.8 0.3) (layers "F.Cu" "F.Paste" "F.Mask") (tstamp 22646c16-cf0f-4d9e-8196-298c511a9283))
  (pad "44" smd oval (at 4.5 -1.75) (size 0.8 0.3) (layers "F.Cu" "F.Paste" "F.Mask") (tstamp 1b4fa786-b060-4a2e-b62e-30a37b97167c))
  (pad "45" smd oval (at 4.5 -2.25) (size 0.8 0.3) (layers "F.Cu" "F.Paste" "F.Mask") (tstamp 2381e452-e758-4565-9595-676545f10a31))
  (pad "46" smd oval (at 4.5 -2.75) (size 0.8 0.3) (layers "F.Cu" "F.Paste" "F.Mask") (tstamp 591c65fa-8452-4427-a07e-22effd96d232))
  (pad "47" smd oval (at 4.5 -3.25) (size 0.8 0.3) (layers "F.Cu" "F.Paste" "F.Mask") (tstamp cfe71d78-2067-42d5-a2b9-1e3ecc26c7d5))
  (pad "48" smd oval (at 4.5 -3.75) (size 0.8 0.3) (layers "F.Cu" "F.Paste" "F.Mask") (tstamp 2ceffec3-81af-42ab-8c28-10876ba5c983))
  (pad "49" smd oval (at 3.75 -4.5 90) (size 0.8 0.3) (layers "F.Cu" "F.Paste" "F.Mask") (tstamp 3b3a0a19-9f58-4cde-a26a-eba011f2e096))
  (pad "50" smd oval (at 3.25 -4.5 90) (size 0.8 0.3) (layers "F.Cu" "F.Paste" "F.Mask") (tstamp fec06656-0677-4619-a964-034457e9535b))
  (pad "51" smd oval (at 2.75 -4.5 90) (size 0.8 0.3) (layers "F.Cu" "F.Paste" "F.Mask") (tstamp 75314765-6b7b-4183-8556-e1a3e28859d2))
  (pad "52" smd oval (at 2.25 -4.5 90) (size 0.8 0.3) (layers "F.Cu" "F.Paste" "F.Mask") (tstamp 0b701c32-5b9e-47d0-a7d4-cf062d916e5d))
  (pad "53" smd oval (at 1.75 -4.5 90) (size 0.8 0.3) (layers "F.Cu" "F.Paste" "F.Mask") (tstamp 06ab9b97-4f8d-4dde-9bff-89b6e1eef942))
  (pad "54" smd oval (at 1.25 -4.5 90) (size 0.8 0.3) (layers "F.Cu" "F.Paste" "F.Mask") (tstamp 9f1f4639-b8b1-43c6-9d9a-538143f5bc6f))
  (pad "55" smd oval (at 0.75 -4.5 90) (size 0.8 0.3) (layers "F.Cu" "F.Paste" "F.Mask") (tstamp 203e3ea3-899a-49d8-aeb8-9094e8cc628d))
  (pad "56" smd oval (at 0.25 -4.5 90) (size 0.8 0.3) (layers "F.Cu" "F.Paste" "F.Mask") (tstamp 837e5897-da85-43f9-9b0a-da946fd6417d))
  (pad "57" smd oval (at -0.25 -4.5 90) (size 0.8 0.3) (layers "F.Cu" "F.Paste" "F.Mask") (tstamp 7bac4997-b5e7-4e53-a2a4-f04112bca06f))
  (pad "58" smd oval (at -0.75 -4.5 90) (size 0.8 0.3) (layers "F.Cu" "F.Paste" "F.Mask") (tstamp 7ae96382-d6d6-4881-87dc-0e4ab2ff7276))
  (pad "59" smd oval (at -1.25 -4.5 90) (size 0.8 0.3) (layers "F.Cu" "F.Paste" "F.Mask") (tstamp 786f8e73-0544-47ae-bff2-02ccc86add6e))
  (pad "60" smd oval (at -1.75 -4.5 90) (size 0.8 0.3) (layers "F.Cu" "F.Paste" "F.Mask") (tstamp 3fe879c5-04a4-4f66-8773-d9934b343680))
  (pad "61" smd oval (at -2.25 -4.5 90) (size 0.8 0.3) (layers "F.Cu" "F.Paste" "F.Mask") (tstamp d95e2e39-40d7-415a-8f4c-7a345570e0ea))
  (pad "62" smd oval (at -2.75 -4.5 90) (size 0.8 0.3) (layers "F.Cu" "F.Paste" "F.Mask") (tstamp 86ae5eef-f2c6-418f-ad91-d85055ce9303))
  (pad "63" smd oval (at -3.25 -4.5 90) (size 0.8 0.3) (layers "F.Cu" "F.Paste" "F.Mask") (tstamp 6886e6ce-d33a-4df0-bec7-4ebb95011d24))
  (pad "64" smd oval (at -3.75 -4.5 90) (size 0.8 0.3) (layers "F.Cu" "F.Paste" "F.Mask") (tstamp 32b139ab-9569-476a-a359-1e3cf0ba2261))
  (pad "65" smd rect (at 0 0) (size 7.25 7.25) (layers "F.Cu" "F.Mask") (tstamp 91e58994-b963-4adb-bb95-c6475d3a904a))
  (model "${KICAD6_3DMODEL_DIR}/Package_DFN_QFN.3dshapes/QFN-64-1EP_9x9mm_P0.5mm_EP7.25x7.25mm.wrl"
    (offset (xyz 0 0 0))
    (scale (xyz 1 1 1))
    (rotate (xyz 0 0 0))
  )
)
