(footprint "QFN-56-1EP_8x8mm_P0.5mm_EP4.5x5.2mm_ThermalVias_TopTented" (version 20221018) (generator pcbnew)
  (layer "F.Cu")
  (descr "QFN, 56 Pin top tented version (manually modified). For information see: http://www.cypress.com/file/138911/download")
  (tags "QFN DFN_QFN")
  (attr smd)
  (fp_text reference "REF**" (at 0 -5.32) (layer "F.SilkS")
      (effects (font (size 1 1) (thickness 0.15)))
    (tstamp 9fcaaac6-6abd-423a-af9b-a61c1e394dd0)
  )
  (fp_text value "QFN-56-1EP_8x8mm_P0.5mm_EP4.5x5.2mm_ThermalVias_TopTented" (at 0 5.32) (layer "F.Fab")
      (effects (font (size 1 1) (thickness 0.15)))
    (tstamp b070510b-daf4-40cb-b24c-52d88e86bf52)
  )
  (fp_text user "${REFERENCE}" (at 0 0) (layer "F.Fab")
      (effects (font (size 1 1) (thickness 0.15)))
    (tstamp f41dc9ae-e904-4676-b55f-77aecf85ba82)
  )
  (fp_line (start -4.11 4.11) (end -4.11 3.635)
    (stroke (width 0.12) (type solid)) (layer "F.SilkS") (tstamp 1771aa18-37ba-4b9f-b7fc-57ed1751804d))
  (fp_line (start -3.635 -4.11) (end -4.11 -4.11)
    (stroke (width 0.12) (type solid)) (layer "F.SilkS") (tstamp 9c70e1ef-44cd-4afd-82ae-ef1c9e4c5de7))
  (fp_line (start -3.635 4.11) (end -4.11 4.11)
    (stroke (width 0.12) (type solid)) (layer "F.SilkS") (tstamp e35561da-cb8a-428c-aa04-38ae80ce8800))
  (fp_line (start 3.635 -4.11) (end 4.11 -4.11)
    (stroke (width 0.12) (type solid)) (layer "F.SilkS") (tstamp 2ebaa24c-1045-44af-8087-5521b2dcd3d7))
  (fp_line (start 3.635 4.11) (end 4.11 4.11)
    (stroke (width 0.12) (type solid)) (layer "F.SilkS") (tstamp 942e8c31-f7c0-4402-bba7-7e1f8d99110f))
  (fp_line (start 4.11 -4.11) (end 4.11 -3.635)
    (stroke (width 0.12) (type solid)) (layer "F.SilkS") (tstamp dedea16f-2de0-422a-aa1b-8a0ce94392fe))
  (fp_line (start 4.11 4.11) (end 4.11 3.635)
    (stroke (width 0.12) (type solid)) (layer "F.SilkS") (tstamp 54a69330-ceff-4d92-b347-71601da85b8a))
  (fp_line (start -4.62 -4.62) (end -4.62 4.62)
    (stroke (width 0.05) (type solid)) (layer "F.CrtYd") (tstamp 05c69f7e-0271-4fc7-a981-ba5582f33130))
  (fp_line (start -4.62 4.62) (end 4.62 4.62)
    (stroke (width 0.05) (type solid)) (layer "F.CrtYd") (tstamp d6adb4ec-531c-4dc2-8ca6-9f6eecda5a9f))
  (fp_line (start 4.62 -4.62) (end -4.62 -4.62)
    (stroke (width 0.05) (type solid)) (layer "F.CrtYd") (tstamp d9f8243a-7d39-4642-a230-a32f1824c8b1))
  (fp_line (start 4.62 4.62) (end 4.62 -4.62)
    (stroke (width 0.05) (type solid)) (layer "F.CrtYd") (tstamp a1ffafb4-e295-4ef5-8abe-be9d2ed619ff))
  (fp_line (start -4 -3) (end -3 -4)
    (stroke (width 0.1) (type solid)) (layer "F.Fab") (tstamp e3e6f733-7298-47c0-9a04-b7f9639dd79c))
  (fp_line (start -4 4) (end -4 -3)
    (stroke (width 0.1) (type solid)) (layer "F.Fab") (tstamp e30764f0-40bb-4eed-8c95-3a7b865148ea))
  (fp_line (start -3 -4) (end 4 -4)
    (stroke (width 0.1) (type solid)) (layer "F.Fab") (tstamp c6101fff-abdf-410f-a1e7-8df2ef62b5d3))
  (fp_line (start 4 -4) (end 4 4)
    (stroke (width 0.1) (type solid)) (layer "F.Fab") (tstamp aadc4c00-dfc8-4251-affc-725d1f9fa512))
  (fp_line (start 4 4) (end -4 4)
    (stroke (width 0.1) (type solid)) (layer "F.Fab") (tstamp 68f8d87e-cb43-4a71-a164-e846aaa3c9e5))
  (pad "" smd custom (at -1.5 -1.7625) (size 0.776286 0.776286) (layers "F.Paste")
    (thermal_bridge_angle 45)
    (options (clearance outline) (anchor circle))
    (primitives
      (gr_poly
        (pts
          (xy 0.435 -0.3575)
          (xy 0.435 0.3575)
          (xy 0.29 0.5025)
          (xy -0.29 0.5025)
          (xy -0.435 0.3575)
          (xy -0.435 -0.3575)
          (xy -0.29 -0.5025)
          (xy 0.29 -0.5025)
        )
        (width 0) (fill yes))
    ) (tstamp 084b16e3-b585-4269-ada6-963f2268c2e0))
  (pad "" smd custom (at -1.5 -1.7625) (size 0.776286 0.776286) (layers "F.Mask")
    (thermal_bridge_angle 45)
    (options (clearance outline) (anchor circle))
    (primitives
      (gr_poly
        (pts
          (xy 0.3 -0.5025)
          (xy -0.3 -0.5025)
          (xy -0.3 -0.837549)
          (xy 0.3 -0.837549)
        )
        (width 0) (fill yes))
      (gr_poly
        (pts
          (xy 0.3 0.5875)
          (xy -0.3 0.5875)
          (xy -0.3 0.5025)
          (xy 0.3 0.5025)
        )
        (width 0) (fill yes))
      (gr_poly
        (pts
          (xy 0.435 -0.3675)
          (xy 0.435 0.3675)
          (xy 0.3 0.5025)
          (xy -0.3 0.5025)
          (xy -0.435 0.3675)
          (xy -0.435 -0.3675)
          (xy -0.3 -0.5025)
          (xy 0.3 -0.5025)
        )
        (width 0) (fill yes))
      (gr_poly
        (pts
          (xy -0.435 0.3675)
          (xy -0.75 0.3675)
          (xy -0.75 -0.3675)
          (xy -0.435 -0.3675)
        )
        (width 0) (fill yes))
      (gr_poly
        (pts
          (xy 0.5 0.3675)
          (xy 0.435 0.3675)
          (xy 0.435 -0.3675)
          (xy 0.5 -0.3675)
        )
        (width 0) (fill yes))
    ) (tstamp a002eb33-6afc-42ad-b669-e3c0b76daca9))
  (pad "" smd custom (at -1.5 -0.5875) (size 0.776286 0.776286) (layers "F.Paste")
    (thermal_bridge_angle 45)
    (options (clearance outline) (anchor circle))
    (primitives
      (gr_poly
        (pts
          (xy 0.435 -0.3575)
          (xy 0.435 0.3575)
          (xy 0.29 0.5025)
          (xy -0.29 0.5025)
          (xy -0.435 0.3575)
          (xy -0.435 -0.3575)
          (xy -0.29 -0.5025)
          (xy 0.29 -0.5025)
        )
        (width 0) (fill yes))
    ) (tstamp 33b81377-e6de-4f28-9042-0fbd868ba760))
  (pad "" smd custom (at -1.5 -0.5875) (size 0.776286 0.776286) (layers "F.Mask")
    (thermal_bridge_angle 45)
    (options (clearance outline) (anchor circle))
    (primitives
      (gr_poly
        (pts
          (xy -0.435 0.3675)
          (xy -0.75 0.3675)
          (xy -0.75 -0.3675)
          (xy -0.435 -0.3675)
        )
        (width 0) (fill yes))
      (gr_poly
        (pts
          (xy 0.3 -0.5025)
          (xy -0.3 -0.5025)
          (xy -0.3 -0.5875)
          (xy 0.3 -0.5875)
        )
        (width 0) (fill yes))
      (gr_poly
        (pts
          (xy 0.435 -0.3675)
          (xy 0.435 0.3675)
          (xy 0.3 0.5025)
          (xy -0.3 0.5025)
          (xy -0.435 0.3675)
          (xy -0.435 -0.3675)
          (xy -0.3 -0.5025)
          (xy 0.3 -0.5025)
        )
        (width 0) (fill yes))
      (gr_poly
        (pts
          (xy 0.3 0.5875)
          (xy -0.3 0.5875)
          (xy -0.3 0.5025)
          (xy 0.3 0.5025)
        )
        (width 0) (fill yes))
      (gr_poly
        (pts
          (xy 0.5 0.3675)
          (xy 0.435 0.3675)
          (xy 0.435 -0.3675)
          (xy 0.5 -0.3675)
        )
        (width 0) (fill yes))
    ) (tstamp c6d80894-f698-4397-8655-54eb2a10b915))
  (pad "" smd custom (at -1.5 0.5875) (size 0.776286 0.776286) (layers "F.Paste")
    (thermal_bridge_angle 45)
    (options (clearance outline) (anchor circle))
    (primitives
      (gr_poly
        (pts
          (xy 0.435 -0.3575)
          (xy 0.435 0.3575)
          (xy 0.29 0.5025)
          (xy -0.29 0.5025)
          (xy -0.435 0.3575)
          (xy -0.435 -0.3575)
          (xy -0.29 -0.5025)
          (xy 0.29 -0.5025)
        )
        (width 0) (fill yes))
    ) (tstamp baa5b3c3-331e-4fc7-993f-d047ccf02278))
  (pad "" smd custom (at -1.5 0.5875) (size 0.776286 0.776286) (layers "F.Mask")
    (thermal_bridge_angle 45)
    (options (clearance outline) (anchor circle))
    (primitives
      (gr_poly
        (pts
          (xy -0.435 0.3675)
          (xy -0.75 0.3675)
          (xy -0.75 -0.3675)
          (xy -0.435 -0.3675)
        )
        (width 0) (fill yes))
      (gr_poly
        (pts
          (xy 0.3 -0.5025)
          (xy -0.3 -0.5025)
          (xy -0.3 -0.5875)
          (xy 0.3 -0.5875)
        )
        (width 0) (fill yes))
      (gr_poly
        (pts
          (xy 0.435 -0.3675)
          (xy 0.435 0.3675)
          (xy 0.3 0.5025)
          (xy -0.3 0.5025)
          (xy -0.435 0.3675)
          (xy -0.435 -0.3675)
          (xy -0.3 -0.5025)
          (xy 0.3 -0.5025)
        )
        (width 0) (fill yes))
      (gr_poly
        (pts
          (xy 0.3 0.5875)
          (xy -0.3 0.5875)
          (xy -0.3 0.5025)
          (xy 0.3 0.5025)
        )
        (width 0) (fill yes))
      (gr_poly
        (pts
          (xy 0.5 0.3675)
          (xy 0.435 0.3675)
          (xy 0.435 -0.3675)
          (xy 0.5 -0.3675)
        )
        (width 0) (fill yes))
    ) (tstamp 42da0edf-2924-489c-8e1e-7b6c24b41a06))
  (pad "" smd custom (at -1.5 1.7625) (size 0.776286 0.776286) (layers "F.Paste")
    (thermal_bridge_angle 45)
    (options (clearance outline) (anchor circle))
    (primitives
      (gr_poly
        (pts
          (xy 0.435 -0.3575)
          (xy 0.435 0.3575)
          (xy 0.29 0.5025)
          (xy -0.29 0.5025)
          (xy -0.435 0.3575)
          (xy -0.435 -0.3575)
          (xy -0.29 -0.5025)
          (xy 0.29 -0.5025)
        )
        (width 0) (fill yes))
    ) (tstamp 60d5e7e7-bf5f-40d5-b8f1-3387a36aa7ec))
  (pad "" smd custom (at -1.5 1.7625) (size 0.776286 0.776286) (layers "F.Mask")
    (thermal_bridge_angle 45)
    (options (clearance outline) (anchor circle))
    (primitives
      (gr_poly
        (pts
          (xy 0.3 0.837549)
          (xy -0.3 0.837549)
          (xy -0.3 0.5025)
          (xy 0.3 0.5025)
        )
        (width 0) (fill yes))
      (gr_poly
        (pts
          (xy 0.5 0.3675)
          (xy 0.435 0.3675)
          (xy 0.435 -0.3675)
          (xy 0.5 -0.3675)
        )
        (width 0) (fill yes))
      (gr_poly
        (pts
          (xy -0.435 0.3675)
          (xy -0.75 0.3675)
          (xy -0.75 -0.3675)
          (xy -0.435 -0.3675)
        )
        (width 0) (fill yes))
      (gr_poly
        (pts
          (xy 0.435 -0.3675)
          (xy 0.435 0.3675)
          (xy 0.3 0.5025)
          (xy -0.3 0.5025)
          (xy -0.435 0.3675)
          (xy -0.435 -0.3675)
          (xy -0.3 -0.5025)
          (xy 0.3 -0.5025)
        )
        (width 0) (fill yes))
      (gr_poly
        (pts
          (xy 0.3 -0.5025)
          (xy -0.3 -0.5025)
          (xy -0.3 -0.5875)
          (xy 0.3 -0.5875)
        )
        (width 0) (fill yes))
    ) (tstamp a4f03f94-2d47-47f8-a38e-c74d01f84b3f))
  (pad "" smd custom (at -0.5 -1.7625) (size 0.776286 0.776286) (layers "F.Paste")
    (thermal_bridge_angle 45)
    (options (clearance outline) (anchor circle))
    (primitives
      (gr_poly
        (pts
          (xy 0.435 -0.3575)
          (xy 0.435 0.3575)
          (xy 0.29 0.5025)
          (xy -0.29 0.5025)
          (xy -0.435 0.3575)
          (xy -0.435 -0.3575)
          (xy -0.29 -0.5025)
          (xy 0.29 -0.5025)
        )
        (width 0) (fill yes))
    ) (tstamp 31065ee1-d9a8-4cb0-b34b-c30674784873))
  (pad "" smd custom (at -0.5 -1.7625) (size 0.776286 0.776286) (layers "F.Mask")
    (thermal_bridge_angle 45)
    (options (clearance outline) (anchor circle))
    (primitives
      (gr_poly
        (pts
          (xy 0.5 0.3675)
          (xy 0.435 0.3675)
          (xy 0.435 -0.3675)
          (xy 0.5 -0.3675)
        )
        (width 0) (fill yes))
      (gr_poly
        (pts
          (xy 0.435 -0.3675)
          (xy 0.435 0.3675)
          (xy 0.3 0.5025)
          (xy -0.3 0.5025)
          (xy -0.435 0.3675)
          (xy -0.435 -0.3675)
          (xy -0.3 -0.5025)
          (xy 0.3 -0.5025)
        )
        (width 0) (fill yes))
      (gr_poly
        (pts
          (xy -0.435 0.3675)
          (xy -0.5 0.3675)
          (xy -0.5 -0.3675)
          (xy -0.435 -0.3675)
        )
        (width 0) (fill yes))
      (gr_poly
        (pts
          (xy 0.3 0.5875)
          (xy -0.3 0.5875)
          (xy -0.3 0.5025)
          (xy 0.3 0.5025)
        )
        (width 0) (fill yes))
      (gr_poly
        (pts
          (xy 0.3 -0.5025)
          (xy -0.3 -0.5025)
          (xy -0.3 -0.837549)
          (xy 0.3 -0.837549)
        )
        (width 0) (fill yes))
    ) (tstamp d2821f8d-74c8-42ee-ad2c-ccb8d65125ba))
  (pad "" smd custom (at -0.5 -0.5875) (size 0.776286 0.776286) (layers "F.Paste")
    (thermal_bridge_angle 45)
    (options (clearance outline) (anchor circle))
    (primitives
      (gr_poly
        (pts
          (xy 0.435 -0.3575)
          (xy 0.435 0.3575)
          (xy 0.29 0.5025)
          (xy -0.29 0.5025)
          (xy -0.435 0.3575)
          (xy -0.435 -0.3575)
          (xy -0.29 -0.5025)
          (xy 0.29 -0.5025)
        )
        (width 0) (fill yes))
    ) (tstamp ef70ff8e-1e99-4737-8ac6-cbe069ca7dcc))
  (pad "" smd custom (at -0.5 -0.5875) (size 0.776286 0.776286) (layers "F.Mask")
    (thermal_bridge_angle 45)
    (options (clearance outline) (anchor circle))
    (primitives
      (gr_poly
        (pts
          (xy 0.3 -0.5025)
          (xy -0.3 -0.5025)
          (xy -0.3 -0.5875)
          (xy 0.3 -0.5875)
        )
        (width 0) (fill yes))
      (gr_poly
        (pts
          (xy 0.435 -0.3675)
          (xy 0.435 0.3675)
          (xy 0.3 0.5025)
          (xy -0.3 0.5025)
          (xy -0.435 0.3675)
          (xy -0.435 -0.3675)
          (xy -0.3 -0.5025)
          (xy 0.3 -0.5025)
        )
        (width 0) (fill yes))
      (gr_poly
        (pts
          (xy 0.3 0.5875)
          (xy -0.3 0.5875)
          (xy -0.3 0.5025)
          (xy 0.3 0.5025)
        )
        (width 0) (fill yes))
      (gr_poly
        (pts
          (xy -0.435 0.3675)
          (xy -0.5 0.3675)
          (xy -0.5 -0.3675)
          (xy -0.435 -0.3675)
        )
        (width 0) (fill yes))
      (gr_poly
        (pts
          (xy 0.5 0.3675)
          (xy 0.435 0.3675)
          (xy 0.435 -0.3675)
          (xy 0.5 -0.3675)
        )
        (width 0) (fill yes))
    ) (tstamp b17bcf64-23e8-4dff-9969-99d6d125b211))
  (pad "" smd custom (at -0.5 0.5875) (size 0.776286 0.776286) (layers "F.Paste")
    (thermal_bridge_angle 45)
    (options (clearance outline) (anchor circle))
    (primitives
      (gr_poly
        (pts
          (xy 0.435 -0.3575)
          (xy 0.435 0.3575)
          (xy 0.29 0.5025)
          (xy -0.29 0.5025)
          (xy -0.435 0.3575)
          (xy -0.435 -0.3575)
          (xy -0.29 -0.5025)
          (xy 0.29 -0.5025)
        )
        (width 0) (fill yes))
    ) (tstamp 309f0b6a-63b1-44d4-b0b3-b49ffab894bf))
  (pad "" smd custom (at -0.5 0.5875) (size 0.776286 0.776286) (layers "F.Mask")
    (thermal_bridge_angle 45)
    (options (clearance outline) (anchor circle))
    (primitives
      (gr_poly
        (pts
          (xy 0.3 -0.5025)
          (xy -0.3 -0.5025)
          (xy -0.3 -0.5875)
          (xy 0.3 -0.5875)
        )
        (width 0) (fill yes))
      (gr_poly
        (pts
          (xy 0.435 -0.3675)
          (xy 0.435 0.3675)
          (xy 0.3 0.5025)
          (xy -0.3 0.5025)
          (xy -0.435 0.3675)
          (xy -0.435 -0.3675)
          (xy -0.3 -0.5025)
          (xy 0.3 -0.5025)
        )
        (width 0) (fill yes))
      (gr_poly
        (pts
          (xy 0.3 0.5875)
          (xy -0.3 0.5875)
          (xy -0.3 0.5025)
          (xy 0.3 0.5025)
        )
        (width 0) (fill yes))
      (gr_poly
        (pts
          (xy -0.435 0.3675)
          (xy -0.5 0.3675)
          (xy -0.5 -0.3675)
          (xy -0.435 -0.3675)
        )
        (width 0) (fill yes))
      (gr_poly
        (pts
          (xy 0.5 0.3675)
          (xy 0.435 0.3675)
          (xy 0.435 -0.3675)
          (xy 0.5 -0.3675)
        )
        (width 0) (fill yes))
    ) (tstamp d3870e9a-087f-431f-b3c8-a85d382b11a9))
  (pad "" smd custom (at -0.5 1.7625) (size 0.776286 0.776286) (layers "F.Paste")
    (thermal_bridge_angle 45)
    (options (clearance outline) (anchor circle))
    (primitives
      (gr_poly
        (pts
          (xy 0.435 -0.3575)
          (xy 0.435 0.3575)
          (xy 0.29 0.5025)
          (xy -0.29 0.5025)
          (xy -0.435 0.3575)
          (xy -0.435 -0.3575)
          (xy -0.29 -0.5025)
          (xy 0.29 -0.5025)
        )
        (width 0) (fill yes))
    ) (tstamp 4c1852b8-c4ef-40ad-bb23-6188046df456))
  (pad "" smd custom (at -0.5 1.7625) (size 0.776286 0.776286) (layers "F.Mask")
    (thermal_bridge_angle 45)
    (options (clearance outline) (anchor circle))
    (primitives
      (gr_poly
        (pts
          (xy 0.3 -0.5025)
          (xy -0.3 -0.5025)
          (xy -0.3 -0.5875)
          (xy 0.3 -0.5875)
        )
        (width 0) (fill yes))
      (gr_poly
        (pts
          (xy 0.3 0.837549)
          (xy -0.3 0.837549)
          (xy -0.3 0.5025)
          (xy 0.3 0.5025)
        )
        (width 0) (fill yes))
      (gr_poly
        (pts
          (xy 0.435 -0.3675)
          (xy 0.435 0.3675)
          (xy 0.3 0.5025)
          (xy -0.3 0.5025)
          (xy -0.435 0.3675)
          (xy -0.435 -0.3675)
          (xy -0.3 -0.5025)
          (xy 0.3 -0.5025)
        )
        (width 0) (fill yes))
      (gr_poly
        (pts
          (xy 0.5 0.3675)
          (xy 0.435 0.3675)
          (xy 0.435 -0.3675)
          (xy 0.5 -0.3675)
        )
        (width 0) (fill yes))
      (gr_poly
        (pts
          (xy -0.435 0.3675)
          (xy -0.5 0.3675)
          (xy -0.5 -0.3675)
          (xy -0.435 -0.3675)
        )
        (width 0) (fill yes))
    ) (tstamp 7734a91c-a5ae-46f4-b7f8-313ef9a2ef1a))
  (pad "" smd custom (at 0.5 -1.7625) (size 0.776286 0.776286) (layers "F.Paste")
    (thermal_bridge_angle 45)
    (options (clearance outline) (anchor circle))
    (primitives
      (gr_poly
        (pts
          (xy 0.435 -0.3575)
          (xy 0.435 0.3575)
          (xy 0.29 0.5025)
          (xy -0.29 0.5025)
          (xy -0.435 0.3575)
          (xy -0.435 -0.3575)
          (xy -0.29 -0.5025)
          (xy 0.29 -0.5025)
        )
        (width 0) (fill yes))
    ) (tstamp 0d3dd47f-f1bc-4768-aad7-afca526c2a63))
  (pad "" smd custom (at 0.5 -1.7625) (size 0.776286 0.776286) (layers "F.Mask")
    (thermal_bridge_angle 45)
    (options (clearance outline) (anchor circle))
    (primitives
      (gr_poly
        (pts
          (xy 0.5 0.3675)
          (xy 0.435 0.3675)
          (xy 0.435 -0.3675)
          (xy 0.5 -0.3675)
        )
        (width 0) (fill yes))
      (gr_poly
        (pts
          (xy 0.435 -0.3675)
          (xy 0.435 0.3675)
          (xy 0.3 0.5025)
          (xy -0.3 0.5025)
          (xy -0.435 0.3675)
          (xy -0.435 -0.3675)
          (xy -0.3 -0.5025)
          (xy 0.3 -0.5025)
        )
        (width 0) (fill yes))
      (gr_poly
        (pts
          (xy -0.435 0.3675)
          (xy -0.5 0.3675)
          (xy -0.5 -0.3675)
          (xy -0.435 -0.3675)
        )
        (width 0) (fill yes))
      (gr_poly
        (pts
          (xy 0.3 0.5875)
          (xy -0.3 0.5875)
          (xy -0.3 0.5025)
          (xy 0.3 0.5025)
        )
        (width 0) (fill yes))
      (gr_poly
        (pts
          (xy 0.3 -0.5025)
          (xy -0.3 -0.5025)
          (xy -0.3 -0.837549)
          (xy 0.3 -0.837549)
        )
        (width 0) (fill yes))
    ) (tstamp 96081a48-8df7-4759-9b62-4c72b30e0cb5))
  (pad "" smd custom (at 0.5 -0.5875) (size 0.776286 0.776286) (layers "F.Paste")
    (thermal_bridge_angle 45)
    (options (clearance outline) (anchor circle))
    (primitives
      (gr_poly
        (pts
          (xy 0.435 -0.3575)
          (xy 0.435 0.3575)
          (xy 0.29 0.5025)
          (xy -0.29 0.5025)
          (xy -0.435 0.3575)
          (xy -0.435 -0.3575)
          (xy -0.29 -0.5025)
          (xy 0.29 -0.5025)
        )
        (width 0) (fill yes))
    ) (tstamp 3a58b4a9-c022-43ba-9143-91a70edf4b6e))
  (pad "" smd custom (at 0.5 -0.5875) (size 0.776286 0.776286) (layers "F.Mask")
    (thermal_bridge_angle 45)
    (options (clearance outline) (anchor circle))
    (primitives
      (gr_poly
        (pts
          (xy 0.3 -0.5025)
          (xy -0.3 -0.5025)
          (xy -0.3 -0.5875)
          (xy 0.3 -0.5875)
        )
        (width 0) (fill yes))
      (gr_poly
        (pts
          (xy 0.435 -0.3675)
          (xy 0.435 0.3675)
          (xy 0.3 0.5025)
          (xy -0.3 0.5025)
          (xy -0.435 0.3675)
          (xy -0.435 -0.3675)
          (xy -0.3 -0.5025)
          (xy 0.3 -0.5025)
        )
        (width 0) (fill yes))
      (gr_poly
        (pts
          (xy 0.3 0.5875)
          (xy -0.3 0.5875)
          (xy -0.3 0.5025)
          (xy 0.3 0.5025)
        )
        (width 0) (fill yes))
      (gr_poly
        (pts
          (xy -0.435 0.3675)
          (xy -0.5 0.3675)
          (xy -0.5 -0.3675)
          (xy -0.435 -0.3675)
        )
        (width 0) (fill yes))
      (gr_poly
        (pts
          (xy 0.5 0.3675)
          (xy 0.435 0.3675)
          (xy 0.435 -0.3675)
          (xy 0.5 -0.3675)
        )
        (width 0) (fill yes))
    ) (tstamp c1159187-0132-4eda-a704-47d1ae10b3f2))
  (pad "" smd custom (at 0.5 0.5875) (size 0.776286 0.776286) (layers "F.Paste")
    (thermal_bridge_angle 45)
    (options (clearance outline) (anchor circle))
    (primitives
      (gr_poly
        (pts
          (xy 0.435 -0.3575)
          (xy 0.435 0.3575)
          (xy 0.29 0.5025)
          (xy -0.29 0.5025)
          (xy -0.435 0.3575)
          (xy -0.435 -0.3575)
          (xy -0.29 -0.5025)
          (xy 0.29 -0.5025)
        )
        (width 0) (fill yes))
    ) (tstamp 1dd71f1f-d3a2-40c3-adb8-aeee4d0cae77))
  (pad "" smd custom (at 0.5 0.5875) (size 0.776286 0.776286) (layers "F.Mask")
    (thermal_bridge_angle 45)
    (options (clearance outline) (anchor circle))
    (primitives
      (gr_poly
        (pts
          (xy 0.3 -0.5025)
          (xy -0.3 -0.5025)
          (xy -0.3 -0.5875)
          (xy 0.3 -0.5875)
        )
        (width 0) (fill yes))
      (gr_poly
        (pts
          (xy 0.435 -0.3675)
          (xy 0.435 0.3675)
          (xy 0.3 0.5025)
          (xy -0.3 0.5025)
          (xy -0.435 0.3675)
          (xy -0.435 -0.3675)
          (xy -0.3 -0.5025)
          (xy 0.3 -0.5025)
        )
        (width 0) (fill yes))
      (gr_poly
        (pts
          (xy 0.3 0.5875)
          (xy -0.3 0.5875)
          (xy -0.3 0.5025)
          (xy 0.3 0.5025)
        )
        (width 0) (fill yes))
      (gr_poly
        (pts
          (xy -0.435 0.3675)
          (xy -0.5 0.3675)
          (xy -0.5 -0.3675)
          (xy -0.435 -0.3675)
        )
        (width 0) (fill yes))
      (gr_poly
        (pts
          (xy 0.5 0.3675)
          (xy 0.435 0.3675)
          (xy 0.435 -0.3675)
          (xy 0.5 -0.3675)
        )
        (width 0) (fill yes))
    ) (tstamp 5223f943-1688-461d-9979-fd6c15de33a9))
  (pad "" smd custom (at 0.5 1.7625) (size 0.776286 0.776286) (layers "F.Paste")
    (thermal_bridge_angle 45)
    (options (clearance outline) (anchor circle))
    (primitives
      (gr_poly
        (pts
          (xy 0.435 -0.3575)
          (xy 0.435 0.3575)
          (xy 0.29 0.5025)
          (xy -0.29 0.5025)
          (xy -0.435 0.3575)
          (xy -0.435 -0.3575)
          (xy -0.29 -0.5025)
          (xy 0.29 -0.5025)
        )
        (width 0) (fill yes))
    ) (tstamp e4f1cb2c-4410-463b-b22e-bbf11238a525))
  (pad "" smd custom (at 0.5 1.7625) (size 0.776286 0.776286) (layers "F.Mask")
    (thermal_bridge_angle 45)
    (options (clearance outline) (anchor circle))
    (primitives
      (gr_poly
        (pts
          (xy 0.3 -0.5025)
          (xy -0.3 -0.5025)
          (xy -0.3 -0.5875)
          (xy 0.3 -0.5875)
        )
        (width 0) (fill yes))
      (gr_poly
        (pts
          (xy 0.3 0.837549)
          (xy -0.3 0.837549)
          (xy -0.3 0.5025)
          (xy 0.3 0.5025)
        )
        (width 0) (fill yes))
      (gr_poly
        (pts
          (xy 0.435 -0.3675)
          (xy 0.435 0.3675)
          (xy 0.3 0.5025)
          (xy -0.3 0.5025)
          (xy -0.435 0.3675)
          (xy -0.435 -0.3675)
          (xy -0.3 -0.5025)
          (xy 0.3 -0.5025)
        )
        (width 0) (fill yes))
      (gr_poly
        (pts
          (xy 0.5 0.3675)
          (xy 0.435 0.3675)
          (xy 0.435 -0.3675)
          (xy 0.5 -0.3675)
        )
        (width 0) (fill yes))
      (gr_poly
        (pts
          (xy -0.435 0.3675)
          (xy -0.5 0.3675)
          (xy -0.5 -0.3675)
          (xy -0.435 -0.3675)
        )
        (width 0) (fill yes))
    ) (tstamp 693f08c9-7c20-4c61-942d-b8f976979fb5))
  (pad "" smd custom (at 1.5 -1.7625) (size 0.776286 0.776286) (layers "F.Paste")
    (thermal_bridge_angle 45)
    (options (clearance outline) (anchor circle))
    (primitives
      (gr_poly
        (pts
          (xy 0.435 -0.3575)
          (xy 0.435 0.3575)
          (xy 0.29 0.5025)
          (xy -0.29 0.5025)
          (xy -0.435 0.3575)
          (xy -0.435 -0.3575)
          (xy -0.29 -0.5025)
          (xy 0.29 -0.5025)
        )
        (width 0) (fill yes))
    ) (tstamp 6c9a76c0-6939-44d8-8bd0-c3afbaf31a46))
  (pad "" smd custom (at 1.5 -1.7625) (size 0.776286 0.776286) (layers "F.Mask")
    (thermal_bridge_angle 45)
    (options (clearance outline) (anchor circle))
    (primitives
      (gr_poly
        (pts
          (xy -0.435 0.3675)
          (xy -0.5 0.3675)
          (xy -0.5 -0.3675)
          (xy -0.435 -0.3675)
        )
        (width 0) (fill yes))
      (gr_poly
        (pts
          (xy 0.75 0.3675)
          (xy 0.435 0.3675)
          (xy 0.435 -0.3675)
          (xy 0.75 -0.3675)
        )
        (width 0) (fill yes))
      (gr_poly
        (pts
          (xy 0.435 -0.3675)
          (xy 0.435 0.3675)
          (xy 0.3 0.5025)
          (xy -0.3 0.5025)
          (xy -0.435 0.3675)
          (xy -0.435 -0.3675)
          (xy -0.3 -0.5025)
          (xy 0.3 -0.5025)
        )
        (width 0) (fill yes))
      (gr_poly
        (pts
          (xy 0.3 0.5875)
          (xy -0.3 0.5875)
          (xy -0.3 0.5025)
          (xy 0.3 0.5025)
        )
        (width 0) (fill yes))
      (gr_poly
        (pts
          (xy 0.3 -0.5025)
          (xy -0.3 -0.5025)
          (xy -0.3 -0.837549)
          (xy 0.3 -0.837549)
        )
        (width 0) (fill yes))
    ) (tstamp 5e1b0424-c474-4bc7-b1cb-7a69c3f06f47))
  (pad "" smd custom (at 1.5 -0.5875) (size 0.776286 0.776286) (layers "F.Paste")
    (thermal_bridge_angle 45)
    (options (clearance outline) (anchor circle))
    (primitives
      (gr_poly
        (pts
          (xy 0.435 -0.3575)
          (xy 0.435 0.3575)
          (xy 0.29 0.5025)
          (xy -0.29 0.5025)
          (xy -0.435 0.3575)
          (xy -0.435 -0.3575)
          (xy -0.29 -0.5025)
          (xy 0.29 -0.5025)
        )
        (width 0) (fill yes))
    ) (tstamp efd5f976-4b31-4637-9d40-1a2f64ee1721))
  (pad "" smd custom (at 1.5 -0.5875) (size 0.776286 0.776286) (layers "F.Mask")
    (thermal_bridge_angle 45)
    (options (clearance outline) (anchor circle))
    (primitives
      (gr_poly
        (pts
          (xy 0.75 0.3675)
          (xy 0.435 0.3675)
          (xy 0.435 -0.3675)
          (xy 0.75 -0.3675)
        )
        (width 0) (fill yes))
      (gr_poly
        (pts
          (xy -0.435 0.3675)
          (xy -0.5 0.3675)
          (xy -0.5 -0.3675)
          (xy -0.435 -0.3675)
        )
        (width 0) (fill yes))
      (gr_poly
        (pts
          (xy 0.435 -0.3675)
          (xy 0.435 0.3675)
          (xy 0.3 0.5025)
          (xy -0.3 0.5025)
          (xy -0.435 0.3675)
          (xy -0.435 -0.3675)
          (xy -0.3 -0.5025)
          (xy 0.3 -0.5025)
        )
        (width 0) (fill yes))
      (gr_poly
        (pts
          (xy 0.3 0.5875)
          (xy -0.3 0.5875)
          (xy -0.3 0.5025)
          (xy 0.3 0.5025)
        )
        (width 0) (fill yes))
      (gr_poly
        (pts
          (xy 0.3 -0.5025)
          (xy -0.3 -0.5025)
          (xy -0.3 -0.5875)
          (xy 0.3 -0.5875)
        )
        (width 0) (fill yes))
    ) (tstamp c9dde3ec-b6bf-4b10-b722-299af44a3bad))
  (pad "" smd custom (at 1.5 0.5875) (size 0.776286 0.776286) (layers "F.Paste")
    (thermal_bridge_angle 45)
    (options (clearance outline) (anchor circle))
    (primitives
      (gr_poly
        (pts
          (xy 0.435 -0.3575)
          (xy 0.435 0.3575)
          (xy 0.29 0.5025)
          (xy -0.29 0.5025)
          (xy -0.435 0.3575)
          (xy -0.435 -0.3575)
          (xy -0.29 -0.5025)
          (xy 0.29 -0.5025)
        )
        (width 0) (fill yes))
    ) (tstamp 85a46cda-bbb0-4fc3-a3b0-34cdca13ebdd))
  (pad "" smd custom (at 1.5 0.5875) (size 0.776286 0.776286) (layers "F.Mask")
    (thermal_bridge_angle 45)
    (options (clearance outline) (anchor circle))
    (primitives
      (gr_poly
        (pts
          (xy 0.75 0.3675)
          (xy 0.435 0.3675)
          (xy 0.435 -0.3675)
          (xy 0.75 -0.3675)
        )
        (width 0) (fill yes))
      (gr_poly
        (pts
          (xy -0.435 0.3675)
          (xy -0.5 0.3675)
          (xy -0.5 -0.3675)
          (xy -0.435 -0.3675)
        )
        (width 0) (fill yes))
      (gr_poly
        (pts
          (xy 0.435 -0.3675)
          (xy 0.435 0.3675)
          (xy 0.3 0.5025)
          (xy -0.3 0.5025)
          (xy -0.435 0.3675)
          (xy -0.435 -0.3675)
          (xy -0.3 -0.5025)
          (xy 0.3 -0.5025)
        )
        (width 0) (fill yes))
      (gr_poly
        (pts
          (xy 0.3 0.5875)
          (xy -0.3 0.5875)
          (xy -0.3 0.5025)
          (xy 0.3 0.5025)
        )
        (width 0) (fill yes))
      (gr_poly
        (pts
          (xy 0.3 -0.5025)
          (xy -0.3 -0.5025)
          (xy -0.3 -0.5875)
          (xy 0.3 -0.5875)
        )
        (width 0) (fill yes))
    ) (tstamp f236e8f3-dd89-47dc-bf4d-47f884e4acc0))
  (pad "" smd custom (at 1.5 1.7625) (size 0.776286 0.776286) (layers "F.Paste")
    (thermal_bridge_angle 45)
    (options (clearance outline) (anchor circle))
    (primitives
      (gr_poly
        (pts
          (xy 0.435 -0.3575)
          (xy 0.435 0.3575)
          (xy 0.29 0.5025)
          (xy -0.29 0.5025)
          (xy -0.435 0.3575)
          (xy -0.435 -0.3575)
          (xy -0.29 -0.5025)
          (xy 0.29 -0.5025)
        )
        (width 0) (fill yes))
    ) (tstamp 72c9c08a-c88b-4d64-b2cd-28684ce260bb))
  (pad "" smd custom (at 1.5 1.7625) (size 0.776286 0.776286) (layers "F.Mask")
    (thermal_bridge_angle 45)
    (options (clearance outline) (anchor circle))
    (primitives
      (gr_poly
        (pts
          (xy 0.3 -0.5025)
          (xy -0.3 -0.5025)
          (xy -0.3 -0.5875)
          (xy 0.3 -0.5875)
        )
        (width 0) (fill yes))
      (gr_poly
        (pts
          (xy 0.75 0.3675)
          (xy 0.435 0.3675)
          (xy 0.435 -0.3675)
          (xy 0.75 -0.3675)
        )
        (width 0) (fill yes))
      (gr_poly
        (pts
          (xy 0.435 -0.3675)
          (xy 0.435 0.3675)
          (xy 0.3 0.5025)
          (xy -0.3 0.5025)
          (xy -0.435 0.3675)
          (xy -0.435 -0.3675)
          (xy -0.3 -0.5025)
          (xy 0.3 -0.5025)
        )
        (width 0) (fill yes))
      (gr_poly
        (pts
          (xy 0.3 0.837549)
          (xy -0.3 0.837549)
          (xy -0.3 0.5025)
          (xy 0.3 0.5025)
        )
        (width 0) (fill yes))
      (gr_poly
        (pts
          (xy -0.435 0.3675)
          (xy -0.5 0.3675)
          (xy -0.5 -0.3675)
          (xy -0.435 -0.3675)
        )
        (width 0) (fill yes))
    ) (tstamp 70c30831-49fc-4f10-b6a9-f2441205103f))
  (pad "1" smd roundrect (at -3.9375 -3.25) (size 0.875 0.25) (layers "F.Cu" "F.Paste" "F.Mask") (roundrect_rratio 0.25) (tstamp c68d4e43-6013-4f4f-a20c-4ad64b7479dd))
  (pad "2" smd roundrect (at -3.9375 -2.75) (size 0.875 0.25) (layers "F.Cu" "F.Paste" "F.Mask") (roundrect_rratio 0.25) (tstamp afea12c7-d64c-47e8-90b4-1c27c532d8b6))
  (pad "3" smd roundrect (at -3.9375 -2.25) (size 0.875 0.25) (layers "F.Cu" "F.Paste" "F.Mask") (roundrect_rratio 0.25) (tstamp c2fce90a-5be7-433c-a8a3-865d5d1752d9))
  (pad "4" smd roundrect (at -3.9375 -1.75) (size 0.875 0.25) (layers "F.Cu" "F.Paste" "F.Mask") (roundrect_rratio 0.25) (tstamp d60a74eb-daa1-45b0-8cb1-ad86b8062f61))
  (pad "5" smd roundrect (at -3.9375 -1.25) (size 0.875 0.25) (layers "F.Cu" "F.Paste" "F.Mask") (roundrect_rratio 0.25) (tstamp ff05df82-8a85-4781-ae51-47b855925369))
  (pad "6" smd roundrect (at -3.9375 -0.75) (size 0.875 0.25) (layers "F.Cu" "F.Paste" "F.Mask") (roundrect_rratio 0.25) (tstamp 4d9831ce-5ac3-475a-a420-ab8ff98762fd))
  (pad "7" smd roundrect (at -3.9375 -0.25) (size 0.875 0.25) (layers "F.Cu" "F.Paste" "F.Mask") (roundrect_rratio 0.25) (tstamp e690f904-2c8c-4cb7-b344-dc28a0b69923))
  (pad "8" smd roundrect (at -3.9375 0.25) (size 0.875 0.25) (layers "F.Cu" "F.Paste" "F.Mask") (roundrect_rratio 0.25) (tstamp a4a4fb10-7f09-4f1b-b368-f5cc275e0d46))
  (pad "9" smd roundrect (at -3.9375 0.75) (size 0.875 0.25) (layers "F.Cu" "F.Paste" "F.Mask") (roundrect_rratio 0.25) (tstamp e3efe1a4-61f0-488c-add7-28124796df77))
  (pad "10" smd roundrect (at -3.9375 1.25) (size 0.875 0.25) (layers "F.Cu" "F.Paste" "F.Mask") (roundrect_rratio 0.25) (tstamp f9094aed-6ba4-4459-a7ef-dbcc16b5a2e3))
  (pad "11" smd roundrect (at -3.9375 1.75) (size 0.875 0.25) (layers "F.Cu" "F.Paste" "F.Mask") (roundrect_rratio 0.25) (tstamp d47095c5-8cf2-40bb-9eeb-ba631adfb0fb))
  (pad "12" smd roundrect (at -3.9375 2.25) (size 0.875 0.25) (layers "F.Cu" "F.Paste" "F.Mask") (roundrect_rratio 0.25) (tstamp 709122d4-f952-48af-984c-7712a2153b60))
  (pad "13" smd roundrect (at -3.9375 2.75) (size 0.875 0.25) (layers "F.Cu" "F.Paste" "F.Mask") (roundrect_rratio 0.25) (tstamp 81a89ba0-3b98-42ef-83d2-2c7d89ac1059))
  (pad "14" smd roundrect (at -3.9375 3.25) (size 0.875 0.25) (layers "F.Cu" "F.Paste" "F.Mask") (roundrect_rratio 0.25) (tstamp 0ee4e855-0e87-4e59-b568-d8191c4605dc))
  (pad "15" smd roundrect (at -3.25 3.9375) (size 0.25 0.875) (layers "F.Cu" "F.Paste" "F.Mask") (roundrect_rratio 0.25) (tstamp 7a1bb45c-963b-4f77-859a-fc52872c1504))
  (pad "16" smd roundrect (at -2.75 3.9375) (size 0.25 0.875) (layers "F.Cu" "F.Paste" "F.Mask") (roundrect_rratio 0.25) (tstamp d2c38d1f-5e96-4a81-a0f7-35527f69f679))
  (pad "17" smd roundrect (at -2.25 3.9375) (size 0.25 0.875) (layers "F.Cu" "F.Paste" "F.Mask") (roundrect_rratio 0.25) (tstamp 5ad7c565-b93b-4c55-b750-d445d7291405))
  (pad "18" smd roundrect (at -1.75 3.9375) (size 0.25 0.875) (layers "F.Cu" "F.Paste" "F.Mask") (roundrect_rratio 0.25) (tstamp ddcf3630-5217-48cb-99e2-e38373bfc271))
  (pad "19" smd roundrect (at -1.25 3.9375) (size 0.25 0.875) (layers "F.Cu" "F.Paste" "F.Mask") (roundrect_rratio 0.25) (tstamp b5e2a896-8b6a-45db-9e48-c2e66f852ec6))
  (pad "20" smd roundrect (at -0.75 3.9375) (size 0.25 0.875) (layers "F.Cu" "F.Paste" "F.Mask") (roundrect_rratio 0.25) (tstamp 9e3a0421-22f2-4424-bc14-77d1ec425e67))
  (pad "21" smd roundrect (at -0.25 3.9375) (size 0.25 0.875) (layers "F.Cu" "F.Paste" "F.Mask") (roundrect_rratio 0.25) (tstamp c4d24546-1a61-446d-b5ea-2d4ff924d11b))
  (pad "22" smd roundrect (at 0.25 3.9375) (size 0.25 0.875) (layers "F.Cu" "F.Paste" "F.Mask") (roundrect_rratio 0.25) (tstamp 89522280-ffa6-4755-9dee-2badd674d417))
  (pad "23" smd roundrect (at 0.75 3.9375) (size 0.25 0.875) (layers "F.Cu" "F.Paste" "F.Mask") (roundrect_rratio 0.25) (tstamp d391b45d-24b5-475b-bb9a-153297325706))
  (pad "24" smd roundrect (at 1.25 3.9375) (size 0.25 0.875) (layers "F.Cu" "F.Paste" "F.Mask") (roundrect_rratio 0.25) (tstamp 6b00c4da-47c4-4eac-b593-d368eccbc155))
  (pad "25" smd roundrect (at 1.75 3.9375) (size 0.25 0.875) (layers "F.Cu" "F.Paste" "F.Mask") (roundrect_rratio 0.25) (tstamp 1426bb67-8d75-4391-b719-88663e066b9c))
  (pad "26" smd roundrect (at 2.25 3.9375) (size 0.25 0.875) (layers "F.Cu" "F.Paste" "F.Mask") (roundrect_rratio 0.25) (tstamp 089dc7cd-b9b3-4101-9555-4c1bf87527fc))
  (pad "27" smd roundrect (at 2.75 3.9375) (size 0.25 0.875) (layers "F.Cu" "F.Paste" "F.Mask") (roundrect_rratio 0.25) (tstamp bb13befc-b5bf-4eea-a06e-47dfd4f1a269))
  (pad "28" smd roundrect (at 3.25 3.9375) (size 0.25 0.875) (layers "F.Cu" "F.Paste" "F.Mask") (roundrect_rratio 0.25) (tstamp fb6e5a19-0c99-4d4e-ad74-23ad8e04f342))
  (pad "29" smd roundrect (at 3.9375 3.25) (size 0.875 0.25) (layers "F.Cu" "F.Paste" "F.Mask") (roundrect_rratio 0.25) (tstamp 96b48b62-fcb2-4afa-ab59-0e39e6780c72))
  (pad "30" smd roundrect (at 3.9375 2.75) (size 0.875 0.25) (layers "F.Cu" "F.Paste" "F.Mask") (roundrect_rratio 0.25) (tstamp 35df171f-a5c3-4061-bcf3-2645215d5b78))
  (pad "31" smd roundrect (at 3.9375 2.25) (size 0.875 0.25) (layers "F.Cu" "F.Paste" "F.Mask") (roundrect_rratio 0.25) (tstamp fd726587-95d6-455b-869d-3ee7feaf3ea6))
  (pad "32" smd roundrect (at 3.9375 1.75) (size 0.875 0.25) (layers "F.Cu" "F.Paste" "F.Mask") (roundrect_rratio 0.25) (tstamp 85a067cd-ce04-4ace-b283-c0334d3354ea))
  (pad "33" smd roundrect (at 3.9375 1.25) (size 0.875 0.25) (layers "F.Cu" "F.Paste" "F.Mask") (roundrect_rratio 0.25) (tstamp 1d9f9c88-c6b8-400c-ba26-68a3f817a3ae))
  (pad "34" smd roundrect (at 3.9375 0.75) (size 0.875 0.25) (layers "F.Cu" "F.Paste" "F.Mask") (roundrect_rratio 0.25) (tstamp c3d30110-28ab-46d3-a934-68c4973394c6))
  (pad "35" smd roundrect (at 3.9375 0.25) (size 0.875 0.25) (layers "F.Cu" "F.Paste" "F.Mask") (roundrect_rratio 0.25) (tstamp 3b286961-4f7d-4d54-91ab-fc66b6833f3e))
  (pad "36" smd roundrect (at 3.9375 -0.25) (size 0.875 0.25) (layers "F.Cu" "F.Paste" "F.Mask") (roundrect_rratio 0.25) (tstamp 57757fb2-2df7-4f26-9a38-002808a81e67))
  (pad "37" smd roundrect (at 3.9375 -0.75) (size 0.875 0.25) (layers "F.Cu" "F.Paste" "F.Mask") (roundrect_rratio 0.25) (tstamp 0032337e-fb8c-4fda-9639-b9a6b6324982))
  (pad "38" smd roundrect (at 3.9375 -1.25) (size 0.875 0.25) (layers "F.Cu" "F.Paste" "F.Mask") (roundrect_rratio 0.25) (tstamp 8268eada-de0b-493f-b7cc-be5040524975))
  (pad "39" smd roundrect (at 3.9375 -1.75) (size 0.875 0.25) (layers "F.Cu" "F.Paste" "F.Mask") (roundrect_rratio 0.25) (tstamp 4c66a461-66fe-4f36-9d3e-07a59253aecd))
  (pad "40" smd roundrect (at 3.9375 -2.25) (size 0.875 0.25) (layers "F.Cu" "F.Paste" "F.Mask") (roundrect_rratio 0.25) (tstamp 61044c71-d8d3-4dd7-ae61-c99f77bd17b0))
  (pad "41" smd roundrect (at 3.9375 -2.75) (size 0.875 0.25) (layers "F.Cu" "F.Paste" "F.Mask") (roundrect_rratio 0.25) (tstamp 1fc4d00f-be1d-4d77-ac57-648acbefdeb0))
  (pad "42" smd roundrect (at 3.9375 -3.25) (size 0.875 0.25) (layers "F.Cu" "F.Paste" "F.Mask") (roundrect_rratio 0.25) (tstamp 5e53ac3a-3e06-4069-a166-6520713c9bde))
  (pad "43" smd roundrect (at 3.25 -3.9375) (size 0.25 0.875) (layers "F.Cu" "F.Paste" "F.Mask") (roundrect_rratio 0.25) (tstamp 2418524f-6513-42bc-a681-671a01e384ae))
  (pad "44" smd roundrect (at 2.75 -3.9375) (size 0.25 0.875) (layers "F.Cu" "F.Paste" "F.Mask") (roundrect_rratio 0.25) (tstamp 7eb3cf80-c0c5-427d-bf80-dcdf9a0517c8))
  (pad "45" smd roundrect (at 2.25 -3.9375) (size 0.25 0.875) (layers "F.Cu" "F.Paste" "F.Mask") (roundrect_rratio 0.25) (tstamp 9e0ac8aa-bd87-47af-88ce-2db5868ab4d2))
  (pad "46" smd roundrect (at 1.75 -3.9375) (size 0.25 0.875) (layers "F.Cu" "F.Paste" "F.Mask") (roundrect_rratio 0.25) (tstamp 31a5ecc7-fa62-4b1e-b135-7476881be184))
  (pad "47" smd roundrect (at 1.25 -3.9375) (size 0.25 0.875) (layers "F.Cu" "F.Paste" "F.Mask") (roundrect_rratio 0.25) (tstamp 0ed5d534-517a-4dcf-8b6a-971f6b4bb141))
  (pad "48" smd roundrect (at 0.75 -3.9375) (size 0.25 0.875) (layers "F.Cu" "F.Paste" "F.Mask") (roundrect_rratio 0.25) (tstamp 9bf33320-f75f-4ad4-8143-32f663dcbaa3))
  (pad "49" smd roundrect (at 0.25 -3.9375) (size 0.25 0.875) (layers "F.Cu" "F.Paste" "F.Mask") (roundrect_rratio 0.25) (tstamp a698be9d-72b2-4274-961d-5cec70faa8ff))
  (pad "50" smd roundrect (at -0.25 -3.9375) (size 0.25 0.875) (layers "F.Cu" "F.Paste" "F.Mask") (roundrect_rratio 0.25) (tstamp 7e244399-9eb1-4d7f-9687-d2fea7a453e5))
  (pad "51" smd roundrect (at -0.75 -3.9375) (size 0.25 0.875) (layers "F.Cu" "F.Paste" "F.Mask") (roundrect_rratio 0.25) (tstamp c967cf5b-f03b-48eb-b3c6-4fc81bd84662))
  (pad "52" smd roundrect (at -1.25 -3.9375) (size 0.25 0.875) (layers "F.Cu" "F.Paste" "F.Mask") (roundrect_rratio 0.25) (tstamp 6af51824-e894-40de-b809-9fe2b45f5f44))
  (pad "53" smd roundrect (at -1.75 -3.9375) (size 0.25 0.875) (layers "F.Cu" "F.Paste" "F.Mask") (roundrect_rratio 0.25) (tstamp c6d60af3-0502-4cb0-b636-fb0a30a69541))
  (pad "54" smd roundrect (at -2.25 -3.9375) (size 0.25 0.875) (layers "F.Cu" "F.Paste" "F.Mask") (roundrect_rratio 0.25) (tstamp 5441ffe1-acd6-490c-a5d5-579def502963))
  (pad "55" smd roundrect (at -2.75 -3.9375) (size 0.25 0.875) (layers "F.Cu" "F.Paste" "F.Mask") (roundrect_rratio 0.25) (tstamp 7cb3f110-054e-4c12-b9ad-73f4a001b088))
  (pad "56" smd roundrect (at -3.25 -3.9375) (size 0.25 0.875) (layers "F.Cu" "F.Paste" "F.Mask") (roundrect_rratio 0.25) (tstamp 6a24f39b-8b49-497e-9b13-e8e4e54f6b32))
  (pad "57" thru_hole circle (at -2 -2.35) (size 0.5 0.5) (drill 0.2) (layers "*.Cu") (tstamp d85c32be-3b04-46e6-87cb-3d6114e66d0d))
  (pad "57" thru_hole circle (at -2 -1.175) (size 0.5 0.5) (drill 0.2) (layers "*.Cu") (tstamp f7bc9684-f875-4f62-bd08-506f3f6b6a52))
  (pad "57" thru_hole circle (at -2 0) (size 0.5 0.5) (drill 0.2) (layers "*.Cu") (tstamp 90cda8a1-009d-4ef1-8f89-5fb2bf49577f))
  (pad "57" thru_hole circle (at -2 1.175) (size 0.5 0.5) (drill 0.2) (layers "*.Cu") (tstamp faabe771-cf2d-4e1d-af4f-1eec2ff06883))
  (pad "57" thru_hole circle (at -2 2.35) (size 0.5 0.5) (drill 0.2) (layers "*.Cu") (tstamp 213ef108-e17c-47a6-a5ae-d2b8a99eca7f))
  (pad "57" thru_hole circle (at -1 -2.35) (size 0.5 0.5) (drill 0.2) (layers "*.Cu") (tstamp 883c5806-8526-4a4e-b5cd-509a82342898))
  (pad "57" thru_hole circle (at -1 -1.175) (size 0.5 0.5) (drill 0.2) (layers "*.Cu") (tstamp f91b6415-5be2-4ad5-aefe-286167b98bd5))
  (pad "57" thru_hole circle (at -1 0) (size 0.5 0.5) (drill 0.2) (layers "*.Cu") (tstamp 45cfdb19-b185-4289-83a6-f68df54df8a5))
  (pad "57" thru_hole circle (at -1 1.175) (size 0.5 0.5) (drill 0.2) (layers "*.Cu") (tstamp d70b2afa-41fd-4301-98e2-0d91c8b96308))
  (pad "57" thru_hole circle (at -1 2.35) (size 0.5 0.5) (drill 0.2) (layers "*.Cu") (tstamp 711893b8-ce4f-465b-866a-0360fc49a31e))
  (pad "57" thru_hole circle (at 0 -2.35) (size 0.5 0.5) (drill 0.2) (layers "*.Cu") (tstamp 3c735056-cccb-40ed-a097-1d21910351e6))
  (pad "57" thru_hole circle (at 0 -1.175) (size 0.5 0.5) (drill 0.2) (layers "*.Cu") (tstamp f8742daf-e22e-4588-bd11-a67259c5b91c))
  (pad "57" thru_hole circle (at 0 0) (size 0.5 0.5) (drill 0.2) (layers "*.Cu") (tstamp 963e1446-5a1f-4ff7-bb06-2c86a54b5eb6))
  (pad "57" smd roundrect (at 0 0) (size 4.5 5.2) (layers "F.Cu") (roundrect_rratio 0.056) (tstamp 1307a0af-dcfc-45df-a4e5-ca2b170cbef1))
  (pad "57" smd roundrect (at 0 0) (size 4.5 5.2) (layers "B.Cu") (roundrect_rratio 0.055556) (tstamp 350e2864-5e0d-483b-9146-f89f4df80866))
  (pad "57" thru_hole circle (at 0 1.175) (size 0.5 0.5) (drill 0.2) (layers "*.Cu") (tstamp bbf667ae-a0a2-4585-818c-c8f6fa9b7b1f))
  (pad "57" thru_hole circle (at 0 2.35) (size 0.5 0.5) (drill 0.2) (layers "*.Cu") (tstamp 89b4eeb4-0640-4bdd-b742-412007cfa2b0))
  (pad "57" thru_hole circle (at 1 -2.35) (size 0.5 0.5) (drill 0.2) (layers "*.Cu") (tstamp a732e547-cfa5-471e-89ae-162af0eda07f))
  (pad "57" thru_hole circle (at 1 -1.175) (size 0.5 0.5) (drill 0.2) (layers "*.Cu") (tstamp f02aed54-314b-4780-bdf3-40cca2436f6d))
  (pad "57" thru_hole circle (at 1 0) (size 0.5 0.5) (drill 0.2) (layers "*.Cu") (tstamp f4eed619-2fa7-4cc3-95fc-9dd7c776a003))
  (pad "57" thru_hole circle (at 1 1.175) (size 0.5 0.5) (drill 0.2) (layers "*.Cu") (tstamp c9141d19-7644-4415-8146-d9b46b882738))
  (pad "57" thru_hole circle (at 1 2.35) (size 0.5 0.5) (drill 0.2) (layers "*.Cu") (tstamp 086a88c6-2355-47bc-bc62-abe0ded64595))
  (pad "57" thru_hole circle (at 2 -2.35) (size 0.5 0.5) (drill 0.2) (layers "*.Cu") (tstamp fdcf8d65-214d-4c27-a959-408d2604cde0))
  (pad "57" thru_hole circle (at 2 -1.175) (size 0.5 0.5) (drill 0.2) (layers "*.Cu") (tstamp 1216891e-d305-4ab7-bd6a-f55075d76774))
  (pad "57" thru_hole circle (at 2 0) (size 0.5 0.5) (drill 0.2) (layers "*.Cu") (tstamp c830a4c3-0a49-4cc0-9fca-9b8830daffd1))
  (pad "57" thru_hole circle (at 2 1.175) (size 0.5 0.5) (drill 0.2) (layers "*.Cu") (tstamp 419d405f-b442-4176-91ff-d027e7125164))
  (pad "57" thru_hole circle (at 2 2.35) (size 0.5 0.5) (drill 0.2) (layers "*.Cu") (tstamp 3089ec40-16a1-4528-a818-61881076bfbd))
  (model "${KICAD6_3DMODEL_DIR}/Package_DFN_QFN.3dshapes/QFN-56-1EP_8x8mm_P0.5mm_EP4.5x5.2mm.wrl"
    (offset (xyz 0 0 0))
    (scale (xyz 1 1 1))
    (rotate (xyz 0 0 0))
  )
)
