(footprint "Qorvo_DFN-8-1EP_2x2mm_P0.5mm" (version 20221018) (generator pcbnew)
  (layer "F.Cu")
  (descr "DFN 8 2x2mm, 0.5mm http://www.qorvo.com/products/d/da000896")
  (tags "DFN 0.5 Qorvo 2x2mm")
  (solder_mask_margin 0.07)
  (solder_paste_ratio -0.05)
  (attr smd)
  (fp_text reference "REF**" (at 0 -2) (layer "F.SilkS")
      (effects (font (size 1 1) (thickness 0.15)))
    (tstamp 9b0f0c07-926a-42e4-aa79-54d21cc63804)
  )
  (fp_text value "Qorvo_DFN-8-1EP_2x2mm_P0.5mm" (at 0 2) (layer "F.Fab")
      (effects (font (size 1 1) (thickness 0.15)))
    (tstamp 475e3f00-615b-4ce4-b820-1e17c4a6dede)
  )
  (fp_text user "${REFERENCE}" (at 0 0) (layer "F.Fab")
      (effects (font (size 0.4 0.4) (thickness 0.06)))
    (tstamp 58fee52d-b360-4857-b664-b7fb2696af3a)
  )
  (fp_line (start -1 1.1) (end 1 1.1)
    (stroke (width 0.12) (type solid)) (layer "F.SilkS") (tstamp 0d5e5994-ce9c-4cdd-9341-8785f6c60cec))
  (fp_line (start 0 -1.1) (end 1 -1.1)
    (stroke (width 0.12) (type solid)) (layer "F.SilkS") (tstamp d5b0fac1-cea7-4bca-843a-4676c1a1f1cb))
  (fp_line (start -1.4 -1.25) (end -1.4 1.25)
    (stroke (width 0.05) (type solid)) (layer "F.CrtYd") (tstamp 365ed2d7-0022-419a-9098-11ace2cf54ef))
  (fp_line (start -1.4 -1.25) (end 1.4 -1.25)
    (stroke (width 0.05) (type solid)) (layer "F.CrtYd") (tstamp 9eee07d6-60d0-409e-a9dd-3a7b6463f71a))
  (fp_line (start -1.4 1.25) (end 1.4 1.25)
    (stroke (width 0.05) (type solid)) (layer "F.CrtYd") (tstamp 4de5ee63-1284-4b64-bb91-ae31c613bf6f))
  (fp_line (start 1.4 -1.25) (end 1.4 1.25)
    (stroke (width 0.05) (type solid)) (layer "F.CrtYd") (tstamp d2a0f871-2031-440c-b2fe-08cb7c0a480b))
  (fp_line (start -1 -0.5) (end -0.5 -1)
    (stroke (width 0.1) (type solid)) (layer "F.Fab") (tstamp 35fc0e3f-9bbf-4494-9aab-034a81b472d7))
  (fp_line (start -1 1) (end -1 -0.5)
    (stroke (width 0.1) (type solid)) (layer "F.Fab") (tstamp c2ac77a5-b4e4-4aed-8696-552709bbaa50))
  (fp_line (start -0.5 -1) (end 1 -1)
    (stroke (width 0.1) (type solid)) (layer "F.Fab") (tstamp 59ac11bc-ad49-4426-a6d1-295348940079))
  (fp_line (start 1 -1) (end 1 1)
    (stroke (width 0.1) (type solid)) (layer "F.Fab") (tstamp da68e8eb-3b74-4a00-94f9-480dd1e5d889))
  (fp_line (start 1 1) (end -1 1)
    (stroke (width 0.1) (type solid)) (layer "F.Fab") (tstamp 1cd67381-2ca6-4bab-b1dd-42f78eabf15d))
  (pad "1" smd rect (at -0.89 -0.75) (size 0.48 0.25) (layers "F.Cu" "F.Paste" "F.Mask") (tstamp a9608319-9af9-419c-bb16-5fdeeab4eafc))
  (pad "2" smd rect (at -0.89 -0.25) (size 0.48 0.25) (layers "F.Cu" "F.Paste" "F.Mask") (tstamp b4e53e85-c27e-49e6-a59e-95ebe3c00fa9))
  (pad "3" smd rect (at -0.89 0.25) (size 0.48 0.25) (layers "F.Cu" "F.Paste" "F.Mask") (tstamp 277281a2-58b8-46df-9ea7-2c76a0564984))
  (pad "4" smd rect (at -0.89 0.75) (size 0.48 0.25) (layers "F.Cu" "F.Paste" "F.Mask") (tstamp b4490360-c502-4cd3-88f6-330b8dd87a94))
  (pad "5" smd rect (at 0.89 0.75) (size 0.48 0.25) (layers "F.Cu" "F.Paste" "F.Mask") (tstamp 828517ac-c65b-4dcb-87d1-3543817ad244))
  (pad "6" smd rect (at 0.89 0.25) (size 0.48 0.25) (layers "F.Cu" "F.Paste" "F.Mask") (tstamp 79247647-a31b-4949-ac65-a7147fdfa354))
  (pad "7" smd rect (at 0.89 -0.25) (size 0.48 0.25) (layers "F.Cu" "F.Paste" "F.Mask") (tstamp 3a49bc1d-6279-4934-8e11-42fc5782a3a2))
  (pad "8" smd rect (at 0.89 -0.75) (size 0.48 0.25) (layers "F.Cu" "F.Paste" "F.Mask") (tstamp 9df68111-e8ce-43f6-a523-dff46e02a047))
  (pad "9" smd rect (at 0 0) (size 0.6 1.2) (layers "F.Cu" "F.Paste" "F.Mask") (tstamp 504853ca-5b04-425e-8347-9b91f21e18f2))
  (model "${KICAD6_3DMODEL_DIR}/Package_DFN_QFN.3dshapes/Qorvo_DFN-8-1EP_2x2mm_P0.5mm.wrl"
    (offset (xyz 0 0 0))
    (scale (xyz 1 1 1))
    (rotate (xyz 0 0 0))
  )
)
