(footprint "SiliconLabs_QFN-20-1EP_3x3mm_P0.5mm_EP1.8x1.8mm_ThermalVias" (version 20221018) (generator pcbnew)
  (layer "F.Cu")
  (descr "20-Lead Plastic Quad Flat, No Lead Package - 3x3 mm Body [QFN] with corner pads and thermal vias; see figure 8.2 of https://www.silabs.com/documents/public/data-sheets/efm8bb1-datasheet.pdf")
  (tags "QFN 0.5")
  (attr smd)
  (fp_text reference "REF**" (at 0 -3) (layer "F.SilkS")
      (effects (font (size 1 1) (thickness 0.15)))
    (tstamp 2e40838b-4715-4ba3-ad3f-a7cb88707b7a)
  )
  (fp_text value "SiliconLabs_QFN-20-1EP_3x3mm_P0.5mm_EP1.8x1.8mm_ThermalVias" (at 0 3) (layer "F.Fab")
      (effects (font (size 1 1) (thickness 0.15)))
    (tstamp 687b67ca-f06c-4c13-93b9-3488e824b7e4)
  )
  (fp_text user "${REFERENCE}" (at 0 0) (layer "F.Fab")
      (effects (font (size 0.65 0.65) (thickness 0.125)))
    (tstamp 1bf739e0-7128-4291-81b8-8f178a279d98)
  )
  (fp_line (start -1.66 -1.66) (end -1.16 -1.66)
    (stroke (width 0.12) (type solid)) (layer "F.SilkS") (tstamp a627dc5e-09c7-4941-a197-5898bd36e7b5))
  (fp_line (start -1.66 1.66) (end -1.66 1.16)
    (stroke (width 0.12) (type solid)) (layer "F.SilkS") (tstamp ef7e1894-933c-4c2e-baa8-e6b98143e33c))
  (fp_line (start -1.16 1.66) (end -1.66 1.66)
    (stroke (width 0.12) (type solid)) (layer "F.SilkS") (tstamp 3e1df6ae-a148-4ca1-9254-4631a8bb074c))
  (fp_line (start 1.16 -1.66) (end 1.66 -1.66)
    (stroke (width 0.12) (type solid)) (layer "F.SilkS") (tstamp 5a043b21-0de4-4188-a9aa-2b126bc28124))
  (fp_line (start 1.16 1.66) (end 1.66 1.66)
    (stroke (width 0.12) (type solid)) (layer "F.SilkS") (tstamp 5bc84875-8974-4f8d-8f35-21ee74f4c95c))
  (fp_line (start 1.66 -1.66) (end 1.66 -1.16)
    (stroke (width 0.12) (type solid)) (layer "F.SilkS") (tstamp 1c38baf2-ef5c-4757-bc69-f28abe819e77))
  (fp_line (start 1.66 1.66) (end 1.66 1.16)
    (stroke (width 0.12) (type solid)) (layer "F.SilkS") (tstamp 21c3b18d-2814-4891-980d-680a86341daa))
  (fp_line (start -2.25 -2.25) (end -2.25 2.25)
    (stroke (width 0.05) (type solid)) (layer "F.CrtYd") (tstamp 8f8bfd45-dcb0-495c-be85-7d495dd8c480))
  (fp_line (start -2.25 2.25) (end 2.25 2.25)
    (stroke (width 0.05) (type solid)) (layer "F.CrtYd") (tstamp 10f97432-64ab-45e6-b501-c7855d341767))
  (fp_line (start 2.25 -2.25) (end -2.25 -2.25)
    (stroke (width 0.05) (type solid)) (layer "F.CrtYd") (tstamp ebfe7523-2bf3-45ce-bbb9-7146dba70e5e))
  (fp_line (start 2.25 2.25) (end 2.25 -2.25)
    (stroke (width 0.05) (type solid)) (layer "F.CrtYd") (tstamp 5025eb90-8973-4d37-85a0-605455219be6))
  (fp_line (start -1.5 -0.5) (end -0.5 -1.5)
    (stroke (width 0.1) (type solid)) (layer "F.Fab") (tstamp 6c59af49-9dec-41fc-b8a6-263f49620ac1))
  (fp_line (start -1.5 1.5) (end -1.5 -0.5)
    (stroke (width 0.1) (type solid)) (layer "F.Fab") (tstamp 05c1de2b-daf2-44cb-8e74-86311a42f110))
  (fp_line (start -0.5 -1.5) (end 1.5 -1.5)
    (stroke (width 0.1) (type solid)) (layer "F.Fab") (tstamp 0b81149c-e8c9-49ac-9849-f09f29fa515b))
  (fp_line (start 1.5 -1.5) (end 1.5 1.5)
    (stroke (width 0.1) (type solid)) (layer "F.Fab") (tstamp 19af7831-db47-4256-aaeb-112fb74b9c2d))
  (fp_line (start 1.5 1.5) (end -1.5 1.5)
    (stroke (width 0.1) (type solid)) (layer "F.Fab") (tstamp c6427b01-bb95-434b-871b-60cb32f03035))
  (pad "" smd rect (at -0.45 -0.45) (size 0.54 0.54) (layers "F.Paste") (tstamp 18789781-7601-4da5-8799-64eb2df3779e))
  (pad "" smd rect (at -0.45 0.45) (size 0.54 0.54) (layers "F.Paste") (tstamp 83afd0fc-b0d4-49ac-80bd-1fa380b01865))
  (pad "" smd rect (at 0.45 -0.45) (size 0.54 0.54) (layers "F.Paste") (tstamp 88baa6ec-7fb3-4152-9321-1ef3361fd67e))
  (pad "" smd rect (at 0.45 0.45) (size 0.54 0.54) (layers "F.Paste") (tstamp e4f06c86-e679-4f23-bde7-a7cc5ad4a932))
  (pad "1" smd rect (at -1.25 -1.25) (size 0.3 0.3) (layers "F.Cu" "F.Paste" "F.Mask") (tstamp d0148801-6e0e-4781-b97f-3017dcb5bc1f))
  (pad "2" smd rect (at -1.55 -0.75) (size 0.9 0.3) (layers "F.Cu" "F.Paste" "F.Mask") (tstamp 297e7e12-7a36-42aa-8f17-19fb006a8ff5))
  (pad "3" smd rect (at -1.55 -0.25) (size 0.9 0.3) (layers "F.Cu" "F.Paste" "F.Mask") (tstamp 74b20b05-a119-4780-9d22-107432a714ff))
  (pad "4" smd rect (at -1.55 0.25) (size 0.9 0.3) (layers "F.Cu" "F.Paste" "F.Mask") (tstamp 982bb2d2-5095-4c30-b32e-a42e95f5f0f2))
  (pad "5" smd rect (at -1.55 0.75) (size 0.9 0.3) (layers "F.Cu" "F.Paste" "F.Mask") (tstamp fffef87f-7dc1-4116-aac3-71df7f07b19e))
  (pad "6" smd rect (at -1.25 1.25) (size 0.3 0.3) (layers "F.Cu" "F.Paste" "F.Mask") (tstamp 9d360f48-145a-4192-a1eb-c9234fee9380))
  (pad "7" smd rect (at -0.75 1.55 90) (size 0.9 0.3) (layers "F.Cu" "F.Paste" "F.Mask") (tstamp 34fcb7a6-584a-4ef5-b2a3-0b9473b7464c))
  (pad "8" smd rect (at -0.25 1.55 90) (size 0.9 0.3) (layers "F.Cu" "F.Paste" "F.Mask") (tstamp 4974ec52-3623-4e94-a39c-20cb148f55e0))
  (pad "9" smd rect (at 0.25 1.55 90) (size 0.9 0.3) (layers "F.Cu" "F.Paste" "F.Mask") (tstamp 22d4082e-8454-43be-a3cf-6606523f5f09))
  (pad "10" smd rect (at 0.75 1.55 90) (size 0.9 0.3) (layers "F.Cu" "F.Paste" "F.Mask") (tstamp 7f58a1a4-97f8-42c9-afc4-9e46a2d2a5da))
  (pad "11" smd rect (at 1.25 1.25) (size 0.3 0.3) (layers "F.Cu" "F.Paste" "F.Mask") (tstamp 1e4d63d4-db3a-44e4-964f-32b6cd4d7ef9))
  (pad "12" smd rect (at 1.55 0.75) (size 0.9 0.3) (layers "F.Cu" "F.Paste" "F.Mask") (tstamp a43b6e10-41b1-4e78-afeb-31d63a5d913f))
  (pad "13" smd rect (at 1.55 0.25) (size 0.9 0.3) (layers "F.Cu" "F.Paste" "F.Mask") (tstamp 36143b34-904d-40a0-9c55-f025efe26702))
  (pad "14" smd rect (at 1.55 -0.25) (size 0.9 0.3) (layers "F.Cu" "F.Paste" "F.Mask") (tstamp 54f5737c-123d-4914-871b-e3d5b545aea7))
  (pad "15" smd rect (at 1.55 -0.75) (size 0.9 0.3) (layers "F.Cu" "F.Paste" "F.Mask") (tstamp e9a87313-b8d4-4b88-aa3e-d3817ad29a8b))
  (pad "16" smd rect (at 1.25 -1.25) (size 0.3 0.3) (layers "F.Cu" "F.Paste" "F.Mask") (tstamp 9dcc0353-c1fb-4004-a38c-c19cd51e510d))
  (pad "17" smd rect (at 0.75 -1.55 90) (size 0.9 0.3) (layers "F.Cu" "F.Paste" "F.Mask") (tstamp 7cdf5b6d-9fc9-44e3-8d5a-12642f5413bb))
  (pad "18" smd rect (at 0.25 -1.55 90) (size 0.9 0.3) (layers "F.Cu" "F.Paste" "F.Mask") (tstamp e8b4f822-c26f-4e0d-a0d3-2b30f2acb55e))
  (pad "19" smd rect (at -0.25 -1.55 90) (size 0.9 0.3) (layers "F.Cu" "F.Paste" "F.Mask") (tstamp 6058b832-8826-4005-a5a3-b122b37a8214))
  (pad "20" smd rect (at -0.75 -1.55 90) (size 0.9 0.3) (layers "F.Cu" "F.Paste" "F.Mask") (tstamp c63ca583-7c97-4d5f-9ecf-76598dfa79c2))
  (pad "21" thru_hole circle (at -0.45 0) (size 0.6 0.6) (drill 0.3) (layers "*.Cu") (tstamp 691e72af-3bec-4fea-8c25-e60df6ce5d9c))
  (pad "21" thru_hole circle (at 0 -0.45) (size 0.6 0.6) (drill 0.3) (layers "*.Cu") (tstamp fdf57778-c298-491c-8976-dabaadc0213c))
  (pad "21" thru_hole circle (at 0 0) (size 0.6 0.6) (drill 0.3) (layers "*.Cu") (tstamp 607e58d8-4b50-4577-b81f-55682f08fdc4))
  (pad "21" smd rect (at 0 0) (size 1.8 1.8) (layers "F.Cu" "F.Mask") (tstamp 2a11b482-1e9b-4a8a-8899-c08a13fcfa32))
  (pad "21" smd rect (at 0 0) (size 2.8 2.8) (layers "B.Cu") (tstamp 4403add3-3422-43d9-bdaa-cae7e2cbd53a))
  (pad "21" thru_hole circle (at 0 0.45) (size 0.6 0.6) (drill 0.3) (layers "*.Cu") (tstamp 586c5037-6604-46bd-a749-11cd5395aa3b))
  (pad "21" thru_hole circle (at 0.45 0) (size 0.6 0.6) (drill 0.3) (layers "*.Cu") (tstamp 256636cb-12fb-4ae0-955d-5fe8b9e578b4))
  (model "${KICAD6_3DMODEL_DIR}/Package_DFN_QFN.3dshapes/SiliconLabs_QFN-20-1EP_3x3mm_P0.5mm_EP1.8x1.8mm.wrl"
    (offset (xyz 0 0 0))
    (scale (xyz 1 1 1))
    (rotate (xyz 0 0 0))
  )
)
