(footprint "Texas_R-PUQFN-N10" (version 20221018) (generator pcbnew)
  (layer "F.Cu")
  (descr "http://www.ti.com/general/docs/lit/getliterature.tsp?baseLiteratureNumber=MPQF186&fileType=pdf")
  (tags "Texas_R-PUQFN-N10")
  (attr smd)
  (fp_text reference "REF**" (at 0 -2) (layer "F.SilkS")
      (effects (font (size 1 1) (thickness 0.15)))
    (tstamp f2245d9e-d197-4fee-bc17-b95bfbda48ee)
  )
  (fp_text value "Texas_R-PUQFN-N10" (at 0 2.25) (layer "F.Fab")
      (effects (font (size 1 1) (thickness 0.15)))
    (tstamp 94187987-3cb6-448e-a2a0-b0dbeb528497)
  )
  (fp_text user "${REFERENCE}" (at 0 0 270) (layer "F.Fab")
      (effects (font (size 0.5 0.5) (thickness 0.03)))
    (tstamp 2d3d2581-0afb-41a6-83af-e5154b56064d)
  )
  (fp_line (start -0.5 1.2) (end -0.9 1.2)
    (stroke (width 0.12) (type solid)) (layer "F.SilkS") (tstamp b3390c4c-35d5-4151-8288-d56bd083f382))
  (fp_line (start 0.9 -1.2) (end 0.5 -1.2)
    (stroke (width 0.12) (type solid)) (layer "F.SilkS") (tstamp 8abd7040-06a5-4f7d-811a-b6b93220b8a0))
  (fp_line (start 0.9 1.2) (end 0.5 1.2)
    (stroke (width 0.12) (type solid)) (layer "F.SilkS") (tstamp 5a58e1e8-9add-4d29-bf64-756669ce9d55))
  (fp_line (start -1.18 -1.43) (end 1.18 -1.43)
    (stroke (width 0.05) (type solid)) (layer "F.CrtYd") (tstamp 9de87431-43cc-40eb-b719-3dccef767cac))
  (fp_line (start -1.18 1.43) (end -1.18 -1.43)
    (stroke (width 0.05) (type solid)) (layer "F.CrtYd") (tstamp f81183f0-7b3f-4e19-bd1a-3592d0673884))
  (fp_line (start 1.18 -1.43) (end 1.18 1.43)
    (stroke (width 0.05) (type solid)) (layer "F.CrtYd") (tstamp 460e2c0e-f2b4-4c47-9720-28edf2c73ae0))
  (fp_line (start 1.18 1.43) (end -1.18 1.43)
    (stroke (width 0.05) (type solid)) (layer "F.CrtYd") (tstamp e515cc52-3a49-423f-a868-dd175a52dd75))
  (fp_line (start -0.75 1) (end -0.75 -0.5)
    (stroke (width 0.1) (type solid)) (layer "F.Fab") (tstamp ff88bdd9-cb2d-400b-8c4e-217999b5566a))
  (fp_line (start -0.25 -1) (end -0.75 -0.5)
    (stroke (width 0.1) (type solid)) (layer "F.Fab") (tstamp 482d2632-18b6-497d-8a26-dfa3a210e5f5))
  (fp_line (start -0.25 -1) (end 0.75 -1)
    (stroke (width 0.1) (type solid)) (layer "F.Fab") (tstamp ba8034fb-1e0e-4262-838b-23d538ea0b86))
  (fp_line (start 0.75 -1) (end 0.75 1)
    (stroke (width 0.1) (type solid)) (layer "F.Fab") (tstamp b98a14e6-ff07-4185-84c8-5c7d5f25cab3))
  (fp_line (start 0.75 1) (end -0.75 1)
    (stroke (width 0.1) (type solid)) (layer "F.Fab") (tstamp a2ee8b94-9d9f-4d32-916e-a86a048bb008))
  (pad "1" smd rect (at -0.6375 -0.75) (size 0.575 0.3) (layers "F.Cu" "F.Paste" "F.Mask") (tstamp 7fe20c7e-1008-41a1-96ce-76fec18b8152))
  (pad "2" smd rect (at -0.6375 -0.25) (size 0.575 0.25) (layers "F.Cu" "F.Paste" "F.Mask") (tstamp 8af9d2ab-3435-4fbb-a874-37ac68dbdce5))
  (pad "3" smd rect (at -0.6375 0.25) (size 0.575 0.25) (layers "F.Cu" "F.Paste" "F.Mask") (tstamp 0a169e55-15a0-4624-a1f7-8dc208705293))
  (pad "4" smd rect (at -0.6375 0.75) (size 0.575 0.3) (layers "F.Cu" "F.Paste" "F.Mask") (tstamp cb610e8a-61fa-45bf-a69e-7882ae84232d))
  (pad "5" smd rect (at 0 0.86) (size 0.35 0.63) (layers "F.Cu" "F.Paste" "F.Mask") (tstamp cd95917a-c117-4ea3-ae4e-7a2b2db05e69))
  (pad "6" smd rect (at 0.6375 0.75) (size 0.575 0.3) (layers "F.Cu" "F.Paste" "F.Mask") (tstamp f0bb53f8-cf11-4006-a946-7c20e097018d))
  (pad "7" smd rect (at 0.6375 0.25) (size 0.575 0.25) (layers "F.Cu" "F.Paste" "F.Mask") (tstamp 454f76c0-f272-44f9-9ca1-021cef0d2e9f))
  (pad "8" smd rect (at 0.6375 -0.25) (size 0.575 0.25) (layers "F.Cu" "F.Paste" "F.Mask") (tstamp 350bd804-c02b-4ac0-a9e3-184b73f54bbe))
  (pad "9" smd rect (at 0.6375 -0.75) (size 0.575 0.3) (layers "F.Cu" "F.Paste" "F.Mask") (tstamp 77f0cbec-7737-4f18-add5-014a269b7015))
  (pad "10" smd rect (at 0 -0.86) (size 0.35 0.63) (layers "F.Cu" "F.Paste" "F.Mask") (tstamp 83fd6e80-fd46-46e8-87fc-85a79c287c5b))
  (model "${KICAD6_3DMODEL_DIR}/Package_DFN_QFN.3dshapes/Texas_R-PUQFN-N10.wrl"
    (offset (xyz 0 0 0))
    (scale (xyz 1 1 1))
    (rotate (xyz 0 0 0))
  )
)
