(footprint "Texas_B3QFN-14-1EP_5x5.5mm_P0.65mm" (version 20221018) (generator pcbnew)
  (layer "F.Cu")
  (descr "Texas instruments QFN Package, datasheet: https://www.ti.com/lit/ds/symlink/tpsm53602.pdf")
  (tags "Texas instruments QFN")
  (attr smd)
  (fp_text reference "REF**" (at 0 -3.65) (layer "F.SilkS")
      (effects (font (size 1 1) (thickness 0.15)))
    (tstamp 92df5b84-0208-4720-87e6-8b0e7c18e25d)
  )
  (fp_text value "Texas_B3QFN-14-1EP_5x5.5mm_P0.65mm" (at 0 3.8) (layer "F.Fab")
      (effects (font (size 1 1) (thickness 0.15)))
    (tstamp f85201b7-040d-4dd1-833a-40b38730dc42)
  )
  (fp_text user "${REFERENCE}" (at 0 0) (layer "F.Fab")
      (effects (font (size 1 1) (thickness 0.15)))
    (tstamp 05c792a3-6045-48ee-b21c-2c0fa6a8566c)
  )
  (fp_line (start 2.5 -2.85) (end 0 -2.85)
    (stroke (width 0.12) (type solid)) (layer "F.SilkS") (tstamp a5620b29-ad57-4cab-a78b-b9de34aa8c58))
  (fp_line (start 2.5 2.85) (end -2.5 2.85)
    (stroke (width 0.12) (type solid)) (layer "F.SilkS") (tstamp 826e19a4-4d74-4393-ac9e-2aba73a352cf))
  (fp_line (start -2.95 -3) (end 2.95 -3)
    (stroke (width 0.05) (type solid)) (layer "F.CrtYd") (tstamp 9392094d-80ba-4f11-9890-73e9300c9f28))
  (fp_line (start -2.95 3) (end -2.95 -3)
    (stroke (width 0.05) (type solid)) (layer "F.CrtYd") (tstamp 08d49f0e-4858-4151-a3a2-b3ec92d4dee4))
  (fp_line (start 2.95 -3) (end 2.95 3)
    (stroke (width 0.05) (type solid)) (layer "F.CrtYd") (tstamp 8cacf0a3-6fc8-43a9-ad8f-d307caeed6c7))
  (fp_line (start 2.95 3) (end -2.95 3)
    (stroke (width 0.05) (type solid)) (layer "F.CrtYd") (tstamp dcd2ef3b-a0e8-4d5d-b6a1-1e93c7e35522))
  (fp_line (start -2.5 2.75) (end -2.5 -2.05)
    (stroke (width 0.1) (type solid)) (layer "F.Fab") (tstamp 5c5a18c5-b22c-47af-9584-9e221105986d))
  (fp_line (start -1.8 -2.75) (end -2.5 -2.05)
    (stroke (width 0.1) (type solid)) (layer "F.Fab") (tstamp 0ef051d8-6e7c-4354-bfea-a3ae652d29bb))
  (fp_line (start -1.8 -2.75) (end 2.5 -2.75)
    (stroke (width 0.1) (type solid)) (layer "F.Fab") (tstamp 8603e7f9-5fdf-4cf9-b239-1b1d519863f2))
  (fp_line (start 2.5 -2.75) (end 2.5 2.75)
    (stroke (width 0.1) (type solid)) (layer "F.Fab") (tstamp d1dbbef6-a2dc-44a6-88c8-a244424d8823))
  (fp_line (start 2.5 2.75) (end -2.5 2.75)
    (stroke (width 0.1) (type solid)) (layer "F.Fab") (tstamp 03d612b6-b471-4a1c-90df-6df5d8dc6c0f))
  (pad "1" smd roundrect (at -2 -2.145) (size 1.4 0.5) (layers "F.Cu" "F.Paste" "F.Mask") (roundrect_rratio 0.1) (tstamp cebb309b-bd7d-4f7e-a207-c9e17a116b17))
  (pad "2" smd roundrect (at -2.35 -1.17) (size 0.7 0.35) (layers "F.Cu" "F.Paste" "F.Mask") (roundrect_rratio 0.143) (tstamp 5ef1a16d-0e8d-4d10-a282-97f2483fa492))
  (pad "3" smd roundrect (at -2.35 -0.52) (size 0.7 0.35) (layers "F.Cu" "F.Paste" "F.Mask") (roundrect_rratio 0.143) (tstamp a8f60590-3192-4d70-8887-6510ccc14e24))
  (pad "4" smd roundrect (at -2.35 0.13) (size 0.7 0.35) (layers "F.Cu" "F.Paste" "F.Mask") (roundrect_rratio 0.143) (tstamp b491814c-1afb-49c6-acce-3d254d2a75c8))
  (pad "5" smd roundrect (at -2.35 0.78) (size 0.7 0.35) (layers "F.Cu" "F.Paste" "F.Mask") (roundrect_rratio 0.143) (tstamp f3a95317-ca87-4692-854f-bb9eaae002f5))
  (pad "6" smd roundrect (at -2.35 1.43) (size 0.7 0.35) (layers "F.Cu" "F.Paste" "F.Mask") (roundrect_rratio 0.143) (tstamp d4cd8d24-60c0-4871-9f20-51e49fc5ec8f))
  (pad "7" smd roundrect (at -2 2.155) (size 1.4 0.5) (layers "F.Cu" "F.Paste" "F.Mask") (roundrect_rratio 0.1) (tstamp 2953bbf4-6cd7-4f15-abe2-61174bfbe199))
  (pad "8" smd roundrect (at 2 2.155) (size 1.4 0.5) (layers "F.Cu" "F.Paste" "F.Mask") (roundrect_rratio 0.1) (tstamp 560b16fd-8e4b-402d-b7ce-1dc84217b841))
  (pad "9" smd roundrect (at 2.35 1.43) (size 0.7 0.35) (layers "F.Cu" "F.Paste" "F.Mask") (roundrect_rratio 0.143) (tstamp 452ec93a-9f3f-496f-8323-6692f487a415))
  (pad "10" smd roundrect (at 2.35 0.78) (size 0.7 0.35) (layers "F.Cu" "F.Paste" "F.Mask") (roundrect_rratio 0.143) (tstamp 810b5446-d2a8-4536-bd53-ef8662a704c8))
  (pad "11" smd roundrect (at 2.35 0.13) (size 0.7 0.35) (layers "F.Cu" "F.Paste" "F.Mask") (roundrect_rratio 0.143) (tstamp e23ca6b0-a999-41bc-9a55-063a5cebfacd))
  (pad "12" smd roundrect (at 2.35 -0.52) (size 0.7 0.35) (layers "F.Cu" "F.Paste" "F.Mask") (roundrect_rratio 0.143) (tstamp 96190840-49bb-4e4e-8d27-7bffb88d92fb))
  (pad "13" smd roundrect (at 2.35 -1.17) (size 0.7 0.35) (layers "F.Cu" "F.Paste" "F.Mask") (roundrect_rratio 0.143) (tstamp 58d83ab5-c0a7-43be-b2bc-e06a44080ae3))
  (pad "14" smd roundrect (at 2 -2.145) (size 1.4 0.5) (layers "F.Cu" "F.Paste" "F.Mask") (roundrect_rratio 0.1) (tstamp 85aad379-7c28-42b9-92fe-d0ad5e2cf202))
  (pad "15" smd custom (at 0 0) (size 2.5 2.5) (layers "F.Cu" "F.Paste" "F.Mask")
    (zone_connect 0) (thermal_bridge_angle 45)
    (options (clearance outline) (anchor rect))
    (primitives
      (gr_poly
        (pts
          (xy 0.75 -1.25)
          (xy -0.75 -1.25)
          (xy -0.75 -2.3)
          (xy 0.75 -2.3)
        )
        (width 0) (fill yes))
      (gr_poly
        (pts
          (xy 0.75 2.3)
          (xy -0.75 2.3)
          (xy -0.75 1.25)
          (xy 0.75 1.25)
        )
        (width 0) (fill yes))
    ) (tstamp f041fc36-ef52-44ee-99e1-5aeabeeca3be))
  (model "${KICAD6_3DMODEL_DIR}/Package_DFN_QFN.3dshapes/Texas_B3QFN-14-1EP_5x5.5mm_P0.65mm.wrl"
    (offset (xyz 0 0 0))
    (scale (xyz 1 1 1))
    (rotate (xyz 0 0 0))
  )
)
