(footprint "UQFN-10_1.4x1.8mm_P0.4mm" (version 20221018) (generator pcbnew)
  (layer "F.Cu")
  (descr "UQFN 10pin, https://www.onsemi.com/pub/Collateral/488AT.PDF")
  (tags "UQFN-10_1.4x1.8mm_P0.4mm")
  (attr smd)
  (fp_text reference "REF**" (at 0 -2) (layer "F.SilkS")
      (effects (font (size 1 1) (thickness 0.15)))
    (tstamp ce5957dc-8b9c-4d16-b381-2b5a9146a809)
  )
  (fp_text value "UQFN-10_1.4x1.8mm_P0.4mm" (at 0 2) (layer "F.Fab")
      (effects (font (size 1 1) (thickness 0.15)))
    (tstamp f59a34d9-51f1-4ab8-baf1-e97276492be2)
  )
  (fp_text user "${REFERENCE}" (at 0 0) (layer "F.Fab")
      (effects (font (size 0.5 0.5) (thickness 0.05)))
    (tstamp 8e4b32ef-eaae-4052-8ee5-9e9db1a1d42a)
  )
  (fp_line (start -0.76 0.96) (end -0.76 0.425)
    (stroke (width 0.12) (type solid)) (layer "F.SilkS") (tstamp 48276b2d-c537-4a8c-8c1f-2790e2500dbf))
  (fp_line (start -0.625 0.96) (end -0.76 0.96)
    (stroke (width 0.12) (type solid)) (layer "F.SilkS") (tstamp 4435aff1-0755-445a-895a-a76640d1748c))
  (fp_line (start 0.76 -0.96) (end 0.625 -0.96)
    (stroke (width 0.12) (type solid)) (layer "F.SilkS") (tstamp 553b38c0-62c6-4ac2-9118-edf4ed91b3ec))
  (fp_line (start 0.76 -0.425) (end 0.76 -0.96)
    (stroke (width 0.12) (type solid)) (layer "F.SilkS") (tstamp 058a567c-78dd-4df2-8db8-498d9db926a7))
  (fp_line (start 0.76 0.96) (end 0.625 0.96)
    (stroke (width 0.12) (type solid)) (layer "F.SilkS") (tstamp 34db2c41-6700-407c-ab9f-325c8cd935cf))
  (fp_line (start 0.76 0.96) (end 0.76 0.425)
    (stroke (width 0.12) (type solid)) (layer "F.SilkS") (tstamp 8b056d11-ea5a-447c-848e-40ad1b21d0d5))
  (fp_line (start -1.1 1.3) (end -1.1 -1.3)
    (stroke (width 0.05) (type solid)) (layer "F.CrtYd") (tstamp 8cbc4868-0422-4d4e-93f9-32f13be76294))
  (fp_line (start -1.1 1.3) (end 1.1 1.3)
    (stroke (width 0.05) (type solid)) (layer "F.CrtYd") (tstamp ba3b8442-5609-4cd3-8439-6ef0eea3860c))
  (fp_line (start 1.1 -1.3) (end -1.1 -1.3)
    (stroke (width 0.05) (type solid)) (layer "F.CrtYd") (tstamp 025bb0e7-e44b-4f86-952e-cf64e1e7e1ca))
  (fp_line (start 1.1 -1.3) (end 1.1 1.3)
    (stroke (width 0.05) (type solid)) (layer "F.CrtYd") (tstamp 096fbf99-896a-491b-a0da-28e8ba5af17f))
  (fp_line (start -0.7 -0.4) (end -0.7 0.9)
    (stroke (width 0.1) (type solid)) (layer "F.Fab") (tstamp 2022f64a-bec4-42e2-9cc7-746ae8882d7b))
  (fp_line (start -0.7 0.9) (end 0.7 0.9)
    (stroke (width 0.1) (type solid)) (layer "F.Fab") (tstamp 1a60dcaf-a5f8-43e0-9a60-2f997e615c0f))
  (fp_line (start -0.2 -0.9) (end -0.7 -0.4)
    (stroke (width 0.1) (type solid)) (layer "F.Fab") (tstamp 23e4d16e-e8f0-4baf-9f5a-a931aef03848))
  (fp_line (start -0.2 -0.9) (end 0.7 -0.9)
    (stroke (width 0.1) (type solid)) (layer "F.Fab") (tstamp 2631a762-1035-4cc5-a9a8-88fc503aced3))
  (fp_line (start 0.7 -0.9) (end 0.7 0.9)
    (stroke (width 0.1) (type solid)) (layer "F.Fab") (tstamp 735cae03-ebb1-474c-9bdb-dc83d3c48ed6))
  (pad "1" smd rect (at -0.5185 -0.2) (size 0.663 0.225) (layers "F.Cu" "F.Paste" "F.Mask") (tstamp a4ea3551-68bf-4dfa-81bd-2ab80fce8199))
  (pad "2" smd rect (at -0.5685 0.2) (size 0.563 0.225) (layers "F.Cu" "F.Paste" "F.Mask") (tstamp 9682f2ba-d82b-4fac-89c2-5de019916ec3))
  (pad "3" smd rect (at -0.4 0.7685) (size 0.225 0.563) (layers "F.Cu" "F.Paste" "F.Mask") (tstamp 6520ad4f-ecf7-4488-9516-7d4afa87876d))
  (pad "4" smd rect (at 0 0.7685) (size 0.225 0.563) (layers "F.Cu" "F.Paste" "F.Mask") (tstamp 09e09849-49a0-4aef-82ae-b12e333279af))
  (pad "5" smd rect (at 0.4 0.7685) (size 0.225 0.563) (layers "F.Cu" "F.Paste" "F.Mask") (tstamp e14b8cd4-cf8c-4e2c-a56d-b77664c065b9))
  (pad "6" smd rect (at 0.5685 0.2) (size 0.563 0.225) (layers "F.Cu" "F.Paste" "F.Mask") (tstamp 59130629-631a-4433-9b54-048bfbc97061))
  (pad "7" smd rect (at 0.5685 -0.2) (size 0.563 0.225) (layers "F.Cu" "F.Paste" "F.Mask") (tstamp 2481af5a-b600-4d6d-827c-793ae2696509))
  (pad "8" smd rect (at 0.4 -0.7685) (size 0.225 0.563) (layers "F.Cu" "F.Paste" "F.Mask") (tstamp a762dc01-756e-4692-989e-a3f175670fd5))
  (pad "9" smd rect (at 0 -0.7685) (size 0.225 0.563) (layers "F.Cu" "F.Paste" "F.Mask") (tstamp 63ad4e18-9c79-4bdb-b928-ee17370effe0))
  (pad "10" smd rect (at -0.4 -0.7685) (size 0.225 0.563) (layers "F.Cu" "F.Paste" "F.Mask") (tstamp 9e454e2c-67f2-4f22-81bd-9efeec744b9b))
  (model "${KICAD6_3DMODEL_DIR}/Package_DFN_QFN.3dshapes/UQFN-10_1.4x1.8mm_P0.4mm.wrl"
    (offset (xyz 0 0 0))
    (scale (xyz 1 1 1))
    (rotate (xyz 0 0 0))
  )
)
