(footprint "WQFN-20-1EP_2.5x4.5mm_P0.5mm_EP1x2.9mm" (version 20221018) (generator pcbnew)
  (layer "F.Cu")
  (descr "http://www.onsemi.com/pub/Collateral/510CD.PDF")
  (tags "WQFN-20 4.5mm 2.5mm 0.5mm")
  (attr smd)
  (fp_text reference "REF**" (at 0 -4) (layer "F.SilkS")
      (effects (font (size 1 1) (thickness 0.15)))
    (tstamp 91f5bbba-8c1a-456f-a48b-a1242c7f2b28)
  )
  (fp_text value "WQFN-20-1EP_2.5x4.5mm_P0.5mm_EP1x2.9mm" (at 0 4) (layer "F.Fab")
      (effects (font (size 1 1) (thickness 0.15)))
    (tstamp a18c5791-bc22-4452-b657-4afdb62cbd03)
  )
  (fp_text user "${REFERENCE}" (at 0 0) (layer "F.Fab")
      (effects (font (size 0.4 0.4) (thickness 0.06)))
    (tstamp 398bd68b-c1d4-4db6-972b-1b096e3b961e)
  )
  (fp_line (start -1.35 -2.35) (end -1.35 -2.1)
    (stroke (width 0.12) (type solid)) (layer "F.SilkS") (tstamp 6d66be4f-df46-4167-b5cd-1e04297c907a))
  (fp_line (start -1.35 2.35) (end -1.35 2.1)
    (stroke (width 0.12) (type solid)) (layer "F.SilkS") (tstamp 6f7f53ee-5220-42eb-8718-aa55af862cb7))
  (fp_line (start -0.6 2.35) (end -1.35 2.35)
    (stroke (width 0.12) (type solid)) (layer "F.SilkS") (tstamp adfb6834-6b43-45e0-aecc-a11a2c1204da))
  (fp_line (start 0.6 -2.35) (end 1.35 -2.35)
    (stroke (width 0.12) (type solid)) (layer "F.SilkS") (tstamp f8d0ec86-8f1b-4356-8044-3969e5298d01))
  (fp_line (start 0.6 2.35) (end 1.35 2.35)
    (stroke (width 0.12) (type solid)) (layer "F.SilkS") (tstamp 8b31b036-a65a-4160-84e4-76de49f7c9aa))
  (fp_line (start 1.35 -2.35) (end 1.35 -2.1)
    (stroke (width 0.12) (type solid)) (layer "F.SilkS") (tstamp a689b889-0f19-4e4e-920b-cc8c2b406d12))
  (fp_line (start 1.35 2.35) (end 1.35 2.1)
    (stroke (width 0.12) (type solid)) (layer "F.SilkS") (tstamp ad007a5c-7130-4cc2-96c0-cead5ef8e708))
  (fp_line (start -2 -3) (end -2 3)
    (stroke (width 0.05) (type solid)) (layer "F.CrtYd") (tstamp 6bcf135e-9669-481f-b9e6-17ddd702c8dc))
  (fp_line (start -2 -3) (end 2 -3)
    (stroke (width 0.05) (type solid)) (layer "F.CrtYd") (tstamp 79b77ad1-161a-4891-9025-126ed0c23255))
  (fp_line (start -2 3) (end 2 3)
    (stroke (width 0.05) (type solid)) (layer "F.CrtYd") (tstamp c9bbb6ec-b205-4fb1-8de3-07e5feb24b31))
  (fp_line (start 2 -3) (end 2 3)
    (stroke (width 0.05) (type solid)) (layer "F.CrtYd") (tstamp 290bc397-1100-41dc-8c71-178b181fe8f9))
  (fp_line (start -1.25 -1.625) (end -1.25 2.25)
    (stroke (width 0.1) (type solid)) (layer "F.Fab") (tstamp 65034764-9c10-4371-998e-8917baf6b2fe))
  (fp_line (start -1.25 -1.625) (end -0.625 -2.25)
    (stroke (width 0.1) (type solid)) (layer "F.Fab") (tstamp 0d288203-bb87-49d1-a444-fa62b6aa95b3))
  (fp_line (start -1.25 2.25) (end 1.25 2.25)
    (stroke (width 0.1) (type solid)) (layer "F.Fab") (tstamp 4b863da6-18ac-473b-8b68-e500309c5c08))
  (fp_line (start 1.25 -2.25) (end -0.625 -2.25)
    (stroke (width 0.1) (type solid)) (layer "F.Fab") (tstamp 3bd23498-0d61-40ad-a89b-00d4ec577078))
  (fp_line (start 1.25 -2.25) (end 1.25 2.25)
    (stroke (width 0.1) (type solid)) (layer "F.Fab") (tstamp 32f77a74-b277-48a9-8546-d6af451cb469))
  (pad "" smd rect (at 0 -0.95 270) (size 0.8 0.8) (layers "F.Paste") (tstamp 6ee09639-0070-4e13-a37b-f9e4d1b54131))
  (pad "" smd rect (at 0 0 270) (size 0.8 0.8) (layers "F.Paste") (tstamp 1edfb602-1521-4dfd-ae4a-51c41719efd3))
  (pad "" smd rect (at 0 0.95 270) (size 0.8 0.8) (layers "F.Paste") (tstamp 227aad8d-84f2-434f-873b-f75a7a6a1e7f))
  (pad "1" smd rect (at -0.25 -2.3 270) (size 0.9 0.24) (layers "F.Cu" "F.Paste" "F.Mask") (tstamp 311496ec-3e96-462f-aff5-41f4066f6862))
  (pad "2" smd rect (at -1.3 -1.75) (size 0.9 0.24) (layers "F.Cu" "F.Paste" "F.Mask") (tstamp 3c9974d6-bcf0-48cd-975b-44f48e83eb7d))
  (pad "3" smd rect (at -1.3 -1.25) (size 0.9 0.24) (layers "F.Cu" "F.Paste" "F.Mask") (tstamp cff18b5b-1099-4ee4-8b5e-1c4251b1a9f3))
  (pad "4" smd rect (at -1.3 -0.75) (size 0.9 0.24) (layers "F.Cu" "F.Paste" "F.Mask") (tstamp c9f4188a-2c3f-42cf-81f4-6c1335f45838))
  (pad "5" smd rect (at -1.3 -0.25) (size 0.9 0.24) (layers "F.Cu" "F.Paste" "F.Mask") (tstamp ec9dfefe-8711-4c63-b740-6f9b8d88ed7a))
  (pad "6" smd rect (at -1.3 0.25) (size 0.9 0.24) (layers "F.Cu" "F.Paste" "F.Mask") (tstamp 606913b0-eb71-4092-91f2-330dacc34af7))
  (pad "7" smd rect (at -1.3 0.75) (size 0.9 0.24) (layers "F.Cu" "F.Paste" "F.Mask") (tstamp 10876432-792f-4e59-ae0d-068d62d5d601))
  (pad "8" smd rect (at -1.3 1.25) (size 0.9 0.24) (layers "F.Cu" "F.Paste" "F.Mask") (tstamp feb1982b-1ff9-4335-a337-e6d75a8bc83e))
  (pad "9" smd rect (at -1.3 1.75) (size 0.9 0.24) (layers "F.Cu" "F.Paste" "F.Mask") (tstamp 21a1bdd5-be54-4cfd-97cc-f2181a310a31))
  (pad "10" smd rect (at -0.25 2.3 270) (size 0.9 0.24) (layers "F.Cu" "F.Paste" "F.Mask") (tstamp ea71e246-066e-4fbd-b59c-704712606709))
  (pad "11" smd rect (at 0.25 2.3 270) (size 0.9 0.24) (layers "F.Cu" "F.Paste" "F.Mask") (tstamp 961d6b55-7643-44e0-b5a1-0105c2c28a91))
  (pad "12" smd rect (at 1.3 1.75) (size 0.9 0.24) (layers "F.Cu" "F.Paste" "F.Mask") (tstamp d864db61-b32b-475c-a537-9626bf1217ec))
  (pad "13" smd rect (at 1.3 1.25) (size 0.9 0.24) (layers "F.Cu" "F.Paste" "F.Mask") (tstamp d81a6840-12ca-4c41-8c91-1d27c49f53df))
  (pad "14" smd rect (at 1.3 0.75) (size 0.9 0.24) (layers "F.Cu" "F.Paste" "F.Mask") (tstamp c9b1b164-d1a0-4495-b551-c5c3d6eae12e))
  (pad "15" smd rect (at 1.3 0.25) (size 0.9 0.24) (layers "F.Cu" "F.Paste" "F.Mask") (tstamp 12b94970-28fc-46f7-b8ab-7a56cb00991d))
  (pad "16" smd rect (at 1.3 -0.25) (size 0.9 0.24) (layers "F.Cu" "F.Paste" "F.Mask") (tstamp 157f5579-beb3-4443-a1d3-58f1bcbe4214))
  (pad "17" smd rect (at 1.3 -0.75) (size 0.9 0.24) (layers "F.Cu" "F.Paste" "F.Mask") (tstamp bf72d0d0-4bea-4eb0-9982-2ecca882fe47))
  (pad "18" smd rect (at 1.3 -1.25) (size 0.9 0.24) (layers "F.Cu" "F.Paste" "F.Mask") (tstamp 915e72b2-55cc-4b33-884f-3b80c61bdcae))
  (pad "19" smd rect (at 1.3 -1.75) (size 0.9 0.24) (layers "F.Cu" "F.Paste" "F.Mask") (tstamp b5c67918-f0b9-41fa-9024-fe145732e4bf))
  (pad "20" smd rect (at 0.25 -2.3 270) (size 0.9 0.24) (layers "F.Cu" "F.Paste" "F.Mask") (tstamp 5677253e-5a1f-43e0-9f79-1b4210366381))
  (pad "21" smd rect (at 0 0 270) (size 2.9 1) (layers "F.Cu" "F.Mask") (tstamp 96545bc8-0b45-4868-b0fc-8a8e272402c8))
  (model "${KICAD6_3DMODEL_DIR}/Package_DFN_QFN.3dshapes/WQFN-20-1EP_2.5x4.5mm_P0.5mm_EP1x2.9mm.wrl"
    (offset (xyz 0 0 0))
    (scale (xyz 1 1 1))
    (rotate (xyz 0 0 0))
  )
)
