(footprint "LFCSP-16-1EP_3x3mm_P0.5mm_EP1.854x1.854mm" (version 20221018) (generator pcbnew)
  (layer "F.Cu")
  (descr "16-Lead Lead Frame Chip Scale Package, 3x3mm, 0.5mm pitch, 1.854mm thermal pad (CP-16-22, http://www.analog.com/media/en/package-pcb-resources/package/pkg_pdf/lfcspcp/cp_16_22.pdf)")
  (tags "LFCSP 16 0.5")
  (attr smd)
  (fp_text reference "REF**" (at 0 -2.85) (layer "F.SilkS")
      (effects (font (size 1 1) (thickness 0.15)))
    (tstamp 7d645780-68b1-47c6-bffb-b45f46041710)
  )
  (fp_text value "LFCSP-16-1EP_3x3mm_P0.5mm_EP1.854x1.854mm" (at 0 2.85) (layer "F.Fab")
      (effects (font (size 1 1) (thickness 0.15)))
    (tstamp e7778423-c54d-486d-8121-d827a1b8be80)
  )
  (fp_text user "${REFERENCE}" (at 0 0) (layer "F.Fab")
      (effects (font (size 0.7 0.7) (thickness 0.15)))
    (tstamp c7acb435-6f05-4578-ae51-71d80feb5921)
  )
  (fp_line (start -1.625 -1.625) (end -1.125 -1.625)
    (stroke (width 0.15) (type solid)) (layer "F.SilkS") (tstamp 01e1510a-7a72-47ed-a540-e856685b3527))
  (fp_line (start -1.625 1.625) (end -1.625 1.125)
    (stroke (width 0.15) (type solid)) (layer "F.SilkS") (tstamp 3685ac73-e1b7-48de-844b-bce92a6e8da3))
  (fp_line (start -1.625 1.625) (end -1.125 1.625)
    (stroke (width 0.15) (type solid)) (layer "F.SilkS") (tstamp 9b0d2ade-bce4-4125-8782-803d3b4c5ed7))
  (fp_line (start 1.625 -1.625) (end 1.125 -1.625)
    (stroke (width 0.15) (type solid)) (layer "F.SilkS") (tstamp b77b16ca-a59b-4478-b84a-bb8564a37d2a))
  (fp_line (start 1.625 -1.625) (end 1.625 -1.125)
    (stroke (width 0.15) (type solid)) (layer "F.SilkS") (tstamp 3b85fc23-42ef-42d8-a312-57612bc294b2))
  (fp_line (start 1.625 1.625) (end 1.125 1.625)
    (stroke (width 0.15) (type solid)) (layer "F.SilkS") (tstamp 4dbfa116-5891-4127-9bab-3bd7c2d939b3))
  (fp_line (start 1.625 1.625) (end 1.625 1.125)
    (stroke (width 0.15) (type solid)) (layer "F.SilkS") (tstamp 1a3f2d37-b156-47bb-9b6c-142a802ae73a))
  (fp_line (start -2.1 -2.1) (end -2.1 2.1)
    (stroke (width 0.05) (type solid)) (layer "F.CrtYd") (tstamp cbf9842c-7411-4013-8212-1caf4a85344a))
  (fp_line (start -2.1 -2.1) (end 2.1 -2.1)
    (stroke (width 0.05) (type solid)) (layer "F.CrtYd") (tstamp 3b649c70-9ffd-4d9b-95bd-94a736d44419))
  (fp_line (start -2.1 2.1) (end 2.1 2.1)
    (stroke (width 0.05) (type solid)) (layer "F.CrtYd") (tstamp 6a53d458-6afc-470d-9e51-b8f84114e424))
  (fp_line (start 2.1 -2.1) (end 2.1 2.1)
    (stroke (width 0.05) (type solid)) (layer "F.CrtYd") (tstamp 97189ff0-f174-41e5-8d58-ef73ecc43514))
  (fp_line (start -1.5 -0.5) (end -0.5 -1.5)
    (stroke (width 0.15) (type solid)) (layer "F.Fab") (tstamp 69431345-f3b5-442c-a8d7-31780452dbe2))
  (fp_line (start -1.5 1.5) (end -1.5 -0.5)
    (stroke (width 0.15) (type solid)) (layer "F.Fab") (tstamp 7a28f7d7-c832-434d-b63b-f9e8aabbc73c))
  (fp_line (start -0.5 -1.5) (end 1.5 -1.5)
    (stroke (width 0.15) (type solid)) (layer "F.Fab") (tstamp 0007f74c-e5d3-49eb-a511-53853087c2fc))
  (fp_line (start 1.5 -1.5) (end 1.5 1.5)
    (stroke (width 0.15) (type solid)) (layer "F.Fab") (tstamp fa32937f-fa21-4a7a-a0cc-2b48c0fa1840))
  (fp_line (start 1.5 1.5) (end -1.5 1.5)
    (stroke (width 0.15) (type solid)) (layer "F.Fab") (tstamp de8ad99a-15af-4833-8e66-757837468898))
  (pad "" smd rect (at -0.45 -0.45) (size 0.7 0.7) (layers "F.Paste") (tstamp 381bdd26-452a-4146-a318-27a5988664db))
  (pad "" smd rect (at -0.45 0.45) (size 0.7 0.7) (layers "F.Paste") (tstamp 0b92bfb3-46a5-4051-8320-1dc02c872f6f))
  (pad "" smd rect (at 0.45 -0.45) (size 0.7 0.7) (layers "F.Paste") (tstamp 7cf45163-a008-45a2-968a-1a13b34cdc62))
  (pad "" smd rect (at 0.45 0.45) (size 0.7 0.7) (layers "F.Paste") (tstamp 9a359a25-ce73-4fe8-b038-f026a0a74b32))
  (pad "1" smd rect (at -1.448 -0.75) (size 0.813 0.305) (layers "F.Cu" "F.Paste" "F.Mask") (tstamp cfad2975-529d-4466-8f41-94791585e1f5))
  (pad "2" smd rect (at -1.448 -0.25) (size 0.813 0.305) (layers "F.Cu" "F.Paste" "F.Mask") (tstamp 57c703a8-e772-468e-baed-17118906a86b))
  (pad "3" smd rect (at -1.448 0.25) (size 0.813 0.305) (layers "F.Cu" "F.Paste" "F.Mask") (tstamp 6467e70f-6d46-4a08-8ea8-19f37a83e0d7))
  (pad "4" smd rect (at -1.448 0.75) (size 0.813 0.305) (layers "F.Cu" "F.Paste" "F.Mask") (tstamp b3eba2b9-0aed-4935-89a7-5a51fc8922fe))
  (pad "5" smd rect (at -0.75 1.448) (size 0.305 0.813) (layers "F.Cu" "F.Paste" "F.Mask") (tstamp d6f64ac0-d4c0-476e-8686-b1857fc3c68d))
  (pad "6" smd rect (at -0.25 1.448) (size 0.305 0.813) (layers "F.Cu" "F.Paste" "F.Mask") (tstamp 41326d0f-d5ca-4569-a6a2-6993d016fbf4))
  (pad "7" smd rect (at 0.25 1.448) (size 0.305 0.813) (layers "F.Cu" "F.Paste" "F.Mask") (tstamp 901f15c4-8484-4de0-aec7-8d0feac65fb1))
  (pad "8" smd rect (at 0.75 1.448) (size 0.305 0.813) (layers "F.Cu" "F.Paste" "F.Mask") (tstamp 5789b594-4e56-4858-a182-e04867a408a5))
  (pad "9" smd rect (at 1.448 0.75) (size 0.813 0.305) (layers "F.Cu" "F.Paste" "F.Mask") (tstamp 71c6df11-bdfd-4245-b6ad-ac5b666c01e3))
  (pad "10" smd rect (at 1.448 0.25) (size 0.813 0.305) (layers "F.Cu" "F.Paste" "F.Mask") (tstamp 5b0bcdc1-f325-4ba5-b2b4-8ba39cc9bc50))
  (pad "11" smd rect (at 1.448 -0.25) (size 0.813 0.305) (layers "F.Cu" "F.Paste" "F.Mask") (tstamp 7805d3a0-6187-4910-885a-1f8f6312878a))
  (pad "12" smd rect (at 1.448 -0.75) (size 0.813 0.305) (layers "F.Cu" "F.Paste" "F.Mask") (tstamp 7f895b91-56cc-4505-a36a-a6a74d1b3784))
  (pad "13" smd rect (at 0.75 -1.448) (size 0.305 0.813) (layers "F.Cu" "F.Paste" "F.Mask") (tstamp 9f24c75f-0fa1-4595-a219-660be41057f5))
  (pad "14" smd rect (at 0.25 -1.448) (size 0.305 0.813) (layers "F.Cu" "F.Paste" "F.Mask") (tstamp c02aa2fc-3b4f-41f8-b693-ab09131945f5))
  (pad "15" smd rect (at -0.25 -1.448) (size 0.305 0.813) (layers "F.Cu" "F.Paste" "F.Mask") (tstamp 620b21ff-a31a-40a1-bdc3-e6dd336ab1f0))
  (pad "16" smd rect (at -0.75 -1.448) (size 0.305 0.813) (layers "F.Cu" "F.Paste" "F.Mask") (tstamp 65395604-7874-4434-b566-d1fbfc1dbb67))
  (pad "17" smd rect (at 0 0) (size 1.854 1.854) (layers "F.Cu" "F.Mask") (tstamp 7d21ef8f-e62a-4ddd-970f-b57da1b7a816))
  (model "${KICAD6_3DMODEL_DIR}/Package_CSP.3dshapes/LFCSP-16-1EP_3x3mm_P0.5mm_EP1.854x1.854mm.wrl"
    (offset (xyz 0 0 0))
    (scale (xyz 1 1 1))
    (rotate (xyz 0 0 0))
  )
)
