(footprint "LFCSP-20-1EP_4x4mm_P0.5mm_EP2.5x2.5mm_ThermalVias" (version 20221018) (generator pcbnew)
  (layer "F.Cu")
  (descr "LFCSP, 20 Pin (https://www.analog.com/media/en/technical-documentation/data-sheets/AD7682_7689.pdf), generated with kicad-footprint-generator ipc_dfn_qfn_generator.py")
  (tags "LFCSP DFN_QFN")
  (attr smd)
  (fp_text reference "REF**" (at 0 -3.3) (layer "F.SilkS")
      (effects (font (size 1 1) (thickness 0.15)))
    (tstamp 180f786e-e503-43f4-ab33-ad0db9d60e85)
  )
  (fp_text value "LFCSP-20-1EP_4x4mm_P0.5mm_EP2.5x2.5mm_ThermalVias" (at 0 3.3) (layer "F.Fab")
      (effects (font (size 1 1) (thickness 0.15)))
    (tstamp f8210e9b-a2ce-4861-9865-d5491b1b762a)
  )
  (fp_text user "${REFERENCE}" (at 0 0) (layer "F.Fab")
      (effects (font (size 1 1) (thickness 0.15)))
    (tstamp 46464d5b-2552-4e40-9889-1bccaadd0b6a)
  )
  (fp_line (start -2.11 2.11) (end -2.11 1.385)
    (stroke (width 0.12) (type solid)) (layer "F.SilkS") (tstamp 765c3e36-5cf8-4e9f-a8a3-125a3fec876d))
  (fp_line (start -1.385 -2.11) (end -2.11 -2.11)
    (stroke (width 0.12) (type solid)) (layer "F.SilkS") (tstamp c190b43c-5ce2-4303-a7fa-ef3371ff3b7b))
  (fp_line (start -1.385 2.11) (end -2.11 2.11)
    (stroke (width 0.12) (type solid)) (layer "F.SilkS") (tstamp a29ed964-d0b3-4adf-9e57-2e7d75be0e85))
  (fp_line (start 1.385 -2.11) (end 2.11 -2.11)
    (stroke (width 0.12) (type solid)) (layer "F.SilkS") (tstamp db509397-6bb1-4580-931d-1ec128ce71c8))
  (fp_line (start 1.385 2.11) (end 2.11 2.11)
    (stroke (width 0.12) (type solid)) (layer "F.SilkS") (tstamp d3ea0209-64c4-46b6-af76-a1d319064204))
  (fp_line (start 2.11 -2.11) (end 2.11 -1.385)
    (stroke (width 0.12) (type solid)) (layer "F.SilkS") (tstamp 59006d7b-1e18-4148-89ca-f08adfc6357d))
  (fp_line (start 2.11 2.11) (end 2.11 1.385)
    (stroke (width 0.12) (type solid)) (layer "F.SilkS") (tstamp b5628921-c336-4f86-aa06-4ef8c4f269e0))
  (fp_line (start -2.6 -2.6) (end -2.6 2.6)
    (stroke (width 0.05) (type solid)) (layer "F.CrtYd") (tstamp e37ed0d9-83f7-4394-91ef-5e2e5dc1c1f8))
  (fp_line (start -2.6 2.6) (end 2.6 2.6)
    (stroke (width 0.05) (type solid)) (layer "F.CrtYd") (tstamp 02f72d55-1751-48ca-a8cd-306aceca095b))
  (fp_line (start 2.6 -2.6) (end -2.6 -2.6)
    (stroke (width 0.05) (type solid)) (layer "F.CrtYd") (tstamp 67522b7f-105d-40ef-b181-bd9dccde48b3))
  (fp_line (start 2.6 2.6) (end 2.6 -2.6)
    (stroke (width 0.05) (type solid)) (layer "F.CrtYd") (tstamp ffcabc5f-9812-4947-9e3b-63310aba72ed))
  (fp_line (start -2 -1) (end -1 -2)
    (stroke (width 0.1) (type solid)) (layer "F.Fab") (tstamp da952ba6-5e0d-4181-bd5e-7d2da56ca59d))
  (fp_line (start -2 2) (end -2 -1)
    (stroke (width 0.1) (type solid)) (layer "F.Fab") (tstamp 4ef03482-cf3b-4b03-a97e-0b0a5cf32b3b))
  (fp_line (start -1 -2) (end 2 -2)
    (stroke (width 0.1) (type solid)) (layer "F.Fab") (tstamp 32615974-3b22-456a-907f-a863911ce197))
  (fp_line (start 2 -2) (end 2 2)
    (stroke (width 0.1) (type solid)) (layer "F.Fab") (tstamp 49aadb49-7b65-4993-8a6d-feccc6c41d81))
  (fp_line (start 2 2) (end -2 2)
    (stroke (width 0.1) (type solid)) (layer "F.Fab") (tstamp 8097c7e9-bc98-42dc-a455-96be96a39071))
  (pad "" smd roundrect (at -0.625 -0.625) (size 1.08 1.08) (layers "F.Paste") (roundrect_rratio 0.231481) (tstamp 793d2d0a-d5e5-4b3d-91f8-1e5216f3e491))
  (pad "" smd roundrect (at -0.625 0.625) (size 1.08 1.08) (layers "F.Paste") (roundrect_rratio 0.231481) (tstamp b028343c-11e3-46a5-b6d4-c7eb3aeb5d18))
  (pad "" smd roundrect (at 0.625 -0.625) (size 1.08 1.08) (layers "F.Paste") (roundrect_rratio 0.231481) (tstamp aa977fe9-f438-442b-b255-0294501a485b))
  (pad "" smd roundrect (at 0.625 0.625) (size 1.08 1.08) (layers "F.Paste") (roundrect_rratio 0.231481) (tstamp 12b68f8e-93c6-4e7d-8ce1-e65699ccb5be))
  (pad "1" smd roundrect (at -1.9375 -1) (size 0.825 0.25) (layers "F.Cu" "F.Paste" "F.Mask") (roundrect_rratio 0.25) (tstamp 9e212194-6c29-4dbf-b9eb-1b36a7ec4097))
  (pad "2" smd roundrect (at -1.9375 -0.5) (size 0.825 0.25) (layers "F.Cu" "F.Paste" "F.Mask") (roundrect_rratio 0.25) (tstamp 32add3ec-5632-4c81-8fc3-7ef61aee559a))
  (pad "3" smd roundrect (at -1.9375 0) (size 0.825 0.25) (layers "F.Cu" "F.Paste" "F.Mask") (roundrect_rratio 0.25) (tstamp e291a562-6509-4031-be69-52dc98639e72))
  (pad "4" smd roundrect (at -1.9375 0.5) (size 0.825 0.25) (layers "F.Cu" "F.Paste" "F.Mask") (roundrect_rratio 0.25) (tstamp 59a2dbfb-4677-4557-a0c9-90e5b394e5f5))
  (pad "5" smd roundrect (at -1.9375 1) (size 0.825 0.25) (layers "F.Cu" "F.Paste" "F.Mask") (roundrect_rratio 0.25) (tstamp 3e6d26f2-d7a6-431b-ac9c-b6dfa918ba40))
  (pad "6" smd roundrect (at -1 1.9375) (size 0.25 0.825) (layers "F.Cu" "F.Paste" "F.Mask") (roundrect_rratio 0.25) (tstamp 15097306-b67e-4522-af85-21a763c19a18))
  (pad "7" smd roundrect (at -0.5 1.9375) (size 0.25 0.825) (layers "F.Cu" "F.Paste" "F.Mask") (roundrect_rratio 0.25) (tstamp 3db22409-7335-4ab8-a42f-d1c19e3d3d83))
  (pad "8" smd roundrect (at 0 1.9375) (size 0.25 0.825) (layers "F.Cu" "F.Paste" "F.Mask") (roundrect_rratio 0.25) (tstamp 2813b201-1c4f-4123-8631-c8cd4bf51883))
  (pad "9" smd roundrect (at 0.5 1.9375) (size 0.25 0.825) (layers "F.Cu" "F.Paste" "F.Mask") (roundrect_rratio 0.25) (tstamp ee9e4355-653b-4f5d-bc8c-7cfc4adce428))
  (pad "10" smd roundrect (at 1 1.9375) (size 0.25 0.825) (layers "F.Cu" "F.Paste" "F.Mask") (roundrect_rratio 0.25) (tstamp 36288010-9789-4df5-9675-133eed0d6162))
  (pad "11" smd roundrect (at 1.9375 1) (size 0.825 0.25) (layers "F.Cu" "F.Paste" "F.Mask") (roundrect_rratio 0.25) (tstamp dba747e5-681a-4495-a3df-9bf2fbefde27))
  (pad "12" smd roundrect (at 1.9375 0.5) (size 0.825 0.25) (layers "F.Cu" "F.Paste" "F.Mask") (roundrect_rratio 0.25) (tstamp 02acb94d-794a-4887-bc7c-d07428b22c73))
  (pad "13" smd roundrect (at 1.9375 0) (size 0.825 0.25) (layers "F.Cu" "F.Paste" "F.Mask") (roundrect_rratio 0.25) (tstamp 4e76f129-e7ba-4f81-a22b-5224a2f6f590))
  (pad "14" smd roundrect (at 1.9375 -0.5) (size 0.825 0.25) (layers "F.Cu" "F.Paste" "F.Mask") (roundrect_rratio 0.25) (tstamp a2014758-7ed8-4cc4-9a23-b7d9837c92d2))
  (pad "15" smd roundrect (at 1.9375 -1) (size 0.825 0.25) (layers "F.Cu" "F.Paste" "F.Mask") (roundrect_rratio 0.25) (tstamp 6aa31d9a-830b-44b1-941b-cd7651acd5d0))
  (pad "16" smd roundrect (at 1 -1.9375) (size 0.25 0.825) (layers "F.Cu" "F.Paste" "F.Mask") (roundrect_rratio 0.25) (tstamp 1c0fd066-3930-4878-91d2-4207bce2e2de))
  (pad "17" smd roundrect (at 0.5 -1.9375) (size 0.25 0.825) (layers "F.Cu" "F.Paste" "F.Mask") (roundrect_rratio 0.25) (tstamp cdf374da-22d4-4b3b-b2ae-062c6eda5302))
  (pad "18" smd roundrect (at 0 -1.9375) (size 0.25 0.825) (layers "F.Cu" "F.Paste" "F.Mask") (roundrect_rratio 0.25) (tstamp f73136b6-92f9-45ca-9785-459deac43be7))
  (pad "19" smd roundrect (at -0.5 -1.9375) (size 0.25 0.825) (layers "F.Cu" "F.Paste" "F.Mask") (roundrect_rratio 0.25) (tstamp 3cb2cf45-f1df-43c1-b664-43a1a17cc16e))
  (pad "20" smd roundrect (at -1 -1.9375) (size 0.25 0.825) (layers "F.Cu" "F.Paste" "F.Mask") (roundrect_rratio 0.25) (tstamp 66032e7e-9d02-4668-9887-c01aa50314cf))
  (pad "21" thru_hole circle (at -1 -1) (size 0.5 0.5) (drill 0.2) (layers "*.Cu") (tstamp 49a50066-911f-4cb8-8313-8627829a4650))
  (pad "21" thru_hole circle (at -1 0) (size 0.5 0.5) (drill 0.2) (layers "*.Cu") (tstamp 15357477-54b5-4ead-bb2b-97a249279204))
  (pad "21" thru_hole circle (at -1 1) (size 0.5 0.5) (drill 0.2) (layers "*.Cu") (tstamp 38cc971e-b886-417b-8fb4-43afb09f1e9f))
  (pad "21" thru_hole circle (at 0 -1) (size 0.5 0.5) (drill 0.2) (layers "*.Cu") (tstamp 9bf378f4-3028-4d0b-bfe1-b266a86371b3))
  (pad "21" thru_hole circle (at 0 0) (size 0.5 0.5) (drill 0.2) (layers "*.Cu") (tstamp d507ac49-524f-4d9c-9f5c-b9a84a74b708))
  (pad "21" smd roundrect (at 0 0) (size 2.5 2.5) (layers "F.Cu" "F.Mask") (roundrect_rratio 0.1) (tstamp 95880b56-9ef2-4d27-a729-eea7fc121737))
  (pad "21" smd roundrect (at 0 0) (size 2.5 2.5) (layers "B.Cu") (roundrect_rratio 0.1) (tstamp e2f6b99e-01ed-4509-a2f4-655ade5aead0))
  (pad "21" thru_hole circle (at 0 1) (size 0.5 0.5) (drill 0.2) (layers "*.Cu") (tstamp 54bda904-6732-423a-bf32-4aa946740fe8))
  (pad "21" thru_hole circle (at 1 -1) (size 0.5 0.5) (drill 0.2) (layers "*.Cu") (tstamp 09715d25-6b9d-452c-9a5a-2cbba66047ec))
  (pad "21" thru_hole circle (at 1 0) (size 0.5 0.5) (drill 0.2) (layers "*.Cu") (tstamp 8d2b39eb-01cf-4e18-8944-352300800a7a))
  (pad "21" thru_hole circle (at 1 1) (size 0.5 0.5) (drill 0.2) (layers "*.Cu") (tstamp 80bc6ff1-a019-4f21-bf9c-3877ad287d79))
  (model "${KICAD6_3DMODEL_DIR}/Package_CSP.3dshapes/LFCSP-20-1EP_4x4mm_P0.5mm_EP2.5x2.5mm.wrl"
    (offset (xyz 0 0 0))
    (scale (xyz 1 1 1))
    (rotate (xyz 0 0 0))
  )
)
