(footprint "pSemi_CSP-16_1.64x2.04mm_P0.4mm_Pad0.18mm" (version 20221018) (generator pcbnew)
  (layer "F.Cu")
  (descr "pSemi CSP-16 1.64x2.04x0.285mm (http://www.psemi.com/pdf/datasheets/pe29101ds.pdf, http://www.psemi.com/pdf/app_notes/an77.pdf)")
  (tags "psemi csp 16")
  (attr smd)
  (fp_text reference "REF**" (at 0 -2) (layer "F.SilkS")
      (effects (font (size 1 1) (thickness 0.15)))
    (tstamp 90ccb3e7-8b08-4753-bce4-7b757f0168a8)
  )
  (fp_text value "pSemi_CSP-16_1.64x2.04mm_P0.4mm_Pad0.18mm" (at 0 2) (layer "F.Fab")
      (effects (font (size 1 1) (thickness 0.15)))
    (tstamp 825a4291-7312-4454-8125-88a52a7b79a1)
  )
  (fp_text user "${REFERENCE}" (at 0 0 90) (layer "F.Fab")
      (effects (font (size 0.5 0.5) (thickness 0.07)))
    (tstamp fdbf80fb-3470-4649-ba44-ea35822e6c14)
  )
  (fp_line (start -0.93 -0.63) (end -0.93 1.13)
    (stroke (width 0.12) (type solid)) (layer "F.SilkS") (tstamp b127e74d-9df4-4733-8f0e-0b0258797b75))
  (fp_line (start 0.93 -1.13) (end -0.43 -1.13)
    (stroke (width 0.12) (type solid)) (layer "F.SilkS") (tstamp 5be879e6-8256-4fea-91f1-bd5b87d59f27))
  (fp_line (start 0.93 -1.13) (end 0.93 1.13)
    (stroke (width 0.12) (type solid)) (layer "F.SilkS") (tstamp 63ab3690-815d-4427-aae0-2f1097f43463))
  (fp_line (start 0.93 1.13) (end -0.93 1.13)
    (stroke (width 0.12) (type solid)) (layer "F.SilkS") (tstamp ce923777-31b5-45c1-9cd4-19d817942201))
  (fp_line (start -1.07 -1.27) (end -1.07 1.27)
    (stroke (width 0.05) (type solid)) (layer "F.CrtYd") (tstamp f1b2e198-ccaa-458e-9637-a2f651509611))
  (fp_line (start 1.07 -1.27) (end -1.07 -1.27)
    (stroke (width 0.05) (type solid)) (layer "F.CrtYd") (tstamp 0710cc08-ce28-40b1-afc9-cfdad5550eb9))
  (fp_line (start 1.07 -1.27) (end 1.07 1.27)
    (stroke (width 0.05) (type solid)) (layer "F.CrtYd") (tstamp 62b7532e-9bb1-4446-b9a8-3471c4db7dcb))
  (fp_line (start 1.07 1.27) (end -1.07 1.27)
    (stroke (width 0.05) (type solid)) (layer "F.CrtYd") (tstamp 63fe3cc3-8621-4acd-a330-5b8cf027ace6))
  (fp_line (start -0.82 1.02) (end -0.82 -0.52)
    (stroke (width 0.1) (type solid)) (layer "F.Fab") (tstamp 21749933-cc42-4d44-ba0c-144a1670d072))
  (fp_line (start -0.32 -1.02) (end -0.82 -0.52)
    (stroke (width 0.1) (type solid)) (layer "F.Fab") (tstamp f8cef56a-79e4-45e7-bb8a-00936120cf1d))
  (fp_line (start -0.32 -1.02) (end 0.82 -1.02)
    (stroke (width 0.1) (type solid)) (layer "F.Fab") (tstamp 5cea3a93-6abe-4b98-91f7-531e41d757fd))
  (fp_line (start 0.82 -1.02) (end 0.82 1.02)
    (stroke (width 0.1) (type solid)) (layer "F.Fab") (tstamp 78c0942c-c7a1-45c7-b721-f2ecaba394a9))
  (fp_line (start 0.82 1.02) (end -0.82 1.02)
    (stroke (width 0.1) (type solid)) (layer "F.Fab") (tstamp d657dc07-3975-4ebb-9c75-0169360b4733))
  (pad "1" smd circle (at -0.6 -0.8) (size 0.18 0.18) (layers "F.Cu" "F.Paste" "F.Mask") (tstamp 428d739d-c0b9-484b-afee-d0d62fb3832b))
  (pad "2" smd circle (at -0.6 -0.4) (size 0.18 0.18) (layers "F.Cu" "F.Paste" "F.Mask") (tstamp dfde91ca-48af-444a-a85d-ba31492ec3a5))
  (pad "3" smd circle (at -0.6 0) (size 0.18 0.18) (layers "F.Cu" "F.Paste" "F.Mask") (tstamp 8aafaa9f-94d7-40fb-a3ab-d19a2f88de05))
  (pad "4" smd circle (at -0.6 0.4) (size 0.18 0.18) (layers "F.Cu" "F.Paste" "F.Mask") (tstamp 31e202ab-d2a7-4961-b8cd-247c31091626))
  (pad "5" smd circle (at -0.6 0.8) (size 0.18 0.18) (layers "F.Cu" "F.Paste" "F.Mask") (tstamp d546ddf5-d78f-4497-9578-c66c17ae5197))
  (pad "6" smd circle (at -0.2 -0.8) (size 0.18 0.18) (layers "F.Cu" "F.Paste" "F.Mask") (tstamp 5c6ceb44-9305-4682-8f51-c8729096436a))
  (pad "7" smd circle (at -0.2 0.4) (size 0.18 0.18) (layers "F.Cu" "F.Paste" "F.Mask") (tstamp 154e8ef1-3905-476f-b84b-2e1e1dcc9727))
  (pad "8" smd circle (at -0.2 0.8) (size 0.18 0.18) (layers "F.Cu" "F.Paste" "F.Mask") (tstamp efa76c88-7f47-4958-bdf0-49a2ac5813bc))
  (pad "9" smd circle (at 0.2 -0.8) (size 0.18 0.18) (layers "F.Cu" "F.Paste" "F.Mask") (tstamp 980800f6-2cef-4044-9195-0726de67c240))
  (pad "10" smd circle (at 0.2 0.4) (size 0.18 0.18) (layers "F.Cu" "F.Paste" "F.Mask") (tstamp c0cd57c5-938a-4a75-9888-4aa899e285d4))
  (pad "11" smd circle (at 0.2 0.8) (size 0.18 0.18) (layers "F.Cu" "F.Paste" "F.Mask") (tstamp da191679-4d0f-4c89-ba77-7662582df703))
  (pad "12" smd circle (at 0.6 -0.8) (size 0.18 0.18) (layers "F.Cu" "F.Paste" "F.Mask") (tstamp 11fb721f-9faf-478b-9248-d8fd9dae91da))
  (pad "13" smd circle (at 0.6 -0.4) (size 0.18 0.18) (layers "F.Cu" "F.Paste" "F.Mask") (tstamp 8ac0621e-5da6-467b-b331-36c0e76d9a7e))
  (pad "14" smd circle (at 0.6 0) (size 0.18 0.18) (layers "F.Cu" "F.Paste" "F.Mask") (tstamp f324838d-a2cb-416e-986a-c99331dfa188))
  (pad "15" smd circle (at 0.6 0.4) (size 0.18 0.18) (layers "F.Cu" "F.Paste" "F.Mask") (tstamp 78700aba-7dd1-4bc8-a15b-a7b0a6a82b0c))
  (pad "16" smd circle (at 0.6 0.8) (size 0.18 0.18) (layers "F.Cu" "F.Paste" "F.Mask") (tstamp 881ed055-52bd-4069-9b0f-14816a79bbc0))
  (model "${KICAD6_3DMODEL_DIR}/Package_CSP.3dshapes/pSemi_CSP-16_1.64x2.04mm_P0.4mm.wrl"
    (offset (xyz 0 0 0))
    (scale (xyz 1 1 1))
    (rotate (xyz 0 0 0))
  )
)
